,Unnamed: 0,username,name,bio,photo,nfollower,nfollowee,nmediacount,follower,followee,mediacount,private,verified,lcm,mcm,nmcm,class,class BGM 3,class GM 3,class kmeans 3,class spectral 3,class GM 4,owener_id,combined_owener_external_url,combined_username,combined_full_name,combined_profile_pic_url,combined_biography,combined_similarity_photo_comment,combined_similarity_photo_like,comment_created_at,comment_id,comment_post_shortcode,comment_shortcode_username,comment_text,comment_total,like_total,like_shortcode_username,like_post_shortcode,like_id,comment_post_date,comment_avg_age_sec,comment_age_sec
9,9,0.0,0.0,0.3799783615910079,0,3.071809092947061e-05,0.05394246137453383,0.0042834631688749795,235,405,193,1,0,1,1,0.0,impersonator,1,2,1,2,2,25630104,--,davidghyatt,David Hyatt,https://scontent-cdg2-1.cdninstagram.com/vp/5864819dcaac883e361d2e9e845f23ac/5D6C71EF/t51.2885-19/s320x320/37213023_452289831848353_7044120637480108032_n.jpg?_nc_ht=scontent-cdg2-1.cdninstagram.com,Husband and Dad to 4,[],['False'],[],[],[],[],[],0,0,barackobama,Bpm3hFPgk-h,5c13dcb89c86fa4d5a331bbc,[],0.0,[]
10,10,0.0,0.0,0.3799783615910079,0,3.633884799316098e-05,0.05780500799147576,0.03182635328583794,278,434,1434,1,0,1,1,0.0,impersonator,1,2,1,2,2,28345316,--,bkdefend,Billy King,https://scontent-cdg2-1.cdninstagram.com/vp/4147002c461eacce3744eb6e25086e24/5D3A07D9/t51.2885-19/s320x320/37520546_2006132972784131_3934161202430607360_n.jpg?_nc_ht=scontent-cdg2-1.cdninstagram.com,Husband and Dad,[],['False'],[],[],[],[],[],0,0,barackobama,BqIX9H2gc2V,5c0c512c9c86fa1054af8a01,[],0.0,[]
32,32,0.0,0.0,0.3799783615910079,0,2.3005889376965226e-05,0.02663825253063399,0.027986772310628755,176,200,1261,1,0,1,1,0.0,impersonator,1,2,1,2,2,213851155,--,shane_t_penn,Shane,https://scontent-cdg2-1.cdninstagram.com/vp/270fb0b98b83945d7d695d3cf86c1b13/5D39F639/t51.2885-19/s320x320/18580741_442342832807654_2758419389823844352_a.jpg?_nc_ht=scontent-cdg2-1.cdninstagram.com,Husband + Dad of 3 👧🏼👶🏼🐶,[],['False'],[],[],[],[],[],0,0,barackobama,Bpm3hFPgk-h,5c1406379c86fa4d5a358786,[],0.0,[]
36,36,0.0,0.0,0.5797386715376658,0,0.00011947376642355803,0.10122535961640916,0.0008655702776483121,914,760,39,0,0,1,1,0.0,impersonator,1,2,1,2,2,229513511,--,jerswan28,Jeremy Swanson,https://scontent-cdg2-1.cdninstagram.com/vp/69c1ee933ea768446559c3a3c4709041/5D5AA372/t51.2885-19/10787913_764712023601172_902553401_a.jpg?_nc_ht=scontent-cdg2-1.cdninstagram.com,"Dad, husband, President, citizen.",[],['False'],[],[],[],[],[],0,0,barackobama,Bpm3hFPgk-h,5c1409389c86fa4d5a35b72c,[],0.0,[]
45,45,0.0,0.0,0.5797386715376658,0,8.26120573081933e-05,0.07765050612679808,0.000754599729231862,632,583,34,1,0,1,1,0.0,impersonator,1,2,1,2,2,244654420,--,faunajolly,daynajolly,https://scontent-cdg2-1.cdninstagram.com/vp/38ebee38845b3a1420e05b0133b3a532/5D567C31/t51.2885-19/s320x320/54513065_773764133010546_7818964567681138688_n.jpg?_nc_ht=scontent-cdg2-1.cdninstagram.com,"Dad, Husband, President, Citizen",[],['False'],[],[],[],[],[],0,0,barackobama,BqIX9H2gc2V,5c0fb7b59c86fa1054b09704,[],0.0,[]
52,52,0.0,0.0,0.3684799318577813,0,7.058625149750693e-05,0.0394246137453383,0.002996204807244157,540,296,135,0,0,1,1,0.0,impersonator,1,2,1,2,2,261147802,--,beamerdreamer911,Laura Kahle,https://scontent-cdg2-1.cdninstagram.com/vp/87c6f144383ec4d4ca783f7c4daa02a7/5D3986C7/t51.2885-19/s320x320/43441403_153743948912185_7847679254438346752_n.jpg?_nc_ht=scontent-cdg2-1.cdninstagram.com,I’m running for President of the United States is America! Vote Kahle 2020! Help me @barackobama,"['False', 'False', 'False', 'False', 'False', 'False', 'False', 'False', 'False', 'False', 'False']",['False'],"['2018-10-31 05:15:57', '2018-10-31 05:16:06', '2018-10-08 02:30:01', '2018-10-08 02:30:24', '2018-10-08 02:28:33', '2018-10-08 02:28:46', '2018-10-08 02:29:00', '2018-10-08 02:29:10', '2018-10-08 02:29:38', '2018-10-08 02:29:44', '2018-10-08 02:29:55']","['17920424923233222', '17972550652095128', '17982226600067663', '17911626811242344', '17925791152203755', '17954109073160363', '17969972938120758', '17964992242094617', '17856213736289339', '17986919986018432', '17869267600284353']","['BpkBAjRgrqI', 'BpkBAjRgrqI', 'BneQYW7nhkb', 'BneQYW7nhkb', 'BneQYW7nhkb', 'BneQYW7nhkb', 'BneQYW7nhkb', 'BneQYW7nhkb', 'BneQYW7nhkb', 'BneQYW7nhkb', 'BneQYW7nhkb']","['barackobama', 'barackobama', 'barackobama', 'barackobama', 'barackobama', 'barackobama', 'barackobama', 'barackobama', 'barackobama', 'barackobama', 'barackobama']","['#kahle2020 #kahleforpresident', '🚨🇺🇸💗🌈🦋', '911', 'Barack Obama. Call #kahle2020', 'Here I am. #46. Call me 513-502-9253. Please help.', 'Presidential Alert 🚨!!!!', 'Barack Obama. 911. Call me.', '#kahle2020', '513-502-9253', '🇺🇸💗🌈🦋', 'Presidential Alert 🚨']",11,1,barackobama,Bpm3hFPgk-h,5c13e9af9c86fa4d5a33dc21,"['2018-10-30 15:44:53', '2018-10-30 15:44:53', '2018-09-08 17:00:58', '2018-09-08 17:00:58', '2018-09-08 17:00:58', '2018-09-08 17:00:58', '2018-09-08 17:00:58', '2018-09-08 17:00:58', '2018-09-08 17:00:58', '2018-09-08 17:00:58', '2018-09-08 17:00:58']",2086793.2727272727,"['48664.0', '48673.0', '2539743.0', '2539766.0', '2539655.0', '2539668.0', '2539682.0', '2539692.0', '2539720.0', '2539726.0', '2539737.0']"
58,58,0.0,0.0,0.3112574675270537,0,5.110967469541706e-05,0.027836973894512517,0.005149033446523292,391,209,232,1,0,1,1,0.0,impersonator,1,2,1,2,2,277099062,--,jadejackson22,Jade,https://scontent-cdg2-1.cdninstagram.com/vp/c6ff92ec10095f96a0194f63978fe091/5D429DE7/t51.2885-19/11201576_504284639749157_105326699_a.jpg?_nc_ht=scontent-cdg2-1.cdninstagram.com,"""We choose hope over fear."" - Barak Obama, the last President of the United States. ☂🌈🌎",[],"['False', 'False']",[],[],[],[],[],0,0,barackobama,Bpm3hFPgk-h,5c13dd0e9c86fa4d5a332547,[],0.0,[]
58,58,0.0,0.0,0.3112574675270537,0,5.110967469541706e-05,0.027836973894512517,0.005149033446523292,391,209,232,1,0,1,1,0.0,impersonator,1,2,1,2,2,277099062,--,jadejackson22,Jade,https://scontent-cdg2-1.cdninstagram.com/vp/c6ff92ec10095f96a0194f63978fe091/5D429DE7/t51.2885-19/11201576_504284639749157_105326699_a.jpg?_nc_ht=scontent-cdg2-1.cdninstagram.com,"""We choose hope over fear."" - Barak Obama, the last President of the United States. ☂🌈🌎",[],"['False', 'False']",[],[],[],[],[],0,0,barackobama,BpkBAjRgrqI,5c141ab19c86fa4d5a36b66b,[],0.0,[]
138,138,0.0,0.0,0.5797386715376658,0,7.869059889166514e-05,0.07378795950985614,0.00046607630334909113,602,554,21,0,0,1,1,0.0,impersonator,1,2,1,2,2,624387398,--,ange1la,Angela Lumibao,https://scontent-cdg2-1.cdninstagram.com/vp/d040e10fba2af3d1ac2f301a0cc86767/5D38B37A/t51.2885-19/s320x320/53897345_2120665191385214_4858697009323835392_n.jpg?_nc_ht=scontent-cdg2-1.cdninstagram.com,"Dad, husband, President, citizen. | HT’19 🇵🇭",[],['False'],[],[],[],[],[],0,0,barackobama,Bpm3hFPgk-h,5c14038b9c86fa4d5a355e79,[],0.0,[]
278,278,0.0,0.0,0.3748077700589727,0,3.2548104857183755e-05,0.0380927011188066,0.003928357413942339,249,286,177,1,0,1,1,0.0,impersonator,1,2,1,2,2,1550112130,--,chingun.n,Chingun,https://scontent-cdg2-1.cdninstagram.com/vp/1d1b156ad984714e5dea8cfb0e7f07b5/5D40D13C/t51.2885-19/s320x320/36517165_168382434029460_1150984113579098112_n.jpg?_nc_ht=scontent-cdg2-1.cdninstagram.com,"Dad, husband, yep, citizen😹.",[],['False'],[],[],[],[],[],0,0,barackobama,BqIX9H2gc2V,5c0e5ce19c86fa1054b02e22,[],0.0,[]
290,290,0.0,0.0,0.3748077700589727,0,7.058625149750693e-05,0.0912360149174214,0.0007989879485984419,540,685,36,0,0,1,1,0.0,impersonator,1,2,1,2,2,1589876902,--,niyagott,All Hail The Queen👸🏾,-,Barack Obama is still my president. BLM🖤       MXMB,[],['False'],[],[],[],[],[],0,0,barackobama,Bpm3hFPgk-h,5c13e2b79c86fa4d5a337ff1,[],0.0,[]
591,591,0.0,0.0,0.3799783615910079,0,5.8821876247922445e-06,0.02517314864144912,0.009831990589697493,45,189,443,1,0,1,1,0.0,impersonator,1,2,1,2,2,3117386520,--,eggylizabeth,,https://scontent-cdg2-1.cdninstagram.com/vp/087da5cc3210c0119b85a0cee7259cff/5D5358DA/t51.2885-19/s320x320/47240255_2227256184155749_2086186536176451584_n.jpg?_nc_ht=scontent-cdg2-1.cdninstagram.com,@barackobama ❤️,[],['False'],[],[],[],[],[],0,0,barackobama,BqdAYahAbfL,5c0230399c86fa49153a364d,[],0.0,[]
704,704,0.0,0.0,0.3748077700589727,0,6.57497861171222e-05,0.015183803942461375,0.00017755287746632043,503,114,8,1,0,1,1,0.0,impersonator,1,2,1,2,2,3925921600,--,pln.mrz_,🍍Polina Morozova🍍,https://scontent-cdg2-1.cdninstagram.com/vp/e489fe473f2fcd7c69f2a5be2c85ab06/5D40E331/t51.2885-19/s320x320/55879636_273960033543411_2484354494419173376_n.jpg?_nc_ht=scontent-cdg2-1.cdninstagram.com,The future citizen of the United States 🇺🇸,[],['False'],[],[],[],[],[],0,0,barackobama,BpkBAjRgrqI,5c141b2a9c86fa4d5a36bef1,[],0.0,[]
733,733,0.0,0.0,0.5797386715376658,0,2.4313042182474608e-05,0.02677144379328716,0.00011097054841645026,186,201,5,1,0,1,1,0.0,impersonator,1,2,1,2,2,4029618114,--,galactichipster,Josh Schutt,https://scontent-cdg2-1.cdninstagram.com/vp/bb0450d3261db2d2dc4e8776f233dec0/5D6C3598/t51.2885-19/s320x320/41376801_326017304612902_1090972945028743168_n.jpg?_nc_ht=scontent-cdg2-1.cdninstagram.com,"Dad, Husband, President, Citizen.",[],['False'],[],[],[],[],[],0,0,barackobama,Bpm3hFPgk-h,5c1402279c86fa4d5a355556,[],0.0,[]
1124,1124,0.3799783615910079,0.0,0.0,0,0.00021920952548392433,0.9982685135855088,0.10087222851055327,1677,7495,4545,0,0,1,1,0.0,impersonator,0,2,1,2,2,6036592585,--,obama_is_my_president,restup hellrell,https://scontent-cdg2-1.cdninstagram.com/vp/10d2171c02514ba52ac76e46e05e5113/5D764FF8/t51.2885-19/s150x150/41318427_243844289656267_3755700561047977984_n.jpg?_nc_ht=scontent-cdg2-1.cdninstagram.com,Lsg,[],['False'],[],[],[],[],[],0,0,barackobama,BqVxT-FgiCf,5c07fa549c86fa49153c670f,[],0.0,[]
1195,1195,0.0,0.0,0.3799783615910079,0,7.241626542522007e-05,0.053010122535961636,4.43882193665801e-05,554,398,2,1,0,1,1,0.0,impersonator,1,2,1,2,2,6326701625,--,yasirayala503,YASIR__98,-,-don @barackobama,[],['False'],[],[],[],[],[],0,0,barackobama,Bpm3hFPgk-h,5c13f97d9c86fa4d5a34ca80,[],0.0,[]
1498,1498,0.0,0.0,0.368023208756115,0,5.22861122203755e-06,0.013718700053276505,0.0015757817875135935,40,103,71,1,0,1,1,0.0,impersonator,1,2,1,2,2,7773507966,--,thedarkknight9898,Josh Powell,-,“There's not a liberal America and a conservative America - there's the United States of America”. Barack Obama,[],['False'],[],[],[],[],[],0,0,barackobama,Bpm3hFPgk-h,5c1406f99c86fa4d5a3599ef,[],0.0,[]
2127,2127,0.0,0.0,0.4826796606496646,0,3.921458416528163e-06,0.013585508790623334,2.219410968329005e-05,30,102,1,0,0,1,1,0.0,impersonator,1,2,1,2,2,9460608002,--,gorgehwbush,Gorge H W Bush,https://scontent-cdg2-1.cdninstagram.com/vp/c59ab4a399a87fe28a1ebaa397906b94/5D530708/t51.2885-19/s320x320/46433110_313913755881784_6942042209885618176_n.jpg?_nc_ht=scontent-cdg2-1.cdninstagram.com,41st President Of The United States🇺🇸,[],"['False', 'False']",[],[],[],[],[],0,0,barackobama,BqVxT-FgiCf,5c07fb759c86fa49153c6772,[],0.0,[]
2127,2127,0.0,0.0,0.4826796606496646,0,3.921458416528163e-06,0.013585508790623334,2.219410968329005e-05,30,102,1,0,0,1,1,0.0,impersonator,1,2,1,2,2,9460608002,--,gorgehwbush,Gorge H W Bush,https://scontent-cdg2-1.cdninstagram.com/vp/c59ab4a399a87fe28a1ebaa397906b94/5D530708/t51.2885-19/s320x320/46433110_313913755881784_6942042209885618176_n.jpg?_nc_ht=scontent-cdg2-1.cdninstagram.com,41st President Of The United States🇺🇸,[],"['False', 'False']",[],[],[],[],[],0,0,barackobama,BqIX9H2gc2V,5c0948c89c86fa1054ae83d9,[],0.0,[]
