,Unnamed: 0,username,name,bio,photo,nfollower,nfollowee,nmediacount,follower,followee,mediacount,private,verified,lcm,mcm,nmcm,class,class BGM 3,class GM 3,class kmeans 3,class spectral 3,class GM 4,owener_id,combined_owener_external_url,combined_username,combined_full_name,combined_profile_pic_url,combined_biography,combined_similarity_photo_comment,combined_similarity_photo_like,comment_created_at,comment_id,comment_post_shortcode,comment_shortcode_username,comment_text,comment_total,like_total,like_shortcode_username,like_post_shortcode,like_id,comment_post_date,comment_avg_age_sec,comment_age_sec
22,22,0.0,0.4826796606496646,0.0,0,0.0001270552526955125,0.2051145444858817,0.012073595667709791,972,1540,544,1,0,1,1,0.0,impersonator,0,0,0,0,3,188035279,--,prouddeplorable1776,Donald Trump Is My PRESIDENT🇺🇸,https://scontent-cdg2-1.cdninstagram.com/vp/ad506a78f05ff5836b1daa94d80be6bd/5D539E6D/t51.2885-19/s320x320/20633282_1565828760135542_9042057003156897792_a.jpg?_nc_ht=scontent-cdg2-1.cdninstagram.com,"God, Family, Guns, and Freedom. Conservative 🇺🇸🦅. Proud owner of a 12’ GMC 6.7 CUMMINS💨. Austin Dillon fan #3 🏎RCR👈🏻 WV〽️ USAF. JDL CONTRACTING",[],"['False', 'False', 'False', 'False', 'False']",[],[],[],[],[],0,0,realdonaldtrump,Bpe4fLZApVQ,5be488ea0c2acb7ef447695a,[],0.0,[]
22,22,0.0,0.4826796606496646,0.0,0,0.0001270552526955125,0.2051145444858817,0.012073595667709791,972,1540,544,1,0,1,1,0.0,impersonator,0,0,0,0,3,188035279,--,prouddeplorable1776,Donald Trump Is My PRESIDENT🇺🇸,https://scontent-cdg2-1.cdninstagram.com/vp/ad506a78f05ff5836b1daa94d80be6bd/5D539E6D/t51.2885-19/s320x320/20633282_1565828760135542_9042057003156897792_a.jpg?_nc_ht=scontent-cdg2-1.cdninstagram.com,"God, Family, Guns, and Freedom. Conservative 🇺🇸🦅. Proud owner of a 12’ GMC 6.7 CUMMINS💨. Austin Dillon fan #3 🏎RCR👈🏻 WV〽️ USAF. JDL CONTRACTING",[],"['False', 'False', 'False', 'False', 'False']",[],[],[],[],[],0,0,realdonaldtrump,BpaEwYvgdDl,5be4c5fa0c2acb0394e817d0,[],0.0,[]
22,22,0.0,0.4826796606496646,0.0,0,0.0001270552526955125,0.2051145444858817,0.012073595667709791,972,1540,544,1,0,1,1,0.0,impersonator,0,0,0,0,3,188035279,--,prouddeplorable1776,Donald Trump Is My PRESIDENT🇺🇸,https://scontent-cdg2-1.cdninstagram.com/vp/ad506a78f05ff5836b1daa94d80be6bd/5D539E6D/t51.2885-19/s320x320/20633282_1565828760135542_9042057003156897792_a.jpg?_nc_ht=scontent-cdg2-1.cdninstagram.com,"God, Family, Guns, and Freedom. Conservative 🇺🇸🦅. Proud owner of a 12’ GMC 6.7 CUMMINS💨. Austin Dillon fan #3 🏎RCR👈🏻 WV〽️ USAF. JDL CONTRACTING",[],"['False', 'False', 'False', 'False', 'False']",[],[],[],[],[],0,0,realdonaldtrump,BpaEJqrA2Cn,5be522650c2acb0394e9ebc2,[],0.0,[]
22,22,0.0,0.4826796606496646,0.0,0,0.0001270552526955125,0.2051145444858817,0.012073595667709791,972,1540,544,1,0,1,1,0.0,impersonator,0,0,0,0,3,188035279,--,prouddeplorable1776,Donald Trump Is My PRESIDENT🇺🇸,https://scontent-cdg2-1.cdninstagram.com/vp/ad506a78f05ff5836b1daa94d80be6bd/5D539E6D/t51.2885-19/s320x320/20633282_1565828760135542_9042057003156897792_a.jpg?_nc_ht=scontent-cdg2-1.cdninstagram.com,"God, Family, Guns, and Freedom. Conservative 🇺🇸🦅. Proud owner of a 12’ GMC 6.7 CUMMINS💨. Austin Dillon fan #3 🏎RCR👈🏻 WV〽️ USAF. JDL CONTRACTING",[],"['False', 'False', 'False', 'False', 'False']",[],[],[],[],[],0,0,realdonaldtrump,BpZ6MWbAyfF,5be587100c2acb0394eb736e,[],0.0,[]
22,22,0.0,0.4826796606496646,0.0,0,0.0001270552526955125,0.2051145444858817,0.012073595667709791,972,1540,544,1,0,1,1,0.0,impersonator,0,0,0,0,3,188035279,--,prouddeplorable1776,Donald Trump Is My PRESIDENT🇺🇸,https://scontent-cdg2-1.cdninstagram.com/vp/ad506a78f05ff5836b1daa94d80be6bd/5D539E6D/t51.2885-19/s320x320/20633282_1565828760135542_9042057003156897792_a.jpg?_nc_ht=scontent-cdg2-1.cdninstagram.com,"God, Family, Guns, and Freedom. Conservative 🇺🇸🦅. Proud owner of a 12’ GMC 6.7 CUMMINS💨. Austin Dillon fan #3 🏎RCR👈🏻 WV〽️ USAF. JDL CONTRACTING",[],"['False', 'False', 'False', 'False', 'False']",[],[],[],[],[],0,0,realdonaldtrump,BpZnXgsAH4_,5be689370c2acb183772e4dd,[],0.0,[]
90,90,0.3799783615910079,0.3799783615910079,0.05027837469914858,0,0.20555435370117048,0.5440863079381992,0.05481945091772643,1572535,4085,2470,0,1,1,3,0.6666666666666667,impersonator,0,0,0,0,0,399362846,--,donaldjtrumpjr,Donald Trump Jr.,https://scontent-cdg2-1.cdninstagram.com/vp/54ecb147c9dfcd6391689c7f6cd5ae9b/5D5AA33C/t51.2885-19/s320x320/14072784_170196866737037_1649096564_a.jpg?_nc_ht=scontent-cdg2-1.cdninstagram.com,"EVP of Development & Acquisitions The @Trump Organization, Father, Outdoorsman, In a past life Advisor on The Apprentice, dad of @kaitrumpgolfer.",[],['False'],[],[],[],[],[],0,0,realdonaldtrump,BpZnXgsAH4_,5be6b7b00c2acb1837735796,[],0.0,[]
325,325,0.3748077700589727,0.3799783615910079,0.07244081925041987,0,5.228611222037549e-07,0.002797016515716569,2.219410968329005e-05,4,21,1,0,0,1,3,0.6666666666666667,impersonator,0,0,0,0,3,1715125249,--,realdonaldtrump004,Donald Trump,https://scontent-cdg2-1.cdninstagram.com/vp/b613f3849ecb47870138f370382d48ea/5D42E4D4/t51.2885-19/s320x320/43233463_569515520174573_8333301323877318656_n.jpg?_nc_ht=scontent-cdg2-1.cdninstagram.com,"We make America great again
We return peace to world forever 🇺🇸",[],['False'],[],[],[],[],[],0,0,realdonaldtrump,BpZnXgsAH4_,5be6d39b0c2acb18377399ed,[],0.0,[]
701,701,0.1505569696020495,0.3799783615910079,0.1021400742864553,0,0.0017565519400435153,0.6040223761321257,0.006946756330869786,13438,4535,313,0,0,1,3,0.6666666666666667,impersonator,0,0,0,0,3,3900368307,--,d.trumpoverload,Donald Trump,-,"👍🏻| Like our page.
📽| Daily photos or videos
🇺🇸| Make America Great Again.
📥| Turn on Post notifications
💵| Paid promotions 
#maga #trump",[],['False'],[],[],[],[],[],0,0,realdonaldtrump,Bpe4fLZApVQ,5be46cec0c2acb7ef446446f,[],0.0,[]
725,725,0.4826796606496646,0.4826796606496646,0.2605556710562624,0,0.0035185939218701696,0.08497602557272242,0.03588787535788002,26918,638,1617,0,0,1,3,0.6666666666666667,impersonator,0,0,0,0,3,4020902699,--,the45thpresidentdonaldtrump,President Donald J. Trump 🎅,-,"🇺🇸| President Donald J. Trump (2017-) ❄️
⛄️| #MakeAmericaGreatAgain
🎄| Independent
✝️| Merry Christmas
🎅| Curated By: @ChristopherJSheehy",[],"['False', 'False', 'False']",[],[],[],[],[],0,0,realdonaldtrump,Bpe4fLZApVQ,5be47baa0c2acb7ef446f5dc,[],0.0,[]
725,725,0.4826796606496646,0.4826796606496646,0.2605556710562624,0,0.0035185939218701696,0.08497602557272242,0.03588787535788002,26918,638,1617,0,0,1,3,0.6666666666666667,impersonator,0,0,0,0,3,4020902699,--,the45thpresidentdonaldtrump,President Donald J. Trump 🎅,-,"🇺🇸| President Donald J. Trump (2017-) ❄️
⛄️| #MakeAmericaGreatAgain
🎄| Independent
✝️| Merry Christmas
🎅| Curated By: @ChristopherJSheehy",[],"['False', 'False', 'False']",[],[],[],[],[],0,0,realdonaldtrump,BpZ6MWbAyfF,5be594a80c2acb0394eb9f41,[],0.0,[]
725,725,0.4826796606496646,0.4826796606496646,0.2605556710562624,0,0.0035185939218701696,0.08497602557272242,0.03588787535788002,26918,638,1617,0,0,1,3,0.6666666666666667,impersonator,0,0,0,0,3,4020902699,--,the45thpresidentdonaldtrump,President Donald J. Trump 🎅,-,"🇺🇸| President Donald J. Trump (2017-) ❄️
⛄️| #MakeAmericaGreatAgain
🎄| Independent
✝️| Merry Christmas
🎅| Curated By: @ChristopherJSheehy",[],"['False', 'False', 'False']",[],[],[],[],[],0,0,realdonaldtrump,BpZnXgsAH4_,5be69f210c2acb1837731b62,[],0.0,[]
790,790,0.1167177354603279,0.1505569696020495,0.3799783615910079,0,3.9214584165281637e-07,0.0019978689397975487,0.0,3,15,0,1,0,1,3,0.6666666666666667,impersonator,0,0,0,2,3,4233189181,--,keepitreal1964,Keepitreal,https://scontent-vie1-1.cdninstagram.com/vp/529ba394d8bd4f5679909da253b338c9/5D5480F1/t51.2885-19/44884218_345707102882519_2446069589734326272_n.jpg?_nc_ht=scontent-vie1-1.cdninstagram.com,Trump is my President !!!,[],['False'],[],[],[],[],[],0,0,realdonaldtrump,BpaEJqrA2Cn,5be554070c2acb0394eab5d8,[],0.0,[]
1184,1184,0.0,0.3799783615910079,0.1908740661302035,0,6.078260545618654e-05,0.6530367607884923,0.0008433761679650222,465,4903,38,0,0,1,2,0.3333333333333333,impersonator,0,0,0,0,3,6287785988,--,kakarot_8_,the united states,-,USA ENGLISH OK the united states good ok,[],"['False', 'False', 'False', 'False', 'False', 'False']",[],[],[],[],[],0,0,realdonaldtrump,Bpe4fLZApVQ,5be474c70c2acb7ef446a905,[],0.0,[]
1184,1184,0.0,0.3799783615910079,0.1908740661302035,0,6.078260545618654e-05,0.6530367607884923,0.0008433761679650222,465,4903,38,0,0,1,2,0.3333333333333333,impersonator,0,0,0,0,3,6287785988,--,kakarot_8_,the united states,-,USA ENGLISH OK the united states good ok,[],"['False', 'False', 'False', 'False', 'False', 'False']",[],[],[],[],[],0,0,realdonaldtrump,BpaEwYvgdDl,5be4c0270c2acb0394e7f5c0,[],0.0,[]
1184,1184,0.0,0.3799783615910079,0.1908740661302035,0,6.078260545618654e-05,0.6530367607884923,0.0008433761679650222,465,4903,38,0,0,1,2,0.3333333333333333,impersonator,0,0,0,0,3,6287785988,--,kakarot_8_,the united states,-,USA ENGLISH OK the united states good ok,[],"['False', 'False', 'False', 'False', 'False', 'False']",[],[],[],[],[],0,0,realdonaldtrump,BpaEJqrA2Cn,5be532d70c2acb0394ea3153,[],0.0,[]
1184,1184,0.0,0.3799783615910079,0.1908740661302035,0,6.078260545618654e-05,0.6530367607884923,0.0008433761679650222,465,4903,38,0,0,1,2,0.3333333333333333,impersonator,0,0,0,0,3,6287785988,--,kakarot_8_,the united states,-,USA ENGLISH OK the united states good ok,[],"['False', 'False', 'False', 'False', 'False', 'False']",[],[],[],[],[],0,0,realdonaldtrump,BpZ6MWbAyfF,5be58f400c2acb0394eb8e0a,[],0.0,[]
1184,1184,0.0,0.3799783615910079,0.1908740661302035,0,6.078260545618654e-05,0.6530367607884923,0.0008433761679650222,465,4903,38,0,0,1,2,0.3333333333333333,impersonator,0,0,0,0,3,6287785988,--,kakarot_8_,the united states,-,USA ENGLISH OK the united states good ok,[],"['False', 'False', 'False', 'False', 'False', 'False']",[],[],[],[],[],0,0,realdonaldtrump,BpZqV_cAe68,5be60ad70c2acb1837718a0b,[],0.0,[]
1184,1184,0.0,0.3799783615910079,0.1908740661302035,0,6.078260545618654e-05,0.6530367607884923,0.0008433761679650222,465,4903,38,0,0,1,2,0.3333333333333333,impersonator,0,0,0,0,3,6287785988,--,kakarot_8_,the united states,-,USA ENGLISH OK the united states good ok,[],"['False', 'False', 'False', 'False', 'False', 'False']",[],[],[],[],[],0,0,realdonaldtrump,BpZnXgsAH4_,5be695ac0c2acb18377303ce,[],0.0,[]
1191,1191,0.3799783615910079,0.1167177354603279,0.1350734836708713,0,9.097783526345338e-05,0.02610548748002131,0.013050136493774551,696,196,588,0,0,1,3,0.6666666666666667,impersonator,0,0,0,0,3,6297934553,--,itsdonaldtrump45,Keep America Great!!,https://scontent-cdg2-1.cdninstagram.com/vp/83c4ea3ae7574872a0c2c2bd29356e2c/5D77DC71/t51.2885-19/s320x320/23498671_534382460239345_7231726325092843520_n.jpg?_nc_ht=scontent-cdg2-1.cdninstagram.com,"“We will no longer surrender this country, or its people, to the false song of globalism.”
-Donald J. Trump","['False', 'False']",['False'],"['2018-10-26 17:35:50', '2018-10-24 20:18:43']","['17918980537234937', '17969926288083110']","['BpZ6MWbAyfF', 'BpU5EJZgmZO']","['realdonaldtrump', 'realdonaldtrump']","['NO ONE IS FALLING FOR THE DEMOCRAT FALSE FLAG OCTOBER SURPRISE!', 'The Dems mailed them to themselves! 😆😂']",2,1,realdonaldtrump,BpaEwYvgdDl,5be5014e0c2acb0394e94d76,"['2018-10-26 17:33:57', '2018-10-24 18:47:56']",2780.0,"['113.0', '5447.0']"
1213,1213,0.3799783615910079,0.3799783615910079,0.0,0,2.418232690192367e-05,0.06965903036760789,0.0013982289100472733,185,523,63,0,0,1,2,0.3333333333333333,impersonator,0,0,0,0,3,6429244456,--,donald_ss_trump,donald s ( trump),https://scontent-cdg2-1.cdninstagram.com/vp/243f976dede45e318b72cd0200323d92/5D6CD5F3/t51.2885-19/s320x320/23735360_707543432776308_5247077510193086464_n.jpg?_nc_ht=scontent-cdg2-1.cdninstagram.com,,[],['False'],[],[],[],[],[],0,0,realdonaldtrump,BpZnXgsAH4_,5be6f6580c2acb183773ea5d,[],0.0,[]
1296,1296,0.1167177354603279,0.3799783615910079,0.1908740661302035,0,5.359326502588489e-06,0.0026638252530633987,0.00019974698714961048,41,20,9,0,0,1,3,0.6666666666666667,impersonator,0,0,0,0,3,6907659686,--,grandtrumpauto,DT-DonaldTrump,https://scontent-cdg2-1.cdninstagram.com/vp/f987f24bc3af89ef62f5b54ccc38f3ac/5D5B69AC/t51.2885-19/s320x320/30909653_2003449109669694_3510290862808498176_n.jpg?_nc_ht=scontent-cdg2-1.cdninstagram.com,DT-DonaldTrump on PS3 version of GTA 5 Online 🇺🇸,[],['False'],[],[],[],[],[],0,0,realdonaldtrump,Bpe4fLZApVQ,5be4a2d40c2acb7ef4483487,[],0.0,[]
1377,1377,0.0,0.3799783615910079,0.0,0,4.0260306409689136e-05,0.047016515716568986,0.003240340013760348,308,353,146,1,0,1,1,0.0,impersonator,0,0,0,0,3,7286348178,--,butt_fuck_chuck,Donald Trump,https://scontent-cdg2-1.cdninstagram.com/vp/3d594917b4953e2fda0406faea17e920/5D40841A/t51.2885-19/s320x320/50949725_347787782728833_8541902452310409216_n.jpg?_nc_ht=scontent-cdg2-1.cdninstagram.com,"THOTS GET SHOT, DEUS VULT!!!!, MAKE AMERCIA GREAT AGAIN!!!!, reclaim the holy land!!! 103rd Thot extermination regiment, straight pride 
✋kaylee✋",[],"['False', 'False', 'False']",[],[],[],[],[],0,0,realdonaldtrump,BpaEwYvgdDl,5be4d42b0c2acb0394e868a0,[],0.0,[]
1377,1377,0.0,0.3799783615910079,0.0,0,4.0260306409689136e-05,0.047016515716568986,0.003240340013760348,308,353,146,1,0,1,1,0.0,impersonator,0,0,0,0,3,7286348178,--,butt_fuck_chuck,Donald Trump,https://scontent-cdg2-1.cdninstagram.com/vp/3d594917b4953e2fda0406faea17e920/5D40841A/t51.2885-19/s320x320/50949725_347787782728833_8541902452310409216_n.jpg?_nc_ht=scontent-cdg2-1.cdninstagram.com,"THOTS GET SHOT, DEUS VULT!!!!, MAKE AMERCIA GREAT AGAIN!!!!, reclaim the holy land!!! 103rd Thot extermination regiment, straight pride 
✋kaylee✋",[],"['False', 'False', 'False']",[],[],[],[],[],0,0,realdonaldtrump,BpaEJqrA2Cn,5be53e060c2acb0394ea5f16,[],0.0,[]
1377,1377,0.0,0.3799783615910079,0.0,0,4.0260306409689136e-05,0.047016515716568986,0.003240340013760348,308,353,146,1,0,1,1,0.0,impersonator,0,0,0,0,3,7286348178,--,butt_fuck_chuck,Donald Trump,https://scontent-cdg2-1.cdninstagram.com/vp/3d594917b4953e2fda0406faea17e920/5D40841A/t51.2885-19/s320x320/50949725_347787782728833_8541902452310409216_n.jpg?_nc_ht=scontent-cdg2-1.cdninstagram.com,"THOTS GET SHOT, DEUS VULT!!!!, MAKE AMERCIA GREAT AGAIN!!!!, reclaim the holy land!!! 103rd Thot extermination regiment, straight pride 
✋kaylee✋",[],"['False', 'False', 'False']",[],[],[],[],[],0,0,realdonaldtrump,BpZnXgsAH4_,5be69fd80c2acb1837731d2c,[],0.0,[]
1455,1455,0.0,0.4826796606496646,0.0,0,6.784123060593722e-05,0.02330847096430474,0.00046607630334909113,519,175,21,0,0,1,1,0.0,impersonator,0,0,0,0,3,7607701399,--,__usa.ball__,🇺🇸United States Of America🇺🇸,-,"🔴🇺🇸Best nation in the world🇺🇸
🔵🇺🇸USA rich and strong💵💵💪🏻
🔴🇺🇸Christian✝️
🔵🇺🇸Won the space race🚀
🔴🇺🇸Freedom & Liberty🍔🗽
-
-
🇺🇸🇫🇷🇦🇺🇳🇱🇮🇱🇯🇵🇩🇪🇺🇸",[],"['False', 'False']",[],[],[],[],[],0,0,realdonaldtrump,BpaEJqrA2Cn,5be5207e0c2acb0394e9e389,[],0.0,[]
1455,1455,0.0,0.4826796606496646,0.0,0,6.784123060593722e-05,0.02330847096430474,0.00046607630334909113,519,175,21,0,0,1,1,0.0,impersonator,0,0,0,0,3,7607701399,--,__usa.ball__,🇺🇸United States Of America🇺🇸,-,"🔴🇺🇸Best nation in the world🇺🇸
🔵🇺🇸USA rich and strong💵💵💪🏻
🔴🇺🇸Christian✝️
🔵🇺🇸Won the space race🚀
🔴🇺🇸Freedom & Liberty🍔🗽
-
-
🇺🇸🇫🇷🇦🇺🇳🇱🇮🇱🇯🇵🇩🇪🇺🇸",[],"['False', 'False']",[],[],[],[],[],0,0,realdonaldtrump,BpZnXgsAH4_,5be682a60c2acb183772d440,[],0.0,[]
1739,1739,0.1505569696020495,0.4826796606496646,0.216933817011397,0,4.143674393464759e-05,0.005993606819392648,0.0013094524713141132,317,45,59,0,0,1,3,0.6666666666666667,impersonator,0,0,0,0,3,8486064370,--,just_america_1776,United States of America,https://scontent-cdg2-1.cdninstagram.com/vp/81dbf4fe04940487b242df4f017d0148/5D3674A7/t51.2885-19/s320x320/50061151_756998884672715_616142126949859328_n.jpg?_nc_ht=scontent-cdg2-1.cdninstagram.com,"🇺🇸🇺🇸🇺🇸🇺🇸🇺🇸🇺🇸🇺🇸🇺🇸🇺🇸🇺🇸🇺🇸🇺🇸
Capital: Washington, D.C.
Government: Federal Republic 
POTUS: @realdonaldtrump",[],"['False', 'False', 'False', 'False']",[],[],[],[],[],0,0,realdonaldtrump,Bpe4fLZApVQ,5be4a80f0c2acb7ef4485926,[],0.0,[]
1739,1739,0.1505569696020495,0.4826796606496646,0.216933817011397,0,4.143674393464759e-05,0.005993606819392648,0.0013094524713141132,317,45,59,0,0,1,3,0.6666666666666667,impersonator,0,0,0,0,3,8486064370,--,just_america_1776,United States of America,https://scontent-cdg2-1.cdninstagram.com/vp/81dbf4fe04940487b242df4f017d0148/5D3674A7/t51.2885-19/s320x320/50061151_756998884672715_616142126949859328_n.jpg?_nc_ht=scontent-cdg2-1.cdninstagram.com,"🇺🇸🇺🇸🇺🇸🇺🇸🇺🇸🇺🇸🇺🇸🇺🇸🇺🇸🇺🇸🇺🇸🇺🇸
Capital: Washington, D.C.
Government: Federal Republic 
POTUS: @realdonaldtrump",[],"['False', 'False', 'False', 'False']",[],[],[],[],[],0,0,realdonaldtrump,BpaEwYvgdDl,5be5010d0c2acb0394e94c3f,[],0.0,[]
1739,1739,0.1505569696020495,0.4826796606496646,0.216933817011397,0,4.143674393464759e-05,0.005993606819392648,0.0013094524713141132,317,45,59,0,0,1,3,0.6666666666666667,impersonator,0,0,0,0,3,8486064370,--,just_america_1776,United States of America,https://scontent-cdg2-1.cdninstagram.com/vp/81dbf4fe04940487b242df4f017d0148/5D3674A7/t51.2885-19/s320x320/50061151_756998884672715_616142126949859328_n.jpg?_nc_ht=scontent-cdg2-1.cdninstagram.com,"🇺🇸🇺🇸🇺🇸🇺🇸🇺🇸🇺🇸🇺🇸🇺🇸🇺🇸🇺🇸🇺🇸🇺🇸
Capital: Washington, D.C.
Government: Federal Republic 
POTUS: @realdonaldtrump",[],"['False', 'False', 'False', 'False']",[],[],[],[],[],0,0,realdonaldtrump,BpZ6MWbAyfF,5be5ca440c2acb0394ec421d,[],0.0,[]
1739,1739,0.1505569696020495,0.4826796606496646,0.216933817011397,0,4.143674393464759e-05,0.005993606819392648,0.0013094524713141132,317,45,59,0,0,1,3,0.6666666666666667,impersonator,0,0,0,0,3,8486064370,--,just_america_1776,United States of America,https://scontent-cdg2-1.cdninstagram.com/vp/81dbf4fe04940487b242df4f017d0148/5D3674A7/t51.2885-19/s320x320/50061151_756998884672715_616142126949859328_n.jpg?_nc_ht=scontent-cdg2-1.cdninstagram.com,"🇺🇸🇺🇸🇺🇸🇺🇸🇺🇸🇺🇸🇺🇸🇺🇸🇺🇸🇺🇸🇺🇸🇺🇸
Capital: Washington, D.C.
Government: Federal Republic 
POTUS: @realdonaldtrump",[],"['False', 'False', 'False', 'False']",[],[],[],[],[],0,0,realdonaldtrump,BpZqV_cAe68,5be64ec70c2acb1837724491,[],0.0,[]
1747,1747,0.0,0.3799783615910079,0.0,0,0.0,0.0002663825253063399,0.0,0,2,0,0,0,1,1,0.0,impersonator,0,0,0,0,3,8495406754,--,fatboy_sseees,donald trump,https://scontent-cdg2-1.cdninstagram.com/vp/cdee6ee82b6457fade82b54533ac75da/5D5480F1/t51.2885-19/44884218_345707102882519_2446069589734326272_n.jpg?_nc_ht=scontent-cdg2-1.cdninstagram.com,,[],['False'],[],[],[],[],[],0,0,realdonaldtrump,BoS6-LJgyrX,5be456520c2acb7a9ce097d0,[],0.0,[]
1919,1919,0.317107466580271,0.317107466580271,0.2798280652432878,0,3.529312574875346e-06,0.002397442727757059,0.00022194109683290053,27,18,10,0,0,1,3,0.6666666666666667,impersonator,0,0,0,0,3,9015620577,--,presidentdonaldtrumpfanpage,PresidentDonaldTrumpFanPage,https://scontent-cdg2-1.cdninstagram.com/vp/b668eed5779cf3188c3bcd94b15a441c/5D3B8654/t51.2885-19/s320x320/42546663_202107357338147_8898026778124091392_n.jpg?_nc_ht=scontent-cdg2-1.cdninstagram.com,Donald Trump Fan #VoteDonaldTrumpPresident2020,[],"['False', 'False', 'False', 'False', 'False', 'False']",[],[],[],[],[],0,0,realdonaldtrump,Bpe4fLZApVQ,5be45c010c2acb7ab73aef84,[],0.0,[]
1919,1919,0.317107466580271,0.317107466580271,0.2798280652432878,0,3.529312574875346e-06,0.002397442727757059,0.00022194109683290053,27,18,10,0,0,1,3,0.6666666666666667,impersonator,0,0,0,0,3,9015620577,--,presidentdonaldtrumpfanpage,PresidentDonaldTrumpFanPage,https://scontent-cdg2-1.cdninstagram.com/vp/b668eed5779cf3188c3bcd94b15a441c/5D3B8654/t51.2885-19/s320x320/42546663_202107357338147_8898026778124091392_n.jpg?_nc_ht=scontent-cdg2-1.cdninstagram.com,Donald Trump Fan #VoteDonaldTrumpPresident2020,[],"['False', 'False', 'False', 'False', 'False', 'False']",[],[],[],[],[],0,0,realdonaldtrump,Bpc-knZA7xi,5be45ea70c2acb7bc0124872,[],0.0,[]
1919,1919,0.317107466580271,0.317107466580271,0.2798280652432878,0,3.529312574875346e-06,0.002397442727757059,0.00022194109683290053,27,18,10,0,0,1,3,0.6666666666666667,impersonator,0,0,0,0,3,9015620577,--,presidentdonaldtrumpfanpage,PresidentDonaldTrumpFanPage,https://scontent-cdg2-1.cdninstagram.com/vp/b668eed5779cf3188c3bcd94b15a441c/5D3B8654/t51.2885-19/s320x320/42546663_202107357338147_8898026778124091392_n.jpg?_nc_ht=scontent-cdg2-1.cdninstagram.com,Donald Trump Fan #VoteDonaldTrumpPresident2020,[],"['False', 'False', 'False', 'False', 'False', 'False']",[],[],[],[],[],0,0,realdonaldtrump,BpaEwYvgdDl,5be4caf80c2acb0394e83519,[],0.0,[]
1919,1919,0.317107466580271,0.317107466580271,0.2798280652432878,0,3.529312574875346e-06,0.002397442727757059,0.00022194109683290053,27,18,10,0,0,1,3,0.6666666666666667,impersonator,0,0,0,0,3,9015620577,--,presidentdonaldtrumpfanpage,PresidentDonaldTrumpFanPage,https://scontent-cdg2-1.cdninstagram.com/vp/b668eed5779cf3188c3bcd94b15a441c/5D3B8654/t51.2885-19/s320x320/42546663_202107357338147_8898026778124091392_n.jpg?_nc_ht=scontent-cdg2-1.cdninstagram.com,Donald Trump Fan #VoteDonaldTrumpPresident2020,[],"['False', 'False', 'False', 'False', 'False', 'False']",[],[],[],[],[],0,0,realdonaldtrump,BpaEJqrA2Cn,5be5452a0c2acb0394ea7bb7,[],0.0,[]
1919,1919,0.317107466580271,0.317107466580271,0.2798280652432878,0,3.529312574875346e-06,0.002397442727757059,0.00022194109683290053,27,18,10,0,0,1,3,0.6666666666666667,impersonator,0,0,0,0,3,9015620577,--,presidentdonaldtrumpfanpage,PresidentDonaldTrumpFanPage,https://scontent-cdg2-1.cdninstagram.com/vp/b668eed5779cf3188c3bcd94b15a441c/5D3B8654/t51.2885-19/s320x320/42546663_202107357338147_8898026778124091392_n.jpg?_nc_ht=scontent-cdg2-1.cdninstagram.com,Donald Trump Fan #VoteDonaldTrumpPresident2020,[],"['False', 'False', 'False', 'False', 'False', 'False']",[],[],[],[],[],0,0,realdonaldtrump,BpZ6MWbAyfF,5be599190c2acb0394ebad85,[],0.0,[]
1919,1919,0.317107466580271,0.317107466580271,0.2798280652432878,0,3.529312574875346e-06,0.002397442727757059,0.00022194109683290053,27,18,10,0,0,1,3,0.6666666666666667,impersonator,0,0,0,0,3,9015620577,--,presidentdonaldtrumpfanpage,PresidentDonaldTrumpFanPage,https://scontent-cdg2-1.cdninstagram.com/vp/b668eed5779cf3188c3bcd94b15a441c/5D3B8654/t51.2885-19/s320x320/42546663_202107357338147_8898026778124091392_n.jpg?_nc_ht=scontent-cdg2-1.cdninstagram.com,Donald Trump Fan #VoteDonaldTrumpPresident2020,[],"['False', 'False', 'False', 'False', 'False', 'False']",[],[],[],[],[],0,0,realdonaldtrump,BpZqV_cAe68,5be654980c2acb18377253ec,[],0.0,[]
1927,1927,0.2695176132460322,0.3799783615910079,0.0,0,5.490041783139428e-06,0.006526371870005328,0.0007989879485984419,42,49,36,0,0,1,2,0.3333333333333333,impersonator,0,0,0,0,3,9040293527,--,donald_trump867,Donald_Trump,-,Ukraine-🤮 U.S.A-😘👌💪🇱🇷,[],"['False', 'False']",[],[],[],[],[],0,0,realdonaldtrump,BpaEJqrA2Cn,5be532200c2acb0394ea2e5b,[],0.0,[]
1927,1927,0.2695176132460322,0.3799783615910079,0.0,0,5.490041783139428e-06,0.006526371870005328,0.0007989879485984419,42,49,36,0,0,1,2,0.3333333333333333,impersonator,0,0,0,0,3,9040293527,--,donald_trump867,Donald_Trump,-,Ukraine-🤮 U.S.A-😘👌💪🇱🇷,[],"['False', 'False']",[],[],[],[],[],0,0,realdonaldtrump,BpZqV_cAe68,5be60a8d0c2acb1837718937,[],0.0,[]
