,Unnamed: 0,username,name,bio,photo,nfollower,nfollowee,nmediacount,follower,followee,mediacount,private,verified,lcm,mcm,nmcm,class,class BGM 3,class GM 3,class kmeans 3,class spectral 3,class GM 4,owener_id,combined_owener_external_url,combined_username,combined_full_name,combined_profile_pic_url,combined_biography,combined_similarity_photo_comment,combined_similarity_photo_like,comment_created_at,comment_id,comment_post_shortcode,comment_shortcode_username,comment_text,comment_total,like_total,like_shortcode_username,like_post_shortcode,like_id,comment_post_date,comment_avg_age_sec,comment_age_sec
2,2,0.0,0.0,0.4073526042885675,0,0.00033188609731883353,0.13199254128929142,0.0158465943138691,2539,991,714,0,0,1,1,0.0,impersonator,1,2,1,2,2,9753407,--,blevennec.laurent,Laurent Blevennec 📷🇫🇷,https://scontent-cdg2-1.cdninstagram.com/vp/eeeaf54e8528bcb9b30e73a1af399834/5D720966/t51.2885-19/s320x320/54277209_2425195714376719_1207289970893520896_n.jpg?_nc_ht=scontent-cdg2-1.cdninstagram.com,Photographe officiel de la Présidence de la République française -🇫🇷  📸. #avecleprésident #Emmanuelmacron #PhotosNonLibresDeDroits,[],"['False', 'False', 'False', 'False', 'False', 'False']",[],[],[],[],[],0,0,emmanuelmacron,BqUv1eonVJQ,5c13dbc30c2acb135537daec,[],0.0,[]
2,2,0.0,0.0,0.4073526042885675,0,0.00033188609731883353,0.13199254128929142,0.0158465943138691,2539,991,714,0,0,1,1,0.0,impersonator,1,2,1,2,2,9753407,--,blevennec.laurent,Laurent Blevennec 📷🇫🇷,https://scontent-cdg2-1.cdninstagram.com/vp/eeeaf54e8528bcb9b30e73a1af399834/5D720966/t51.2885-19/s320x320/54277209_2425195714376719_1207289970893520896_n.jpg?_nc_ht=scontent-cdg2-1.cdninstagram.com,Photographe officiel de la Présidence de la République française -🇫🇷  📸. #avecleprésident #Emmanuelmacron #PhotosNonLibresDeDroits,[],"['False', 'False', 'False', 'False', 'False', 'False']",[],[],[],[],[],0,0,emmanuelmacron,BqUrbhqHY9X,5c13e8eb0c2acb1355389e62,[],0.0,[]
2,2,0.0,0.0,0.4073526042885675,0,0.00033188609731883353,0.13199254128929142,0.0158465943138691,2539,991,714,0,0,1,1,0.0,impersonator,1,2,1,2,2,9753407,--,blevennec.laurent,Laurent Blevennec 📷🇫🇷,https://scontent-cdg2-1.cdninstagram.com/vp/eeeaf54e8528bcb9b30e73a1af399834/5D720966/t51.2885-19/s320x320/54277209_2425195714376719_1207289970893520896_n.jpg?_nc_ht=scontent-cdg2-1.cdninstagram.com,Photographe officiel de la Présidence de la République française -🇫🇷  📸. #avecleprésident #Emmanuelmacron #PhotosNonLibresDeDroits,[],"['False', 'False', 'False', 'False', 'False', 'False']",[],[],[],[],[],0,0,emmanuelmacron,BqNGePuFrq0,5c13f6230c2acb13553962eb,[],0.0,[]
2,2,0.0,0.0,0.4073526042885675,0,0.00033188609731883353,0.13199254128929142,0.0158465943138691,2539,991,714,0,0,1,1,0.0,impersonator,1,2,1,2,2,9753407,--,blevennec.laurent,Laurent Blevennec 📷🇫🇷,https://scontent-cdg2-1.cdninstagram.com/vp/eeeaf54e8528bcb9b30e73a1af399834/5D720966/t51.2885-19/s320x320/54277209_2425195714376719_1207289970893520896_n.jpg?_nc_ht=scontent-cdg2-1.cdninstagram.com,Photographe officiel de la Présidence de la République française -🇫🇷  📸. #avecleprésident #Emmanuelmacron #PhotosNonLibresDeDroits,[],"['False', 'False', 'False', 'False', 'False', 'False']",[],[],[],[],[],0,0,emmanuelmacron,BqDcxh2nOgE,5c13fe4b0c2acb135539e05a,[],0.0,[]
2,2,0.0,0.0,0.4073526042885675,0,0.00033188609731883353,0.13199254128929142,0.0158465943138691,2539,991,714,0,0,1,1,0.0,impersonator,1,2,1,2,2,9753407,--,blevennec.laurent,Laurent Blevennec 📷🇫🇷,https://scontent-cdg2-1.cdninstagram.com/vp/eeeaf54e8528bcb9b30e73a1af399834/5D720966/t51.2885-19/s320x320/54277209_2425195714376719_1207289970893520896_n.jpg?_nc_ht=scontent-cdg2-1.cdninstagram.com,Photographe officiel de la Présidence de la République française -🇫🇷  📸. #avecleprésident #Emmanuelmacron #PhotosNonLibresDeDroits,[],"['False', 'False', 'False', 'False', 'False', 'False']",[],[],[],[],[],0,0,emmanuelmacron,BqAbVTQHODN,5c14151e0c2acb13553b2d30,[],0.0,[]
2,2,0.0,0.0,0.4073526042885675,0,0.00033188609731883353,0.13199254128929142,0.0158465943138691,2539,991,714,0,0,1,1,0.0,impersonator,1,2,1,2,2,9753407,--,blevennec.laurent,Laurent Blevennec 📷🇫🇷,https://scontent-cdg2-1.cdninstagram.com/vp/eeeaf54e8528bcb9b30e73a1af399834/5D720966/t51.2885-19/s320x320/54277209_2425195714376719_1207289970893520896_n.jpg?_nc_ht=scontent-cdg2-1.cdninstagram.com,Photographe officiel de la Présidence de la République française -🇫🇷  📸. #avecleprésident #Emmanuelmacron #PhotosNonLibresDeDroits,[],"['False', 'False', 'False', 'False', 'False', 'False']",[],[],[],[],[],0,0,emmanuelmacron,BodtJJ7l4N7,5c1482150c2acb18856c6086,[],0.0,[]
48,48,0.0,0.0,0.3799783615910079,0,6.169761242004309e-05,0.03529568460309004,0.003750804536476019,472,265,169,0,0,1,1,0.0,impersonator,1,2,1,2,2,247647906,https://www.impots.gouv.fr/portail/,louisfishmann,Loυιѕ Fιѕнмαɴɴ,https://scontent-cdg2-1.cdninstagram.com/vp/30a698c2462dd6a0c599a7b8c32baffb/5D72AB23/t51.2885-19/s320x320/39320107_2186044601440858_560476928432144384_n.jpg?_nc_ht=scontent-cdg2-1.cdninstagram.com,🇫🇷 Président de la république 🇫🇷,[],['False'],[],[],[],[],[],0,0,emmanuelmacron,Bq4wJznHA4n,5c150bb90c2acb589bd9a5e2,[],0.0,[]
61,61,0.0,0.0,0.3799783615910079,0,0.000181432809404703,0.050879062333510916,0.002463546174845196,1388,382,111,1,0,1,1,0.0,impersonator,1,2,1,2,2,280262337,--,pauulinebrn,Pauline,https://scontent-cdg2-1.cdninstagram.com/vp/be92e31bf87e5d92875e946d7fa4b1a6/5D5568EB/t51.2885-19/s320x320/54512248_2112508222373023_8323486202619494400_n.jpg?_nc_ht=scontent-cdg2-1.cdninstagram.com,🎓🧿                                française 🇫🇷,[],"['False', 'False', 'False', 'False']",[],[],[],[],[],0,0,emmanuelmacron,BqAbVTQHODN,5c142eb00c2acb13553ca924,[],0.0,[]
61,61,0.0,0.0,0.3799783615910079,0,0.000181432809404703,0.050879062333510916,0.002463546174845196,1388,382,111,1,0,1,1,0.0,impersonator,1,2,1,2,2,280262337,--,pauulinebrn,Pauline,https://scontent-cdg2-1.cdninstagram.com/vp/be92e31bf87e5d92875e946d7fa4b1a6/5D5568EB/t51.2885-19/s320x320/54512248_2112508222373023_8323486202619494400_n.jpg?_nc_ht=scontent-cdg2-1.cdninstagram.com,🎓🧿                                française 🇫🇷,[],"['False', 'False', 'False', 'False']",[],[],[],[],[],0,0,emmanuelmacron,BpzPeIDHV0q,5c143e3d0c2acb13553d909e,[],0.0,[]
61,61,0.0,0.0,0.3799783615910079,0,0.000181432809404703,0.050879062333510916,0.002463546174845196,1388,382,111,1,0,1,1,0.0,impersonator,1,2,1,2,2,280262337,--,pauulinebrn,Pauline,https://scontent-cdg2-1.cdninstagram.com/vp/be92e31bf87e5d92875e946d7fa4b1a6/5D5568EB/t51.2885-19/s320x320/54512248_2112508222373023_8323486202619494400_n.jpg?_nc_ht=scontent-cdg2-1.cdninstagram.com,🎓🧿                                française 🇫🇷,[],"['False', 'False', 'False', 'False']",[],[],[],[],[],0,0,emmanuelmacron,BoyTm70loCy,5c1469a60c2acb18856aea26,[],0.0,[]
61,61,0.0,0.0,0.3799783615910079,0,0.000181432809404703,0.050879062333510916,0.002463546174845196,1388,382,111,1,0,1,1,0.0,impersonator,1,2,1,2,2,280262337,--,pauulinebrn,Pauline,https://scontent-cdg2-1.cdninstagram.com/vp/be92e31bf87e5d92875e946d7fa4b1a6/5D5568EB/t51.2885-19/s320x320/54512248_2112508222373023_8323486202619494400_n.jpg?_nc_ht=scontent-cdg2-1.cdninstagram.com,🎓🧿                                française 🇫🇷,[],"['False', 'False', 'False', 'False']",[],[],[],[],[],0,0,emmanuelmacron,Bq-ojqBHW7J,5c1505890c2acb589bd943eb,[],0.0,[]
76,76,0.0,0.0,0.3799783615910079,0,1.7777278154927672e-05,0.03822589238145977,0.003306922342810218,136,287,149,1,0,1,1,0.0,impersonator,1,2,1,2,2,358094229,--,mathilde_glct,Mathilde,https://scontent-cdg2-1.cdninstagram.com/vp/de52787889ed5077d9356727b8ab839f/5D3A8430/t51.2885-19/s320x320/51413291_297205850961114_2110304465465638912_n.jpg?_nc_ht=scontent-cdg2-1.cdninstagram.com,23 ans • Française • 🌍,[],"['False', 'False']",[],[],[],[],[],0,0,emmanuelmacron,BqUv1eonVJQ,5c13e37a0c2acb1355384a1f,[],0.0,[]
76,76,0.0,0.0,0.3799783615910079,0,1.7777278154927672e-05,0.03822589238145977,0.003306922342810218,136,287,149,1,0,1,1,0.0,impersonator,1,2,1,2,2,358094229,--,mathilde_glct,Mathilde,https://scontent-cdg2-1.cdninstagram.com/vp/de52787889ed5077d9356727b8ab839f/5D3A8430/t51.2885-19/s320x320/51413291_297205850961114_2110304465465638912_n.jpg?_nc_ht=scontent-cdg2-1.cdninstagram.com,23 ans • Française • 🌍,[],"['False', 'False']",[],[],[],[],[],0,0,emmanuelmacron,BqDcxh2nOgE,5c1402860c2acb13553a164e,[],0.0,[]
128,128,0.0,0.0,0.3799783615910079,0,1.699298647162204e-05,0.0895045285029302,0.003218145904077057,130,672,145,0,0,1,1,0.0,impersonator,1,2,1,2,2,567076047,--,clairenavea,C|aire,https://scontent-cdg2-1.cdninstagram.com/vp/91604d2f66fa9d4cd366c79bbb02dd54/5D3FBBF3/t51.2885-19/s320x320/53822843_472952946577310_5659231664363012096_n.jpg?_nc_ht=scontent-cdg2-1.cdninstagram.com,22 ans | Française 🇫🇷 |,[],"['False', 'False']",[],[],[],[],[],0,0,emmanuelmacron,BqUrbhqHY9X,5c13ed6f0c2acb135538da58,[],0.0,[]
128,128,0.0,0.0,0.3799783615910079,0,1.699298647162204e-05,0.0895045285029302,0.003218145904077057,130,672,145,0,0,1,1,0.0,impersonator,1,2,1,2,2,567076047,--,clairenavea,C|aire,https://scontent-cdg2-1.cdninstagram.com/vp/91604d2f66fa9d4cd366c79bbb02dd54/5D3FBBF3/t51.2885-19/s320x320/53822843_472952946577310_5659231664363012096_n.jpg?_nc_ht=scontent-cdg2-1.cdninstagram.com,22 ans | Française 🇫🇷 |,[],"['False', 'False']",[],[],[],[],[],0,0,emmanuelmacron,BqAbVTQHODN,5c142cb10c2acb13553c89ea,[],0.0,[]
132,132,0.0,0.0,0.3799783615910079,0,3.7776716079221295e-05,0.06366542354821524,0.0071908915373859765,289,478,324,0,0,1,1,0.0,impersonator,1,2,1,2,2,576621542,--,lisa.dilmi,Lisa Dilmi,https://scontent-cdg2-1.cdninstagram.com/vp/0fe3ce06d242b1ba4e79431037f523fa/5D526635/t51.2885-19/s320x320/47498333_204928550392994_2571379327929155584_n.jpg?_nc_ht=scontent-cdg2-1.cdninstagram.com,Française 🇫🇷🥂✈️,[],"['False', 'False', 'False']",[],[],[],[],[],0,0,emmanuelmacron,BqNGePuFrq0,5c13fb4b0c2acb135539b011,[],0.0,[]
132,132,0.0,0.0,0.3799783615910079,0,3.7776716079221295e-05,0.06366542354821524,0.0071908915373859765,289,478,324,0,0,1,1,0.0,impersonator,1,2,1,2,2,576621542,--,lisa.dilmi,Lisa Dilmi,https://scontent-cdg2-1.cdninstagram.com/vp/0fe3ce06d242b1ba4e79431037f523fa/5D526635/t51.2885-19/s320x320/47498333_204928550392994_2571379327929155584_n.jpg?_nc_ht=scontent-cdg2-1.cdninstagram.com,Française 🇫🇷🥂✈️,[],"['False', 'False', 'False']",[],[],[],[],[],0,0,emmanuelmacron,BqDcxh2nOgE,5c1408580c2acb13553a72de,[],0.0,[]
132,132,0.0,0.0,0.3799783615910079,0,3.7776716079221295e-05,0.06366542354821524,0.0071908915373859765,289,478,324,0,0,1,1,0.0,impersonator,1,2,1,2,2,576621542,--,lisa.dilmi,Lisa Dilmi,https://scontent-cdg2-1.cdninstagram.com/vp/0fe3ce06d242b1ba4e79431037f523fa/5D526635/t51.2885-19/s320x320/47498333_204928550392994_2571379327929155584_n.jpg?_nc_ht=scontent-cdg2-1.cdninstagram.com,Française 🇫🇷🥂✈️,[],"['False', 'False', 'False']",[],[],[],[],[],0,0,emmanuelmacron,BqDBbk-n7cU,5c140f470c2acb13553ad322,[],0.0,[]
298,298,0.0,0.0,0.3799783615910079,0,4.509677179007387e-05,0.07791688865210443,0.00026632931619948065,345,585,12,1,0,1,1,0.0,impersonator,1,2,1,2,2,1621037776,--,m.julesrt,Jules Rat 🌹🌹🌹,https://scontent-cdg2-1.cdninstagram.com/vp/e3f8ceb5108e142c659bb1e168c33c7c/5D57F4E3/t51.2885-19/s320x320/54446463_602384293594107_1485612110896431104_n.jpg?_nc_ht=scontent-cdg2-1.cdninstagram.com,@emmanuelmacron,[],['False'],[],[],[],[],[],0,0,emmanuelmacron,BqUv1eonVJQ,5c13e39b0c2acb1355384da0,[],0.0,[]
433,433,0.0,0.0,0.3799783615910079,0,3.9606730006934445e-05,0.037426744805540764,0.00017755287746632043,303,281,8,0,0,1,1,0.0,impersonator,1,2,1,2,2,2109976485,--,julia_kfr_,~JULIA~ジュリア~,https://scontent-cdg2-1.cdninstagram.com/vp/70d72ac0e508deb134696fc17383940f/5D42F6CA/t51.2885-19/s320x320/57222744_676676826082126_6027360818906005504_n.jpg?_nc_ht=scontent-cdg2-1.cdninstagram.com,"🇯🇵日本人🇫🇷française
♡14 ans",[],['False'],[],[],[],[],[],0,0,emmanuelmacron,BrYiwuHHhxm,5c14eee50c2acb589bd80273,[],0.0,[]
461,461,0.0,0.0,0.5797386715376658,0,3.712313967646661e-05,0.06779435269046351,0.003262534123443638,284,509,147,0,0,1,1,0.0,impersonator,1,2,1,2,2,2215032044,--,petrakotes,noemi laslau,https://scontent-cdg2-1.cdninstagram.com/vp/054c037ec0ce41d3b519d1b77a65542d/5D7069BE/t51.2885-19/s320x320/24177862_1378152778973827_6442042346581262336_n.jpg?_nc_ht=scontent-cdg2-1.cdninstagram.com,Président de la République française,[],['False'],[],[],[],[],[],0,0,emmanuelmacron,BozHRJFlBfo,5c144af20c2acb1885692920,[],0.0,[]
513,513,0.0,0.0,0.3799783615910079,0,7.842916833056325e-05,0.03862546616941928,0.00019974698714961048,600,290,9,1,0,1,1,0.0,impersonator,1,2,1,2,2,2437284671,--,marie.pvr,M a R i e️️   P o U v r E a U,https://scontent-cdg2-1.cdninstagram.com/vp/0b6a7a15e1fc9a390ac02e7a6822574b/5D6D34F7/t51.2885-19/s320x320/53161821_1027838650737642_3210670624229818368_n.jpg?_nc_ht=scontent-cdg2-1.cdninstagram.com,Française 🇫🇷 | 14 ans ✌🏻| 🔰|,[],['False'],[],[],[],[],[],0,0,emmanuelmacron,BodtJJ7l4N7,5c1481b70c2acb18856c575b,[],0.0,[]
671,671,0.0,0.0,0.3799783615910079,0,3.13716673322253e-05,0.06419818859882791,6.658232904987016e-05,240,482,3,0,0,1,1,0.0,impersonator,1,2,1,2,2,3548210106,--,cassi_brss,cassandra 🥰,https://scontent-cdg2-1.cdninstagram.com/vp/f90a125873aa301bc07a082dc27e42c1/5D4323A5/t51.2885-19/s320x320/56879495_337857826871072_6504447920744431616_n.jpg?_nc_ht=scontent-cdg2-1.cdninstagram.com,"14ans📍
Française🇫🇷. M😍L👑C🥰D😻A❤️E❤️J❤️S💗A❤️",[],['False'],[],[],[],[],[],0,0,emmanuelmacron,BrYiwuHHhxm,5c14ee9b0c2acb589bd7f96c,[],0.0,[]
677,677,0.0,0.0,0.3799783615910079,0,2.9541653404512158e-05,0.03516249334043686,8.87764387331602e-05,226,264,4,0,0,1,1,0.0,impersonator,1,2,1,2,2,3579422471,--,roomain_lch,Roomain Lch,https://scontent-cdg2-1.cdninstagram.com/vp/c4b4d1d0f29daecb70410a3cd47f19d7/5D57211D/t51.2885-19/s320x320/44392856_180512692862079_742716020048789504_n.jpg?_nc_ht=scontent-cdg2-1.cdninstagram.com,10e Président de la 5e République®,[],['False'],[],[],[],[],[],0,0,emmanuelmacron,BqAbVTQHODN,5c1430fd0c2acb13553ccb00,[],0.0,[]
772,772,0.0,0.0,0.3799783615910079,0,5.1763251098171754e-05,0.07951518380394246,0.00013316465809974033,396,597,6,1,0,1,1,0.0,impersonator,1,2,1,2,2,4167831253,--,victoire.baubion,Victoire Baubion,https://scontent-cdg2-1.cdninstagram.com/vp/1d71164593bc52cc5851f654fe3458cb/5D74C0D6/t51.2885-19/s320x320/46652634_320908751849525_8018831583765069824_n.jpg?_nc_ht=scontent-cdg2-1.cdninstagram.com,FRANÇAISE,[],"['False', 'False', 'False', 'False', 'False', 'False']",[],[],[],[],[],0,0,emmanuelmacron,BoyTm70loCy,5c145f020c2acb18856a48af,[],0.0,[]
772,772,0.0,0.0,0.3799783615910079,0,5.1763251098171754e-05,0.07951518380394246,0.00013316465809974033,396,597,6,1,0,1,1,0.0,impersonator,1,2,1,2,2,4167831253,--,victoire.baubion,Victoire Baubion,https://scontent-cdg2-1.cdninstagram.com/vp/1d71164593bc52cc5851f654fe3458cb/5D74C0D6/t51.2885-19/s320x320/46652634_320908751849525_8018831583765069824_n.jpg?_nc_ht=scontent-cdg2-1.cdninstagram.com,FRANÇAISE,[],"['False', 'False', 'False', 'False', 'False', 'False']",[],[],[],[],[],0,0,emmanuelmacron,BofAY2FFqUR,5c146fe00c2acb18856b5138,[],0.0,[]
772,772,0.0,0.0,0.3799783615910079,0,5.1763251098171754e-05,0.07951518380394246,0.00013316465809974033,396,597,6,1,0,1,1,0.0,impersonator,1,2,1,2,2,4167831253,--,victoire.baubion,Victoire Baubion,https://scontent-cdg2-1.cdninstagram.com/vp/1d71164593bc52cc5851f654fe3458cb/5D74C0D6/t51.2885-19/s320x320/46652634_320908751849525_8018831583765069824_n.jpg?_nc_ht=scontent-cdg2-1.cdninstagram.com,FRANÇAISE,[],"['False', 'False', 'False', 'False', 'False', 'False']",[],[],[],[],[],0,0,emmanuelmacron,BoeFpvCF6CG,5c1479060c2acb18856bcd71,[],0.0,[]
772,772,0.0,0.0,0.3799783615910079,0,5.1763251098171754e-05,0.07951518380394246,0.00013316465809974033,396,597,6,1,0,1,1,0.0,impersonator,1,2,1,2,2,4167831253,--,victoire.baubion,Victoire Baubion,https://scontent-cdg2-1.cdninstagram.com/vp/1d71164593bc52cc5851f654fe3458cb/5D74C0D6/t51.2885-19/s320x320/46652634_320908751849525_8018831583765069824_n.jpg?_nc_ht=scontent-cdg2-1.cdninstagram.com,FRANÇAISE,[],"['False', 'False', 'False', 'False', 'False', 'False']",[],[],[],[],[],0,0,emmanuelmacron,BodtJJ7l4N7,5c147e290c2acb18856c1a6b,[],0.0,[]
772,772,0.0,0.0,0.3799783615910079,0,5.1763251098171754e-05,0.07951518380394246,0.00013316465809974033,396,597,6,1,0,1,1,0.0,impersonator,1,2,1,2,2,4167831253,--,victoire.baubion,Victoire Baubion,https://scontent-cdg2-1.cdninstagram.com/vp/1d71164593bc52cc5851f654fe3458cb/5D74C0D6/t51.2885-19/s320x320/46652634_320908751849525_8018831583765069824_n.jpg?_nc_ht=scontent-cdg2-1.cdninstagram.com,FRANÇAISE,[],"['False', 'False', 'False', 'False', 'False', 'False']",[],[],[],[],[],0,0,emmanuelmacron,Bq-ojqBHW7J,5c14fe380c2acb589bd8dad5,[],0.0,[]
772,772,0.0,0.0,0.3799783615910079,0,5.1763251098171754e-05,0.07951518380394246,0.00013316465809974033,396,597,6,1,0,1,1,0.0,impersonator,1,2,1,2,2,4167831253,--,victoire.baubion,Victoire Baubion,https://scontent-cdg2-1.cdninstagram.com/vp/1d71164593bc52cc5851f654fe3458cb/5D74C0D6/t51.2885-19/s320x320/46652634_320908751849525_8018831583765069824_n.jpg?_nc_ht=scontent-cdg2-1.cdninstagram.com,FRANÇAISE,[],"['False', 'False', 'False', 'False', 'False', 'False']",[],[],[],[],[],0,0,emmanuelmacron,Bq4wJznHA4n,5c1514dd0c2acb589bda2464,[],0.0,[]
773,773,0.0,0.0,0.47433070649719394,0,3.568527159040628e-05,0.035562067128396366,8.87764387331602e-05,273,267,4,0,0,1,1,0.0,impersonator,1,2,1,2,2,4175868228,--,nans_slc,Nans,https://scontent-cdg2-1.cdninstagram.com/vp/86b2098229677b5438ddb7e54493f928/5D701A2F/t51.2885-19/s320x320/57076378_422297188569892_3634115551636226048_n.jpg?_nc_ht=scontent-cdg2-1.cdninstagram.com,Futur Président de la République Française,[],"['False', 'False', 'False', 'False', 'False', 'False', 'False', 'False', 'False', 'False', 'False', 'False']",[],[],[],[],[],0,0,emmanuelmacron,BqacspRn3uc,5c0faeb5b5d85c25d284231b,[],0.0,[]
773,773,0.0,0.0,0.47433070649719394,0,3.568527159040628e-05,0.035562067128396366,8.87764387331602e-05,273,267,4,0,0,1,1,0.0,impersonator,1,2,1,2,2,4175868228,--,nans_slc,Nans,https://scontent-cdg2-1.cdninstagram.com/vp/86b2098229677b5438ddb7e54493f928/5D701A2F/t51.2885-19/s320x320/57076378_422297188569892_3634115551636226048_n.jpg?_nc_ht=scontent-cdg2-1.cdninstagram.com,Futur Président de la République Française,[],"['False', 'False', 'False', 'False', 'False', 'False', 'False', 'False', 'False', 'False', 'False', 'False']",[],[],[],[],[],0,0,emmanuelmacron,BqUv1eonVJQ,5c13e3cb0c2acb1355385297,[],0.0,[]
773,773,0.0,0.0,0.47433070649719394,0,3.568527159040628e-05,0.035562067128396366,8.87764387331602e-05,273,267,4,0,0,1,1,0.0,impersonator,1,2,1,2,2,4175868228,--,nans_slc,Nans,https://scontent-cdg2-1.cdninstagram.com/vp/86b2098229677b5438ddb7e54493f928/5D701A2F/t51.2885-19/s320x320/57076378_422297188569892_3634115551636226048_n.jpg?_nc_ht=scontent-cdg2-1.cdninstagram.com,Futur Président de la République Française,[],"['False', 'False', 'False', 'False', 'False', 'False', 'False', 'False', 'False', 'False', 'False', 'False']",[],[],[],[],[],0,0,emmanuelmacron,BqUrbhqHY9X,5c13eb950c2acb135538c6b8,[],0.0,[]
773,773,0.0,0.0,0.47433070649719394,0,3.568527159040628e-05,0.035562067128396366,8.87764387331602e-05,273,267,4,0,0,1,1,0.0,impersonator,1,2,1,2,2,4175868228,--,nans_slc,Nans,https://scontent-cdg2-1.cdninstagram.com/vp/86b2098229677b5438ddb7e54493f928/5D701A2F/t51.2885-19/s320x320/57076378_422297188569892_3634115551636226048_n.jpg?_nc_ht=scontent-cdg2-1.cdninstagram.com,Futur Président de la République Française,[],"['False', 'False', 'False', 'False', 'False', 'False', 'False', 'False', 'False', 'False', 'False', 'False']",[],[],[],[],[],0,0,emmanuelmacron,BqDcxh2nOgE,5c1400230c2acb135539f481,[],0.0,[]
773,773,0.0,0.0,0.47433070649719394,0,3.568527159040628e-05,0.035562067128396366,8.87764387331602e-05,273,267,4,0,0,1,1,0.0,impersonator,1,2,1,2,2,4175868228,--,nans_slc,Nans,https://scontent-cdg2-1.cdninstagram.com/vp/86b2098229677b5438ddb7e54493f928/5D701A2F/t51.2885-19/s320x320/57076378_422297188569892_3634115551636226048_n.jpg?_nc_ht=scontent-cdg2-1.cdninstagram.com,Futur Président de la République Française,[],"['False', 'False', 'False', 'False', 'False', 'False', 'False', 'False', 'False', 'False', 'False', 'False']",[],[],[],[],[],0,0,emmanuelmacron,BqDBbk-n7cU,5c1413640c2acb13553b1d24,[],0.0,[]
773,773,0.0,0.0,0.47433070649719394,0,3.568527159040628e-05,0.035562067128396366,8.87764387331602e-05,273,267,4,0,0,1,1,0.0,impersonator,1,2,1,2,2,4175868228,--,nans_slc,Nans,https://scontent-cdg2-1.cdninstagram.com/vp/86b2098229677b5438ddb7e54493f928/5D701A2F/t51.2885-19/s320x320/57076378_422297188569892_3634115551636226048_n.jpg?_nc_ht=scontent-cdg2-1.cdninstagram.com,Futur Président de la République Française,[],"['False', 'False', 'False', 'False', 'False', 'False', 'False', 'False', 'False', 'False', 'False', 'False']",[],[],[],[],[],0,0,emmanuelmacron,BqAbVTQHODN,5c1434760c2acb13553cfddc,[],0.0,[]
773,773,0.0,0.0,0.47433070649719394,0,3.568527159040628e-05,0.035562067128396366,8.87764387331602e-05,273,267,4,0,0,1,1,0.0,impersonator,1,2,1,2,2,4175868228,--,nans_slc,Nans,https://scontent-cdg2-1.cdninstagram.com/vp/86b2098229677b5438ddb7e54493f928/5D701A2F/t51.2885-19/s320x320/57076378_422297188569892_3634115551636226048_n.jpg?_nc_ht=scontent-cdg2-1.cdninstagram.com,Futur Président de la République Française,[],"['False', 'False', 'False', 'False', 'False', 'False', 'False', 'False', 'False', 'False', 'False', 'False']",[],[],[],[],[],0,0,emmanuelmacron,BpzPeIDHV0q,5c1438f70c2acb13553d4204,[],0.0,[]
773,773,0.0,0.0,0.47433070649719394,0,3.568527159040628e-05,0.035562067128396366,8.87764387331602e-05,273,267,4,0,0,1,1,0.0,impersonator,1,2,1,2,2,4175868228,--,nans_slc,Nans,https://scontent-cdg2-1.cdninstagram.com/vp/86b2098229677b5438ddb7e54493f928/5D701A2F/t51.2885-19/s320x320/57076378_422297188569892_3634115551636226048_n.jpg?_nc_ht=scontent-cdg2-1.cdninstagram.com,Futur Président de la République Française,[],"['False', 'False', 'False', 'False', 'False', 'False', 'False', 'False', 'False', 'False', 'False', 'False']",[],[],[],[],[],0,0,emmanuelmacron,BpPGmZynD5u,5c14480d0c2acb188568fb84,[],0.0,[]
773,773,0.0,0.0,0.47433070649719394,0,3.568527159040628e-05,0.035562067128396366,8.87764387331602e-05,273,267,4,0,0,1,1,0.0,impersonator,1,2,1,2,2,4175868228,--,nans_slc,Nans,https://scontent-cdg2-1.cdninstagram.com/vp/86b2098229677b5438ddb7e54493f928/5D701A2F/t51.2885-19/s320x320/57076378_422297188569892_3634115551636226048_n.jpg?_nc_ht=scontent-cdg2-1.cdninstagram.com,Futur Président de la République Française,[],"['False', 'False', 'False', 'False', 'False', 'False', 'False', 'False', 'False', 'False', 'False', 'False']",[],[],[],[],[],0,0,emmanuelmacron,BoyTm70loCy,5c1464ea0c2acb18856aa7cd,[],0.0,[]
773,773,0.0,0.0,0.47433070649719394,0,3.568527159040628e-05,0.035562067128396366,8.87764387331602e-05,273,267,4,0,0,1,1,0.0,impersonator,1,2,1,2,2,4175868228,--,nans_slc,Nans,https://scontent-cdg2-1.cdninstagram.com/vp/86b2098229677b5438ddb7e54493f928/5D701A2F/t51.2885-19/s320x320/57076378_422297188569892_3634115551636226048_n.jpg?_nc_ht=scontent-cdg2-1.cdninstagram.com,Futur Président de la République Française,[],"['False', 'False', 'False', 'False', 'False', 'False', 'False', 'False', 'False', 'False', 'False', 'False']",[],[],[],[],[],0,0,emmanuelmacron,BofAY2FFqUR,5c14723d0c2acb18856b72e2,[],0.0,[]
773,773,0.0,0.0,0.47433070649719394,0,3.568527159040628e-05,0.035562067128396366,8.87764387331602e-05,273,267,4,0,0,1,1,0.0,impersonator,1,2,1,2,2,4175868228,--,nans_slc,Nans,https://scontent-cdg2-1.cdninstagram.com/vp/86b2098229677b5438ddb7e54493f928/5D701A2F/t51.2885-19/s320x320/57076378_422297188569892_3634115551636226048_n.jpg?_nc_ht=scontent-cdg2-1.cdninstagram.com,Futur Président de la République Française,[],"['False', 'False', 'False', 'False', 'False', 'False', 'False', 'False', 'False', 'False', 'False', 'False']",[],[],[],[],[],0,0,emmanuelmacron,BodtJJ7l4N7,5c147f270c2acb18856c3133,[],0.0,[]
773,773,0.0,0.0,0.47433070649719394,0,3.568527159040628e-05,0.035562067128396366,8.87764387331602e-05,273,267,4,0,0,1,1,0.0,impersonator,1,2,1,2,2,4175868228,--,nans_slc,Nans,https://scontent-cdg2-1.cdninstagram.com/vp/86b2098229677b5438ddb7e54493f928/5D701A2F/t51.2885-19/s320x320/57076378_422297188569892_3634115551636226048_n.jpg?_nc_ht=scontent-cdg2-1.cdninstagram.com,Futur Président de la République Française,[],"['False', 'False', 'False', 'False', 'False', 'False', 'False', 'False', 'False', 'False', 'False', 'False']",[],[],[],[],[],0,0,emmanuelmacron,Bq4wJznHA4n,5c1509040c2acb589bd97c81,[],0.0,[]
982,982,0.0,0.0,0.3316500504151153,0,0.0004201189116907172,0.05740543420351624,0.004860510020640522,3214,431,219,0,0,1,1,0.0,impersonator,1,2,1,2,2,5569423419,--,ghislain.mariette,Ghislain Mariette,https://scontent-cdg2-1.cdninstagram.com/vp/e508f5dd6043d19afb40a4bd44937f0a/5D403ED7/t51.2885-19/s320x320/26865752_387804161664782_2842648710725238784_n.jpg?_nc_ht=scontent-cdg2-1.cdninstagram.com,"Photographe de la présidence de la République française #aveclepresident #emmanuelmacron #macron #president
#PhotosNonLibresDeDroits",[],['False'],[],[],[],[],[],0,0,emmanuelmacron,BqUv1eonVJQ,5c13e58b0c2acb13553863f6,[],0.0,[]
1014,1014,0.0,0.0,0.3112574675270537,0,6.718765420318252e-05,0.0691262653169952,2.219410968329005e-05,514,519,1,1,0,1,1,0.0,impersonator,1,2,1,2,2,5667489291,--,baptiste.rnde,Baptiste R.,https://scontent-cdg2-1.cdninstagram.com/vp/1f7eabb3868df8849fa17db376d5c6f0/5D438AD1/t51.2885-19/s320x320/46988078_313369882604520_1766504350739333120_n.jpg?_nc_ht=scontent-cdg2-1.cdninstagram.com,"République Française 
🔵 @enmarchefr 
⚪️ @jeunesmacron
🔴 @gouvernementfr",[],"['False', 'False', 'False']",[],[],[],[],[],0,0,emmanuelmacron,BqDcxh2nOgE,5c1407970c2acb13553a6183,[],0.0,[]
1014,1014,0.0,0.0,0.3112574675270537,0,6.718765420318252e-05,0.0691262653169952,2.219410968329005e-05,514,519,1,1,0,1,1,0.0,impersonator,1,2,1,2,2,5667489291,--,baptiste.rnde,Baptiste R.,https://scontent-cdg2-1.cdninstagram.com/vp/1f7eabb3868df8849fa17db376d5c6f0/5D438AD1/t51.2885-19/s320x320/46988078_313369882604520_1766504350739333120_n.jpg?_nc_ht=scontent-cdg2-1.cdninstagram.com,"République Française 
🔵 @enmarchefr 
⚪️ @jeunesmacron
🔴 @gouvernementfr",[],"['False', 'False', 'False']",[],[],[],[],[],0,0,emmanuelmacron,BqDBbk-n7cU,5c140e320c2acb13553acf7e,[],0.0,[]
1014,1014,0.0,0.0,0.3112574675270537,0,6.718765420318252e-05,0.0691262653169952,2.219410968329005e-05,514,519,1,1,0,1,1,0.0,impersonator,1,2,1,2,2,5667489291,--,baptiste.rnde,Baptiste R.,https://scontent-cdg2-1.cdninstagram.com/vp/1f7eabb3868df8849fa17db376d5c6f0/5D438AD1/t51.2885-19/s320x320/46988078_313369882604520_1766504350739333120_n.jpg?_nc_ht=scontent-cdg2-1.cdninstagram.com,"République Française 
🔵 @enmarchefr 
⚪️ @jeunesmacron
🔴 @gouvernementfr",[],"['False', 'False', 'False']",[],[],[],[],[],0,0,emmanuelmacron,BrYiwuHHhxm,5c14f40c0c2acb589bd84b8b,[],0.0,[]
1732,1732,0.0,0.0,0.3799783615910079,0,1.4247965580052325e-05,0.0007991475759190198,2.219410968329005e-05,109,6,1,0,0,1,1,0.0,impersonator,1,2,1,2,2,8476545526,--,gilet_jaune_he,taxevie,https://scontent-cdg2-1.cdninstagram.com/vp/d0371ef6c8fb1884f017c9f3d382eb80/5D5B7373/t51.2885-19/s320x320/46011401_382563825650518_2584481211564949504_n.jpg?_nc_ht=scontent-cdg2-1.cdninstagram.com,@emmanuelmacron,[],"['False', 'False']",[],[],[],[],[],0,0,emmanuelmacron,Bq-ojqBHW7J,5c14f9170c2acb589bd88eca,[],0.0,[]
1732,1732,0.0,0.0,0.3799783615910079,0,1.4247965580052325e-05,0.0007991475759190198,2.219410968329005e-05,109,6,1,0,0,1,1,0.0,impersonator,1,2,1,2,2,8476545526,--,gilet_jaune_he,taxevie,https://scontent-cdg2-1.cdninstagram.com/vp/d0371ef6c8fb1884f017c9f3d382eb80/5D5B7373/t51.2885-19/s320x320/46011401_382563825650518_2584481211564949504_n.jpg?_nc_ht=scontent-cdg2-1.cdninstagram.com,@emmanuelmacron,[],"['False', 'False']",[],[],[],[],[],0,0,emmanuelmacron,Bq4wJznHA4n,5c15083f0c2acb589bd969bb,[],0.0,[]
1779,1779,0.0,0.116717735460328,0.47433070649719394,0,2.0653014327048324e-05,0.09203516249334044,2.219410968329005e-05,158,691,1,1,0,1,2,0.3333333333333333,impersonator,0,0,1,2,3,8560224296,--,thomaas.m911,Futur President Français,https://scontent-cdg2-1.cdninstagram.com/vp/c5fa76893b6e4862e58d31abc36b6ab0/5D3AAE78/t51.2885-19/s320x320/56209782_788532501540155_4352650849973960704_n.jpg?_nc_ht=scontent-cdg2-1.cdninstagram.com,Futur Président de la république Française,[],"['False', 'False']",[],[],[],[],[],0,0,emmanuelmacron,Bq-ojqBHW7J,5c14fe3b0c2acb589bd8db3e,[],0.0,[]
1779,1779,0.0,0.116717735460328,0.47433070649719394,0,2.0653014327048324e-05,0.09203516249334044,2.219410968329005e-05,158,691,1,1,0,1,2,0.3333333333333333,impersonator,0,0,1,2,3,8560224296,--,thomaas.m911,Futur President Français,https://scontent-cdg2-1.cdninstagram.com/vp/c5fa76893b6e4862e58d31abc36b6ab0/5D3AAE78/t51.2885-19/s320x320/56209782_788532501540155_4352650849973960704_n.jpg?_nc_ht=scontent-cdg2-1.cdninstagram.com,Futur Président de la république Française,[],"['False', 'False']",[],[],[],[],[],0,0,emmanuelmacron,Bq4wJznHA4n,5c150b550c2acb589bd99c90,[],0.0,[]
1826,1826,0.0,0.0,0.4826796606496646,0,1.8300139277131427e-06,0.005460841768779968,2.219410968329005e-05,14,41,1,0,0,1,1,0.0,impersonator,1,2,1,2,2,8663643957,--,lafranceoff,France 🇫🇷,https://scontent-cdg2-1.cdninstagram.com/vp/c658c3ad93e82ddab54a8a6d43482b88/5D56F513/t51.2885-19/s320x320/43090740_2095469414036391_3213284992297730048_n.jpg?_nc_ht=scontent-cdg2-1.cdninstagram.com,République Française .,['False'],['False'],['2018-10-03 14:46:15'],['17923153828210971'],['BoeFpvCF6CG'],['emmanuelmacron'],['👏👏❤️'],1,1,emmanuelmacron,BoeFpvCF6CG,5c1477be0c2acb18856bc7fe,['2018-10-03 11:58:37'],10058.0,['10058.0']
1929,1929,0.0,0.0,0.3799783615910079,0,4.9410376048254855e-05,0.03835908364411295,0.0006214350711321215,378,288,28,0,0,1,1,0.0,impersonator,1,2,1,2,2,9041142025,--,florence_jeny,jenny_officiel⭕,https://scontent-cdg2-1.cdninstagram.com/vp/aeb0620b3716d3b81bdd3e44f1561d41/5D73F365/t51.2885-19/s320x320/56244854_325760868141961_4924428004865605632_n.jpg?_nc_ht=scontent-cdg2-1.cdninstagram.com,Française 🇫🇷,[],['False'],[],[],[],[],[],0,0,emmanuelmacron,BqP6FeGFfmZ,5c13efec0c2acb135538fe05,[],0.0,[]
2036,2036,0.0,0.1167177354603279,0.3799783615910079,0,2.222159769365959e-06,0.014118273841236012,4.43882193665801e-05,17,106,2,1,0,1,2,0.3333333333333333,impersonator,0,0,1,2,3,9264001552,--,francoise_lerouge,Françoise Lerouge,https://scontent-cdg2-1.cdninstagram.com/vp/63111d3bd365769cff2878510b75305f/5D70A293/t51.2885-19/s320x320/46028535_569785310142611_7589077164717244416_n.jpg?_nc_ht=scontent-cdg2-1.cdninstagram.com,🇫🇷🇫🇷🇫🇷Française 🇫🇷🇫🇷🇫🇷,[],['False'],[],[],[],[],[],0,0,emmanuelmacron,BqUv1eonVJQ,5c13dba10c2acb135537d572,[],0.0,[]
