,Unnamed: 0,username,name,bio,photo,nfollower,nfollowee,nmediacount,follower,followee,mediacount,private,verified,lcm,mcm,nmcm,class,class BGM 3,class GM 3,class kmeans 3,class spectral 3,class GM 4,owener_id,combined_owener_external_url,combined_username,combined_full_name,combined_profile_pic_url,combined_biography,combined_similarity_photo_comment,combined_similarity_photo_like,comment_created_at,comment_id,comment_post_shortcode,comment_shortcode_username,comment_text,comment_total,like_total,like_shortcode_username,like_post_shortcode,like_id,comment_post_date,comment_avg_age_sec,comment_age_sec
283,283,0.3032160644503863,0.3032160644503863,0.2150703257057708,0,0.015472244897692418,0.0938998401704848,0.07981001842111103,118366,705,3596,0,0,1,3,0.6666666666666667,impersonator,0,0,0,0,0,1569859377,--,leomessi84,Leo Messi,https://scontent-cdg2-1.cdninstagram.com/vp/861d34413656fc8ff02eb804dc5688ac/5D6EDB1B/t51.2885-19/s320x320/47694198_2197696870548604_1057339653134221312_n.jpg?_nc_ht=scontent-cdg2-1.cdninstagram.com,"My love, I love you Leo Messi❤️😍",[],['False'],[],[],[],[],[],0,0,leomessi,BqxsjDuHnIM,5c4791920c2acb1d2a276e75,[],0.0,[]
285,285,0.3032160644503863,0.2150703257057708,0.0,0,8.365777955260079e-06,0.02770378263185935,0.0023969638457953264,64,208,108,1,0,1,2,0.3333333333333333,impersonator,0,0,0,0,3,1577020396,--,_leo10messi__,LEO MESSI IS MY LIFE〽️🇸🇾,https://scontent-cdg2-1.cdninstagram.com/vp/874c246a7d77fae8ae331d50eb4462f4/5D57ADDD/t51.2885-19/s320x320/14591915_1752164908440724_6940841306964885504_a.jpg?_nc_ht=scontent-cdg2-1.cdninstagram.com,👑 I WANT TO SEE YOU ONE DAY IN MY LIFE 🙏🏽❤️ أحبك❤️,[],['False'],[],[],[],[],[],0,0,leomessi,BqxsjDuHnIM,5c47976b0c2acb1d2a27ceda,[],0.0,[]
324,324,0.0,0.3032160644503863,0.0,0,8.391921011370269e-05,0.07991475759190196,2.219410968329005e-05,642,600,1,1,0,1,1,0.0,impersonator,0,0,0,0,3,1704926119,--,abdelrahmanmedhatt,Leo Messi,https://scontent-cdg2-1.cdninstagram.com/vp/9088a938959155e34d21a81fa881c1f9/5D3EDEF8/t51.2885-19/s320x320/50905694_2230071183986563_4191160333047431168_n.jpg?_nc_ht=scontent-cdg2-1.cdninstagram.com,@wherearetheavocados👑,[],['False'],[],[],[],[],[],0,0,leomessi,BqxsjDuHnIM,5c47a1410c2acb1d2a285a3c,[],0.0,[]
450,450,0.0,0.3032160644503863,0.0,0,0.004393471294597603,0.027970165157165692,0.0013094524713141132,33611,210,59,0,0,1,1,0.0,impersonator,0,0,0,0,3,2140669760,--,7amoodah.aljboor,Official Account✨,https://scontent-cdg2-1.cdninstagram.com/vp/d9fad7e60490aab16ab57e49e949c767/5D3845B4/t51.2885-19/s320x320/56681394_405751790206140_2950335377765826560_n.jpg?_nc_ht=scontent-cdg2-1.cdninstagram.com,"‏• Hamoodah 📍🇺🇸
‏•JORDAN/ZARQA 🌎💙
‏•SNAP: ALJBOOR9 
.
.
# نصلي طالبين الأفضل ، ونستعد للأسوء🖤🚶‍♂️ .
.
.",[],['False'],[],[],[],[],[],0,0,leomessi,BqxsjDuHnIM,5c47945e0c2acb1d2a279bb3,[],0.0,[]
499,499,0.0,0.3032160644503863,0.0,0,0.0003002529994255063,0.13998401704848162,0.00028852342588277073,2297,1051,13,0,0,1,1,0.0,impersonator,0,0,0,0,3,2323125665,--,dede.ag,Instagram.,https://scontent-cdg2-1.cdninstagram.com/vp/982bd4fdd371244e17325b603b6172f6/5D6D29E7/t51.2885-19/s320x320/37659804_207072393319516_7232504229569495040_n.jpg?_nc_ht=scontent-cdg2-1.cdninstagram.com,📍 KDR,[],['False'],[],[],[],[],[],0,0,leomessi,BqxsjDuHnIM,5c47ab670c2acb1d2a28ef13,[],0.0,[]
520,520,0.0,0.3032160644503863,0.0,0,0.00046730712796960613,0.012386787426744804,0.0015091994584637235,3575,93,68,1,0,1,1,0.0,impersonator,0,0,0,0,3,2512226348,--,___emran.afg___,Official Account,https://scontent-cdg2-1.cdninstagram.com/vp/c95aa7294b5b98e6f986bdd4954dae50/5D3CE9EF/t51.2885-19/s320x320/56470500_445462676223196_8360376956625092608_n.jpg?_nc_ht=scontent-cdg2-1.cdninstagram.com,"Public Figure
Boss In Tajikistan 🇹🇯
King Of Love ❤",[],['False'],[],[],[],[],[],0,0,leomessi,BqxsjDuHnIM,5c47a8b90c2acb1d2a28c6df,[],0.0,[]
552,552,0.0,0.3032160644503863,0.0,0,0.0020330147584087504,0.06619605753862548,0.00024413520651619058,15553,497,11,0,0,1,1,0.0,impersonator,0,0,0,0,3,2928435617,--,rezhyar_lm,Leo MessiⓂ️,https://scontent-cdg2-1.cdninstagram.com/vp/430a37bb9c73fdf25b30c0201020fc11/5D735E93/t51.2885-19/s320x320/57488424_1044555739221287_8325568518728712192_n.jpg?_nc_ht=scontent-cdg2-1.cdninstagram.com,"UNI🏛soran
micro biologist🔬🏥
FCbarcelona❤️💙 12:12AM
    hep düş lerimde  oldağun, yetmezmi?? birazda gel yanimda ol .....""",[],['False'],[],[],[],[],[],0,0,leomessi,BqxsjDuHnIM,5c47916e0c2acb1d2a276b48,[],0.0,[]
658,658,0.1216033147861901,0.3032160644503863,0.0,0,0.0004826008157940659,0.01758124667021843,0.00015535876778303038,3692,132,7,0,0,1,2,0.3333333333333333,impersonator,0,0,0,0,3,3487139416,--,leo_havoka,LEO MESSI,https://scontent-cdg2-1.cdninstagram.com/vp/734266accc92cbe2c687837bb6475bac/5D773A4F/t51.2885-19/s320x320/52286688_2548809955138618_4047022901335949312_n.jpg?_nc_ht=scontent-cdg2-1.cdninstagram.com,"⌛کات هەرگیز دەرمانی ئازاری نەکردووە 
ئەوە ئێمەین بە تێپەربوونی کات لەگەل ئازارەکانمان
رادێن!!
:
:
:
:
🎵زەکەریا❤
:
:
:
:
:
⚽لیۆ❤
:
:
:
:",['False'],['False'],['2018-11-27 20:54:26'],['18004372498054496'],['BqspT5xlC9J'],['leomessi'],['Leo💓'],1,1,leomessi,BqxsjDuHnIM,5c47a3f50c2acb1d2a28840b,['2018-11-27 20:42:22'],724.0,['724.0']
664,664,0.0,0.3032160644503863,0.0,0,0.00014927685038917208,0.11014917421417154,0.0005326586323989613,1142,827,24,0,0,1,1,0.0,impersonator,0,0,0,0,3,3516385792,--,rizal_zoey10,WELCOME MY ACCOUNT,https://scontent-cdg2-1.cdninstagram.com/vp/20d2d17f08e75eb0e6da800cdf15103e/5D541249/t51.2885-19/s320x320/49365962_770508966653800_7481756239911714816_n.jpg?_nc_ht=scontent-cdg2-1.cdninstagram.com,Bekasi📍🇮🇩,[],['False'],[],[],[],[],[],0,0,leomessi,BqxsjDuHnIM,5c47a16c0c2acb1d2a285e78,[],0.0,[]
667,667,0.0,0.3032160644503863,0.0,0,0.0034721899972745864,0.0005327650506126798,0.0025523226135783558,26563,4,115,0,0,1,1,0.0,impersonator,0,0,0,0,3,3534969674,--,omid.4444ss,#leomessi,https://scontent-cdg2-1.cdninstagram.com/vp/c942e47026c19f9414c5cba92fc50866/5D783476/t51.2885-19/s320x320/47585364_339120910021529_1496031194750386176_n.jpg?_nc_ht=scontent-cdg2-1.cdninstagram.com,تبلیغات پذیرفته میشود .هزینه هم واسه کمک به مرد کرمانشاه💙😢❤,[],['False'],[],[],[],[],[],0,0,leomessi,BqxsjDuHnIM,5c4791570c2acb1d2a276886,[],0.0,[]
795,795,0.0,0.3032160644503863,0.043997326267831816,0,3.0848806210021546e-05,0.04675013319126265,0.001287258361630823,236,351,58,1,0,1,2,0.3333333333333333,impersonator,0,0,0,0,3,4251648462,--,muhammadahmedhasan,Leo Messi 10,https://scontent-cdg2-1.cdninstagram.com/vp/ae29924fe865bf103f299418caf22ca9/5D767A4A/t51.2885-19/s320x320/54201505_2308951969123901_6827445631955501056_n.jpg?_nc_ht=scontent-cdg2-1.cdninstagram.com,"Syed 😍🙏
Bahrian 😎
ForçaBarça 💪😍😘
Visça El Barça 😘😍💪
Leo 😎😍
Blow Candles on #4 August 🍰🎉
Proud To Be a Muslim 😎
Ahl-e-Bait {a.s} 🙏",[],['False'],[],[],[],[],[],0,0,leomessi,BqxsjDuHnIM,5c4797420c2acb1d2a27caa1,[],0.0,[]
838,838,0.2097553962782169,0.3032160644503863,0.051171029771728015,0,0.005467035893762464,0.011188066062866276,0.003329116452493508,41824,84,150,0,0,1,3,0.6666666666666667,impersonator,0,0,0,0,0,4474280979,--,amko.official,acuent official 🌐,https://scontent-cdg2-1.cdninstagram.com/vp/4d594e1cddd33d91ca255f2b45089662/5D3ACD19/t51.2885-19/s320x320/54248050_1645273232285178_5853612838978846720_n.jpg?_nc_ht=scontent-cdg2-1.cdninstagram.com,"💢:YouTube📍amko official 
👻: snapchat amko kordi 
Guitar & song 🎙
Comedian 😄
🎬:actor ...",[],['False'],[],[],[],[],[],0,0,leomessi,BqxsjDuHnIM,5c47a8dc0c2acb1d2a28c9c2,[],0.0,[]
855,855,0.0,0.3032160644503863,0.1152155433779312,0,6.927909869199754e-05,0.01598295151838039,0.00017755287746632043,530,120,8,0,0,1,2,0.3333333333333333,impersonator,0,0,0,0,3,4560201347,--,lm_praveen_10,LEO MESSI,https://scontent-cdg2-1.cdninstagram.com/vp/fb85dc7012a5d8805b42cbce27fecbc0/5D6F134A/t51.2885-19/s320x320/58410811_605765283221323_4055571067370995712_n.jpg?_nc_ht=scontent-cdg2-1.cdninstagram.com,"SEKSARIAN📚
FOOT BALL⚽=LIFE
👑LEO MESSI😘
🔵🔴FORÇA BARÇA!",[],['False'],[],[],[],[],[],0,0,leomessi,BqxsjDuHnIM,5c47af390c2acb1d2a29351c,[],0.0,[]
918,918,0.1216033147861901,0.1216033147861901,0.3924425991293043,0,0.001562570463705922,0.5193127330847096,0.00015535876778303038,11954,3899,7,0,0,1,3,0.6666666666666667,impersonator,0,0,0,2,3,5007785833,--,leonoam,Leo Noam🦁,https://scontent-cdg2-1.cdninstagram.com/vp/bfa189925c9d6bf9365d4f544dcfb79c/5D3C2A49/t51.2885-19/s320x320/49279947_289845205054140_2601760350328061952_n.jpg?_nc_ht=scontent-cdg2-1.cdninstagram.com,.Bienvenue sur le compte officiel Instagram de Leo Noam / welcome to the Official leo Noam Instagram account #leonoam👑⚽️🔟🔵🔴,[],['False'],[],[],[],[],[],0,0,leomessi,BqxsjDuHnIM,5c47a0e00c2acb1d2a28502f,[],0.0,[]
928,928,0.0,0.3032160644503863,0.0,0,0.007674816982267818,0.277437400106553,0.003928357413942339,58714,2083,177,0,0,1,1,0.0,impersonator,0,0,0,0,0,5323456516,--,fcb7comps,Leomessi 👑🇦🇪,https://scontent-cdg2-1.cdninstagram.com/vp/29cb2361cb9bfe24e7b19adf156a8aca/5D56B619/t51.2885-19/s320x320/53000070_466398510564769_7790223797587542016_n.jpg?_nc_ht=scontent-cdg2-1.cdninstagram.com,"The G.O.A.T 🐐♥️
Barcelona Editors 🎬
🔵🔴 Visca Barca
{يا كَاتِب التَّاريخ لا تُغلِق الصَّفَحات}🎶😴",[],['False'],[],[],[],[],[],0,0,leomessi,BqxsjDuHnIM,5c47976f0c2acb1d2a27cf63,[],0.0,[]
936,936,0.3032160644503863,0.2097553962782169,0.0,0,0.0017538069191519454,0.010122535961640916,0.008123044144084159,13417,76,366,0,0,1,2,0.3333333333333333,impersonator,0,0,0,0,3,5352310970,--,leomessi10.fp,↬ Leo Meѕѕι Fαɴpαɢe,https://scontent-cdg2-1.cdninstagram.com/vp/05810e12183d660460cbc1c580eca56c/5D3CDA38/t51.2885-19/s320x320/45956932_925617547632450_2793584550523961344_n.jpg?_nc_ht=scontent-cdg2-1.cdninstagram.com,"Lᴇᴏ Mᴇssɪ ɪs ᴛʜᴇ ʙᴇsᴛ ɪɴ ᴛʜᴇ ʜɪsᴛᴏʀʏ.♥️
 ` Vιѕcα Bαrçα y Vιѕcα Cαтαlυɴyα !
             Bαrçα Per Seмpre.♥️
↬Thanks for 13K Followers ! 👼🏼",[],['False'],[],[],[],[],[],0,0,leomessi,BqxsjDuHnIM,5c47a7000c2acb1d2a28b741,[],0.0,[]
950,950,0.0,0.3032160644503863,0.0,0,9.960504377981535e-05,0.07352157698454981,0.00028852342588277073,762,552,13,0,0,1,1,0.0,impersonator,0,0,0,0,3,5421501531,--,zargar_sahib,official Account---,https://scontent-cdg2-1.cdninstagram.com/vp/4d84ef1f07257283961219fac432f1d0/5D516D96/t51.2885-19/s320x320/55764842_380916395830549_783405612498157568_n.jpg?_nc_ht=scontent-cdg2-1.cdninstagram.com,وطنم باش تا شهیدت شوم🇦🇫,[],['False'],[],[],[],[],[],0,0,leomessi,BqxsjDuHnIM,5c479a300c2acb1d2a27f984,[],0.0,[]
961,961,0.0,0.3032160644503863,0.0,0,0.00019947151812073252,1.0,0.0017311405552966242,1526,7508,78,0,0,1,1,0.0,impersonator,0,0,0,0,3,5472594454,--,anise_hk,anis hk official account🔵,https://scontent-cdg2-1.cdninstagram.com/vp/48fefd7556083921fdc1628be56ca7e0/5D3B2185/t51.2885-19/s320x320/50331309_281421665865219_3575324518870155264_n.jpg?_nc_ht=scontent-cdg2-1.cdninstagram.com,"▫hk
▫#streetstyle & #fashion |👕👖|
▫#hypebeast /#off____white |🚫|
▫ ""Tiaret""°
▫FB🔹: Anis hk
▫17 Yrs.O
▫#photography",[],['False'],[],[],[],[],[],0,0,leomessi,BqxsjDuHnIM,5c4791350c2acb1d2a27656d,[],0.0,[]
964,964,0.3032160644503863,0.1216033147861901,0.2150703257057708,0,3.921458416528163e-06,0.04808204581779435,2.219410968329005e-05,30,361,1,0,0,1,3,0.6666666666666667,impersonator,0,0,0,0,3,5487645113,--,leo_messi_10_we,lionel_messi_10,https://scontent-cdg2-1.cdninstagram.com/vp/c030689a01b63d63156fad66cd636565/5D41B5A6/t51.2885-19/s320x320/50596053_555751221577632_2011774058814767104_n.jpg?_nc_ht=scontent-cdg2-1.cdninstagram.com,Leo messi fan,[],['False'],[],[],[],[],[],0,0,leomessi,BqxsjDuHnIM,5c479eda0c2acb1d2a283836,[],0.0,[]
1013,1013,0.0,0.3032160644503863,0.040609325769767314,0,6.901766813089567e-05,0.2610548748002131,0.0015535876778303038,528,1960,70,0,0,1,2,0.3333333333333333,impersonator,0,0,0,0,3,5666696865,--,_____.vys._____,leo.   .messi.   .10,https://scontent-cdg2-1.cdninstagram.com/vp/f52ff844eeac3856faae1a566f209ee6/5D3F7048/t51.2885-19/s320x320/49281698_2018461794896908_3427509542886309888_n.jpg?_nc_ht=scontent-cdg2-1.cdninstagram.com,"Messi.            .my god
cAkE mUrDeR nOV.. . 2...🍮🍮🍰🌀🌀
MuSiC LoVeR🎙🎙
LoVeR bIkE......RiDiNg⛽🚥
FrNdS...Is.,.,EvErYtHiNg
LiKe...FoOtBoAl👬👬👬",[],['False'],[],[],[],[],[],0,0,leomessi,BqxsjDuHnIM,5c47a9450c2acb1d2a28d372,[],0.0,[]
1095,1095,0.0,0.3032160644503863,0.0,0,0.0003071809092947061,0.0935002663825253,0.00019974698714961048,2350,702,9,1,0,1,1,0.0,impersonator,0,0,0,0,3,5951870769,--,hicham__strijder,official_account⭕,-,"[=====================]
[SFS DM ME📥😍]       
(MMA🥊) 
(========)
fighter 59 kg
(================)",[],['False'],[],[],[],[],[],0,0,leomessi,BqxsjDuHnIM,5c47a4cf0c2acb1d2a289ad4,[],0.0,[]
1149,1149,0.1216033147861901,0.1216033147861901,0.3032160644503863,0,3.5293125748753474e-05,0.06553010122535961,0.0008655702776483121,270,492,39,0,0,1,3,0.6666666666666667,impersonator,0,0,0,0,3,6165668368,--,mfa10.official,OFFICIAL FACHRI,https://scontent-cdg2-1.cdninstagram.com/vp/8d6135e3f4404e4731e9aa0ca721f134/5D5B33FB/t51.2885-19/s320x320/22277537_157358948187983_5605567602777653248_n.jpg?_nc_ht=scontent-cdg2-1.cdninstagram.com,Official account!,[],['False'],[],[],[],[],[],0,0,leomessi,BqxsjDuHnIM,5c479ca80c2acb1d2a281e49,[],0.0,[]
1207,1207,0.3032160644503863,0.3032160644503863,0.08802999024688224,0,0.0009628487565382151,0.4641715503462973,0.006857979892136626,7366,3485,309,0,0,1,3,0.6666666666666667,impersonator,0,0,0,0,3,6378440010,--,instacuervoo,instacuervo,https://scontent-cdg2-1.cdninstagram.com/vp/d6de57af686144530946e7833f6883ea/5D72C920/t51.2885-19/s320x320/50221233_389967238420353_2381236603134672896_n.jpg?_nc_ht=scontent-cdg2-1.cdninstagram.com,"Instagram dedicado a San Lorenzo de Almagro
Vas a encontrar información vinculada con el club.",[],['False'],[],[],[],[],[],0,0,leomessi,BqxsjDuHnIM,5c4799b40c2acb1d2a27ec4e,[],0.0,[]
1224,1224,0.0,0.3032160644503863,0.0,0,1.5162972543908896e-05,0.033564198188598834,0.011407772377211087,116,252,514,1,0,1,1,0.0,impersonator,0,0,0,0,3,6515467933,--,miramatov0807,👑Leo Messi👑,https://scontent-cdg2-1.cdninstagram.com/vp/ff54e34a1e457663c1129b98b23e29e6/5D73C940/t51.2885-19/s320x320/53836934_381758692406054_4970150959683469312_n.jpg?_nc_ht=scontent-cdg2-1.cdninstagram.com,Футбол,[],['False'],[],[],[],[],[],0,0,leomessi,BqxsjDuHnIM,5c479c8b0c2acb1d2a281b36,[],0.0,[]
1225,1225,0.0,0.3032160644503863,0.0,0,1.594726422721453e-05,0.008790623335109216,2.219410968329005e-05,122,66,1,0,0,1,1,0.0,impersonator,0,0,0,0,3,6537903179,--,lawna_sherzad10,Leo Messi,https://scontent-cdg2-1.cdninstagram.com/vp/98d1447f7548bdc604fe1cfd3bb5ce96/5D564854/t51.2885-19/s320x320/52980130_1198003847029429_6005836491517853696_n.jpg?_nc_ht=scontent-cdg2-1.cdninstagram.com,smile is the best makeup any girl can wear.”,[],['False'],[],[],[],[],[],0,0,leomessi,BqxsjDuHnIM,5c4799110c2acb1d2a27db68,[],0.0,[]
1308,1308,0.0942717136498496,0.3032160644503863,0.0,0,4.601177875393045e-05,0.2361481086840703,0.003639833988059569,352,1773,164,0,0,1,2,0.3333333333333333,impersonator,0,0,0,0,3,6949372203,--,leonel_messi9898,☆LEO☆_《Official》,-,ты меня не лечи и не вады рукой😎 Я уже как большой😎 и сука сам всё знаю   лучше со мной давай 🕺танцуй🕺 или играй🤗  больно или читай👩‍💻,[],['False'],[],[],[],[],[],0,0,leomessi,BqxsjDuHnIM,5c47940c0c2acb1d2a2792ae,[],0.0,[]
1334,1334,0.2097553962782169,0.3032160644503863,0.0,0,2.679663251294245e-05,0.007458710708577517,0.0005104645227156712,205,56,23,0,0,1,2,0.3333333333333333,impersonator,0,0,0,0,3,7087328929,--,3___messi___3,Leo Messi,https://scontent-cdg2-1.cdninstagram.com/vp/d8ff84041bba83afb7c53daa6c5c7bdc/5D36760D/t51.2885-19/s320x320/41305122_240264836663833_2481331387198603264_n.jpg?_nc_ht=scontent-cdg2-1.cdninstagram.com,🏆fan🏆  target 1000 subscribers,[],['False'],[],[],[],[],[],0,0,leomessi,BqxsjDuHnIM,5c4792340c2acb1d2a27804e,[],0.0,[]
1357,1357,0.1216033147861901,0.3032160644503863,0.2150703257057708,0,5.097895941486612e-06,0.0005327650506126798,2.219410968329005e-05,39,4,1,0,0,1,3,0.6666666666666667,impersonator,0,0,0,0,3,7178934407,--,messizarra,Leo Messi ❤️,-,Leo Messi fan,[],['False'],[],[],[],[],[],0,0,leomessi,BqxsjDuHnIM,5c4791e40c2acb1d2a277854,[],0.0,[]
1367,1367,0.0,0.3032160644503863,0.0,0,1.7646562874376737e-05,0.013585508790623334,0.0,135,102,0,0,0,1,1,0.0,impersonator,0,0,0,0,3,7232991829,--,lm_mesi10,leo messi,https://instagram.fyyz1-1.fna.fbcdn.net/vp/6a15ea059743aabab5376f3d6377a51a/5D5480F1/t51.2885-19/44884218_345707102882519_2446069589734326272_n.jpg?_nc_ht=instagram.fyyz1-1.fna.fbcdn.net,,[],['False'],[],[],[],[],[],0,0,leomessi,BqxsjDuHnIM,5c47a71e0c2acb1d2a28b8d9,[],0.0,[]
1490,1490,0.0,0.3032160644503863,0.0,0,1.3594389177297631e-05,0.05021310602024507,0.00015535876778303038,104,377,7,0,0,1,1,0.0,impersonator,0,0,0,0,3,7751811954,--,cuong_nguyen_sky,Leo Messi,https://scontent-cdg2-1.cdninstagram.com/vp/fffdbb6ba80e8c30b61ad317184d8a7a/5D7073F5/t51.2885-19/s320x320/36502942_835703173302714_4938672740644159488_n.jpg?_nc_ht=scontent-cdg2-1.cdninstagram.com,,[],['False'],[],[],[],[],[],0,0,leomessi,BqxsjDuHnIM,5c47975c0c2acb1d2a27cd5b,[],0.0,[]
1491,1491,0.0,0.3032160644503863,0.0,0,0.00010078148130477378,0.06126798082045817,0.0003551057549326408,771,460,16,0,0,1,1,0.0,impersonator,0,0,0,0,3,7755964452,--,lbceil,@leomessi .,https://scontent-cdg2-1.cdninstagram.com/vp/b051c2edbea6d382c01a3d48f9d6e928/5D3A2014/t51.2885-19/s320x320/56949430_2233625480224792_6272415581048143872_n.jpg?_nc_ht=scontent-cdg2-1.cdninstagram.com,"مـيـسي اولاً والبقيه تأتي 💫♥️.
حمدون عاشق ميسي","['False', 'False']",['False'],"['2018-11-20 16:24:16', '2018-11-17 17:47:11']","['18008616643041542', '17910230443254128']","['BqZyb7_FFbY', 'BqSLFVBFLfq']","['leomessi', 'leomessi']","['ياخي كسمك احبك😔', '@fcbarcelona تعال شمه']",2,1,leomessi,BqxsjDuHnIM,5c47a94e0c2acb1d2a28d440,"['2018-11-20 12:56:32', '2018-11-17 13:57:59']",13108.0,"['12464.0', '13752.0']"
1495,1495,0.2150703257057708,0.3032160644503863,0.09642199947477413,0,0.00014313323220327794,0.013185935002663823,0.013316465809974032,1095,99,600,0,0,1,3,0.6666666666666667,impersonator,0,0,0,0,3,7764127471,--,leomessi_zone,Leo Messi 👑👑,https://scontent-cdg2-1.cdninstagram.com/vp/a7bbac7454d5acda387674e6b5f598d9/5D5D0A81/t51.2885-19/s320x320/45609850_502878483551836_8443292391196065792_n.jpg?_nc_ht=scontent-cdg2-1.cdninstagram.com,"Leo Messi fan Page ✌️
❤️Born to be a Leo fan ❤️
Messi The GREATEST OF ALL TIME 😘
👑 Leo Messi the KING of football 👑
Like Leo Messi? Follow Me!!",[],['False'],[],[],[],[],[],0,0,leomessi,BqxsjDuHnIM,5c47ab480c2acb1d2a28ec4e,[],0.0,[]
1562,1562,0.0942717136498496,0.3032160644503863,0.0,0,1.3332958616195752e-05,0.15210442194992008,0.00048827041303238115,102,1142,22,0,0,1,2,0.3333333333333333,impersonator,0,0,0,0,3,8054367076,--,lionelmessi102345,LeoMessi,https://scontent-cdg2-1.cdninstagram.com/vp/42ecc4584fe08658c2a37131021b38b7/5D72444B/t51.2885-19/s320x320/35505557_1592161434229392_3446096640924975104_n.jpg?_nc_ht=scontent-cdg2-1.cdninstagram.com,,[],['False'],[],[],[],[],[],0,0,leomessi,BqxsjDuHnIM,5c47a4440c2acb1d2a288b9b,[],0.0,[]
1606,1606,0.2150703257057708,0.3032160644503863,0.058509704133672936,0,8.104347394158203e-06,0.0002663825253063399,0.003373504671860088,62,2,152,0,0,1,3,0.6666666666666667,impersonator,0,0,0,0,3,8144083095,--,leomessi6490,Leo Messi,https://scontent-cdg2-1.cdninstagram.com/vp/b28ffb7421274e18fabbaf39dbc02c62/5D5AC070/t51.2885-19/s320x320/36160927_277431042824996_4830792297564078080_n.jpg?_nc_ht=scontent-cdg2-1.cdninstagram.com,"Fan Page 🏆⚽️
Best Pictures 📸
Videos 🎬🎼
G.O.A.T Lionel Messi 🐐❤️",[],['False'],[],[],[],[],[],0,0,leomessi,BqxsjDuHnIM,5c47a3980c2acb1d2a287a89,[],0.0,[]
1618,1618,0.2496354941438124,0.3032160644503863,0.1244285461998526,0,6.7971945886488156e-06,0.0010655301012253596,0.00015535876778303038,52,8,7,0,0,1,3,0.6666666666666667,impersonator,0,0,0,0,3,8187921070,--,official_fanpage_leo_messi_10,LEO MESSI,https://scontent-cdg2-1.cdninstagram.com/vp/e35eaa67f4c542d948ed3f47cd1d2de1/5D3BCEDC/t51.2885-19/s320x320/47690805_2248330968756411_393349855340134400_n.jpg?_nc_ht=scontent-cdg2-1.cdninstagram.com,"Leo Messi 10
FCB 
32.y.o
Fanpage ⚽
Start 1.1. 2019",[],['False'],[],[],[],[],[],0,0,leomessi,BqxsjDuHnIM,5c47921c0c2acb1d2a277e27,[],0.0,[]
1628,1628,0.0,0.3032160644503863,0.0,0,2.758092419624808e-05,0.031566329248801275,0.0,211,237,0,0,0,1,1,0.0,impersonator,0,0,0,0,3,8217026575,--,b10_.1,< ❤️ leo messi 💙 >,https://scontent-cdg2-1.cdninstagram.com/vp/06d7e34f2427b4cf5b5ca7b35b9761f1/5D7442D8/t51.2885-19/s320x320/56375867_1759266724175356_1994254427652882432_n.jpg?_nc_ht=scontent-cdg2-1.cdninstagram.com,,[],['False'],[],[],[],[],[],0,0,leomessi,BqxsjDuHnIM,5c47999c0c2acb1d2a27e99b,[],0.0,[]
1705,1705,0.1216033147861901,0.3032160644503863,0.0,0,4.2743896740156984e-05,0.11494405966968566,0.00019974698714961048,327,863,9,0,0,1,2,0.3333333333333333,impersonator,0,0,0,0,3,8433522909,--,heydar_messi_10,leomessi,-,,[],['False'],[],[],[],[],[],0,0,leomessi,BqxsjDuHnIM,5c47a4590c2acb1d2a288e42,[],0.0,[]
1793,1793,0.2150703257057708,0.3032160644503863,0.0,0,6.143618185894122e-06,0.006126798082045817,0.00019974698714961048,47,46,9,0,0,1,2,0.3333333333333333,impersonator,0,0,0,0,3,8586045195,--,leomessi67878,LeoMessi,https://scontent-cdg2-1.cdninstagram.com/vp/e17f93c912026035aafd3e6678181045/5D37976E/t51.2885-19/s320x320/41380047_236182527053835_5855069490022187008_n.jpg?_nc_ht=scontent-cdg2-1.cdninstagram.com,Mamade3,[],['False'],[],[],[],[],[],0,0,leomessi,BqxsjDuHnIM,5c478d020c2acb1d2a2734aa,[],0.0,[]
1798,1798,0.2097553962782169,0.3032160644503863,0.0,0,3.8691723043077884e-05,0.004128929142248269,0.00019974698714961048,296,31,9,0,0,1,2,0.3333333333333333,impersonator,0,0,0,0,3,8601792927,--,messi10_hdr,leomessi,https://scontent-cdg2-1.cdninstagram.com/vp/7b91378ea76f4b6e0e8504f0ff8cd4d5/5D519638/t51.2885-19/s320x320/41271900_1401837313294095_917630190970994688_n.jpg?_nc_ht=scontent-cdg2-1.cdninstagram.com,,[],['False'],[],[],[],[],[],0,0,leomessi,BqxsjDuHnIM,5c47a6110c2acb1d2a289dc2,[],0.0,[]
1819,1819,0.2150703257057708,0.3032160644503863,0.1993332630528026,0,1.2287236371788244e-05,0.0019978689397975487,8.87764387331602e-05,94,15,4,0,0,1,3,0.6666666666666667,impersonator,0,0,0,0,3,8644264112,--,leoking_messi,leo messi,-,"messi_official_fan_page
flw dis pge if u love MESSI 10
@leomessi 
@fcbarcelona 
we love messi
🆔🔃📧",[],['False'],[],[],[],[],[],0,0,leomessi,BqxsjDuHnIM,5c47a3dd0c2acb1d2a288129,[],0.0,[]
1881,1881,0.2150703257057708,0.3032160644503863,0.1152155433779312,0,6.470406387271469e-05,0.040223761321257316,0.0011318995938477928,495,302,51,0,0,1,3,0.6666666666666667,impersonator,0,0,0,0,3,8917783124,--,leomessi_poland,Leo Messi,https://scontent-cdg2-1.cdninstagram.com/vp/ae01d536a0987380f5d2f4f8bcee8717/5D701DD1/t51.2885-19/s320x320/51722426_344929532801134_1653141691143553024_n.jpg?_nc_ht=scontent-cdg2-1.cdninstagram.com,"Leo Messi 🤙🏻
FC Barcelona ❤️
Edits ❤️
Acc start 02.11.2018
 @leomessi ❤
Follow 🙏🏻
Follow for Follow ❤️",[],['False'],[],[],[],[],[],0,0,leomessi,BqxsjDuHnIM,5c47abaf0c2acb1d2a28f620,[],0.0,[]
1934,1934,0.3032160644503863,0.3032160644503863,0.0,0,6.927909869199754e-06,0.01664890783164624,0.0003551057549326408,53,125,16,0,0,1,2,0.3333333333333333,impersonator,0,0,0,0,3,9055990777,--,leo_messi_nr2,Leo Messi Nr2,https://instagram.fpku2-1.fna.fbcdn.net/vp/b6ae7c1a564d0e1057638553778fa76f/5D5480F1/t51.2885-19/44884218_345707102882519_2446069589734326272_n.jpg?_nc_ht=instagram.fpku2-1.fna.fbcdn.net&_nc_cat=1,,[],['False'],[],[],[],[],[],0,0,leomessi,BqxsjDuHnIM,5c4797560c2acb1d2a27cc7c,[],0.0,[]
1971,1971,0.0,0.3032160644503863,0.0,0,4.8364653803847355e-06,0.004262120404901438,0.003639833988059569,37,32,164,0,0,1,1,0.0,impersonator,0,0,0,0,3,9172960729,--,kinglionel31,Leo Messi,-,,[],['False'],[],[],[],[],[],0,0,leomessi,BqxsjDuHnIM,5c479e670c2acb1d2a282c88,[],0.0,[]
1973,1973,0.2150703257057708,0.3032160644503863,0.0,0,8.02591822582764e-05,0.06220031965903036,0.00017755287746632043,614,467,8,0,0,1,2,0.3333333333333333,impersonator,0,0,0,0,3,9178632307,--,leomessi62600,leomessi62,https://scontent-cdg2-1.cdninstagram.com/vp/80998c51875cfdc0b54631bcc7d6d9f0/5D375677/t51.2885-19/s320x320/57085383_443783713059392_228964899823288320_n.jpg?_nc_ht=scontent-cdg2-1.cdninstagram.com,"February 1984
Iran.shiraz
Interested in sport⚽🏃",[],['False'],[],[],[],[],[],0,0,leomessi,BqxsjDuHnIM,5c479c890c2acb1d2a281ac6,[],0.0,[]
2018,2018,0.2097553962782169,0.3032160644503863,0.0,0,5.7514723442413065e-06,0.0013319126265316993,0.00026632931619948065,44,10,12,0,0,1,2,0.3333333333333333,impersonator,0,0,0,0,3,9240847242,--,_10_messi_10_10,leo messi,https://scontent-cdg2-1.cdninstagram.com/vp/39227f73cee3dd503885de94c0cbb906/5D7404D7/t51.2885-19/s320x320/46132996_260414081305584_6590912132173266944_n.jpg?_nc_ht=scontent-cdg2-1.cdninstagram.com,,[],['False'],[],[],[],[],[],0,0,leomessi,BqxsjDuHnIM,5c47a9c90c2acb1d2a28e1e7,[],0.0,[]
2024,2024,0.2150703257057708,0.3032160644503863,0.0,0,1.0587937724626041e-05,0.0006659563132658497,4.43882193665801e-05,81,5,2,0,0,1,2,0.3333333333333333,impersonator,0,0,0,0,3,9251455124,--,leomessi.messi.1441810,Leo Messi Messi,https://scontent-cdg2-1.cdninstagram.com/vp/20c5bef5660cea920552f81dc17b7348/5D438E2D/t51.2885-19/s320x320/45350939_194519761493247_7481679587630383104_n.jpg?_nc_ht=scontent-cdg2-1.cdninstagram.com,,[],['False'],[],[],[],[],[],0,0,leomessi,BqxsjDuHnIM,5c47a6fe0c2acb1d2a28b6e9,[],0.0,[]
2040,2040,0.2150703257057708,0.3032160644503863,0.0,0,4.575034819282857e-06,0.008391049547149707,6.658232904987016e-05,35,63,3,0,0,1,2,0.3333333333333333,impersonator,0,0,0,0,3,9274406313,--,leomessi8469,Leo Messi,https://scontent-cdg2-1.cdninstagram.com/vp/6ae65a97eb17ef36b991f76910f6b451/5D6F231A/t51.2885-19/s320x320/46161489_2167066146849401_7948280264822620160_n.jpg?_nc_ht=scontent-cdg2-1.cdninstagram.com,⚽⚽⚽,[],['False'],[],[],[],[],[],0,0,leomessi,BqxsjDuHnIM,5c478f3c0c2acb1d2a274ff2,[],0.0,[]
2052,2052,0.2150703257057708,0.3032160644503863,0.09642199947477413,0,0.00019306646937373656,0.08870538092701118,0.0013982289100472733,1477,666,63,0,0,1,3,0.6666666666666667,impersonator,0,0,0,0,3,9301241589,--,leomessifans04,Leomessi,-,"🔥King of football leoMessi🔥
👑Best player in the world👑
💗I love you LeOmEsSi 💗
@leomessi #messi10king10
@paulodybala @paulodybala1.2
@messimaniac","['False', 'False', 'False', 'False']",['False'],"['2018-11-30 03:08:28', '2018-11-28 19:50:31', '2018-11-24 16:16:05', '2018-11-24 22:49:28']","['18004843978012224', '17991083389098761', '17882596783285198', '17974512853177592']","['BqxgsuYnITA', 'BqspT5xlC9J', 'Bqe7TlHFzct', 'BqZyb7_FFbY']","['leomessi', 'leomessi', 'leomessi', 'leomessi']","['😍😍😍😍😍😍😍😍143', '😍', '😍😍😍😍', '😍']",4,1,leomessi,BqxsjDuHnIM,5c478fd50c2acb1d2a275ece,"['2018-11-29 18:03:19', '2018-11-27 20:42:22', '2018-11-22 12:50:14', '2018-11-20 12:56:32']",170581.25,"['32709.0', '83289.0', '185151.0', '381176.0']"
2152,2152,0.3032160644503863,0.3032160644503863,0.0,0,0.0001146373010431733,0.5764517847629195,0.002863040149144417,877,4328,129,0,0,1,2,0.3333333333333333,impersonator,0,0,0,0,3,9537296483,--,leo_messi_10_leo_messi_10,leo messi,https://scontent-cdg2-1.cdninstagram.com/vp/e04dd2ba3965b0fb08c88906c4f17de8/5D386076/t51.2885-19/s320x320/52831253_374980490010356_1287113235169804288_n.jpg?_nc_ht=scontent-cdg2-1.cdninstagram.com,,[],['False'],[],[],[],[],[],0,0,leomessi,BqxsjDuHnIM,5c4797280c2acb1d2a27c718,[],0.0,[]
2153,2153,0.3032160644503863,0.3032160644503863,0.0,0,2.8757361721206533e-06,0.009856153436334577,0.0014204230197305634,22,74,64,1,0,1,2,0.3333333333333333,impersonator,0,0,0,0,3,9537556401,--,messi_leo35,messi_leo,https://instagram.fvno2-1.fna.fbcdn.net/vp/abe12931f9fd159a2d5bdea82f9b33ef/5D5480F1/t51.2885-19/44884218_345707102882519_2446069589734326272_n.jpg?_nc_ht=instagram.fvno2-1.fna.fbcdn.net,,[],['False'],[],[],[],[],[],0,0,leomessi,BqxsjDuHnIM,5c47947b0c2acb1d2a279e5e,[],0.0,[]
2163,2163,0.2097553962782169,0.3032160644503863,0.0,0,4.967180660935673e-06,0.007458710708577517,0.00024413520651619058,38,56,11,0,0,1,2,0.3333333333333333,impersonator,0,0,0,0,3,9626923324,--,mo10messi10,"Leo""messi",https://scontent-cdg2-1.cdninstagram.com/vp/6ae788379378da86591d0c0adc2fa1aa/5D51231E/t51.2885-19/s320x320/47153317_354455561999345_4255042632931082240_n.jpg?_nc_ht=scontent-cdg2-1.cdninstagram.com,,[],['False'],[],[],[],[],[],0,0,leomessi,BqxsjDuHnIM,5c479f2f0c2acb1d2a28422b,[],0.0,[]
2166,2166,0.2150703257057708,0.3032160644503863,0.0,0,1.581654894666359e-05,0.0006659563132658497,0.00019974698714961048,121,5,9,0,0,1,2,0.3333333333333333,impersonator,0,0,0,0,3,9632392525,--,leo_messi345,leo messi,https://scontent-cdg2-1.cdninstagram.com/vp/af5b495e3b6f076d04e11958b0520d54/5D586636/t51.2885-19/s320x320/47581874_276926403017575_2939722526462312448_n.jpg?_nc_ht=scontent-cdg2-1.cdninstagram.com,"Plaing football 😍
Run
Jump
Gooooool",[],['False'],[],[],[],[],[],0,0,leomessi,BqxsjDuHnIM,5c479f930c2acb1d2a284c17,[],0.0,[]
2177,2177,0.3032160644503863,0.3032160644503863,0.0,0,6.143618185894122e-06,0.007991475759190195,6.658232904987016e-05,47,60,3,0,0,1,2,0.3333333333333333,impersonator,0,0,0,0,3,9655475104,--,10___messi___10__leo,10___MESSI___10__leo,https://scontent-cdg2-1.cdninstagram.com/vp/6b5e60dd42f1552ea8691fdd92f45fd0/5D6D42E2/t51.2885-19/s320x320/46477855_2172297523024048_205044895512002560_n.jpg?_nc_ht=scontent-cdg2-1.cdninstagram.com,,[],['False'],[],[],[],[],[],0,0,leomessi,BqxsjDuHnIM,5c479c570c2acb1d2a28149c,[],0.0,[]
2214,2214,0.3032160644503863,0.3032160644503863,0.0,0,1.3071528055093874e-07,0.0010655301012253596,0.0,1,8,0,0,0,1,2,0.3333333333333333,impersonator,0,0,0,0,3,9906311050,--,messileo38,Messi Leo,https://scontent-mad1-1.cdninstagram.com/vp/a3b395b5a1b94924c4ba240b2c1f0895/5D5480F1/t51.2885-19/44884218_345707102882519_2446069589734326272_n.jpg?_nc_ht=scontent-mad1-1.cdninstagram.com,,[],['False'],[],[],[],[],[],0,0,leomessi,BqxsjDuHnIM,5c47947d0c2acb1d2a279ebf,[],0.0,[]
2215,2215,0.3032160644503863,0.1216033147861901,0.0,0,3.071809092947061e-05,0.021843367075119868,0.0013982289100472733,235,164,63,0,0,1,2,0.3333333333333333,impersonator,0,0,0,0,3,9912989675,--,leo_messi.et,Lionel Messi,https://scontent-cdg2-1.cdninstagram.com/vp/7db1ff00bd95b489b38e3e2bbf513701/5D743BED/t51.2885-19/s320x320/47694184_931876967201483_8231684107050942464_n.jpg?_nc_ht=scontent-cdg2-1.cdninstagram.com,Sigam meu perfil principal @mariaclara7314 e @elainespiller2356,[],['False'],[],[],[],[],[],0,0,leomessi,BqxsjDuHnIM,5c4794660c2acb1d2a279c77,[],0.0,[]
2248,2248,0.0,0.3032160644503863,0.0,0,2.352875049916898e-06,0.002797016515716569,2.219410968329005e-05,18,21,1,0,0,1,1,0.0,impersonator,0,0,0,0,3,10122103257,--,nursulu.muxtar1999,leo_messi,https://scontent-cdg2-1.cdninstagram.com/vp/497792cd911d42869328187a9429ad29/5D3E34F9/t51.2885-19/s320x320/49858396_133096517636578_4481056787142803456_n.jpg?_nc_ht=scontent-cdg2-1.cdninstagram.com,Спортсмен,[],['False'],[],[],[],[],[],0,0,leomessi,BqxsjDuHnIM,5c478fdc0c2acb1d2a275fe9,[],0.0,[]
2271,2271,0.2150703257057708,0.3032160644503863,0.0,0,1.176437524958449e-06,0.014251465103889185,0.0,9,107,0,0,0,1,2,0.3333333333333333,impersonator,0,0,0,0,3,10244528687,--,leomessi1865,Leo Messi,https://scontent-cdg2-1.cdninstagram.com/vp/285cdb1853e46c52cc1765d62ce650f3/5D36BF29/t51.2885-19/s320x320/49555946_210145389820125_7360552864114016256_n.jpg?_nc_ht=scontent-cdg2-1.cdninstagram.com,,[],['False'],[],[],[],[],[],0,0,leomessi,BqxsjDuHnIM,5c478fb90c2acb1d2a275c7e,[],0.0,[]
2274,2274,0.2150703257057708,0.3032160644503863,0.0,0,1.9607292082640814e-06,0.006393180607352157,0.00022194109683290053,15,48,10,0,0,1,2,0.3333333333333333,impersonator,0,0,0,0,3,10337484898,--,leomessi1733,Leo Messi,https://scontent-cdg2-1.cdninstagram.com/vp/36d9e9dd420eb584c3d91993ee847fad/5D572158/t51.2885-19/s320x320/54428479_2179336602126377_8165597522576801792_n.jpg?_nc_ht=scontent-cdg2-1.cdninstagram.com,,[],['False'],[],[],[],[],[],0,0,leomessi,BqxsjDuHnIM,5c478ece0c2acb1d2a274368,[],0.0,[]
2283,2283,0.0,0.3032160644503863,0.1362763414390864,0,2.0914444888150198e-06,0.0037293553542887587,2.219410968329005e-05,16,28,1,1,0,1,2,0.3333333333333333,impersonator,0,0,0,0,3,10486960338,--,kaltecheanm,leo messi,https://scontent-cdg2-1.cdninstagram.com/vp/12a87337a566438a077fc0de8b6c898e/5D50D8B7/t51.2885-19/s320x320/51135436_1804345646338034_742010507245912064_n.jpg?_nc_ht=scontent-cdg2-1.cdninstagram.com,@fcbarcelona 🏆       @afaseleccion 🏆   @leomessi  24/6/ 1987🎂,[],['False'],[],[],[],[],[],0,0,leomessi,BqxsjDuHnIM,5c478e940c2acb1d2a273d91,[],0.0,[]
