,Unnamed: 0,username,name,bio,photo,nfollower,nfollowee,nmediacount,follower,followee,mediacount,private,verified,lcm,mcm,nmcm,class,class BGM 3,class GM 3,class kmeans 3,class spectral 3,class GM 4,owener_id,combined_owener_external_url,combined_username,combined_full_name,combined_profile_pic_url,combined_biography,combined_similarity_photo_comment,combined_similarity_photo_like,comment_created_at,comment_id,comment_post_shortcode,comment_shortcode_username,comment_text,comment_total,like_total,like_shortcode_username,like_post_shortcode,like_id,comment_post_date,comment_avg_age_sec,comment_age_sec
201,201,0.0,0.0,0.4103626449521847,1,1.0587937724626041e-05,0.03915823122003197,0.006480680027520696,81,294,292,0,0,1,2,0.3333333333333333,impersonator,2,1,2,1,1,1282609285,http://gmail.com/cristianoronaldo.com,ronak_kajla,Ronak Kajla,https://scontent-cdg2-1.cdninstagram.com/vp/f3ff2b17d05fd3feabe7b40c072605ed/5D777E2B/t51.2885-19/s320x320/53817205_2144092905880997_9114916879905849344_n.jpg?_nc_ht=scontent-cdg2-1.cdninstagram.com,Want to be like Cristiano Ronaldo and want to play like him in @realmadrid,True,['True'],2018-12-02 13:57:45,18005590267001847,BqtB6QNgOjb,cristiano,Gud one sir.,8,1,['cristiano'],['BqtB6QNgOjb'],['5c47b55c9c86fa5ea38865ed'],2018-11-28 00:17:19,315009.5,394826.0
201,201,0.0,0.0,0.4103626449521847,1,1.0587937724626041e-05,0.03915823122003197,0.006480680027520696,81,294,292,0,0,1,2,0.3333333333333333,impersonator,2,1,2,1,1,1282609285,http://gmail.com/cristianoronaldo.com,ronak_kajla,Ronak Kajla,https://scontent-cdg2-1.cdninstagram.com/vp/f3ff2b17d05fd3feabe7b40c072605ed/5D777E2B/t51.2885-19/s320x320/53817205_2144092905880997_9114916879905849344_n.jpg?_nc_ht=scontent-cdg2-1.cdninstagram.com,Want to be like Cristiano Ronaldo and want to play like him in @realmadrid,True,['True'],2018-12-02 13:51:43,17977032442149216,Bqp3fKwg4K5,cristiano,Me too sir.,8,1,['cristiano'],['BqtB6QNgOjb'],['5c47b55c9c86fa5ea38865ed'],2018-11-26 18:48:31,315009.5,500592.0
201,201,0.0,0.0,0.4103626449521847,1,1.0587937724626041e-05,0.03915823122003197,0.006480680027520696,81,294,292,0,0,1,2,0.3333333333333333,impersonator,2,1,2,1,1,1282609285,http://gmail.com/cristianoronaldo.com,ronak_kajla,Ronak Kajla,https://scontent-cdg2-1.cdninstagram.com/vp/f3ff2b17d05fd3feabe7b40c072605ed/5D777E2B/t51.2885-19/s320x320/53817205_2144092905880997_9114916879905849344_n.jpg?_nc_ht=scontent-cdg2-1.cdninstagram.com,Want to be like Cristiano Ronaldo and want to play like him in @realmadrid,True,['True'],2018-12-02 13:49:14,18006748945057758,BqnF5LsAwAQ,cristiano,Gud one sir.,8,1,['cristiano'],['BqtB6QNgOjb'],['5c47b55c9c86fa5ea38865ed'],2018-11-25 16:56:41,315009.5,593553.0
201,201,0.0,0.0,0.4103626449521847,1,1.0587937724626041e-05,0.03915823122003197,0.006480680027520696,81,294,292,0,0,1,2,0.3333333333333333,impersonator,2,1,2,1,1,1282609285,http://gmail.com/cristianoronaldo.com,ronak_kajla,Ronak Kajla,https://scontent-cdg2-1.cdninstagram.com/vp/f3ff2b17d05fd3feabe7b40c072605ed/5D777E2B/t51.2885-19/s320x320/53817205_2144092905880997_9114916879905849344_n.jpg?_nc_ht=scontent-cdg2-1.cdninstagram.com,Want to be like Cristiano Ronaldo and want to play like him in @realmadrid,True,['True'],2018-12-02 13:47:27,17931859381236764,BqlJ_88gk5v,cristiano,Nice one sir.,8,1,['cristiano'],['BqtB6QNgOjb'],['5c47b55c9c86fa5ea38865ed'],2018-11-24 22:55:06,315009.5,658341.0
201,201,0.0,0.0,0.4103626449521847,1,1.0587937724626041e-05,0.03915823122003197,0.006480680027520696,81,294,292,0,0,1,2,0.3333333333333333,impersonator,2,1,2,1,1,1282609285,http://gmail.com/cristianoronaldo.com,ronak_kajla,Ronak Kajla,https://scontent-cdg2-1.cdninstagram.com/vp/f3ff2b17d05fd3feabe7b40c072605ed/5D777E2B/t51.2885-19/s320x320/53817205_2144092905880997_9114916879905849344_n.jpg?_nc_ht=scontent-cdg2-1.cdninstagram.com,Want to be like Cristiano Ronaldo and want to play like him in @realmadrid,True,['True'],2018-11-24 14:00:00,17912895556253967,BqhvdSdgwwW,cristiano,Wow sir.,8,1,['cristiano'],['BqtB6QNgOjb'],['5c47b55c9c86fa5ea38865ed'],2018-11-23 15:04:26,315009.5,82534.0
201,201,0.0,0.0,0.4103626449521847,1,1.0587937724626041e-05,0.03915823122003197,0.006480680027520696,81,294,292,0,0,1,2,0.3333333333333333,impersonator,2,1,2,1,1,1282609285,http://gmail.com/cristianoronaldo.com,ronak_kajla,Ronak Kajla,https://scontent-cdg2-1.cdninstagram.com/vp/f3ff2b17d05fd3feabe7b40c072605ed/5D777E2B/t51.2885-19/s320x320/53817205_2144092905880997_9114916879905849344_n.jpg?_nc_ht=scontent-cdg2-1.cdninstagram.com,Want to be like Cristiano Ronaldo and want to play like him in @realmadrid,True,['True'],2018-11-23 10:29:46,17984921644124579,BqhIAnrAeyE,cristiano,Good one sir.,8,1,['cristiano'],['BqtB6QNgOjb'],['5c47b55c9c86fa5ea38865ed'],2018-11-23 09:19:44,315009.5,4202.0
201,201,0.0,0.0,0.4103626449521847,1,1.0587937724626041e-05,0.03915823122003197,0.006480680027520696,81,294,292,0,0,1,2,0.3333333333333333,impersonator,2,1,2,1,1,1282609285,http://gmail.com/cristianoronaldo.com,ronak_kajla,Ronak Kajla,https://scontent-cdg2-1.cdninstagram.com/vp/f3ff2b17d05fd3feabe7b40c072605ed/5D777E2B/t51.2885-19/s320x320/53817205_2144092905880997_9114916879905849344_n.jpg?_nc_ht=scontent-cdg2-1.cdninstagram.com,Want to be like Cristiano Ronaldo and want to play like him in @realmadrid,True,['True'],2018-11-23 10:27:36,17988984883113375,BqfiaPpgNFR,cristiano,I will get it sir.,8,1,['cristiano'],['BqtB6QNgOjb'],['5c47b55c9c86fa5ea38865ed'],2018-11-22 18:31:56,315009.5,57340.0
201,201,0.0,0.0,0.4103626449521847,1,1.0587937724626041e-05,0.03915823122003197,0.006480680027520696,81,294,292,0,0,1,2,0.3333333333333333,impersonator,2,1,2,1,1,1282609285,http://gmail.com/cristianoronaldo.com,ronak_kajla,Ronak Kajla,https://scontent-cdg2-1.cdninstagram.com/vp/f3ff2b17d05fd3feabe7b40c072605ed/5D777E2B/t51.2885-19/s320x320/53817205_2144092905880997_9114916879905849344_n.jpg?_nc_ht=scontent-cdg2-1.cdninstagram.com,Want to be like Cristiano Ronaldo and want to play like him in @realmadrid,True,['True'],2018-11-23 10:27:09,18002490097023892,BqabicCAJkR,cristiano,Wow sir.,8,1,['cristiano'],['BqtB6QNgOjb'],['5c47b55c9c86fa5ea38865ed'],2018-11-20 18:55:41,315009.5,228688.0
382,382,0.0,1.0,0.0,1,0.0004326675786236073,0.1772775705913692,0.014981024036220788,3310,1331,675,0,0,1,2,0.3333333333333333,impersonator,2,1,2,1,1,1929317708,http://sayat.me/CR7Toomy,_fofe.99_,Cristiano Ronaldo,https://scontent-cdg2-1.cdninstagram.com/vp/6e5fbf548095578fe3b62c136507c179/5D73CFA5/t51.2885-19/s320x320/57122349_2304452746547639_8196280146169167872_n.jpg?_nc_ht=scontent-cdg2-1.cdninstagram.com,"I'm Fatma
Albayda💙
.
.
.
.
.
CR7🔐❤",True,['True'],2018-11-23 09:29:13,18002641141050429,BqhIAnrAeyE,cristiano,ناعللللييي أنا😭❤❤❤💜❤😍,1,1,['cristiano'],['BqtB6QNgOjb'],['5c47b5059c86fa5ea3885dca'],2018-11-23 09:19:44,569.0,569.0
455,455,0.0,0.0,0.3360969272762576,1,3.097952149057249e-05,0.15183803942461374,0.0015313935681470134,237,1140,69,1,0,1,2,0.3333333333333333,impersonator,2,1,2,1,1,2176981808,--,manar_ben_salam,CR7 *M,https://scontent-cdg2-1.cdninstagram.com/vp/0615ba5551483617c4b1dcc19fefd090/5D418FDC/t51.2885-19/s320x320/40546029_323151991594784_907170970647658496_n.jpg?_nc_ht=scontent-cdg2-1.cdninstagram.com,"♥CR7 MANAR♥
 :(RONALDO",True,['True'],2018-11-23 11:40:43,17940045889209600,BqhIAnrAeyE,cristiano,My love♥♥♥,1,1,['cristiano'],['BqtB6QNgOjb'],['5c47a5c29c86fa5ea3877c1e'],2018-11-23 09:19:44,8459.0,8459.0
578,578,1.0,0.5797386715376658,0.3554767779546839,1,0.0025050276364781904,0.009989344698987743,0.03895066249417405,19164,75,1755,0,0,1,4,1.0,impersonator,2,1,2,1,1,3066167915,http://www.facbook.com/cristiano,cristiano____7____ronaldo,Cristiano Ronaldo • Fan-page,https://scontent-cdg2-1.cdninstagram.com/vp/f4be71d72ba5e42f6b25be832cbc7c94/5D510BC1/t51.2885-19/s320x320/56264454_362794761112881_960077425771806720_n.jpg?_nc_ht=scontent-cdg2-1.cdninstagram.com,"Criatiano is the best in the world
🌺WELCOME🌺
👆19K...🔜...20k🔒👆
👉👑Cristiano Ronaldo👑👈
👉⭐Follow me⭐👈 
  ✌CR7✌ ✌©®⑦✌
💪cristiano my hero💪
🙌F",True,['True'],2018-11-23 10:04:07,17988228853097009,BqhIAnrAeyE,cristiano,👌👌❤️💪siiiiiiiiimmmmm @cristiano,3,1,['cristiano'],['BqtB6QNgOjb'],['5c47beb09c86fa5ea388e775'],2018-11-23 09:19:44,2642.3333333333335,2663.0
578,578,1.0,0.5797386715376658,0.3554767779546839,1,0.0025050276364781904,0.009989344698987743,0.03895066249417405,19164,75,1755,0,0,1,4,1.0,impersonator,2,1,2,1,1,3066167915,http://www.facbook.com/cristiano,cristiano____7____ronaldo,Cristiano Ronaldo • Fan-page,https://scontent-cdg2-1.cdninstagram.com/vp/f4be71d72ba5e42f6b25be832cbc7c94/5D510BC1/t51.2885-19/s320x320/56264454_362794761112881_960077425771806720_n.jpg?_nc_ht=scontent-cdg2-1.cdninstagram.com,"Criatiano is the best in the world
🌺WELCOME🌺
👆19K...🔜...20k🔒👆
👉👑Cristiano Ronaldo👑👈
👉⭐Follow me⭐👈 
  ✌CR7✌ ✌©®⑦✌
💪cristiano my hero💪
🙌F",True,['True'],2018-11-23 10:03:28,18002056360022973,BqhIAnrAeyE,cristiano,😀😀😀🤣👌👌❤️,3,1,['cristiano'],['BqtB6QNgOjb'],['5c47beb09c86fa5ea388e775'],2018-11-23 09:19:44,2642.3333333333335,2624.0
578,578,1.0,0.5797386715376658,0.3554767779546839,1,0.0025050276364781904,0.009989344698987743,0.03895066249417405,19164,75,1755,0,0,1,4,1.0,impersonator,2,1,2,1,1,3066167915,http://www.facbook.com/cristiano,cristiano____7____ronaldo,Cristiano Ronaldo • Fan-page,https://scontent-cdg2-1.cdninstagram.com/vp/f4be71d72ba5e42f6b25be832cbc7c94/5D510BC1/t51.2885-19/s320x320/56264454_362794761112881_960077425771806720_n.jpg?_nc_ht=scontent-cdg2-1.cdninstagram.com,"Criatiano is the best in the world
🌺WELCOME🌺
👆19K...🔜...20k🔒👆
👉👑Cristiano Ronaldo👑👈
👉⭐Follow me⭐👈 
  ✌CR7✌ ✌©®⑦✌
💪cristiano my hero💪
🙌F",True,['True'],2018-11-23 10:03:44,18003541132022752,BqhIAnrAeyE,cristiano,Siiiiiiiiiiiiiiim @cristiano,3,1,['cristiano'],['BqtB6QNgOjb'],['5c47beb09c86fa5ea388e775'],2018-11-23 09:19:44,2642.3333333333335,2640.0
1310,1310,0.0,1.0,0.5797386715376658,1,9.672930760769471e-06,0.015583377730420884,0.00013316465809974033,74,117,6,0,0,1,3,0.6666666666666667,impersonator,2,1,2,1,1,6959918498,--,iic2ris,CRISTIANO RONALDO.,https://scontent-cdg2-1.cdninstagram.com/vp/4d82bd7b74bbc4e66f2aeaca199b0330/5D53BF34/t51.2885-19/s320x320/56686068_803992816624553_8090012003747233792_n.jpg?_nc_ht=scontent-cdg2-1.cdninstagram.com,"@cristiano ❤️.
لا نادي أعظم من ريال مدريد،ولا لاعب أعظم من كريستيانو رونالدو👑💛.",True,['True'],2018-12-12 08:37:44,18010164790051421,Bqp3fKwg4K5,cristiano,G.O.A.T,3,1,['cristiano'],['BqtB6QNgOjb'],['5c47a47b9c86fa5ea3875d3b'],2018-11-26 18:48:31,1429480.0,1345753.0
1310,1310,0.0,1.0,0.5797386715376658,1,9.672930760769471e-06,0.015583377730420884,0.00013316465809974033,74,117,6,0,0,1,3,0.6666666666666667,impersonator,2,1,2,1,1,6959918498,--,iic2ris,CRISTIANO RONALDO.,https://scontent-cdg2-1.cdninstagram.com/vp/4d82bd7b74bbc4e66f2aeaca199b0330/5D53BF34/t51.2885-19/s320x320/56686068_803992816624553_8090012003747233792_n.jpg?_nc_ht=scontent-cdg2-1.cdninstagram.com,"@cristiano ❤️.
لا نادي أعظم من ريال مدريد،ولا لاعب أعظم من كريستيانو رونالدو👑💛.",True,['True'],2018-12-12 08:38:05,18009297493006745,BqnF5LsAwAQ,cristiano,The best,3,1,['cristiano'],['BqtB6QNgOjb'],['5c47a47b9c86fa5ea3875d3b'],2018-11-25 16:56:41,1429480.0,1438884.0
1310,1310,0.0,1.0,0.5797386715376658,1,9.672930760769471e-06,0.015583377730420884,0.00013316465809974033,74,117,6,0,0,1,3,0.6666666666666667,impersonator,2,1,2,1,1,6959918498,--,iic2ris,CRISTIANO RONALDO.,https://scontent-cdg2-1.cdninstagram.com/vp/4d82bd7b74bbc4e66f2aeaca199b0330/5D53BF34/t51.2885-19/s320x320/56686068_803992816624553_8090012003747233792_n.jpg?_nc_ht=scontent-cdg2-1.cdninstagram.com,"@cristiano ❤️.
لا نادي أعظم من ريال مدريد،ولا لاعب أعظم من كريستيانو رونالدو👑💛.",True,['True'],2018-12-12 08:38:29,17918377063251588,BqlJ_88gk5v,cristiano,Siiiiiii🎊,3,1,['cristiano'],['BqtB6QNgOjb'],['5c47a47b9c86fa5ea3875d3b'],2018-11-24 22:55:06,1429480.0,1503803.0
1312,1312,0.0,1.0,0.0,1,1.4117250299501385e-05,0.0015982951518380393,0.011097054841645028,108,12,500,0,0,1,2,0.3333333333333333,impersonator,2,1,2,1,1,6965640394,https://m.youtube.com/channel/UCqDYTiA_8FbpJMtnhBTFDbA,icr7stiano,Cristiano Ronaldo,https://scontent-cdg2-1.cdninstagram.com/vp/4ee5d9feabb6ddd47231dbf7a07fd534/5D587631/t51.2885-19/s320x320/27893742_2042921765960813_8403536129499856896_n.jpg?_nc_ht=scontent-cdg2-1.cdninstagram.com,"Fanpage 💯
#Love for all CR7 fans. ❤💪
@icr7stiano",True,['True'],2018-12-27 01:20:50,17898107524302508,BqtB6QNgOjb,cristiano,💯💯👏👏,8,1,['cristiano'],['BqtB6QNgOjb'],['5c479af09c86fa5ea386d7f4'],2018-11-28 00:17:19,2812593.0,2509411.0
1312,1312,0.0,1.0,0.0,1,1.4117250299501385e-05,0.0015982951518380393,0.011097054841645028,108,12,500,0,0,1,2,0.3333333333333333,impersonator,2,1,2,1,1,6965640394,https://m.youtube.com/channel/UCqDYTiA_8FbpJMtnhBTFDbA,icr7stiano,Cristiano Ronaldo,https://scontent-cdg2-1.cdninstagram.com/vp/4ee5d9feabb6ddd47231dbf7a07fd534/5D587631/t51.2885-19/s320x320/27893742_2042921765960813_8403536129499856896_n.jpg?_nc_ht=scontent-cdg2-1.cdninstagram.com,"Fanpage 💯
#Love for all CR7 fans. ❤💪
@icr7stiano",True,['True'],2018-12-27 01:21:05,17982149656163154,Bqp3fKwg4K5,cristiano,💪🔝💪🔝,8,1,['cristiano'],['BqtB6QNgOjb'],['5c479af09c86fa5ea386d7f4'],2018-11-26 18:48:31,2812593.0,2615554.0
1312,1312,0.0,1.0,0.0,1,1.4117250299501385e-05,0.0015982951518380393,0.011097054841645028,108,12,500,0,0,1,2,0.3333333333333333,impersonator,2,1,2,1,1,6965640394,https://m.youtube.com/channel/UCqDYTiA_8FbpJMtnhBTFDbA,icr7stiano,Cristiano Ronaldo,https://scontent-cdg2-1.cdninstagram.com/vp/4ee5d9feabb6ddd47231dbf7a07fd534/5D587631/t51.2885-19/s320x320/27893742_2042921765960813_8403536129499856896_n.jpg?_nc_ht=scontent-cdg2-1.cdninstagram.com,"Fanpage 💯
#Love for all CR7 fans. ❤💪
@icr7stiano",True,['True'],2018-12-27 01:22:01,17977963714174392,BqnF5LsAwAQ,cristiano,#CR7 ⚽️💯,8,1,['cristiano'],['BqtB6QNgOjb'],['5c479af09c86fa5ea386d7f4'],2018-11-25 16:56:41,2812593.0,2708720.0
1312,1312,0.0,1.0,0.0,1,1.4117250299501385e-05,0.0015982951518380393,0.011097054841645028,108,12,500,0,0,1,2,0.3333333333333333,impersonator,2,1,2,1,1,6965640394,https://m.youtube.com/channel/UCqDYTiA_8FbpJMtnhBTFDbA,icr7stiano,Cristiano Ronaldo,https://scontent-cdg2-1.cdninstagram.com/vp/4ee5d9feabb6ddd47231dbf7a07fd534/5D587631/t51.2885-19/s320x320/27893742_2042921765960813_8403536129499856896_n.jpg?_nc_ht=scontent-cdg2-1.cdninstagram.com,"Fanpage 💯
#Love for all CR7 fans. ❤💪
@icr7stiano",True,['True'],2018-12-27 01:22:24,18015653749046071,BqlJ_88gk5v,cristiano,💥💯,8,1,['cristiano'],['BqtB6QNgOjb'],['5c479af09c86fa5ea386d7f4'],2018-11-24 22:55:06,2812593.0,2773638.0
1312,1312,0.0,1.0,0.0,1,1.4117250299501385e-05,0.0015982951518380393,0.011097054841645028,108,12,500,0,0,1,2,0.3333333333333333,impersonator,2,1,2,1,1,6965640394,https://m.youtube.com/channel/UCqDYTiA_8FbpJMtnhBTFDbA,icr7stiano,Cristiano Ronaldo,https://scontent-cdg2-1.cdninstagram.com/vp/4ee5d9feabb6ddd47231dbf7a07fd534/5D587631/t51.2885-19/s320x320/27893742_2042921765960813_8403536129499856896_n.jpg?_nc_ht=scontent-cdg2-1.cdninstagram.com,"Fanpage 💯
#Love for all CR7 fans. ❤💪
@icr7stiano",True,['True'],2018-12-27 01:23:04,18000484282129191,BqhvdSdgwwW,cristiano,🤣🤙🤙,8,1,['cristiano'],['BqtB6QNgOjb'],['5c479af09c86fa5ea386d7f4'],2018-11-23 15:04:26,2812593.0,2888318.0
1312,1312,0.0,1.0,0.0,1,1.4117250299501385e-05,0.0015982951518380393,0.011097054841645028,108,12,500,0,0,1,2,0.3333333333333333,impersonator,2,1,2,1,1,6965640394,https://m.youtube.com/channel/UCqDYTiA_8FbpJMtnhBTFDbA,icr7stiano,Cristiano Ronaldo,https://scontent-cdg2-1.cdninstagram.com/vp/4ee5d9feabb6ddd47231dbf7a07fd534/5D587631/t51.2885-19/s320x320/27893742_2042921765960813_8403536129499856896_n.jpg?_nc_ht=scontent-cdg2-1.cdninstagram.com,"Fanpage 💯
#Love for all CR7 fans. ❤💪
@icr7stiano",True,['True'],2018-12-27 01:24:58,17935760491245064,BqhIAnrAeyE,cristiano,😜😜👌🏼👌🏼,8,1,['cristiano'],['BqtB6QNgOjb'],['5c479af09c86fa5ea386d7f4'],2018-11-23 09:19:44,2812593.0,2909114.0
1312,1312,0.0,1.0,0.0,1,1.4117250299501385e-05,0.0015982951518380393,0.011097054841645028,108,12,500,0,0,1,2,0.3333333333333333,impersonator,2,1,2,1,1,6965640394,https://m.youtube.com/channel/UCqDYTiA_8FbpJMtnhBTFDbA,icr7stiano,Cristiano Ronaldo,https://scontent-cdg2-1.cdninstagram.com/vp/4ee5d9feabb6ddd47231dbf7a07fd534/5D587631/t51.2885-19/s320x320/27893742_2042921765960813_8403536129499856896_n.jpg?_nc_ht=scontent-cdg2-1.cdninstagram.com,"Fanpage 💯
#Love for all CR7 fans. ❤💪
@icr7stiano",True,['True'],2018-12-27 01:23:55,17988343666143020,BqfiaPpgNFR,cristiano,Perfect 👌🏼👌🏼,8,1,['cristiano'],['BqtB6QNgOjb'],['5c479af09c86fa5ea386d7f4'],2018-11-22 18:31:56,2812593.0,2962319.0
1312,1312,0.0,1.0,0.0,1,1.4117250299501385e-05,0.0015982951518380393,0.011097054841645028,108,12,500,0,0,1,2,0.3333333333333333,impersonator,2,1,2,1,1,6965640394,https://m.youtube.com/channel/UCqDYTiA_8FbpJMtnhBTFDbA,icr7stiano,Cristiano Ronaldo,https://scontent-cdg2-1.cdninstagram.com/vp/4ee5d9feabb6ddd47231dbf7a07fd534/5D587631/t51.2885-19/s320x320/27893742_2042921765960813_8403536129499856896_n.jpg?_nc_ht=scontent-cdg2-1.cdninstagram.com,"Fanpage 💯
#Love for all CR7 fans. ❤💪
@icr7stiano",True,['True'],2018-12-27 01:23:31,17941733200226700,BqabicCAJkR,cristiano,💥👌🏼👌🏼,8,1,['cristiano'],['BqtB6QNgOjb'],['5c479af09c86fa5ea386d7f4'],2018-11-20 18:55:41,2812593.0,3133670.0
1318,1318,0.3360969272762576,1.0,0.2789425453258252,1,2.862664644065559e-05,0.0014651038891848693,0.0,219,11,0,0,0,1,4,1.0,impersonator,2,1,2,1,1,6993596413,--,king__ronaldo_7,Cristiano Ronaldo,https://scontent-cdg2-1.cdninstagram.com/vp/a9dffee1476a9e2212f238aafc5cb28f/5D40DDC7/t51.2885-19/s320x320/37761055_474790169660592_6798240696156291072_n.jpg?_nc_ht=scontent-cdg2-1.cdninstagram.com,"A teacher can't keep a class of 30 student's quite , but he do that to a "" whole Stadium ""🔥
King Cristiano Ronaldo silencing "" camp now """,True,['True'],2018-11-26 08:48:29,18004250140047732,BqnF5LsAwAQ,cristiano,💜,9,1,['cristiano'],['BqtB6QNgOjb'],['5c4798939c86fa5ea386b857'],2018-11-25 16:56:41,28443.666666666668,57108.0
1318,1318,0.3360969272762576,1.0,0.2789425453258252,1,2.862664644065559e-05,0.0014651038891848693,0.0,219,11,0,0,0,1,4,1.0,impersonator,2,1,2,1,1,6993596413,--,king__ronaldo_7,Cristiano Ronaldo,https://scontent-cdg2-1.cdninstagram.com/vp/a9dffee1476a9e2212f238aafc5cb28f/5D40DDC7/t51.2885-19/s320x320/37761055_474790169660592_6798240696156291072_n.jpg?_nc_ht=scontent-cdg2-1.cdninstagram.com,"A teacher can't keep a class of 30 student's quite , but he do that to a "" whole Stadium ""🔥
King Cristiano Ronaldo silencing "" camp now """,True,['True'],2018-11-26 08:48:30,17896778773274573,BqnF5LsAwAQ,cristiano,💙,9,1,['cristiano'],['BqtB6QNgOjb'],['5c4798939c86fa5ea386b857'],2018-11-25 16:56:41,28443.666666666668,57109.0
1318,1318,0.3360969272762576,1.0,0.2789425453258252,1,2.862664644065559e-05,0.0014651038891848693,0.0,219,11,0,0,0,1,4,1.0,impersonator,2,1,2,1,1,6993596413,--,king__ronaldo_7,Cristiano Ronaldo,https://scontent-cdg2-1.cdninstagram.com/vp/a9dffee1476a9e2212f238aafc5cb28f/5D40DDC7/t51.2885-19/s320x320/37761055_474790169660592_6798240696156291072_n.jpg?_nc_ht=scontent-cdg2-1.cdninstagram.com,"A teacher can't keep a class of 30 student's quite , but he do that to a "" whole Stadium ""🔥
King Cristiano Ronaldo silencing "" camp now """,True,['True'],2018-11-26 08:48:32,17967344362172051,BqnF5LsAwAQ,cristiano,🔥,9,1,['cristiano'],['BqtB6QNgOjb'],['5c4798939c86fa5ea386b857'],2018-11-25 16:56:41,28443.666666666668,57111.0
1318,1318,0.3360969272762576,1.0,0.2789425453258252,1,2.862664644065559e-05,0.0014651038891848693,0.0,219,11,0,0,0,1,4,1.0,impersonator,2,1,2,1,1,6993596413,--,king__ronaldo_7,Cristiano Ronaldo,https://scontent-cdg2-1.cdninstagram.com/vp/a9dffee1476a9e2212f238aafc5cb28f/5D40DDC7/t51.2885-19/s320x320/37761055_474790169660592_6798240696156291072_n.jpg?_nc_ht=scontent-cdg2-1.cdninstagram.com,"A teacher can't keep a class of 30 student's quite , but he do that to a "" whole Stadium ""🔥
King Cristiano Ronaldo silencing "" camp now """,True,['True'],2018-11-26 08:48:28,17973463141181505,BqnF5LsAwAQ,cristiano,🔥,9,1,['cristiano'],['BqtB6QNgOjb'],['5c4798939c86fa5ea386b857'],2018-11-25 16:56:41,28443.666666666668,57107.0
1318,1318,0.3360969272762576,1.0,0.2789425453258252,1,2.862664644065559e-05,0.0014651038891848693,0.0,219,11,0,0,0,1,4,1.0,impersonator,2,1,2,1,1,6993596413,--,king__ronaldo_7,Cristiano Ronaldo,https://scontent-cdg2-1.cdninstagram.com/vp/a9dffee1476a9e2212f238aafc5cb28f/5D40DDC7/t51.2885-19/s320x320/37761055_474790169660592_6798240696156291072_n.jpg?_nc_ht=scontent-cdg2-1.cdninstagram.com,"A teacher can't keep a class of 30 student's quite , but he do that to a "" whole Stadium ""🔥
King Cristiano Ronaldo silencing "" camp now """,True,['True'],2018-11-20 20:27:31,18002135941009703,BqabicCAJkR,cristiano,💞,9,1,['cristiano'],['BqtB6QNgOjb'],['5c4798939c86fa5ea386b857'],2018-11-20 18:55:41,28443.666666666668,5510.0
1318,1318,0.3360969272762576,1.0,0.2789425453258252,1,2.862664644065559e-05,0.0014651038891848693,0.0,219,11,0,0,0,1,4,1.0,impersonator,2,1,2,1,1,6993596413,--,king__ronaldo_7,Cristiano Ronaldo,https://scontent-cdg2-1.cdninstagram.com/vp/a9dffee1476a9e2212f238aafc5cb28f/5D40DDC7/t51.2885-19/s320x320/37761055_474790169660592_6798240696156291072_n.jpg?_nc_ht=scontent-cdg2-1.cdninstagram.com,"A teacher can't keep a class of 30 student's quite , but he do that to a "" whole Stadium ""🔥
King Cristiano Ronaldo silencing "" camp now """,True,['True'],2018-11-20 20:27:32,17971173580183043,BqabicCAJkR,cristiano,🔥,9,1,['cristiano'],['BqtB6QNgOjb'],['5c4798939c86fa5ea386b857'],2018-11-20 18:55:41,28443.666666666668,5511.0
1318,1318,0.3360969272762576,1.0,0.2789425453258252,1,2.862664644065559e-05,0.0014651038891848693,0.0,219,11,0,0,0,1,4,1.0,impersonator,2,1,2,1,1,6993596413,--,king__ronaldo_7,Cristiano Ronaldo,https://scontent-cdg2-1.cdninstagram.com/vp/a9dffee1476a9e2212f238aafc5cb28f/5D40DDC7/t51.2885-19/s320x320/37761055_474790169660592_6798240696156291072_n.jpg?_nc_ht=scontent-cdg2-1.cdninstagram.com,"A teacher can't keep a class of 30 student's quite , but he do that to a "" whole Stadium ""🔥
King Cristiano Ronaldo silencing "" camp now """,True,['True'],2018-11-20 20:27:33,17871444115288106,BqabicCAJkR,cristiano,💚,9,1,['cristiano'],['BqtB6QNgOjb'],['5c4798939c86fa5ea386b857'],2018-11-20 18:55:41,28443.666666666668,5512.0
1318,1318,0.3360969272762576,1.0,0.2789425453258252,1,2.862664644065559e-05,0.0014651038891848693,0.0,219,11,0,0,0,1,4,1.0,impersonator,2,1,2,1,1,6993596413,--,king__ronaldo_7,Cristiano Ronaldo,https://scontent-cdg2-1.cdninstagram.com/vp/a9dffee1476a9e2212f238aafc5cb28f/5D40DDC7/t51.2885-19/s320x320/37761055_474790169660592_6798240696156291072_n.jpg?_nc_ht=scontent-cdg2-1.cdninstagram.com,"A teacher can't keep a class of 30 student's quite , but he do that to a "" whole Stadium ""🔥
King Cristiano Ronaldo silencing "" camp now """,True,['True'],2018-11-20 20:27:33,17976388111142596,BqabicCAJkR,cristiano,💛,9,1,['cristiano'],['BqtB6QNgOjb'],['5c4798939c86fa5ea386b857'],2018-11-20 18:55:41,28443.666666666668,5512.0
1318,1318,0.3360969272762576,1.0,0.2789425453258252,1,2.862664644065559e-05,0.0014651038891848693,0.0,219,11,0,0,0,1,4,1.0,impersonator,2,1,2,1,1,6993596413,--,king__ronaldo_7,Cristiano Ronaldo,https://scontent-cdg2-1.cdninstagram.com/vp/a9dffee1476a9e2212f238aafc5cb28f/5D40DDC7/t51.2885-19/s320x320/37761055_474790169660592_6798240696156291072_n.jpg?_nc_ht=scontent-cdg2-1.cdninstagram.com,"A teacher can't keep a class of 30 student's quite , but he do that to a "" whole Stadium ""🔥
King Cristiano Ronaldo silencing "" camp now """,True,['True'],2018-11-20 20:27:34,17994325744076319,BqabicCAJkR,cristiano,💙,9,1,['cristiano'],['BqtB6QNgOjb'],['5c4798939c86fa5ea386b857'],2018-11-20 18:55:41,28443.666666666668,5513.0
1750,1750,0.3360969272762576,0.0,0.0,1,5.8821876247922445e-06,0.011987213638785296,0.0,45,90,0,0,0,1,2,0.3333333333333333,impersonator,2,1,2,1,1,8503837983,--,ronaldo_is_bae7,,https://scontent-cdg2-1.cdninstagram.com/vp/4f8a10da82025f9f347676f047a612fb/5D70F908/t51.2885-19/s320x320/39316603_1375210842614336_1710724794422394880_n.jpg?_nc_ht=scontent-cdg2-1.cdninstagram.com,,True,['True'],2018-11-21 17:59:46,17871547972295238,BqabicCAJkR,cristiano,une beauuuuutéééééééé😍😍😍😍😍😍😍😍 ma viiiieeeeeee,1,1,['cristiano'],['BqtB6QNgOjb'],['5c47c4279c86fa5ea3893a4e'],2018-11-20 18:55:41,83045.0,83045.0
1790,1790,0.5797386715376658,0.5797386715376658,0.0,1,3.9214584165281637e-07,0.002131060202450719,0.0,3,16,0,0,0,1,3,0.6666666666666667,impersonator,2,1,2,1,1,8577450075,--,egi_ronaldo5,ronaldo,https://scontent-cdg2-1.cdninstagram.com/vp/bde71e938474d982a3d42168eb3b97ce/5D3C06DC/t51.2885-19/s320x320/51327493_399205817527021_8357027891451527168_n.jpg?_nc_ht=scontent-cdg2-1.cdninstagram.com,,True,['True'],2018-11-24 03:20:57,18004258102046092,BqfiaPpgNFR,cristiano,apa kabar],1,1,['cristiano'],['BqtB6QNgOjb'],['5c47d0dc9c86fa5ea389f6ac'],2018-11-22 18:31:56,118141.0,118141.0
1851,1851,0.3360969272762576,0.3360969272762576,0.1047511733417752,1,1.6208694788316406e-05,0.09456579648375066,0.0005548527420822512,124,710,25,0,0,1,4,1.0,impersonator,2,1,2,1,1,8737368474,http://www.internetsitemyok.com/,ulvi_fuat_cronaldo7,Ulvi Fuat CRonaldo7,https://scontent-cdg2-1.cdninstagram.com/vp/32579a6eda0cb9c001dc0d86346953ad/5D581DD8/t51.2885-19/s320x320/53625767_1226355027524306_7524014208388694016_n.jpg?_nc_ht=scontent-cdg2-1.cdninstagram.com,Ben ismime CRonaldo7 koymanın nedeni onun en iyi olmasıdır hemde her zaman onu her zaman ailem arkadaşlarım gibi sevmişimdir.SENİ SEVİYORUM CRONALDO7,True,['True'],2018-11-20 20:42:58,17979629215092474,BqabicCAJkR,cristiano,İ love you,2,1,['cristiano'],['BqtB6QNgOjb'],['5c47aa0a9c86fa5ea387b2d0'],2018-11-20 18:55:41,6060.5,6437.0
1851,1851,0.3360969272762576,0.3360969272762576,0.1047511733417752,1,1.6208694788316406e-05,0.09456579648375066,0.0005548527420822512,124,710,25,0,0,1,4,1.0,impersonator,2,1,2,1,1,8737368474,http://www.internetsitemyok.com/,ulvi_fuat_cronaldo7,Ulvi Fuat CRonaldo7,https://scontent-cdg2-1.cdninstagram.com/vp/32579a6eda0cb9c001dc0d86346953ad/5D581DD8/t51.2885-19/s320x320/53625767_1226355027524306_7524014208388694016_n.jpg?_nc_ht=scontent-cdg2-1.cdninstagram.com,Ben ismime CRonaldo7 koymanın nedeni onun en iyi olmasıdır hemde her zaman onu her zaman ailem arkadaşlarım gibi sevmişimdir.SENİ SEVİYORUM CRONALDO7,True,['True'],2018-11-20 20:30:25,17975889403189902,BqabicCAJkR,cristiano,İ love you,2,1,['cristiano'],['BqtB6QNgOjb'],['5c47aa0a9c86fa5ea387b2d0'],2018-11-20 18:55:41,6060.5,5684.0
1877,1877,0.3360969272762576,0.5797386715376658,0.0,1,6.535764027546938e-06,0.005860415556739477,0.00042168808398251103,50,44,19,0,0,1,3,0.6666666666666667,impersonator,2,1,2,1,1,8911959686,--,ronaldoinjuventus,Cristiano Ronaldo Dos Santos,https://scontent-cdg2-1.cdninstagram.com/vp/5f15af0df62cecf9bc5d771df1badd86/5D710479/t51.2885-19/s320x320/43985305_2204128453189450_5034027564440485888_n.jpg?_nc_ht=scontent-cdg2-1.cdninstagram.com,,True,['True'],2018-11-26 02:11:37,17929957882236226,BqnF5LsAwAQ,cristiano,Unstopable👑👑👑👑,1,1,['cristiano'],['BqtB6QNgOjb'],['5c47beee9c86fa5ea388ebe6'],2018-11-25 16:56:41,33296.0,33296.0
1904,1904,0.0,0.5797386715376658,0.0,1,6.274333466445062e-06,0.0006659563132658497,0.00044388219366580105,48,5,20,0,0,1,2,0.3333333333333333,impersonator,2,1,2,1,1,8972461687,--,cris7.ro,CR7 Cristiano Ronaldo Fan Page,https://scontent-cdg2-1.cdninstagram.com/vp/99ad47183403bda6a2053bbaaa053e86/5D3C6BC0/t51.2885-19/s320x320/42763659_738932649791295_6632761997152747520_n.jpg?_nc_ht=scontent-cdg2-1.cdninstagram.com,⚽️|Goals’Skills’Photos’Match updates’News&More,True,['True'],2018-11-27 22:29:40,17978340355139445,Bqp3fKwg4K5,cristiano,"Check my profile
and my story",2,1,['cristiano'],['BqtB6QNgOjb'],['5c47cb5d9c86fa5ea389a32d'],2018-11-26 18:48:31,100069.5,99669.0
1904,1904,0.0,0.5797386715376658,0.0,1,6.274333466445062e-06,0.0006659563132658497,0.00044388219366580105,48,5,20,0,0,1,2,0.3333333333333333,impersonator,2,1,2,1,1,8972461687,--,cris7.ro,CR7 Cristiano Ronaldo Fan Page,https://scontent-cdg2-1.cdninstagram.com/vp/99ad47183403bda6a2053bbaaa053e86/5D3C6BC0/t51.2885-19/s320x320/42763659_738932649791295_6632761997152747520_n.jpg?_nc_ht=scontent-cdg2-1.cdninstagram.com,⚽️|Goals’Skills’Photos’Match updates’News&More,True,['True'],2018-11-27 22:43:01,17967896740169314,Bqp3fKwg4K5,cristiano,"Check my profile
and my story",2,1,['cristiano'],['BqtB6QNgOjb'],['5c47cb5d9c86fa5ea389a32d'],2018-11-26 18:48:31,100069.5,100470.0
1950,1950,0.5797386715376658,0.5797386715376658,0.3799783615910079,1,1.267938221344106e-05,0.0018646776771443793,0.0,97,14,0,0,0,1,4,1.0,impersonator,2,1,2,1,1,9140278908,--,cronaldo7fxc,CRISTIANO RONALDO FAN PAGE,https://scontent-cdg2-1.cdninstagram.com/vp/956e2389e2a1a330e699a43ea7947438/5D404532/t51.2885-19/s320x320/44516121_264804284229931_7200658825186115584_n.jpg?_nc_ht=scontent-cdg2-1.cdninstagram.com,"🔥- Cristiano Ronaldo 
 🎬- HD videos
      - 18.11.2018 (started)
🌏 - Best player in the world",True,['True'],2018-11-25 12:13:06,17967381709172620,BqhIAnrAeyE,cristiano,🔥🔥🙌,1,1,['cristiano'],['BqtB6QNgOjb'],['5c47bfc89c86fa5ea38901d5'],2018-11-23 09:19:44,183202.0,183202.0
1983,1983,0.3360969272762576,1.0,0.0,1,0.0004368504676012373,0.31739477890250395,0.0005770468517655412,3342,2383,26,0,0,1,3,0.6666666666666667,impersonator,2,1,2,1,1,9202121741,--,_cristiano_077,Cristiano Ronaldo,https://scontent-cdg2-1.cdninstagram.com/vp/2011b4b474ae7ddb6ef604a3d17b3079/5D5C449B/t51.2885-19/s320x320/45927973_2169753319755296_7714320365278724096_n.jpg?_nc_ht=scontent-cdg2-1.cdninstagram.com,"Fanpage Dedicated to the best football player in the world.⚽⚽⚽  ,you guys will forever be im my heart ,❤ Thank you for Follow. Support more!",True,['True'],2018-11-23 04:11:41,18002278747024432,BqfiaPpgNFR,cristiano,❤️❤️❤️❤️❤️,1,1,['cristiano'],['BqtB6QNgOjb'],['5c479d859c86fa5ea386fe43'],2018-11-22 18:31:56,34785.0,34785.0
2031,2031,0.0,0.0,0.3032160644503863,1,1.2287236371788244e-05,0.0033297815663292487,0.00017755287746632043,94,25,8,0,0,1,2,0.3333333333333333,impersonator,2,1,2,1,1,9258143570,--,_.cr7istiano._,CR7❤🔥,https://scontent-cdg2-1.cdninstagram.com/vp/69f98216d5b0ae24dae2137007860541/5D527488/t51.2885-19/s320x320/45859078_1069214059945146_5364387227554021376_n.jpg?_nc_ht=scontent-cdg2-1.cdninstagram.com,"Welcome to my page🔥
Start of page 2018/12/6
Fan of Cristiano Ronaldo❤
Videos🎥pictures📷news📰
So follow me🙌😽
#Legendarycr7🔱",True,['True'],2018-12-07 08:55:31,17917673755249790,Bqp3fKwg4K5,cristiano,🔥😍,1,1,['cristiano'],['BqtB6QNgOjb'],['5c47aa5e9c86fa5ea387baa2'],2018-11-26 18:48:31,914820.0,914820.0
2076,2076,0.7092972666062739,0.2605556710562624,0.0,1,4.967180660935673e-06,0.0514118273841236,0.0011097054841645027,38,386,50,0,0,1,3,0.6666666666666667,impersonator,2,1,2,1,1,9374513089,--,cristianoronaldo_elpro,Christiano Ronaldo Fans,https://scontent-cdg2-1.cdninstagram.com/vp/bc1a952f7c41e92bc52d4de42a0744a5/5D37E10D/t51.2885-19/s320x320/43112200_2358379694190817_6346294211154804736_n.jpg?_nc_ht=scontent-cdg2-1.cdninstagram.com,,True,['True'],2018-11-22 04:17:34,17968719865167193,BqabicCAJkR,cristiano,Ronaldo soy tu fans siganme,1,1,['cristiano'],['BqtB6QNgOjb'],['5c47d8869c86fa5ea38a68d2'],2018-11-20 18:55:41,120113.0,120113.0
2156,2156,0.7092972666062739,0.7092972666062739,0.0,1,4.1828889776300396e-06,0.036361214704315394,0.00039949397429922095,32,273,18,0,0,1,3,0.6666666666666667,impersonator,2,1,2,1,1,9602734602,--,cristiano_ronaldo_worldwide_7,Cristiano Ronaldo worldwide! 🌍,https://scontent-cdg2-1.cdninstagram.com/vp/2ec8a09bc105c0b3f2c9531e2dad3766/5D51E6CE/t51.2885-19/s320x320/46860661_330782004180608_6747790481289117696_n.jpg?_nc_ht=scontent-cdg2-1.cdninstagram.com,Best in the world👑,True,['True'],2018-12-13 06:28:56,17935913851237547,BqtB6QNgOjb,cristiano,🙌🙌,1,1,['cristiano'],['BqtB6QNgOjb'],['5c47a2fd9c86fa5ea38750d4'],2018-11-28 00:17:19,1318297.0,1318297.0
