,Unnamed: 0,username,name,bio,photo,nfollower,nfollowee,nmediacount,follower,followee,mediacount,private,verified,lcm,mcm,nmcm,class,class BGM 3,class GM 3,class kmeans 3,class spectral 3,class GM 4,owener_id,combined_owener_external_url,combined_username,combined_full_name,combined_profile_pic_url,combined_biography,combined_similarity_photo_comment,combined_similarity_photo_like,comment_created_at,comment_id,comment_post_shortcode,comment_shortcode_username,comment_text,comment_total,like_total,like_shortcode_username,like_post_shortcode,like_id,comment_post_date,comment_avg_age_sec,comment_age_sec
3329,3329,0.1505569696020495,0.3799783615910079,0.0,0,1.6077979507765467e-05,0.0007991475759190198,0.0011318995938477928,123,6,51,0,0,1,2,0.3333333333333333,impersonator,0,0,0,0,3,7303239896,--,theresa_meme,Theresa May,https://scontent-cdg2-1.cdninstagram.com/vp/956606a23a5b68bca5ca037ea9ec6c77/5D39FC8C/t51.2885-19/s150x150/29089273_186158595499496_3722834453391736832_n.jpg?_nc_ht=scontent-cdg2-1.cdninstagram.com,"I am cat nip for middle aged men
Can random men please stop sending me DMs
Follow my grandson @epiclukester",True,[],2018-07-15 09:29:04,17887896856228822,BlLaV0FBYvU,theresamay,@donald_flumped there are field I could run through instead,4,1,[],[],[],2018-07-13 16:19:39,130495.5,148165.0
3329,3329,0.1505569696020495,0.3799783615910079,0.0,0,1.6077979507765467e-05,0.0007991475759190198,0.0011318995938477928,123,6,51,0,0,1,2,0.3333333333333333,impersonator,0,0,0,0,3,7303239896,--,theresa_meme,Theresa May,https://scontent-cdg2-1.cdninstagram.com/vp/956606a23a5b68bca5ca037ea9ec6c77/5D39FC8C/t51.2885-19/s150x150/29089273_186158595499496_3722834453391736832_n.jpg?_nc_ht=scontent-cdg2-1.cdninstagram.com,"I am cat nip for middle aged men
Can random men please stop sending me DMs
Follow my grandson @epiclukester",True,[],2018-07-14 18:58:37,17958008737065439,BlLaV0FBYvU,theresamay,@donald_flumped,4,1,[],[],[],2018-07-13 16:19:39,130495.5,95938.0
3329,3329,0.1505569696020495,0.3799783615910079,0.0,0,1.6077979507765467e-05,0.0007991475759190198,0.0011318995938477928,123,6,51,0,0,1,2,0.3333333333333333,impersonator,0,0,0,0,3,7303239896,--,theresa_meme,Theresa May,https://scontent-cdg2-1.cdninstagram.com/vp/956606a23a5b68bca5ca037ea9ec6c77/5D39FC8C/t51.2885-19/s150x150/29089273_186158595499496_3722834453391736832_n.jpg?_nc_ht=scontent-cdg2-1.cdninstagram.com,"I am cat nip for middle aged men
Can random men please stop sending me DMs
Follow my grandson @epiclukester",True,[],2018-07-15 09:28:08,17960642263029538,BlK6UYpBuEb,theresamay,@donald_flumped you look like a Bond villain,4,1,[],[],[],2018-07-13 11:39:50,130495.5,164898.0
3329,3329,0.1505569696020495,0.3799783615910079,0.0,0,1.6077979507765467e-05,0.0007991475759190198,0.0011318995938477928,123,6,51,0,0,1,2,0.3333333333333333,impersonator,0,0,0,0,3,7303239896,--,theresa_meme,Theresa May,https://scontent-cdg2-1.cdninstagram.com/vp/956606a23a5b68bca5ca037ea9ec6c77/5D39FC8C/t51.2885-19/s150x150/29089273_186158595499496_3722834453391736832_n.jpg?_nc_ht=scontent-cdg2-1.cdninstagram.com,"I am cat nip for middle aged men
Can random men please stop sending me DMs
Follow my grandson @epiclukester",True,[],2018-07-14 19:02:51,17960512303041389,BlK6UYpBuEb,theresamay,@donald_flumped,4,1,[],[],[],2018-07-13 11:39:50,130495.5,112981.0
3819,3819,0.2695176132460322,0.3799783615910079,0.1208322304695985,0,8.757923796912899e-06,0.0006659563132658497,0.00039949397429922095,67,5,18,0,0,1,3,0.6666666666666667,impersonator,0,0,0,0,3,9514492304,--,theresamayisbae,Theresa May,https://scontent-cdg2-1.cdninstagram.com/vp/30619c1d971791d917bb0868fd75c23b/5D3D28BE/t51.2885-19/s150x150/46367533_313546445923150_5154968418952151040_n.jpg?_nc_ht=scontent-cdg2-1.cdninstagram.com,"We LOVE Theresa May and what she is doing for our country ❤️❤️❤️❤️ Follow to show your Tory support!!
This is all down to our #teambehindthescreen",True,[],2018-12-15 12:14:50,18010683325052474,BrYD-HIHbpw,theresamay,Everyone follow @theresamayisbae to show your respect and admiration for Theresa May. 👏👏👏,1,1,[],[],[],2018-12-14 17:22:40,67930.0,67930.0
