,Unnamed: 0,username,name,bio,photo,nfollower,nfollowee,nmediacount,follower,followee,mediacount,private,verified,lcm,mcm,nmcm,class,class BGM 3,class GM 3,class kmeans 3,class spectral 3,class GM 4,owener_id,combined_owener_external_url,combined_username,combined_full_name,combined_profile_pic_url,combined_biography,combined_similarity_photo_comment,combined_similarity_photo_like,comment_created_at,comment_id,comment_post_shortcode,comment_shortcode_username,comment_text,comment_total,like_total,like_shortcode_username,like_post_shortcode,like_id,comment_post_date,comment_avg_age_sec,comment_age_sec
139,139,0.0,0.0,0.3799783615910079,0,0.0001415646488366667,0.41302610548748003,0.0005992409614488316,1083,3101,27,0,0,1,1,0.0,impersonator,1,2,1,2,2,633744071,--,brettmurphy2711,Brett Murphy,https://scontent-cdg2-1.cdninstagram.com/vp/0679e7a1d1388b4722560a063b14b475/5D735C3F/t51.2885-19/s320x320/57090225_433516927426125_7182301495012884480_n.jpg?_nc_ht=scontent-cdg2-1.cdninstagram.com,"United Kingdom 🇬🇧
.           ¯\_(ツ)_/¯",['False'],"['False', 'False', 'False']",['2018-11-02 15:45:43'],['17962176010160995'],['BprU65bn3sf'],['theresamay'],['L'],1,3,theresamay,BqNJfGjnVFv,5c6411ad13866416f940b380,['2018-11-02 11:53:33'],13930.0,['13930.0']
139,139,0.0,0.0,0.3799783615910079,0,0.0001415646488366667,0.41302610548748003,0.0005992409614488316,1083,3101,27,0,0,1,1,0.0,impersonator,1,2,1,2,2,633744071,--,brettmurphy2711,Brett Murphy,https://scontent-cdg2-1.cdninstagram.com/vp/0679e7a1d1388b4722560a063b14b475/5D735C3F/t51.2885-19/s320x320/57090225_433516927426125_7182301495012884480_n.jpg?_nc_ht=scontent-cdg2-1.cdninstagram.com,"United Kingdom 🇬🇧
.           ¯\_(ツ)_/¯",['False'],"['False', 'False', 'False']",['2018-11-02 15:45:43'],['17962176010160995'],['BprU65bn3sf'],['theresamay'],['L'],1,3,theresamay,BpsCbWuHyEy,5c641c4e13866416f9414db9,['2018-11-02 11:53:33'],13930.0,['13930.0']
139,139,0.0,0.0,0.3799783615910079,0,0.0001415646488366667,0.41302610548748003,0.0005992409614488316,1083,3101,27,0,0,1,1,0.0,impersonator,1,2,1,2,2,633744071,--,brettmurphy2711,Brett Murphy,https://scontent-cdg2-1.cdninstagram.com/vp/0679e7a1d1388b4722560a063b14b475/5D735C3F/t51.2885-19/s320x320/57090225_433516927426125_7182301495012884480_n.jpg?_nc_ht=scontent-cdg2-1.cdninstagram.com,"United Kingdom 🇬🇧
.           ¯\_(ツ)_/¯",['False'],"['False', 'False', 'False']",['2018-11-02 15:45:43'],['17962176010160995'],['BprU65bn3sf'],['theresamay'],['L'],1,3,theresamay,Boa7hNChl7i,5c746f2eb5d85c88dca1ff2c,['2018-11-02 11:53:33'],13930.0,['13930.0']
252,252,0.0,0.0,0.3799783615910079,0,4.169817449574947e-05,0.1232019179541822,0.00026632931619948065,319,925,12,1,0,1,1,0.0,impersonator,1,2,1,2,2,1500000282,--,dan_meigh,,https://scontent-cdg2-1.cdninstagram.com/vp/cf6acf7a9f6415d3f70ff8fb1653fdb8/5D363D1C/t51.2885-19/s320x320/51978539_2101106983337365_8613979983586525184_n.jpg?_nc_ht=scontent-cdg2-1.cdninstagram.com,16 / United Kingdom 🇬🇧,[],"['False', 'False', 'False', 'False', 'False', 'False', 'False', 'False', 'False', 'False']",[],[],[],[],[],0,0,theresamay,BqUoNjnH_FP,5c640e7c13866416f94082d1,[],0.0,[]
252,252,0.0,0.0,0.3799783615910079,0,4.169817449574947e-05,0.1232019179541822,0.00026632931619948065,319,925,12,1,0,1,1,0.0,impersonator,1,2,1,2,2,1500000282,--,dan_meigh,,https://scontent-cdg2-1.cdninstagram.com/vp/cf6acf7a9f6415d3f70ff8fb1653fdb8/5D363D1C/t51.2885-19/s320x320/51978539_2101106983337365_8613979983586525184_n.jpg?_nc_ht=scontent-cdg2-1.cdninstagram.com,16 / United Kingdom 🇬🇧,[],"['False', 'False', 'False', 'False', 'False', 'False', 'False', 'False', 'False', 'False']",[],[],[],[],[],0,0,theresamay,Bp9tzP6nagg,5c64163c13866416f940f47a,[],0.0,[]
252,252,0.0,0.0,0.3799783615910079,0,4.169817449574947e-05,0.1232019179541822,0.00026632931619948065,319,925,12,1,0,1,1,0.0,impersonator,1,2,1,2,2,1500000282,--,dan_meigh,,https://scontent-cdg2-1.cdninstagram.com/vp/cf6acf7a9f6415d3f70ff8fb1653fdb8/5D363D1C/t51.2885-19/s320x320/51978539_2101106983337365_8613979983586525184_n.jpg?_nc_ht=scontent-cdg2-1.cdninstagram.com,16 / United Kingdom 🇬🇧,[],"['False', 'False', 'False', 'False', 'False', 'False', 'False', 'False', 'False', 'False']",[],[],[],[],[],0,0,theresamay,BprU65bn3sf,5c641dcd13866416f941607d,[],0.0,[]
252,252,0.0,0.0,0.3799783615910079,0,4.169817449574947e-05,0.1232019179541822,0.00026632931619948065,319,925,12,1,0,1,1,0.0,impersonator,1,2,1,2,2,1500000282,--,dan_meigh,,https://scontent-cdg2-1.cdninstagram.com/vp/cf6acf7a9f6415d3f70ff8fb1653fdb8/5D363D1C/t51.2885-19/s320x320/51978539_2101106983337365_8613979983586525184_n.jpg?_nc_ht=scontent-cdg2-1.cdninstagram.com,16 / United Kingdom 🇬🇧,[],"['False', 'False', 'False', 'False', 'False', 'False', 'False', 'False', 'False', 'False']",[],[],[],[],[],0,0,theresamay,BpW0Jzbhwgw,5c6420dd13866416f941896a,[],0.0,[]
252,252,0.0,0.0,0.3799783615910079,0,4.169817449574947e-05,0.1232019179541822,0.00026632931619948065,319,925,12,1,0,1,1,0.0,impersonator,1,2,1,2,2,1500000282,--,dan_meigh,,https://scontent-cdg2-1.cdninstagram.com/vp/cf6acf7a9f6415d3f70ff8fb1653fdb8/5D363D1C/t51.2885-19/s320x320/51978539_2101106983337365_8613979983586525184_n.jpg?_nc_ht=scontent-cdg2-1.cdninstagram.com,16 / United Kingdom 🇬🇧,[],"['False', 'False', 'False', 'False', 'False', 'False', 'False', 'False', 'False', 'False']",[],[],[],[],[],0,0,theresamay,BotaaiABte5,5c64302513866416f94260e2,[],0.0,[]
252,252,0.0,0.0,0.3799783615910079,0,4.169817449574947e-05,0.1232019179541822,0.00026632931619948065,319,925,12,1,0,1,1,0.0,impersonator,1,2,1,2,2,1500000282,--,dan_meigh,,https://scontent-cdg2-1.cdninstagram.com/vp/cf6acf7a9f6415d3f70ff8fb1653fdb8/5D363D1C/t51.2885-19/s320x320/51978539_2101106983337365_8613979983586525184_n.jpg?_nc_ht=scontent-cdg2-1.cdninstagram.com,16 / United Kingdom 🇬🇧,[],"['False', 'False', 'False', 'False', 'False', 'False', 'False', 'False', 'False', 'False']",[],[],[],[],[],0,0,theresamay,Bodiqn7hONk,5c64323013866416f9428047,[],0.0,[]
252,252,0.0,0.0,0.3799783615910079,0,4.169817449574947e-05,0.1232019179541822,0.00026632931619948065,319,925,12,1,0,1,1,0.0,impersonator,1,2,1,2,2,1500000282,--,dan_meigh,,https://scontent-cdg2-1.cdninstagram.com/vp/cf6acf7a9f6415d3f70ff8fb1653fdb8/5D363D1C/t51.2885-19/s320x320/51978539_2101106983337365_8613979983586525184_n.jpg?_nc_ht=scontent-cdg2-1.cdninstagram.com,16 / United Kingdom 🇬🇧,[],"['False', 'False', 'False', 'False', 'False', 'False', 'False', 'False', 'False', 'False']",[],[],[],[],[],0,0,theresamay,Boa7hNChl7i,5c746ec3b5d85c88dca1f6d3,[],0.0,[]
252,252,0.0,0.0,0.3799783615910079,0,4.169817449574947e-05,0.1232019179541822,0.00026632931619948065,319,925,12,1,0,1,1,0.0,impersonator,1,2,1,2,2,1500000282,--,dan_meigh,,https://scontent-cdg2-1.cdninstagram.com/vp/cf6acf7a9f6415d3f70ff8fb1653fdb8/5D363D1C/t51.2885-19/s320x320/51978539_2101106983337365_8613979983586525184_n.jpg?_nc_ht=scontent-cdg2-1.cdninstagram.com,16 / United Kingdom 🇬🇧,[],"['False', 'False', 'False', 'False', 'False', 'False', 'False', 'False', 'False', 'False']",[],[],[],[],[],0,0,theresamay,BoY4PQ1henJ,5c746fbeb5d85c88dca20a66,[],0.0,[]
252,252,0.0,0.0,0.3799783615910079,0,4.169817449574947e-05,0.1232019179541822,0.00026632931619948065,319,925,12,1,0,1,1,0.0,impersonator,1,2,1,2,2,1500000282,--,dan_meigh,,https://scontent-cdg2-1.cdninstagram.com/vp/cf6acf7a9f6415d3f70ff8fb1653fdb8/5D363D1C/t51.2885-19/s320x320/51978539_2101106983337365_8613979983586525184_n.jpg?_nc_ht=scontent-cdg2-1.cdninstagram.com,16 / United Kingdom 🇬🇧,[],"['False', 'False', 'False', 'False', 'False', 'False', 'False', 'False', 'False', 'False']",[],[],[],[],[],0,0,theresamay,BoYdznKh1SQ,5c74714cb5d85c88dca21aeb,[],0.0,[]
252,252,0.0,0.0,0.3799783615910079,0,4.169817449574947e-05,0.1232019179541822,0.00026632931619948065,319,925,12,1,0,1,1,0.0,impersonator,1,2,1,2,2,1500000282,--,dan_meigh,,https://scontent-cdg2-1.cdninstagram.com/vp/cf6acf7a9f6415d3f70ff8fb1653fdb8/5D363D1C/t51.2885-19/s320x320/51978539_2101106983337365_8613979983586525184_n.jpg?_nc_ht=scontent-cdg2-1.cdninstagram.com,16 / United Kingdom 🇬🇧,[],"['False', 'False', 'False', 'False', 'False', 'False', 'False', 'False', 'False', 'False']",[],[],[],[],[],0,0,theresamay,BrzZcLQn1Hp,5c9a35911386641dde5dc2ba,[],0.0,[]
260,260,0.0,0.0,0.3799783615910079,0,4.535820235117575e-05,0.06939264784230154,0.004372239607608141,347,521,197,0,0,1,1,0.0,impersonator,1,2,1,2,2,1521107783,--,julienne.padayachy,Julienne Padayachy,https://scontent-cdg2-1.cdninstagram.com/vp/9c7ef96108c64547d7291f5f613f73af/5D3E08F1/t51.2885-19/11055657_1562220010713243_1148310267_a.jpg?_nc_ht=scontent-cdg2-1.cdninstagram.com,🇬🇧United Kingdom,[],"['False', 'False']",[],[],[],[],[],0,0,theresamay,BpW0Jzbhwgw,5c64210413866416f9418b51,[],0.0,[]
260,260,0.0,0.0,0.3799783615910079,0,4.535820235117575e-05,0.06939264784230154,0.004372239607608141,347,521,197,0,0,1,1,0.0,impersonator,1,2,1,2,2,1521107783,--,julienne.padayachy,Julienne Padayachy,https://scontent-cdg2-1.cdninstagram.com/vp/9c7ef96108c64547d7291f5f613f73af/5D3E08F1/t51.2885-19/11055657_1562220010713243_1148310267_a.jpg?_nc_ht=scontent-cdg2-1.cdninstagram.com,🇬🇧United Kingdom,[],"['False', 'False']",[],[],[],[],[],0,0,theresamay,Boa7hNChl7i,5c746eacb5d85c88dca1f51d,[],0.0,[]
359,359,0.3799783615910079,0.0,0.0,0,3.973744528748538e-05,0.04262120404901439,0.0040171338526755,304,320,181,1,0,1,1,0.0,impersonator,0,2,1,2,2,1832036786,--,yll1_united_kingdom,🇦🇱FOLLOW THAT DREAM🇬🇧,https://scontent-cdg2-1.cdninstagram.com/vp/ec5ce3e05688e9ff59d71a09590e29a7/5D3DB84A/t51.2885-19/s320x320/44293961_338393506922833_4956829938226298880_n.jpg?_nc_ht=scontent-cdg2-1.cdninstagram.com,,[],['False'],[],[],[],[],[],0,0,theresamay,BpC9kd6h_2Y,5c64281e13866416f941ec27,[],0.0,[]
1192,1192,0.0,0.0,0.3799783615910079,0,0.000315808117811068,0.025572722429408633,0.0005770468517655412,2416,192,26,0,0,1,1,0.0,impersonator,1,2,1,2,2,6302254440,--,_lgandrews,Liam George Andrews,https://scontent-cdg2-1.cdninstagram.com/vp/5add3b59319d30301dabd50ef33d0ffc/5D429F9F/t51.2885-19/s320x320/33031705_177789396267421_7182775156891189248_n.jpg?_nc_ht=scontent-cdg2-1.cdninstagram.com,United Kingdom 🇬🇧,[],['False'],[],[],[],[],[],0,0,theresamay,Bodiqn7hONk,5c64322713866416f9427f73,[],0.0,[]
1356,1356,0.0,0.0,0.3799783615910079,0,6.391977218940905e-05,0.06473095364944059,4.43882193665801e-05,489,486,2,0,0,1,1,0.0,impersonator,1,2,1,2,2,7176647169,--,mejiasnorberto,Norberto Mejias 🇻🇪🇬🇧,https://scontent-cdg2-1.cdninstagram.com/vp/4f9d0a7d1555de292d4b7c795f7251cf/5D55FCCF/t51.2885-19/s320x320/51743726_2320173794890639_5239066300969385984_n.jpg?_nc_ht=scontent-cdg2-1.cdninstagram.com,United Kingdom,[],"['False', 'False', 'False', 'False', 'False', 'False', 'False', 'False']",[],[],[],[],[],0,0,theresamay,BqffC0aHPJR,5c640a5413866416f9404b05,[],0.0,[]
1356,1356,0.0,0.0,0.3799783615910079,0,6.391977218940905e-05,0.06473095364944059,4.43882193665801e-05,489,486,2,0,0,1,1,0.0,impersonator,1,2,1,2,2,7176647169,--,mejiasnorberto,Norberto Mejias 🇻🇪🇬🇧,https://scontent-cdg2-1.cdninstagram.com/vp/4f9d0a7d1555de292d4b7c795f7251cf/5D55FCCF/t51.2885-19/s320x320/51743726_2320173794890639_5239066300969385984_n.jpg?_nc_ht=scontent-cdg2-1.cdninstagram.com,United Kingdom,[],"['False', 'False', 'False', 'False', 'False', 'False', 'False', 'False']",[],[],[],[],[],0,0,theresamay,Bp9tzP6nagg,5c64161413866416f940f202,[],0.0,[]
1356,1356,0.0,0.0,0.3799783615910079,0,6.391977218940905e-05,0.06473095364944059,4.43882193665801e-05,489,486,2,0,0,1,1,0.0,impersonator,1,2,1,2,2,7176647169,--,mejiasnorberto,Norberto Mejias 🇻🇪🇬🇧,https://scontent-cdg2-1.cdninstagram.com/vp/4f9d0a7d1555de292d4b7c795f7251cf/5D55FCCF/t51.2885-19/s320x320/51743726_2320173794890639_5239066300969385984_n.jpg?_nc_ht=scontent-cdg2-1.cdninstagram.com,United Kingdom,[],"['False', 'False', 'False', 'False', 'False', 'False', 'False', 'False']",[],[],[],[],[],0,0,theresamay,BpsCbWuHyEy,5c641c6c13866416f9414f2d,[],0.0,[]
1356,1356,0.0,0.0,0.3799783615910079,0,6.391977218940905e-05,0.06473095364944059,4.43882193665801e-05,489,486,2,0,0,1,1,0.0,impersonator,1,2,1,2,2,7176647169,--,mejiasnorberto,Norberto Mejias 🇻🇪🇬🇧,https://scontent-cdg2-1.cdninstagram.com/vp/4f9d0a7d1555de292d4b7c795f7251cf/5D55FCCF/t51.2885-19/s320x320/51743726_2320173794890639_5239066300969385984_n.jpg?_nc_ht=scontent-cdg2-1.cdninstagram.com,United Kingdom,[],"['False', 'False', 'False', 'False', 'False', 'False', 'False', 'False']",[],[],[],[],[],0,0,theresamay,BprU65bn3sf,5c641d1913866416f941582c,[],0.0,[]
1356,1356,0.0,0.0,0.3799783615910079,0,6.391977218940905e-05,0.06473095364944059,4.43882193665801e-05,489,486,2,0,0,1,1,0.0,impersonator,1,2,1,2,2,7176647169,--,mejiasnorberto,Norberto Mejias 🇻🇪🇬🇧,https://scontent-cdg2-1.cdninstagram.com/vp/4f9d0a7d1555de292d4b7c795f7251cf/5D55FCCF/t51.2885-19/s320x320/51743726_2320173794890639_5239066300969385984_n.jpg?_nc_ht=scontent-cdg2-1.cdninstagram.com,United Kingdom,[],"['False', 'False', 'False', 'False', 'False', 'False', 'False', 'False']",[],[],[],[],[],0,0,theresamay,BpW0Jzbhwgw,5c64205413866416f94181f2,[],0.0,[]
1356,1356,0.0,0.0,0.3799783615910079,0,6.391977218940905e-05,0.06473095364944059,4.43882193665801e-05,489,486,2,0,0,1,1,0.0,impersonator,1,2,1,2,2,7176647169,--,mejiasnorberto,Norberto Mejias 🇻🇪🇬🇧,https://scontent-cdg2-1.cdninstagram.com/vp/4f9d0a7d1555de292d4b7c795f7251cf/5D55FCCF/t51.2885-19/s320x320/51743726_2320173794890639_5239066300969385984_n.jpg?_nc_ht=scontent-cdg2-1.cdninstagram.com,United Kingdom,[],"['False', 'False', 'False', 'False', 'False', 'False', 'False', 'False']",[],[],[],[],[],0,0,theresamay,BpC90NOhBtu,5c64277e13866416f941e36e,[],0.0,[]
1356,1356,0.0,0.0,0.3799783615910079,0,6.391977218940905e-05,0.06473095364944059,4.43882193665801e-05,489,486,2,0,0,1,1,0.0,impersonator,1,2,1,2,2,7176647169,--,mejiasnorberto,Norberto Mejias 🇻🇪🇬🇧,https://scontent-cdg2-1.cdninstagram.com/vp/4f9d0a7d1555de292d4b7c795f7251cf/5D55FCCF/t51.2885-19/s320x320/51743726_2320173794890639_5239066300969385984_n.jpg?_nc_ht=scontent-cdg2-1.cdninstagram.com,United Kingdom,[],"['False', 'False', 'False', 'False', 'False', 'False', 'False', 'False']",[],[],[],[],[],0,0,theresamay,BoyOTcMhjYw,5c642dd513866416f9424001,[],0.0,[]
1356,1356,0.0,0.0,0.3799783615910079,0,6.391977218940905e-05,0.06473095364944059,4.43882193665801e-05,489,486,2,0,0,1,1,0.0,impersonator,1,2,1,2,2,7176647169,--,mejiasnorberto,Norberto Mejias 🇻🇪🇬🇧,https://scontent-cdg2-1.cdninstagram.com/vp/4f9d0a7d1555de292d4b7c795f7251cf/5D55FCCF/t51.2885-19/s320x320/51743726_2320173794890639_5239066300969385984_n.jpg?_nc_ht=scontent-cdg2-1.cdninstagram.com,United Kingdom,[],"['False', 'False', 'False', 'False', 'False', 'False', 'False', 'False']",[],[],[],[],[],0,0,theresamay,BrzZcLQn1Hp,5c9a35681386641dde5dbec8,[],0.0,[]
