,Unnamed: 0,username,name,bio,photo,nfollower,nfollowee,nmediacount,follower,followee,mediacount,private,verified,lcm,mcm,nmcm,class,class BGM 3,class GM 3,class kmeans 3,class spectral 3,class GM 4,owener_id,combined_owener_external_url,combined_username,combined_full_name,combined_profile_pic_url,combined_biography,combined_similarity_photo_comment,combined_similarity_photo_like,comment_created_at,comment_id,comment_post_shortcode,comment_shortcode_username,comment_text,comment_total,like_total,like_shortcode_username,like_post_shortcode,like_id,comment_post_date,comment_avg_age_sec,comment_age_sec
139,139,0.0,0.0,0.3799783615910079,0,0.0001415646488366667,0.41302610548748003,0.0005992409614488316,1083,3101,27,0,0,1,1,0.0,impersonator,1,2,1,2,2,633744071,--,brettmurphy2711,Brett Murphy,https://scontent-cdg2-1.cdninstagram.com/vp/0679e7a1d1388b4722560a063b14b475/5D735C3F/t51.2885-19/s320x320/57090225_433516927426125_7182301495012884480_n.jpg?_nc_ht=scontent-cdg2-1.cdninstagram.com,"United Kingdom 🇬🇧
.           ¯\_(ツ)_/¯",False,"['False', 'False', 'False']",2018-11-02 15:45:43,17962176010160995,BprU65bn3sf,theresamay,L,1,3,"['theresamay', 'theresamay', 'theresamay']","['BqNJfGjnVFv', 'BpsCbWuHyEy', 'Boa7hNChl7i']","['5c6411ad13866416f940b380', '5c641c4e13866416f9414db9', '5c746f2eb5d85c88dca1ff2c']",2018-11-02 11:53:33,13930.0,13930.0
2467,2467,0.0,0.0,0.3799783615910079,0,0.00017006057999677132,0.2012519978689398,8.87764387331602e-05,1301,1511,4,1,0,1,1,0.0,impersonator,1,2,1,2,2,1520880791,--,joethomasreed,Joe T Reed,https://scontent-cdg2-1.cdninstagram.com/vp/0f1767782a3dfd9ae8da0b1f1c6b607c/5D39E1B9/t51.2885-19/s320x320/56609026_2284887234900875_5049474865292115968_n.jpg?_nc_ht=scontent-cdg2-1.cdninstagram.com,United Kingdom,False,[],2018-12-05 21:01:52,18006701428058126,BrAsEDSnRmF,theresamay,@charliesue_lilly Theresa bossing,1,1,[],[],[],2018-12-05 15:31:43,19809.0,19809.0
2992,2992,0.3799783615910079,0.0,0.0,0,3.895315360417976e-05,0.05554075652637186,0.00017755287746632043,298,417,8,0,0,1,1,0.0,impersonator,0,2,1,2,2,4860726887,--,theresamay__,mother,-,The snack that smiles back,False,[],2019-01-03 19:13:17,17994891973084345,BrzZcLQn1Hp,theresamay,My g,2,1,[],[],[],2018-12-25 08:09:46,752241.0,817411.0
2992,2992,0.3799783615910079,0.0,0.0,0,3.895315360417976e-05,0.05554075652637186,0.00017755287746632043,298,417,8,0,0,1,1,0.0,impersonator,0,2,1,2,2,4860726887,--,theresamay__,mother,-,The snack that smiles back,False,[],2018-12-28 18:19:13,18002142133105103,BrnvFl6HAoS,theresamay,😎,2,1,[],[],[],2018-12-20 19:28:02,752241.0,687071.0
