,Unnamed: 0,username,name,bio,photo,nfollower,nfollowee,nmediacount,follower,followee,mediacount,private,verified,lcm,mcm,nmcm,class,class BGM 3,class GM 3,class kmeans 3,class spectral 3,class GM 4,owener_id,combined_owener_external_url,combined_username,combined_full_name,combined_profile_pic_url,combined_biography,combined_similarity_photo_comment,combined_similarity_photo_like,comment_created_at,comment_id,comment_post_shortcode,comment_shortcode_username,comment_text,comment_total,like_total,like_shortcode_username,like_post_shortcode,like_id,comment_post_date,comment_avg_age_sec,comment_age_sec
167,167,0.5031026124151314,0.7092972666062739,0.0,0,0.00624087035462402,0.01864677677144379,0.060745278203164874,47744,140,2737,0,0,1,2,0.3333333333333333,impersonator,0,0,0,0,0,1002480100,--,rafaelnadalfans_,Rafael Nadal,https://scontent-cdg2-1.cdninstagram.com/vp/81494b08a97ccbcd572605802f80fde1/5D5BE5BD/t51.2885-19/s320x320/52090445_345355076078671_3023790683010891776_n.jpg?_nc_ht=scontent-cdg2-1.cdninstagram.com,"King of clay 👑 
17- time grand slam champion 
World number 2☺️🌍 
VAMOS GOAT❤️ 🐐",False,['False'],2018-11-26 14:24:33,17985579784126041,BqmqbmCAn_q,rafaelnadal,Lovely photos!!!!❤️❤️,4,1,['rafaelnadal'],['BqmqbmCAn_q'],['5c6732deb5d85c3e0ada2283'],2018-11-25 12:56:42,41868.0,91671.0
167,167,0.5031026124151314,0.7092972666062739,0.0,0,0.00624087035462402,0.01864677677144379,0.060745278203164874,47744,140,2737,0,0,1,2,0.3333333333333333,impersonator,0,0,0,0,0,1002480100,--,rafaelnadalfans_,Rafael Nadal,https://scontent-cdg2-1.cdninstagram.com/vp/81494b08a97ccbcd572605802f80fde1/5D5BE5BD/t51.2885-19/s320x320/52090445_345355076078671_3023790683010891776_n.jpg?_nc_ht=scontent-cdg2-1.cdninstagram.com,"King of clay 👑 
17- time grand slam champion 
World number 2☺️🌍 
VAMOS GOAT❤️ 🐐",False,['False'],2018-10-31 17:52:37,17962295965162728,BpmwsusAR-2,rafaelnadal,❤️get well soon,4,1,['rafaelnadal'],['BqmqbmCAn_q'],['5c6732deb5d85c3e0ada2283'],2018-10-31 17:20:05,41868.0,1952.0
167,167,0.5031026124151314,0.7092972666062739,0.0,0,0.00624087035462402,0.01864677677144379,0.060745278203164874,47744,140,2737,0,0,1,2,0.3333333333333333,impersonator,0,0,0,0,0,1002480100,--,rafaelnadalfans_,Rafael Nadal,https://scontent-cdg2-1.cdninstagram.com/vp/81494b08a97ccbcd572605802f80fde1/5D5BE5BD/t51.2885-19/s320x320/52090445_345355076078671_3023790683010891776_n.jpg?_nc_ht=scontent-cdg2-1.cdninstagram.com,"King of clay 👑 
17- time grand slam champion 
World number 2☺️🌍 
VAMOS GOAT❤️ 🐐",False,['False'],2018-10-30 13:49:19,17930995165219076,BpjZlJineoR,rafaelnadal,VAMOS! Good luck champ❤️,4,1,['rafaelnadal'],['BqmqbmCAn_q'],['5c6732deb5d85c3e0ada2283'],2018-10-30 10:00:21,41868.0,13738.0
167,167,0.5031026124151314,0.7092972666062739,0.0,0,0.00624087035462402,0.01864677677144379,0.060745278203164874,47744,140,2737,0,0,1,2,0.3333333333333333,impersonator,0,0,0,0,0,1002480100,--,rafaelnadalfans_,Rafael Nadal,https://scontent-cdg2-1.cdninstagram.com/vp/81494b08a97ccbcd572605802f80fde1/5D5BE5BD/t51.2885-19/s320x320/52090445_345355076078671_3023790683010891776_n.jpg?_nc_ht=scontent-cdg2-1.cdninstagram.com,"King of clay 👑 
17- time grand slam champion 
World number 2☺️🌍 
VAMOS GOAT❤️ 🐐",False,['False'],2018-10-26 10:26:43,17930043676211550,BpXWw8wHOkb,rafaelnadal,Fantastic! 🙌🏼,4,1,['rafaelnadal'],['BqmqbmCAn_q'],['5c6732deb5d85c3e0ada2283'],2018-10-25 17:44:52,41868.0,60111.0
296,296,0.2605556710562624,0.4494364165239821,0.4112070550676187,0,5.22861122203755e-06,0.011854022376132124,0.00022194109683290053,40,89,10,1,0,1,3,0.6666666666666667,impersonator,0,0,0,0,3,1616109953,--,rafaerlita,RafaErl,https://scontent-cdg2-1.cdninstagram.com/vp/5d2c8cf2031d30e8c1925f87435f5b30/5D711777/t51.2885-19/11356571_1446514662316160_1031439177_a.jpg?_nc_ht=scontent-cdg2-1.cdninstagram.com,Rafael Nadal Fan Forever,False,['False'],2018-11-25 19:00:59,17970250384163623,BqmqbmCAn_q,rafaelnadal,Awesome family photos! ❤️,3,1,['rafaelnadal'],['BqpsJ_zgPMY'],['5c66ec17b5d85c3ba63477f7'],2018-11-25 12:56:42,9691.333333333334,21857.0
296,296,0.2605556710562624,0.4494364165239821,0.4112070550676187,0,5.22861122203755e-06,0.011854022376132124,0.00022194109683290053,40,89,10,1,0,1,3,0.6666666666666667,impersonator,0,0,0,0,3,1616109953,--,rafaerlita,RafaErl,https://scontent-cdg2-1.cdninstagram.com/vp/5d2c8cf2031d30e8c1925f87435f5b30/5D711777/t51.2885-19/11356571_1446514662316160_1031439177_a.jpg?_nc_ht=scontent-cdg2-1.cdninstagram.com,Rafael Nadal Fan Forever,False,['False'],2018-11-17 18:49:12,17937196828222295,BqSl1ooAJP2,rafaelnadal,"Enjoy your vacation, Rafa!  Send us lots of beach photos! 😎😃",3,1,['rafaelnadal'],['BqpsJ_zgPMY'],['5c66ec17b5d85c3ba63477f7'],2018-11-17 17:51:46,9691.333333333334,3446.0
296,296,0.2605556710562624,0.4494364165239821,0.4112070550676187,0,5.22861122203755e-06,0.011854022376132124,0.00022194109683290053,40,89,10,1,0,1,3,0.6666666666666667,impersonator,0,0,0,0,3,1616109953,--,rafaerlita,RafaErl,https://scontent-cdg2-1.cdninstagram.com/vp/5d2c8cf2031d30e8c1925f87435f5b30/5D711777/t51.2885-19/11356571_1446514662316160_1031439177_a.jpg?_nc_ht=scontent-cdg2-1.cdninstagram.com,Rafael Nadal Fan Forever,False,['False'],2018-11-11 12:46:11,17990288755074554,BqCe54TA8mN,rafaelnadal,Congrats @rafaelnadal You’re a great example to everyone. So proud of you! 👏👑🌟💙,3,1,['rafaelnadal'],['BqpsJ_zgPMY'],['5c66ec17b5d85c3ba63477f7'],2018-11-11 11:43:20,9691.333333333334,3771.0
330,330,0.4112070550676187,0.4112070550676187,0.1783584986133385,0,0.0022888245624469376,0.035428875865743205,0.09858623521317443,17510,266,4442,0,0,1,3,0.6666666666666667,impersonator,0,0,0,0,3,1729199308,--,somostodosrafanadal,Nadalistas-WeAreAllRafaNadal,https://scontent-cdg2-1.cdninstagram.com/vp/29c74801d9ccb70bc38b6013bf9deae2/5D3EE03B/t51.2885-19/s320x320/20225629_1725583247742661_7513311948750979072_a.jpg?_nc_ht=scontent-cdg2-1.cdninstagram.com,"SomosTodosRafaNadal 👉Alessandra Leal ♥Denise Faro♥Rose Francener♥Suely França 👭👭
AMIGAS  e torcedoras de Rafa Nadal 💪🏆🎾
Twitter @RafaSomos",False,['False'],2018-11-26 18:43:13,17973918826147826,BqpsJ_zgPMY,rafaelnadal,💛❤🇪🇸❤💛,2,1,['rafaelnadal'],['BqpsJ_zgPMY'],['5c66eca2b5d85c3ba63484f7'],2018-11-26 17:11:53,7807.0,5480.0
330,330,0.4112070550676187,0.4112070550676187,0.1783584986133385,0,0.0022888245624469376,0.035428875865743205,0.09858623521317443,17510,266,4442,0,0,1,3,0.6666666666666667,impersonator,0,0,0,0,3,1729199308,--,somostodosrafanadal,Nadalistas-WeAreAllRafaNadal,https://scontent-cdg2-1.cdninstagram.com/vp/29c74801d9ccb70bc38b6013bf9deae2/5D3EE03B/t51.2885-19/s320x320/20225629_1725583247742661_7513311948750979072_a.jpg?_nc_ht=scontent-cdg2-1.cdninstagram.com,"SomosTodosRafaNadal 👉Alessandra Leal ♥Denise Faro♥Rose Francener♥Suely França 👭👭
AMIGAS  e torcedoras de Rafa Nadal 💪🏆🎾
Twitter @RafaSomos",False,['False'],2018-11-25 15:45:36,17961553180196140,BqmqbmCAn_q,rafaelnadal,Wow 😯😲💙👏,2,1,['rafaelnadal'],['BqpsJ_zgPMY'],['5c66eca2b5d85c3ba63484f7'],2018-11-25 12:56:42,7807.0,10134.0
1241,1241,0.2605556710562624,0.4494364165239821,0.1707761131901165,0,4.705750099833796e-06,0.0055940330314331365,0.0018421111037130746,36,42,83,0,0,1,3,0.6666666666666667,impersonator,0,0,0,0,3,6661404450,--,rafaismyheart,Rafa🐨,https://scontent-cdg2-1.cdninstagram.com/vp/cb9fd7cf6ae8d9c64e268bc6de91c4d1/5D771877/t51.2885-19/s320x320/53236619_2086932234946387_196177871104901120_n.jpg?_nc_ht=scontent-cdg2-1.cdninstagram.com,"I don't deserve RAFA, I really don't😭",False,['False'],2018-11-27 13:50:10,17986803421120566,BqpsJ_zgPMY,rafaelnadal,How can you be so handsome? 😭😘💘,5,1,['rafaelnadal'],['BqpsJ_zgPMY'],['5c66dbc8b5d85c3ba6337f3b'],2018-11-26 17:11:53,30018.0,74297.0
1241,1241,0.2605556710562624,0.4494364165239821,0.1707761131901165,0,4.705750099833796e-06,0.0055940330314331365,0.0018421111037130746,36,42,83,0,0,1,3,0.6666666666666667,impersonator,0,0,0,0,3,6661404450,--,rafaismyheart,Rafa🐨,https://scontent-cdg2-1.cdninstagram.com/vp/cb9fd7cf6ae8d9c64e268bc6de91c4d1/5D771877/t51.2885-19/s320x320/53236619_2086932234946387_196177871104901120_n.jpg?_nc_ht=scontent-cdg2-1.cdninstagram.com,"I don't deserve RAFA, I really don't😭",False,['False'],2018-11-25 15:55:12,17995167586077970,BqmqbmCAn_q,rafaelnadal,happy holidays💖,5,1,['rafaelnadal'],['BqpsJ_zgPMY'],['5c66dbc8b5d85c3ba6337f3b'],2018-11-25 12:56:42,30018.0,10710.0
1241,1241,0.2605556710562624,0.4494364165239821,0.1707761131901165,0,4.705750099833796e-06,0.0055940330314331365,0.0018421111037130746,36,42,83,0,0,1,3,0.6666666666666667,impersonator,0,0,0,0,3,6661404450,--,rafaismyheart,Rafa🐨,https://scontent-cdg2-1.cdninstagram.com/vp/cb9fd7cf6ae8d9c64e268bc6de91c4d1/5D771877/t51.2885-19/s320x320/53236619_2086932234946387_196177871104901120_n.jpg?_nc_ht=scontent-cdg2-1.cdninstagram.com,"I don't deserve RAFA, I really don't😭",False,['False'],2018-10-27 03:46:19,17974968343126838,BpaMfCSHfzH,rafaelnadal,😘Rafaaaaaa,5,1,['rafaelnadal'],['BqpsJ_zgPMY'],['5c66dbc8b5d85c3ba6337f3b'],2018-10-26 20:12:45,30018.0,27214.0
1241,1241,0.2605556710562624,0.4494364165239821,0.1707761131901165,0,4.705750099833796e-06,0.0055940330314331365,0.0018421111037130746,36,42,83,0,0,1,3,0.6666666666666667,impersonator,0,0,0,0,3,6661404450,--,rafaismyheart,Rafa🐨,https://scontent-cdg2-1.cdninstagram.com/vp/cb9fd7cf6ae8d9c64e268bc6de91c4d1/5D771877/t51.2885-19/s320x320/53236619_2086932234946387_196177871104901120_n.jpg?_nc_ht=scontent-cdg2-1.cdninstagram.com,"I don't deserve RAFA, I really don't😭",False,['False'],2018-10-27 03:47:00,17970973720091695,BpaMfCSHfzH,rafaelnadal,好久没看到你了，想你想你想你爱你爱你爱你😃,5,1,['rafaelnadal'],['BqpsJ_zgPMY'],['5c66dbc8b5d85c3ba6337f3b'],2018-10-26 20:12:45,30018.0,27255.0
1241,1241,0.2605556710562624,0.4494364165239821,0.1707761131901165,0,4.705750099833796e-06,0.0055940330314331365,0.0018421111037130746,36,42,83,0,0,1,3,0.6666666666666667,impersonator,0,0,0,0,3,6661404450,--,rafaismyheart,Rafa🐨,https://scontent-cdg2-1.cdninstagram.com/vp/cb9fd7cf6ae8d9c64e268bc6de91c4d1/5D771877/t51.2885-19/s320x320/53236619_2086932234946387_196177871104901120_n.jpg?_nc_ht=scontent-cdg2-1.cdninstagram.com,"I don't deserve RAFA, I really don't😭",False,['False'],2018-10-18 13:21:41,17872209253284501,BpEixhJHuss,rafaelnadal,"Rafa, I miss you💕",5,1,['rafaelnadal'],['BqpsJ_zgPMY'],['5c66dbc8b5d85c3ba6337f3b'],2018-10-18 10:24:47,30018.0,10614.0
1469,1469,0.0,0.4494364165239821,0.0,0,1.176437524958449e-06,0.005993606819392648,0.0,9,45,0,0,0,1,1,0.0,impersonator,0,0,0,0,3,7657290137,--,ramafarc,Rafael,https://instagram.fctg1-2.fna.fbcdn.net/vp/3b06abce33314ac68f54a1283ea1dde4/5D5480F1/t51.2885-19/44884218_345707102882519_2446069589734326272_n.jpg?_nc_ht=instagram.fctg1-2.fna.fbcdn.net,,False,"['False', 'False']",2018-11-26 20:50:46,17982070678092920,BqpsJ_zgPMY,rafaelnadal,Eres un crak y me gustaría conocerte tengo un hijo de 7 años que sueña con ser como tú pero rafa Nadal solo hay uno,2,2,"['rafaelnadal', 'rafaelnadal']","['BqpsJ_zgPMY', 'BqmqbmCAn_q']","['5c66e68fb5d85c3ba6342300', '5c673009b5d85c3e0ad9f6d7']",2018-11-26 17:11:53,64042.0,13133.0
1469,1469,0.0,0.4494364165239821,0.0,0,1.176437524958449e-06,0.005993606819392648,0.0,9,45,0,0,0,1,1,0.0,impersonator,0,0,0,0,3,7657290137,--,ramafarc,Rafael,https://instagram.fctg1-2.fna.fbcdn.net/vp/3b06abce33314ac68f54a1283ea1dde4/5D5480F1/t51.2885-19/44884218_345707102882519_2446069589734326272_n.jpg?_nc_ht=instagram.fctg1-2.fna.fbcdn.net,,False,"['False', 'False']",2018-11-26 20:52:33,17914138624248602,BqmqbmCAn_q,rafaelnadal,A disfrutar,2,2,"['rafaelnadal', 'rafaelnadal']","['BqpsJ_zgPMY', 'BqmqbmCAn_q']","['5c66e68fb5d85c3ba6342300', '5c673009b5d85c3e0ad9f6d7']",2018-11-25 12:56:42,64042.0,114951.0
2154,2154,0.2019930924979183,0.4112070550676187,0.23773923857522397,0,6.927909869199754e-06,0.005194459243473628,4.43882193665801e-05,53,39,2,0,0,1,3,0.6666666666666667,impersonator,0,0,0,0,3,9546279541,--,federer_nadal_fedal,Roger Federer & Rafa Nadal,https://scontent-cdg2-1.cdninstagram.com/vp/b9e2491ad072a389f097d3f1c4630275/5D5A164C/t51.2885-19/s320x320/47267444_356247501834007_1311907329750335488_n.jpg?_nc_ht=scontent-cdg2-1.cdninstagram.com,"• Dedicated to the amazing Roger Federer & Rafael Nadal 🎾
• 37 combined grand slam titles 🏆",False,['False'],2018-12-22 08:08:28,17983479628180159,BqpsJ_zgPMY,rafaelnadal,God that pumped me up! Bring on 2019! 🥰,1,1,['rafaelnadal'],['BqpsJ_zgPMY'],['5c66d6e4b5d85c3ba633392e'],2018-11-26 17:11:53,2213795.0,2213795.0
2297,2297,0.5031026124151314,0.5031026124151314,0.3563004293331381,0,0.006865166534535304,0.010655301012253595,0.04538695430232816,52520,80,2045,0,0,1,3,0.6666666666666667,impersonator,0,0,0,0,0,35625191,http://www.rafaelnadalfans.com/,rafaelnadalfans,Rafael Nadal Fans,https://scontent-cdg2-1.cdninstagram.com/vp/40fefcd10d242f2b94ec056d98ba38da/5D3CF5CA/t51.2885-19/s320x320/50302466_385529965540103_1367517625701105664_n.jpg?_nc_ht=scontent-cdg2-1.cdninstagram.com,Keeping you up to date on what's going with  @rafaelnadal. 🇪🇸🎾,False,[],2018-11-26 17:20:20,17929468219240518,BqpsJ_zgPMY,rafaelnadal,💪🔥❤️🎾 Vamos Rafa!,5,1,[],[],[],2018-11-26 17:11:53,2966.8,507.0
2297,2297,0.5031026124151314,0.5031026124151314,0.3563004293331381,0,0.006865166534535304,0.010655301012253595,0.04538695430232816,52520,80,2045,0,0,1,3,0.6666666666666667,impersonator,0,0,0,0,0,35625191,http://www.rafaelnadalfans.com/,rafaelnadalfans,Rafael Nadal Fans,https://scontent-cdg2-1.cdninstagram.com/vp/40fefcd10d242f2b94ec056d98ba38da/5D3CF5CA/t51.2885-19/s320x320/50302466_385529965540103_1367517625701105664_n.jpg?_nc_ht=scontent-cdg2-1.cdninstagram.com,Keeping you up to date on what's going with  @rafaelnadal. 🇪🇸🎾,False,[],2018-11-25 12:59:08,17988297097099031,BqmqbmCAn_q,rafaelnadal,Enjoy Rafa! ❤😎,5,1,[],[],[],2018-11-25 12:56:42,2966.8,146.0
2297,2297,0.5031026124151314,0.5031026124151314,0.3563004293331381,0,0.006865166534535304,0.010655301012253595,0.04538695430232816,52520,80,2045,0,0,1,3,0.6666666666666667,impersonator,0,0,0,0,0,35625191,http://www.rafaelnadalfans.com/,rafaelnadalfans,Rafael Nadal Fans,https://scontent-cdg2-1.cdninstagram.com/vp/40fefcd10d242f2b94ec056d98ba38da/5D3CF5CA/t51.2885-19/s320x320/50302466_385529965540103_1367517625701105664_n.jpg?_nc_ht=scontent-cdg2-1.cdninstagram.com,Keeping you up to date on what's going with  @rafaelnadal. 🇪🇸🎾,False,[],2018-11-02 17:19:15,17903865418259921,Bprhbf2A1ML,rafaelnadal,Enjoy 💥💯💥,5,1,[],[],[],2018-11-02 13:42:52,2966.8,12983.0
2297,2297,0.5031026124151314,0.5031026124151314,0.3563004293331381,0,0.006865166534535304,0.010655301012253595,0.04538695430232816,52520,80,2045,0,0,1,3,0.6666666666666667,impersonator,0,0,0,0,0,35625191,http://www.rafaelnadalfans.com/,rafaelnadalfans,Rafael Nadal Fans,https://scontent-cdg2-1.cdninstagram.com/vp/40fefcd10d242f2b94ec056d98ba38da/5D3CF5CA/t51.2885-19/s320x320/50302466_385529965540103_1367517625701105664_n.jpg?_nc_ht=scontent-cdg2-1.cdninstagram.com,Keeping you up to date on what's going with  @rafaelnadal. 🇪🇸🎾,False,[],2018-10-31 17:29:46,17921912197227358,BpmwsusAR-2,rafaelnadal,Get well Rafa ❤️🙌,5,1,[],[],[],2018-10-31 17:20:05,2966.8,581.0
2297,2297,0.5031026124151314,0.5031026124151314,0.3563004293331381,0,0.006865166534535304,0.010655301012253595,0.04538695430232816,52520,80,2045,0,0,1,3,0.6666666666666667,impersonator,0,0,0,0,0,35625191,http://www.rafaelnadalfans.com/,rafaelnadalfans,Rafael Nadal Fans,https://scontent-cdg2-1.cdninstagram.com/vp/40fefcd10d242f2b94ec056d98ba38da/5D3CF5CA/t51.2885-19/s320x320/50302466_385529965540103_1367517625701105664_n.jpg?_nc_ht=scontent-cdg2-1.cdninstagram.com,Keeping you up to date on what's going with  @rafaelnadal. 🇪🇸🎾,False,[],2018-10-26 20:23:02,17919136189236012,BpaMfCSHfzH,rafaelnadal,🙌🙌❤️❤️,5,1,[],[],[],2018-10-26 20:12:45,2966.8,617.0
2330,2330,0.0,0.4494364165239821,0.0,0,0.00011058512734609421,0.08857218966435801,0.0009987349357480524,846,665,45,1,0,1,1,0.0,impersonator,0,0,0,0,3,316678812,http://vsco.co/rramos28,rramos.28,Rafael,https://scontent-cdg2-1.cdninstagram.com/vp/d409fb5430702a8fa2a56353aa123e80/5D6E5B84/t51.2885-19/s320x320/53309143_808744612829523_6259020479995052032_n.jpg?_nc_ht=scontent-cdg2-1.cdninstagram.com,"Son of the king
MV' 19 🇵🇪🇺🇸
                                                                           👇🏻| Aqui para servir †",False,[],2018-11-26 17:24:51,17886633133283418,BqpsJ_zgPMY,rafaelnadal,You look very serious. Scary,1,1,[],[],[],2018-11-26 17:11:53,778.0,778.0
2336,2336,0.5031026124151314,0.4112070550676187,0.3483055458274278,0,0.0009384049990751892,0.0033297815663292487,0.00026632931619948065,7179,25,12,0,0,1,3,0.6666666666666667,impersonator,0,0,0,0,3,348336311,http://twitter.com/rafanadalfanclub_,rafanadalfanclub_,Rafael Nadal Fanpage 🇪🇸🏆💪🏻,https://scontent-cdg2-1.cdninstagram.com/vp/bf9cc985d77df74cb44e08f90be17152/5D5156A9/t51.2885-19/s320x320/47581469_2269488523373257_6582108265260253184_n.jpg?_nc_ht=scontent-cdg2-1.cdninstagram.com,"🔹Huge @rafaelnadal fanpage 🇪🇸
🔹Current ATP Ranking: 2 🎾
🔹ATP Titles: 80 🏆 Grand Slam: 17 🏆
📍Current tournament: -
🔹#VamosRafa",True,[],2018-10-31 17:39:51,17903877766252599,BpmwsusAR-2,rafaelnadal,"Get well soon Rafa, you will comeback stronger than ever 💪💪",1,1,[],[],[],2018-10-31 17:20:05,1186.0,1186.0
2544,2544,0.0,0.4494364165239821,0.0,0,2.8103785318451838e-05,0.2298881193393713,0.003284728233126928,215,1726,148,1,0,1,1,0.0,impersonator,0,0,0,0,3,1810995003,--,rafamurilo0405,rafael,https://scontent-cdg2-1.cdninstagram.com/vp/01b68b6c85bf6e83e8735cd28d543558/5D390508/t51.2885-19/s320x320/34193490_173791086646316_6993957476752162816_n.jpg?_nc_ht=scontent-cdg2-1.cdninstagram.com,"De la la Ciudad de México, nacido también el siglo pasado, Asesor de Seguros",False,[],2018-10-27 05:36:44,17963829988144375,BpaMfCSHfzH,rafaelnadal,👏🏻👏🏻👏🏻👏🏻🎾,1,1,[],[],[],2018-10-26 20:12:45,33839.0,33839.0
2596,2596,0.4112070550676187,0.4112070550676187,0.4112070550676187,0,0.002365162286288686,0.037559936068193925,0.03149344164058858,18094,282,1419,0,0,1,3,0.6666666666666667,impersonator,0,0,0,0,3,2052647280,--,rafanadal.kingofclay,rafanadal.kingofclay,https://scontent-cdg2-1.cdninstagram.com/vp/f54d91639bf1a66f97bafd72369830d2/5D537099/t51.2885-19/s150x150/14723550_1272990482773410_1160619159743102976_a.jpg?_nc_ht=scontent-cdg2-1.cdninstagram.com,The fanpage of Rafael Nadal.,False,[],2018-10-30 10:15:08,17972358637080734,BpjZlJineoR,rafaelnadal,Vamos Rafa!,1,1,[],[],[],2018-10-30 10:00:21,887.0,887.0
2630,2630,0.2605556710562624,0.4494364165239821,0.0,0,2.2613743535312413e-05,0.03263185935002664,0.002419157955478616,173,245,109,1,0,1,2,0.3333333333333333,impersonator,0,0,0,0,3,2216476718,--,rafavalera71,Rafa,https://scontent-cdg2-1.cdninstagram.com/vp/6bc22aaea3db63068dd3f105c038f65b/5D3A29F5/t51.2885-19/s320x320/42705572_326086798195073_7998447355445641216_n.jpg?_nc_ht=scontent-cdg2-1.cdninstagram.com,,False,[],2018-11-06 15:29:07,17921225827241027,Bp13EjpA9ls,rafaelnadal,"No dejes de luchar Rafa,continua y persiste como te lo lo pide tu naturaleza,eres un luchador,ánimos 💪🏻💪🏻💪🏻",1,1,[],[],[],2018-11-06 14:04:22,5085.0,5085.0
2852,2852,0.4494364165239821,0.2019930924979183,0.0,0,1.1895090530135428e-05,0.0230420884389984,0.0009099584970148922,91,173,41,1,0,1,2,0.3333333333333333,impersonator,0,0,0,0,3,3932050533,--,rafag_23,Rafa Garcia Granados,https://scontent-cdg2-1.cdninstagram.com/vp/181241c28e6c5559dc882ee989d55d49/5D5B4FDC/t51.2885-19/s320x320/35166480_823575087836860_2620752936229142528_n.jpg?_nc_ht=scontent-cdg2-1.cdninstagram.com,#jet,False,[],2018-11-06 14:29:44,17922027196240573,Bp13EjpA9ls,rafaelnadal,Muchos ánimos #VAMOS,1,1,[],[],[],2018-11-06 14:04:22,1522.0,1522.0
3091,3091,0.5031026124151314,0.5031026124151314,0.3187840217537793,0,1.2940812774542935e-05,0.03036760788492275,0.00011097054841645026,99,228,5,0,0,1,3,0.6666666666666667,impersonator,0,0,0,0,3,5786755636,--,rafanadalfans66,RafaNadalFans,https://scontent-cdg2-1.cdninstagram.com/vp/c247d77b909b8ccce557fcdf2d6b31c0/5D590782/t51.2885-19/s320x320/44674371_449857338874541_5821806346999169024_n.jpg?_nc_ht=scontent-cdg2-1.cdninstagram.com,"Lovers of Rafa Nadal 💙
Follow if you are Rafa Fan. Please. 🙏",True,[],2018-11-19 08:20:55,18001737553014645,BqSl1ooAJP2,rafaelnadal,😍😍😍,1,1,[],[],[],2018-11-17 17:51:46,138549.0,138549.0
3152,3152,0.0,0.4494364165239821,0.0,0,2.614305611018775e-06,0.004528502930207778,8.87764387331602e-05,20,34,4,1,0,1,1,0.0,impersonator,0,0,0,0,3,6169194713,--,hasse.martine,Rafa16,https://scontent-cdg2-1.cdninstagram.com/vp/81920a9f933ff5a90767ab6725b4b750/5D54D0D2/t51.2885-19/s150x150/24124784_528201254206581_5919318515688407040_n.jpg?_nc_ht=scontent-cdg2-1.cdninstagram.com,,False,[],2018-10-31 21:35:58,17994416881056832,BpmwsusAR-2,rafaelnadal,Pas drôle. Nous on l attendait à Bercy pour le voir jouer,1,1,[],[],[],2018-10-31 17:20:05,15353.0,15353.0
3191,3191,0.7092972666062739,0.4494364165239821,0.0,0,0.000369401382836953,0.004928076718167289,0.007301862085802428,2826,37,329,1,0,1,2,0.3333333333333333,impersonator,0,0,0,0,3,6438771978,--,rafael.___nadal,Rafa,https://scontent-cdg2-1.cdninstagram.com/vp/5f17390461b2cad5b560c3393a446d85/5D5A8876/t51.2885-19/s320x320/28753005_1600476833333457_1580901505160970240_n.jpg?_nc_ht=scontent-cdg2-1.cdninstagram.com,"🇪🇸Champion of the Grand 17🇪🇸
🇪🇸king of clay   🇪🇸33 Masters🇪🇸",True,[],2018-11-26 17:15:22,17987754814113443,BqpsJ_zgPMY,rafaelnadal,Love it 😍❤️❤️,2,1,[],[],[],2018-11-26 17:11:53,132.5,209.0
3191,3191,0.7092972666062739,0.4494364165239821,0.0,0,0.000369401382836953,0.004928076718167289,0.007301862085802428,2826,37,329,1,0,1,2,0.3333333333333333,impersonator,0,0,0,0,3,6438771978,--,rafael.___nadal,Rafa,https://scontent-cdg2-1.cdninstagram.com/vp/5f17390461b2cad5b560c3393a446d85/5D5A8876/t51.2885-19/s320x320/28753005_1600476833333457_1580901505160970240_n.jpg?_nc_ht=scontent-cdg2-1.cdninstagram.com,"🇪🇸Champion of the Grand 17🇪🇸
🇪🇸king of clay   🇪🇸33 Masters🇪🇸",True,[],2018-11-11 11:44:16,17999027992003611,BqCe54TA8mN,rafaelnadal,Vamooos rafa💪💪💪💪💪💪💪❤️❤️❤️❤️,2,1,[],[],[],2018-11-11 11:43:20,132.5,56.0
3701,3701,0.7092972666062739,0.7092972666062739,0.0,0,2.6143056110187747e-07,0.03622802344166223,2.219410968329005e-05,2,272,1,1,0,1,2,0.3333333333333333,impersonator,0,0,0,0,3,9043310969,http://rafaelnadal.com/,1.rafaelnadal,rafaelnadal,https://scontent-cdg2-1.cdninstagram.com/vp/e93e66fdf6508a5e593cba688b0179cb/5D743E69/t51.2885-19/s320x320/44203685_2143914822337216_8696550639657811968_n.jpg?_nc_ht=scontent-cdg2-1.cdninstagram.com,,False,[],2018-11-18 08:00:05,17998051486065785,BqSl1ooAJP2,rafaelnadal,¿¿¿¿ Salí Biennnnnn En La Foto ????,2,1,[],[],[],2018-11-17 17:51:46,50915.0,50899.0
3701,3701,0.7092972666062739,0.7092972666062739,0.0,0,2.6143056110187747e-07,0.03622802344166223,2.219410968329005e-05,2,272,1,1,0,1,2,0.3333333333333333,impersonator,0,0,0,0,3,9043310969,http://rafaelnadal.com/,1.rafaelnadal,rafaelnadal,https://scontent-cdg2-1.cdninstagram.com/vp/e93e66fdf6508a5e593cba688b0179cb/5D743E69/t51.2885-19/s320x320/44203685_2143914822337216_8696550639657811968_n.jpg?_nc_ht=scontent-cdg2-1.cdninstagram.com,,False,[],2018-11-18 08:00:37,18000628810059732,BqSl1ooAJP2,rafaelnadal,😎😎😎😎 🤔🤔🤔🤔,2,1,[],[],[],2018-11-17 17:51:46,50915.0,50931.0
