,Unnamed: 0,username,name,bio,photo,nfollower,nfollowee,nmediacount,follower,followee,mediacount,private,verified,lcm,mcm,nmcm,class,class BGM 3,class GM 3,class kmeans 3,class spectral 3,class GM 4,owener_id,combined_owener_external_url,combined_username,combined_full_name,combined_profile_pic_url,combined_biography,combined_similarity_photo_comment,combined_similarity_photo_like,comment_created_at,comment_id,comment_post_shortcode,comment_shortcode_username,comment_text,comment_total,like_total,like_shortcode_username,like_post_shortcode,like_id,comment_post_date,comment_avg_age_sec,comment_age_sec
5,5,0.4494364165239821,0.2605556710562624,0.0,0,7.5814862719544495e-06,0.016515716568993075,0.0014648112390971435,58,124,66,1,0,1,2,0.3333333333333333,impersonator,0,0,0,0,3,16103214,--,rafaelnf,Rafael N Figueiredo,https://scontent-cdg2-1.cdninstagram.com/vp/78e749622b92c13802037cc585542d1e/5D516801/t51.2885-19/s320x320/13329114_252482795119519_351009681_a.jpg?_nc_ht=scontent-cdg2-1.cdninstagram.com,,[],['False'],[],[],[],[],[],0,0,rafaelnadal,BqmqbmCAn_q,5c672f57b5d85c3e0ad9e6e6,[],0.0,[]
12,12,0.0,0.4494364165239821,0.0,0,7.293912654742383e-05,0.11734150239744273,0.017466764320749274,558,881,787,1,0,1,1,0.0,impersonator,0,0,0,0,3,35746743,--,rafusanz,Rafa U S,https://scontent-cdg2-1.cdninstagram.com/vp/76b814eaad8f9e8170d1068918cbbc9d/5D5BF7FE/t51.2885-19/s320x320/22860923_1405678766197074_5180456155045953536_n.jpg?_nc_ht=scontent-cdg2-1.cdninstagram.com,Why always me?👣🍀🌍🏀,[],['False'],[],[],[],[],[],0,0,rafaelnadal,BqpsJ_zgPMY,5c66e5c5b5d85c3ba6341439,[],0.0,[]
15,15,0.0,0.4494364165239821,0.0,0,6.849480700869191e-05,0.09909429941395843,0.002374769736112036,524,744,107,0,0,1,1,0.0,impersonator,0,0,0,0,3,179787369,--,rafasaiya,Rafa,https://scontent-cdg2-1.cdninstagram.com/vp/a425ab2740b6d3c21c65ce36612d0ef6/5D57FF0C/t51.2885-19/s320x320/18947884_840678299418660_8367326475703025664_a.jpg?_nc_ht=scontent-cdg2-1.cdninstagram.com,"Amante del tenis, aficionado a las series.
Me gusta cantar, bailar y hacer el payaso en general.
Una cerveza??... Pues claro que si jeje",[],['False'],[],[],[],[],[],0,0,rafaelnadal,BqpsJ_zgPMY,5c66db90b5d85c3ba6337afe,[],0.0,[]
19,19,0.2605556710562624,0.2605556710562624,0.4112070550676187,0,4.052173697079101e-05,0.06406499733617474,0.010053931686530394,310,481,453,1,0,1,3,0.6666666666666667,impersonator,0,0,0,0,3,185081515,--,carlos_nadal_1,carlos_nadal_1,https://scontent-cdg2-1.cdninstagram.com/vp/3e96f26e997ac56814e3223dda4654da/5D42C77F/t51.2885-19/s320x320/18888362_1909682485946936_6079624021073199104_a.jpg?_nc_ht=scontent-cdg2-1.cdninstagram.com,"⚾Yankees ⚽ fc Barcelona 
🎾Rafael Nadal ⛳️",[],['False'],[],[],[],[],[],0,0,rafaelnadal,BqpsJ_zgPMY,5c66e614b5d85c3ba6341999,[],0.0,[]
20,20,0.0,0.4494364165239821,0.0,0,1.0980083566278856e-05,0.011587639850825785,0.00026632931619948065,84,87,12,1,0,1,1,0.0,impersonator,0,0,0,0,3,186286718,--,unixfox,Rafael,https://scontent-cdg2-1.cdninstagram.com/vp/2ccf6fb4057c7f4ba73e78cadc329de9/5D70F338/t51.2885-19/s320x320/36085137_475044219627363_5884864876450414592_n.jpg?_nc_ht=scontent-cdg2-1.cdninstagram.com,"Cinematográfico 🎥📽🎬
®️🔛♉️
San Fernando📍",[],"['False', 'False']",[],[],[],[],[],0,0,rafaelnadal,BqpsJ_zgPMY,5c66dc8ab5d85c3ba6339106,[],0.0,[]
20,20,0.0,0.4494364165239821,0.0,0,1.0980083566278856e-05,0.011587639850825785,0.00026632931619948065,84,87,12,1,0,1,1,0.0,impersonator,0,0,0,0,3,186286718,--,unixfox,Rafael,https://scontent-cdg2-1.cdninstagram.com/vp/2ccf6fb4057c7f4ba73e78cadc329de9/5D70F338/t51.2885-19/s320x320/36085137_475044219627363_5884864876450414592_n.jpg?_nc_ht=scontent-cdg2-1.cdninstagram.com,"Cinematográfico 🎥📽🎬
®️🔛♉️
San Fernando📍",[],"['False', 'False']",[],[],[],[],[],0,0,rafaelnadal,BqmqbmCAn_q,5c67374bb5d85c3e0ada5eee,[],0.0,[]
23,23,0.4494364165239821,0.4494364165239821,0.0,0,6.940981397254849e-05,0.05793819925412892,0.0011097054841645027,531,435,50,0,0,1,2,0.3333333333333333,impersonator,0,0,0,0,3,190081340,--,tolonadal13,Tolo Nadal,https://scontent-cdg2-1.cdninstagram.com/vp/5301d62fe766ad2bc025126d43038f59/5D5A2779/t51.2885-19/s320x320/42078386_905254706335718_8313773228568870912_n.jpg?_nc_ht=scontent-cdg2-1.cdninstagram.com,,[],['False'],[],[],[],[],[],0,0,rafaelnadal,BqpsJ_zgPMY,5c66e471b5d85c3ba634070e,[],0.0,[]
29,29,0.4494364165239821,0.4494364165239821,0.0,0,4.313604258180979e-05,0.13225892381459775,0.0031071753556606075,330,993,140,1,0,1,2,0.3333333333333333,impersonator,0,0,0,0,3,201916157,--,rafa_a.b,rafa,https://scontent-cdg2-1.cdninstagram.com/vp/0f94c118cda0de476ad972d8b351f10c/5D3ED767/t51.2885-19/s320x320/52038660_297892237554165_7604166089202728960_n.jpg?_nc_ht=scontent-cdg2-1.cdninstagram.com,"from Granada, Spain, The best city of the world!!!",[],['False'],[],[],[],[],[],0,0,rafaelnadal,BqpsJ_zgPMY,5c66dd0fb5d85c3ba6339c9b,[],0.0,[]
30,30,0.0,0.5031026124151314,0.0,0,2.9672368685063104e-05,0.08231220031965902,0.007124309208336106,227,618,321,1,0,1,1,0.0,impersonator,0,0,0,0,3,203683537,--,cigdemmb_,Beşiktaş🦅⚽️🏀Rafael Nadal🎾,https://scontent-cdg2-1.cdninstagram.com/vp/1f2e81eb01af0d2ed39b08b5c6dea96a/5D50E754/t51.2885-19/s320x320/56222501_2215512725368613_7704725627382792192_n.jpg?_nc_ht=scontent-cdg2-1.cdninstagram.com,"“Sadece yaşamak yetmez dedi, kelebek🦋. Gün ışığı☀️, özgürlük ve küçük bir çiçek🌸 de gerek!” Hans C. Andersen",[],['False'],[],[],[],[],[],0,0,rafaelnadal,BqmqbmCAn_q,5c672d9db5d85c3e0ad9d45c,[],0.0,[]
34,34,0.4494364165239821,0.1707761131901165,0.0,0,2.1960167132557712e-05,0.032099094299413954,0.003573251659009699,168,241,161,0,0,1,2,0.3333333333333333,impersonator,0,0,0,0,3,224184114,--,rafaja9,Rafa Jimenez-Aparicio,https://scontent-cdg2-1.cdninstagram.com/vp/3da6b39ba40bb94bd3ba67d65edc4431/5D3C1084/t51.2885-19/11809820_393324990860594_1530152582_a.jpg?_nc_ht=scontent-cdg2-1.cdninstagram.com,,[],['False'],[],[],[],[],[],0,0,rafaelnadal,BqpsJ_zgPMY,5c66e47cb5d85c3ba634081e,[],0.0,[]
41,41,0.0,0.4494364165239821,0.0,0,1.908443096043706e-05,0.04555141182738412,0.004616374814124332,146,342,208,1,0,1,1,0.0,impersonator,0,0,0,0,3,238689197,--,bluffy89,Rafael,https://scontent-cdg2-1.cdninstagram.com/vp/1127d0144ffeb74fab358ef4b987a6fa/5D516374/t51.2885-19/s320x320/55903548_288797468720309_410299235104194560_n.jpg?_nc_ht=scontent-cdg2-1.cdninstagram.com,"North London
Nani ⚘",[],['False'],[],[],[],[],[],0,0,rafaelnadal,BqpsJ_zgPMY,5c66ec11b5d85c3ba63477ca,[],0.0,[]
54,54,0.4494364165239821,0.2019930924979183,0.4494364165239821,0,5.646900119800554e-05,0.06259989344698988,0.0003772998646159309,432,470,17,1,0,1,3,0.6666666666666667,impersonator,0,0,0,0,3,267929247,--,rafael_hts,Rafael Enrique Hotes,https://scontent-cdg2-1.cdninstagram.com/vp/af7eadfae1e506cf38c89b2133b9f652/5D73BC1C/t51.2885-19/s320x320/46107762_2178067765794220_281806161638850560_n.jpg?_nc_ht=scontent-cdg2-1.cdninstagram.com,👻 rafaelhts | H | HH |,[],['False'],[],[],[],[],[],0,0,rafaelnadal,BqpsJ_zgPMY,5c66e759b5d85c3ba634353d,[],0.0,[]
60,60,0.4494364165239821,0.4494364165239821,0.0,0,0.00010300364107413974,0.049680340969632385,0.004749539472224071,788,373,214,0,0,1,2,0.3333333333333333,impersonator,0,0,0,0,3,278992896,http://galera.cl/,rafa.veco,Rafa,https://scontent-cdg2-1.cdninstagram.com/vp/96b2af34f4ce0550a1246157ea0418db/5D7766E0/t51.2885-19/s320x320/57024195_863218937367162_7323793175330422784_n.jpg?_nc_ht=scontent-cdg2-1.cdninstagram.com,Lo bueno está por comenzar. Galera.cl/,[],['False'],[],[],[],[],[],0,0,rafaelnadal,BqpsJ_zgPMY,5c66eb2eb5d85c3ba6346607,[],0.0,[]
72,72,0.4494364165239821,0.4494364165239821,0.0,0,8.078204338048016e-05,0.12786361214704314,0.009854184699380784,618,960,444,0,0,1,2,0.3333333333333333,impersonator,0,0,0,0,3,320912311,--,rafasoto46,Rafael Soto,https://scontent-cdg2-1.cdninstagram.com/vp/ff2f847ed4a387e384cf0b6530ce4553/5D3E2968/t51.2885-19/s320x320/47059387_733462117034589_584623028411826176_n.jpg?_nc_ht=scontent-cdg2-1.cdninstagram.com,"CDMX/GDL     
•Aviation padawan•Karting lover •Tennis sensei•Drone operator•Photography and video•Motor Junkie •Movie references 
How can I help you?",[],['False'],[],[],[],[],[],0,0,rafaelnadal,BqmqbmCAn_q,5c6732f4b5d85c3e0ada248f,[],0.0,[]
78,78,0.0,0.4494364165239821,0.0,0,0.00017358989257164667,0.0270378263185935,6.658232904987016e-05,1328,203,3,0,0,1,1,0.0,impersonator,0,0,0,0,3,361782351,--,rvfaa_,Rafa😛,https://scontent-cdg2-1.cdninstagram.com/vp/a13875c1ee5388fd5f46934b7ec9d99d/5D57F430/t51.2885-19/s320x320/36796447_2086608648047357_3518890216263778304_n.jpg?_nc_ht=scontent-cdg2-1.cdninstagram.com,chess player🇵🇷|sen19r|,[],['False'],[],[],[],[],[],0,0,rafaelnadal,BqmqbmCAn_q,5c672fe2b5d85c3e0ad9f2f7,[],0.0,[]
85,85,0.0,0.4494364165239821,0.0,0,0.0001699298647162204,0.0935002663825253,0.0015535876778303038,1300,702,70,0,0,1,1,0.0,impersonator,0,0,0,0,3,388885069,--,rafinhanz,Rafael,https://scontent-cdg2-1.cdninstagram.com/vp/85e6e0147cf67ae25b2b9848132e26cd/5D57F900/t51.2885-19/s320x320/53209960_2283334251935744_5497578754723020800_n.jpg?_nc_ht=scontent-cdg2-1.cdninstagram.com,"Publicidade e propaganda 
Assistente de mídia - BriviaDez
São Paulo - SP
Quem não soleniza o trivial, não acessa o extraordinário
@wanessasoares_",[],['False'],[],[],[],[],[],0,0,rafaelnadal,BqpsJ_zgPMY,5c66ee93b5d85c3ba6349cad,[],0.0,[]
91,91,0.2605556710562624,0.4494364165239821,0.0,0,6.901766813089567e-05,0.08031433137986148,0.039372350578156565,528,603,1774,1,0,1,2,0.3333333333333333,impersonator,0,0,0,0,3,399879914,--,rafa_sramos7,Rafa,https://scontent-cdg2-1.cdninstagram.com/vp/06745d364dce75b8d3cc1f50992c3a9a/5D5513FF/t51.2885-19/s320x320/28753622_165306634124613_955356887346315264_n.jpg?_nc_ht=scontent-cdg2-1.cdninstagram.com,"""Rendirse nunca será una opción""
Real Madrid como forma de vida 
Málaga-Montilla
🍀14",[],['False'],[],[],[],[],[],0,0,rafaelnadal,BqpsJ_zgPMY,5c66e76ab5d85c3ba63436d4,[],0.0,[]
94,94,0.0,0.4494364165239821,0.0,0,0.0001763349134632164,0.5171816728822589,0.019575204740661826,1349,3883,882,0,0,1,1,0.0,impersonator,0,0,0,0,3,414824356,--,pepitodelasgalletas, RAFAEL亀,https://scontent-cdg2-1.cdninstagram.com/vp/5230c7ca9e65af807b20d6565ed0f10b/5D5589BA/t51.2885-19/s320x320/54234049_619807011818036_6733817144493998080_n.jpg?_nc_ht=scontent-cdg2-1.cdninstagram.com,"🇪🇸London 🇬🇧 
boxing admirer🥊
future entrepreneur👨🏽‍💻
work hard🧔🏽
train hard🏋🏽‍♂️ 
Eat. 
Shit. 
Die.",[],['False'],[],[],[],[],[],0,0,rafaelnadal,BqpsJ_zgPMY,5c66e775b5d85c3ba63437d0,[],0.0,[]
98,98,0.0,0.4494364165239821,0.0,0,0.002225819797221385,0.1827384123601492,0.003373504671860088,17028,1372,152,0,0,1,1,0.0,impersonator,0,0,0,0,3,433937605,--,sajjadhidary,Rafael😎😎,https://scontent-cdg2-1.cdninstagram.com/vp/16f15791418350bb4d9f361a04d3a2c6/5D3D3630/t51.2885-19/s320x320/11881599_526505244173267_128160691_a.jpg?_nc_ht=scontent-cdg2-1.cdninstagram.com,"live~~~>Q8 
facebook : sajjad haidary 
CON 💉💊",[],['False'],[],[],[],[],[],0,0,rafaelnadal,BqmqbmCAn_q,5c6737edb5d85c3e0ada6bf6,[],0.0,[]
102,102,0.0,0.4494364165239821,0.0,0,1.6339410068867345e-05,0.02490676611614278,0.0025079343942117764,125,187,113,1,0,1,1,0.0,impersonator,0,0,0,0,3,438999452,--,nedz18,Nadal -K,https://scontent-cdg2-1.cdninstagram.com/vp/eb7814877fec761ca73b7502ebc7e9c2/5D3E2618/t51.2885-19/s320x320/47582105_363074911148868_899740754534989824_n.jpg?_nc_ht=scontent-cdg2-1.cdninstagram.com,,[],['False'],[],[],[],[],[],0,0,rafaelnadal,BqpsJ_zgPMY,5c66e9f4b5d85c3ba6345b99,[],0.0,[]
110,110,0.0,0.4494364165239821,0.0,0,1.8300139277131428e-05,0.07805007991475757,0.00044388219366580105,140,586,20,1,0,1,1,0.0,impersonator,0,0,0,0,3,471176992,--,rm6865,Rafa,https://scontent-cdg2-1.cdninstagram.com/vp/a9f94fff06f72104cfdbd9a601de8e8e/5D7141F7/t51.2885-19/11226628_828684423835925_555011228_a.jpg?_nc_ht=scontent-cdg2-1.cdninstagram.com,,[],['False'],[],[],[],[],[],0,0,rafaelnadal,BqmqbmCAn_q,5c672f30b5d85c3e0ad9e32e,[],0.0,[]
111,111,0.0,0.4494364165239821,0.2255548722068434,0,4.82339385232964e-05,0.049147575919019706,0.0042390749495084005,369,369,191,0,0,1,2,0.3333333333333333,impersonator,0,0,0,0,3,473149401,--,shounak_deodhar,Rafa Jr.,https://scontent-cdg2-1.cdninstagram.com/vp/29dd0b6bc85270ce50a070842e764eae/5D40F0CF/t51.2885-19/s320x320/55790150_331437731060346_4370011270993149952_n.jpg?_nc_ht=scontent-cdg2-1.cdninstagram.com,"Never stop fighting 💪❤
.
THG | Zëús
.
19th November♏
.
Rafa Nadal❤️
.
KOBRA,Tennis player,Mumbaikar♥",[],['False'],[],[],[],[],[],0,0,rafaelnadal,BqpsJ_zgPMY,5c66f05fb5d85c3ba634b3d4,[],0.0,[]
115,115,0.4494364165239821,0.2019930924979183,0.0,0,0.0001382967668228932,0.13785295684603088,0.0009321526066981825,1058,1035,42,1,0,1,2,0.3333333333333333,impersonator,0,0,0,0,3,494822772,--,rafagtzv,Rafa Gutiérrez,https://scontent-cdg2-1.cdninstagram.com/vp/2f8d71fa77a76ef3622afa20d8cfa80c/5D74D737/t51.2885-19/s320x320/43817577_202598123966715_6803259988211924992_n.jpg?_nc_ht=scontent-cdg2-1.cdninstagram.com,GDL • MX 🌵🇲🇽,[],['False'],[],[],[],[],[],0,0,rafaelnadal,BqmqbmCAn_q,5c67326ab5d85c3e0ada17c8,[],0.0,[]
116,116,0.0,0.4494364165239821,0.0,0,5.307040390368114e-05,0.05527437400106552,0.0017311405552966242,406,415,78,1,0,1,1,0.0,impersonator,0,0,0,0,3,499072147,--,tteodorajovanovic,JustNadal^^,https://scontent-cdg2-1.cdninstagram.com/vp/eb661809b0f3fdfb210f11e85cb28a3e/5D54BBDF/t51.2885-19/s320x320/56400585_2336851803042566_1785152205385367552_n.jpg?_nc_ht=scontent-cdg2-1.cdninstagram.com,"T 🐶
 Nekad jagnje nekad zmija tvoja ili bilo cija ☮️☮️☮️
♐
A kad pitaju zasto on? - Jer jedini vredi dovoljno!",[],['False'],[],[],[],[],[],0,0,rafaelnadal,BqpsJ_zgPMY,5c66e217b5d85c3ba633e6bc,[],0.0,[]
119,119,0.4494364165239821,0.2605556710562624,0.0,0,0.00013646675289518006,0.09363345764517847,0.0003772998646159309,1044,703,17,0,0,1,2,0.3333333333333333,impersonator,0,0,0,0,3,502995124,--,rg1_rafa,Rafa García🦁,https://scontent-cdg2-1.cdninstagram.com/vp/a60c2bc642ed44b006f51d9c7bff9841/5D6E9EF9/t51.2885-19/s320x320/50477484_620290135072416_7862795434786291712_n.jpg?_nc_ht=scontent-cdg2-1.cdninstagram.com,"Comercio Internacional, Ule🌍
*Y ya no sé, camino del revés*
Adelante y arriba 🔵⚪️",[],"['False', 'False']",[],[],[],[],[],0,0,rafaelnadal,BqpsJ_zgPMY,5c66e6c1b5d85c3ba6342704,[],0.0,[]
119,119,0.4494364165239821,0.2605556710562624,0.0,0,0.00013646675289518006,0.09363345764517847,0.0003772998646159309,1044,703,17,0,0,1,2,0.3333333333333333,impersonator,0,0,0,0,3,502995124,--,rg1_rafa,Rafa García🦁,https://scontent-cdg2-1.cdninstagram.com/vp/a60c2bc642ed44b006f51d9c7bff9841/5D6E9EF9/t51.2885-19/s320x320/50477484_620290135072416_7862795434786291712_n.jpg?_nc_ht=scontent-cdg2-1.cdninstagram.com,"Comercio Internacional, Ule🌍
*Y ya no sé, camino del revés*
Adelante y arriba 🔵⚪️",[],"['False', 'False']",[],[],[],[],[],0,0,rafaelnadal,BqmqbmCAn_q,5c6732d8b5d85c3e0ada21f1,[],0.0,[]
121,121,0.4494364165239821,0.2605556710562624,0.0,0,2.0130153204844568e-05,0.11188066062866277,0.005393168653039483,154,840,243,1,0,1,2,0.3333333333333333,impersonator,0,0,0,0,3,505992348,--,rafavp_77,Rafa Valdez Peña,https://scontent-cdg2-1.cdninstagram.com/vp/8294542f1664dc423680ebad34aa847d/5D3A19D0/t51.2885-19/s320x320/49829008_2242625669343682_7378562177382219776_n.jpg?_nc_ht=scontent-cdg2-1.cdninstagram.com,"Las fotos que ven aquí es un registro para mi, una memoria de lo que he vivido y en la cual ustedes son bienvenidos.",[],['False'],[],[],[],[],[],0,0,rafaelnadal,BqpsJ_zgPMY,5c66dee9b5d85c3ba633b175,[],0.0,[]
125,125,0.2605556710562624,0.4494364165239821,0.0,0,2.365946577971992e-05,0.059003729355354285,0.008855449763632731,181,443,399,1,0,1,2,0.3333333333333333,impersonator,0,0,0,0,3,533488966,--,rafa1961m,Rafa.,https://scontent-cdg2-1.cdninstagram.com/vp/43848fa3c0328e0210640c469162455b/5D6D2EE6/t51.2885-19/s320x320/18646062_1197324517044664_4530308353947074560_a.jpg?_nc_ht=scontent-cdg2-1.cdninstagram.com,"Divorciado:), con dos grandes tesoros , Lorena y Marc .
Aficiones: las Bicis y las Artes Marciales.
Deseos?? Un mundo mejor.",[],"['False', 'False']",[],[],[],[],[],0,0,rafaelnadal,BqpsJ_zgPMY,5c66dcf4b5d85c3ba6339ad2,[],0.0,[]
125,125,0.2605556710562624,0.4494364165239821,0.0,0,2.365946577971992e-05,0.059003729355354285,0.008855449763632731,181,443,399,1,0,1,2,0.3333333333333333,impersonator,0,0,0,0,3,533488966,--,rafa1961m,Rafa.,https://scontent-cdg2-1.cdninstagram.com/vp/43848fa3c0328e0210640c469162455b/5D6D2EE6/t51.2885-19/s320x320/18646062_1197324517044664_4530308353947074560_a.jpg?_nc_ht=scontent-cdg2-1.cdninstagram.com,"Divorciado:), con dos grandes tesoros , Lorena y Marc .
Aficiones: las Bicis y las Artes Marciales.
Deseos?? Un mundo mejor.",[],"['False', 'False']",[],[],[],[],[],0,0,rafaelnadal,BqmqbmCAn_q,5c67328fb5d85c3e0ada1ae6,[],0.0,[]
129,129,0.0,0.4494364165239821,0.0,0,8.378849483315174e-05,0.11640916355887053,0.0023969638457953264,641,874,108,0,0,1,1,0.0,impersonator,0,0,0,0,3,567104410,--,ramulecor,Rafael Muñoz-León,https://scontent-cdg2-1.cdninstagram.com/vp/744d7b1ef928eaacf469f092a855b990/5D3E908A/t51.2885-19/s320x320/42141243_727353720958293_5881231321233096704_n.jpg?_nc_ht=scontent-cdg2-1.cdninstagram.com,"Ingenieria Mecanica UAN
||-// ⚫️🔴
El esfuerzo ordinario produce resultados extraordinarios 🤙🇦🇽  @selecao_cf",[],['False'],[],[],[],[],[],0,0,rafaelnadal,BqpsJ_zgPMY,5c66e5b5b5d85c3ba63412d8,[],0.0,[]
141,141,0.0,0.4494364165239821,0.0,0,6.74490847642844e-05,0.09070324986680874,0.006036797833854896,516,681,272,1,0,1,1,0.0,impersonator,0,0,0,0,3,637778743,--,rafahc94,Rafael,https://scontent-cdg2-1.cdninstagram.com/vp/7e9de8d89f7b2f2c59edddc37e75d414/5D770360/t51.2885-19/10607926_607799259340502_645133801_a.jpg?_nc_ht=scontent-cdg2-1.cdninstagram.com,Don't tell me who I am..,[],['False'],[],[],[],[],[],0,0,rafaelnadal,BqmqbmCAn_q,5c672dbcb5d85c3e0ad9d794,[],0.0,[]
145,145,0.2605556710562624,0.4494364165239821,0.0,0,0.00023855538700546323,0.1616941928609483,0.0024413520651619053,1825,1214,110,0,0,1,2,0.3333333333333333,impersonator,0,0,0,0,3,699328538,--,rafaromeroc,Rafa,https://scontent-cdg2-1.cdninstagram.com/vp/a493ce10f13f6b3b74db6263585d1bf5/5D406FF7/t51.2885-19/s320x320/57472000_377474716222704_9158962284922404864_n.jpg?_nc_ht=scontent-cdg2-1.cdninstagram.com,,[],['False'],[],[],[],[],[],0,0,rafaelnadal,BqmqbmCAn_q,5c6734acb5d85c3e0ada3738,[],0.0,[]
152,152,0.0,0.4494364165239821,0.0,0,3.7776716079221295e-05,0.06393180607352157,0.00042168808398251103,289,480,19,0,0,1,1,0.0,impersonator,0,0,0,0,3,727495470,--,ratsiir,Rafaël 🇲🇬,https://scontent-cdg2-1.cdninstagram.com/vp/6654c069e5760a0fac9d67c6ec7ccc76/5D3E93C1/t51.2885-19/s320x320/56239502_1853743274729992_5576642707436077056_n.jpg?_nc_ht=scontent-cdg2-1.cdninstagram.com,"Live the life you've imagined 🌍✈️
📍🇫🇷",[],['False'],[],[],[],[],[],0,0,rafaelnadal,BqpsJ_zgPMY,5c66f08fb5d85c3ba634b721,[],0.0,[]
155,155,0.2605556710562624,0.4494364165239821,0.0,0,0.00015659690610002463,0.2868939797549281,0.0009321526066981825,1198,2154,42,1,0,1,2,0.3333333333333333,impersonator,0,0,0,0,3,810583432,--,rafacatala_9,rafa,https://scontent-cdg2-1.cdninstagram.com/vp/b2a49014d4a5c746cabc28d984495d84/5D55623A/t51.2885-19/s320x320/51842484_559016707915534_6498192141964017664_n.jpg?_nc_ht=scontent-cdg2-1.cdninstagram.com,,[],['False'],[],[],[],[],[],0,0,rafaelnadal,BqmqbmCAn_q,5c673734b5d85c3e0ada5cf6,[],0.0,[]
157,157,0.2605556710562624,0.4494364165239821,0.0,0,5.6207570636903675e-05,0.053809270111880664,0.0011097054841645027,430,404,50,1,0,1,2,0.3333333333333333,impersonator,0,0,0,0,3,825176688,--,rafaa_guesmi,rafaa,https://scontent-cdg2-1.cdninstagram.com/vp/686bee5119e581b563d7ea43128bd0a1/5D41BD82/t51.2885-19/s320x320/47690001_897682760623978_1689225253290508288_n.jpg?_nc_ht=scontent-cdg2-1.cdninstagram.com,,[],['False'],[],[],[],[],[],0,0,rafaelnadal,BqpsJ_zgPMY,5c66d8f5b5d85c3ba633543f,[],0.0,[]
159,159,0.0,0.4494364165239821,0.0,0,4.9018230206602035e-05,0.0594033031433138,0.00022194109683290053,375,446,10,1,0,1,1,0.0,impersonator,0,0,0,0,3,902337307,--,alfredokarema,Rafael L A Karema,https://scontent-cdg2-1.cdninstagram.com/vp/baaa1d99109d05bca78e7b6e75788966/5D4377FE/t51.2885-19/s320x320/47689835_358062941661563_1248553465462915072_n.jpg?_nc_ht=scontent-cdg2-1.cdninstagram.com,"~SITOU TIMOU TUMOUTOU~
Industrial Engineering'18 
🎓SM 18",[],['False'],[],[],[],[],[],0,0,rafaelnadal,BqpsJ_zgPMY,5c66dcc6b5d85c3ba6339643,[],0.0,[]
164,164,0.0,0.4494364165239821,0.0,0,5.934473737012621e-05,0.07418753329781566,0.0010875113744812123,454,557,49,1,0,1,1,0.0,impersonator,0,0,0,0,3,966796380,--,rafita95ra,Rafa,https://scontent-cdg2-1.cdninstagram.com/vp/7907890504c00dc44c55f12c68110de9/5D740831/t51.2885-19/11419204_945092658862271_1362803987_a.jpg?_nc_ht=scontent-cdg2-1.cdninstagram.com,"Estudiante de A.D.E , amante del cine y un proyecto de jugador de squash a L/P. ✌🎾
MADRID-CUENCA.",[],['False'],[],[],[],[],[],0,0,rafaelnadal,BqmqbmCAn_q,5c672eecb5d85c3e0ad9dca2,[],0.0,[]
167,167,0.5031026124151314,0.7092972666062739,0.0,0,0.00624087035462402,0.01864677677144379,0.060745278203164874,47744,140,2737,0,0,1,2,0.3333333333333333,impersonator,0,0,0,0,0,1002480100,--,rafaelnadalfans_,Rafael Nadal,https://scontent-cdg2-1.cdninstagram.com/vp/81494b08a97ccbcd572605802f80fde1/5D5BE5BD/t51.2885-19/s320x320/52090445_345355076078671_3023790683010891776_n.jpg?_nc_ht=scontent-cdg2-1.cdninstagram.com,"King of clay 👑 
17- time grand slam champion 
World number 2☺️🌍 
VAMOS GOAT❤️ 🐐","['False', 'False', 'False', 'False']",['False'],"['2018-11-26 14:24:33', '2018-10-31 17:52:37', '2018-10-30 13:49:19', '2018-10-26 10:26:43']","['17985579784126041', '17962295965162728', '17930995165219076', '17930043676211550']","['BqmqbmCAn_q', 'BpmwsusAR-2', 'BpjZlJineoR', 'BpXWw8wHOkb']","['rafaelnadal', 'rafaelnadal', 'rafaelnadal', 'rafaelnadal']","['Lovely photos!!!!❤️❤️', '❤️get well soon', 'VAMOS! Good luck champ❤️', 'Fantastic! 🙌🏼']",4,1,rafaelnadal,BqmqbmCAn_q,5c6732deb5d85c3e0ada2283,"['2018-11-25 12:56:42', '2018-10-31 17:20:05', '2018-10-30 10:00:21', '2018-10-25 17:44:52']",41868.0,"['91671.0', '1952.0', '13738.0', '60111.0']"
174,174,0.0,0.4494364165239821,0.0,0,4.261318145960604e-05,0.31579648375066594,0.003306922342810218,326,2371,149,1,0,1,1,0.0,impersonator,0,0,0,0,3,1059543526,--,ciliberto33,Rafael 🇵🇹🇻🇪😎,https://scontent-cdg2-1.cdninstagram.com/vp/7f85aa818c1324bf5a02ba50792fe893/5D3BAB1D/t51.2885-19/s320x320/13551591_262803884100087_981423284_a.jpg?_nc_ht=scontent-cdg2-1.cdninstagram.com,"España,Tenerife🇪🇸🇮🇨",[],['False'],[],[],[],[],[],0,0,rafaelnadal,BqpsJ_zgPMY,5c66eb48b5d85c3ba63467af,[],0.0,[]
180,180,0.2605556710562624,0.4494364165239821,0.0,0,4.548891763172669e-05,0.06553010122535961,0.0,348,492,0,1,0,1,2,0.3333333333333333,impersonator,0,0,0,0,3,1122027450,--,_rafadourado_,Rafa!,https://scontent-cdg2-1.cdninstagram.com/vp/e140ce465c485b8ea1c25b6a70be83c8/5D4284AF/t51.2885-19/s320x320/54512219_2278568615803806_1975516090930823168_n.jpg?_nc_ht=scontent-cdg2-1.cdninstagram.com,⚡,[],['False'],[],[],[],[],[],0,0,rafaelnadal,BqpsJ_zgPMY,5c66e691b5d85c3ba634232e,[],0.0,[]
182,182,0.1707761131901165,0.4494364165239821,0.0,0,1.7646562874376737e-05,0.08164624400639317,0.0006214350711321215,135,613,28,1,0,1,2,0.3333333333333333,impersonator,0,0,0,0,3,1145500900,--,rafa_castiblanque,Rafa,https://scontent-cdg2-1.cdninstagram.com/vp/57828624340a0439849abe973a9cc2b0/5D5BFEF2/t51.2885-19/s320x320/14718225_1143306912389626_4477283533819215872_a.jpg?_nc_ht=scontent-cdg2-1.cdninstagram.com,"Madrid.
Atlético de Madrid y San Antonio Spurs.
🔴⚪🔴                     ⚫⚪⚫",[],['False'],[],[],[],[],[],0,0,rafaelnadal,BqpsJ_zgPMY,5c66e4b9b5d85c3ba6340ebd,[],0.0,[]
185,185,0.2605556710562624,0.4494364165239821,0.0,0,4.1828889776300396e-06,0.012519978689397977,0.004838315910957232,32,94,218,1,0,1,2,0.3333333333333333,impersonator,0,0,0,0,3,1156001601,--,frafa0627,Frafa,https://scontent-cdg2-1.cdninstagram.com/vp/323be1b53aa8bfbc90fa709eb5dfe693/5D6F320A/t51.2885-19/s320x320/49766703_1514713575298682_2158239740757803008_n.jpg?_nc_ht=scontent-cdg2-1.cdninstagram.com,,[],['False'],[],[],[],[],[],0,0,rafaelnadal,BqmqbmCAn_q,5c6737c9b5d85c3e0ada68f0,[],0.0,[]
204,204,0.4494364165239821,0.4494364165239821,0.0,0,7.123982790026162e-05,0.1471763452317528,0.00013316465809974033,545,1105,6,1,0,1,2,0.3333333333333333,impersonator,0,0,0,0,3,1306855744,--,rafa_as11,Rafa ÁS,https://scontent-cdg2-1.cdninstagram.com/vp/88f89d36fe774cbe0fd95182be9e77cc/5D6E5202/t51.2885-19/s320x320/27582284_344779436028279_577442989849182208_n.jpg?_nc_ht=scontent-cdg2-1.cdninstagram.com,Ver-Qro |🇲🇽🇩🇪🇨🇦🇪🇸| @harleydavidson | @bmwmotorrad,[],['False'],[],[],[],[],[],0,0,rafaelnadal,BqpsJ_zgPMY,5c66df33b5d85c3ba633b7ef,[],0.0,[]
220,220,0.4494364165239821,0.2605556710562624,0.0,0,4.326675786236073e-05,0.1409163558870538,0.0009987349357480524,331,1058,45,0,0,1,2,0.3333333333333333,impersonator,0,0,0,0,3,1419559334,--,_mrafael_,Rafael Moro,https://scontent-cdg2-1.cdninstagram.com/vp/cdee6ee82b6457fade82b54533ac75da/5D5480F1/t51.2885-19/44884218_345707102882519_2446069589734326272_n.jpg?_nc_ht=scontent-cdg2-1.cdninstagram.com,"Aquileia (UD)
•Liceo Scientifico N. Copernico, 2ªF•
Guitar player🎸
Tennis player🎾",[],['False'],[],[],[],[],[],0,0,rafaelnadal,BqpsJ_zgPMY,5c66ef09b5d85c3ba634a6b0,[],0.0,[]
237,237,0.0,0.4494364165239821,0.0,0,3.986816056803632e-05,0.06246670218433671,0.00024413520651619058,305,469,11,0,0,1,1,0.0,impersonator,0,0,0,0,3,1469761214,--,faelaraujp,Rafael,https://scontent-cdg2-1.cdninstagram.com/vp/6a842bd50cf9b6ca96999040e4670583/5D5152C2/t51.2885-19/s320x320/46921000_1205970612893475_2556082638695694336_n.jpg?_nc_ht=scontent-cdg2-1.cdninstagram.com,🔰,[],['False'],[],[],[],[],[],0,0,rafaelnadal,BqmqbmCAn_q,5c672efeb5d85c3e0ad9de45,[],0.0,[]
245,245,0.4494364165239821,0.4494364165239821,0.0,0,8.705637684692522e-05,0.015849760255727225,0.0014426171294138535,666,119,65,1,0,1,2,0.3333333333333333,impersonator,0,0,0,0,3,1490636009,--,rafagg14,Rafa,https://scontent-cdg2-1.cdninstagram.com/vp/248407af88a4babf88b33c01317ef645/5D5D0F11/t51.2885-19/s320x320/42995745_564207054008280_423414922764877824_n.jpg?_nc_ht=scontent-cdg2-1.cdninstagram.com,🏠Marbella - Granada🌹                              Calidad es hábito.                 [ UGR ],[],['False'],[],[],[],[],[],0,0,rafaelnadal,BqpsJ_zgPMY,5c66ee64b5d85c3ba63497ec,[],0.0,[]
286,286,0.2019930924979183,0.4494364165239821,0.0,0,5.568470951469991e-05,0.2111081513052744,0.003040593026610737,426,1585,137,1,0,1,2,0.3333333333333333,impersonator,0,0,0,0,3,1577089257,--,youssefarafa2002,Arafa,https://scontent-cdg2-1.cdninstagram.com/vp/3ce882b58e87517413ce1968efa09d67/5D41C172/t51.2885-19/s320x320/35428179_492133177890487_2892585054230282240_n.jpg?_nc_ht=scontent-cdg2-1.cdninstagram.com,"IGCSE student🎓
Senior 2020🔜",[],['False'],[],[],[],[],[],0,0,rafaelnadal,BqpsJ_zgPMY,5c66f13db5d85c3ba634c55f,[],0.0,[]
288,288,0.5031026124151314,0.4112070550676187,0.1978531849398044,0,0.0012574809989000307,0.0895045285029302,0.018443305146814037,9620,672,831,0,0,1,3,0.6666666666666667,impersonator,0,0,0,0,3,1583392280,https://www.rafanadaltour.com/esp/inscripcion-area-inscripciones-login.asp,rafanadaltour,Rafa Nadal Tour by Mapfre,https://scontent-cdg2-1.cdninstagram.com/vp/12949f3a65d1f4877cd04632986d277b/5D551381/t51.2885-19/10808638_752013418186028_872327768_a.jpg?_nc_ht=scontent-cdg2-1.cdninstagram.com,"Circuito juvenil de tenis impulsado por Rafa Nadal y a beneficio de la Fundación Rafa Nadal
#RafaNadalTourbyMapfre #tenisyvalores #fundacionrafanadal",[],['False'],[],[],[],[],[],0,0,rafaelnadal,BqpsJ_zgPMY,5c66e8bdb5d85c3ba6344251,[],0.0,[]
296,296,0.2605556710562624,0.4494364165239821,0.4112070550676187,0,5.22861122203755e-06,0.011854022376132124,0.00022194109683290053,40,89,10,1,0,1,3,0.6666666666666667,impersonator,0,0,0,0,3,1616109953,--,rafaerlita,RafaErl,https://scontent-cdg2-1.cdninstagram.com/vp/5d2c8cf2031d30e8c1925f87435f5b30/5D711777/t51.2885-19/11356571_1446514662316160_1031439177_a.jpg?_nc_ht=scontent-cdg2-1.cdninstagram.com,Rafael Nadal Fan Forever,"['False', 'False', 'False']",['False'],"['2018-11-25 19:00:59', '2018-11-17 18:49:12', '2018-11-11 12:46:11']","['17970250384163623', '17937196828222295', '17990288755074554']","['BqmqbmCAn_q', 'BqSl1ooAJP2', 'BqCe54TA8mN']","['rafaelnadal', 'rafaelnadal', 'rafaelnadal']","['Awesome family photos! ❤️', 'Enjoy your vacation, Rafa!  Send us lots of beach photos! 😎😃', 'Congrats @rafaelnadal You’re a great example to everyone. So proud of you! 👏👑🌟💙']",3,1,rafaelnadal,BqpsJ_zgPMY,5c66ec17b5d85c3ba63477f7,"['2018-11-25 12:56:42', '2018-11-17 17:51:46', '2018-11-11 11:43:20']",9691.333333333334,"['21857.0', '3446.0', '3771.0']"
309,309,0.0,0.5031026124151314,0.0,0,0.00017345917729109572,0.23375066595631325,0.0063475153694209545,1327,1755,286,0,0,1,1,0.0,impersonator,0,0,0,0,3,1650315434,--,piperubio_,Garrafa Nadal 🔵,https://scontent-cdg2-1.cdninstagram.com/vp/8ebef1d628caab1230b4e983695a549c/5D559A6D/t51.2885-19/s320x320/56524283_1013276268867799_2375463600153165824_n.jpg?_nc_ht=scontent-cdg2-1.cdninstagram.com,"XV♈
TENNIS🎾
God is love❤",[],['False'],[],[],[],[],[],0,0,rafaelnadal,BqpsJ_zgPMY,5c66d69bb5d85c3ba63332cb,[],0.0,[]
314,314,0.4494364165239821,0.2605556710562624,0.0,0,2.849593116010465e-05,0.06419818859882791,0.00048827041303238115,218,482,22,1,0,1,2,0.3333333333333333,impersonator,0,0,0,0,3,1679157592,--,rafaelti01,Rafael Batista,https://scontent-cdg2-1.cdninstagram.com/vp/8d60f5d0a9d1dd937fedd9a90871295a/5D3AB962/t51.2885-19/s320x320/49627638_279752992693065_4933989190477021184_n.jpg?_nc_ht=scontent-cdg2-1.cdninstagram.com,"Viva a vida, fale para as  pessoas em sua volta o que sente todos os dias e seja grato 🙏🏻",[],['False'],[],[],[],[],[],0,0,rafaelnadal,BqpsJ_zgPMY,5c66e467b5d85c3ba6340621,[],0.0,[]
322,322,0.0,0.4494364165239821,0.0,0,6.37890569088581e-05,0.19072988811933936,0.00026632931619948065,488,1432,12,1,0,1,1,0.0,impersonator,0,0,0,0,3,1702727763,--,r.d.i.a.z,Rafael,https://scontent-cdg2-1.cdninstagram.com/vp/470929f82273349581fb4240d92602d8/5D414CAA/t51.2885-19/s320x320/49401297_1238859916277148_2531531102393204736_n.jpg?_nc_ht=scontent-cdg2-1.cdninstagram.com,"🇪🇸
Floorball#77
sc: rdneymar7",[],['False'],[],[],[],[],[],0,0,rafaelnadal,BqpsJ_zgPMY,5c66ee90b5d85c3ba6349c50,[],0.0,[]
330,330,0.4112070550676187,0.4112070550676187,0.1783584986133385,0,0.0022888245624469376,0.035428875865743205,0.09858623521317443,17510,266,4442,0,0,1,3,0.6666666666666667,impersonator,0,0,0,0,3,1729199308,--,somostodosrafanadal,Nadalistas-WeAreAllRafaNadal,https://scontent-cdg2-1.cdninstagram.com/vp/29c74801d9ccb70bc38b6013bf9deae2/5D3EE03B/t51.2885-19/s320x320/20225629_1725583247742661_7513311948750979072_a.jpg?_nc_ht=scontent-cdg2-1.cdninstagram.com,"SomosTodosRafaNadal 👉Alessandra Leal ♥Denise Faro♥Rose Francener♥Suely França 👭👭
AMIGAS  e torcedoras de Rafa Nadal 💪🏆🎾
Twitter @RafaSomos","['False', 'False']",['False'],"['2018-11-26 18:43:13', '2018-11-25 15:45:36']","['17973918826147826', '17961553180196140']","['BqpsJ_zgPMY', 'BqmqbmCAn_q']","['rafaelnadal', 'rafaelnadal']","['💛❤🇪🇸❤💛', 'Wow 😯😲💙👏']",2,1,rafaelnadal,BqpsJ_zgPMY,5c66eca2b5d85c3ba63484f7,"['2018-11-26 17:11:53', '2018-11-25 12:56:42']",7807.0,"['5480.0', '10134.0']"
341,341,0.4494364165239821,0.5031026124151314,0.0,0,0.0009382742837946383,0.15183803942461374,0.002596710832944936,7178,1140,117,0,0,1,2,0.3333333333333333,impersonator,0,0,0,0,3,1769958245,--,rafaellll18,🔵⚪🔴 Rafael Bento 👉 Rafa 👈 🦅,https://scontent-cdg2-1.cdninstagram.com/vp/48ef57b87afc63e1958382e2f2f8d9c2/5D386FCC/t51.2885-19/s320x320/47691202_582695448838271_5273739481755680768_n.jpg?_nc_ht=scontent-cdg2-1.cdninstagram.com,"🌎Brazil |🇧🇷 Rio de Janeiro❤️
🔴Birthday:18/07 ♋
🔵Nature🍃Sunset🌅Sunrise🌄Dogs🐶
🔴Watch sports ⚽|🏈|🏄‍♂️|🎾|🏀
🔵Series and movies 📺
🔴Music 🎧",[],['False'],[],[],[],[],[],0,0,rafaelnadal,BqpsJ_zgPMY,5c66e6f9b5d85c3ba6342c15,[],0.0,[]
346,346,0.2605556710562624,0.4494364165239821,0.09865621511919304,0,0.0040980547605524815,0.15450186467767713,0.05546308009854185,31351,1160,2499,0,0,1,3,0.6666666666666667,impersonator,0,0,0,0,3,1776513155,--,nadal_golden,Nadal,https://scontent-cdg2-1.cdninstagram.com/vp/c2ed3ffe5f0ee868dbe3b54daf498023/5D3CC2DD/t51.2885-19/s320x320/19623456_1383319205055768_7285541084195717120_a.jpg?_nc_ht=scontent-cdg2-1.cdninstagram.com,"🐶 Golden Retriever
💪 Male
🌟03/05/13
💌 nadalgolden@gmail.com
Dogmodel da @multipatasbrasil",[],['False'],[],[],[],[],[],0,0,rafaelnadal,BqpsJ_zgPMY,5c66e3f1b5d85c3ba633fb49,[],0.0,[]
348,348,0.0,0.4494364165239821,0.0,0,7.973632113607265e-05,0.19112946190729888,0.0005104645227156712,610,1435,23,1,0,1,1,0.0,impersonator,0,0,0,0,3,1788234027,--,rborja2101,Rafa,https://scontent-cdg2-1.cdninstagram.com/vp/5516f97596025c62df9730ded89849c5/5D53DF84/t51.2885-19/11055468_691377564322213_765220753_a.jpg?_nc_ht=scontent-cdg2-1.cdninstagram.com,,[],['False'],[],[],[],[],[],0,0,rafaelnadal,BqpsJ_zgPMY,5c66f13fb5d85c3ba634c59a,[],0.0,[]
368,368,0.2605556710562624,0.4494364165239821,0.0,0,5.69918623202093e-05,0.09709643047416087,0.00048827041303238115,436,729,22,1,0,1,2,0.3333333333333333,impersonator,0,0,0,0,3,1910862809,--,jrafa_0418,João Rafael,-,"19 anos | Vila das Aves  
CDA 🔴⚪️❤️",[],['False'],[],[],[],[],[],0,0,rafaelnadal,BqpsJ_zgPMY,5c66dc92b5d85c3ba63391e0,[],0.0,[]
369,369,0.4494364165239821,0.2605556710562624,0.0,0,0.00011254585655435827,0.1736814064997336,0.0006658232904987014,861,1304,30,1,0,1,2,0.3333333333333333,impersonator,0,0,0,0,3,1911695348,https://pt.quizur.com/quiz-sobre-mim/super-desafio-da-amizade-voce-realmente-me-conhece-6/d0f90d02e006a635098e2ab54474bcbe,joao_rafael10,Rafael Carneiro,https://scontent-cdg2-1.cdninstagram.com/vp/59c4ce5e9905c839d7dfee810f98f8ab/5D5A9FB7/t51.2885-19/s320x320/34108313_838809099655652_4948817839944368128_n.jpg?_nc_ht=scontent-cdg2-1.cdninstagram.com,Famalicão📍  ESDS1📚  Swimmer at Fama🏊  M❤️,[],"['False', 'False']",[],[],[],[],[],0,0,rafaelnadal,BqpsJ_zgPMY,5c66e460b5d85c3ba634051f,[],0.0,[]
369,369,0.4494364165239821,0.2605556710562624,0.0,0,0.00011254585655435827,0.1736814064997336,0.0006658232904987014,861,1304,30,1,0,1,2,0.3333333333333333,impersonator,0,0,0,0,3,1911695348,https://pt.quizur.com/quiz-sobre-mim/super-desafio-da-amizade-voce-realmente-me-conhece-6/d0f90d02e006a635098e2ab54474bcbe,joao_rafael10,Rafael Carneiro,https://scontent-cdg2-1.cdninstagram.com/vp/59c4ce5e9905c839d7dfee810f98f8ab/5D5A9FB7/t51.2885-19/s320x320/34108313_838809099655652_4948817839944368128_n.jpg?_nc_ht=scontent-cdg2-1.cdninstagram.com,Famalicão📍  ESDS1📚  Swimmer at Fama🏊  M❤️,[],"['False', 'False']",[],[],[],[],[],0,0,rafaelnadal,BqmqbmCAn_q,5c672fe1b5d85c3e0ad9f2b6,[],0.0,[]
375,375,0.0,0.4494364165239821,0.0,0,5.006395245100954e-05,0.058470964304741614,0.0006880174001819918,383,439,31,1,0,1,1,0.0,impersonator,0,0,0,0,3,1915779828,--,rafamelli10,Rafa,https://scontent-cdg2-1.cdninstagram.com/vp/692396a794a045e7bc555b051bb97e4f/5D3FC4C8/t51.2885-19/s320x320/18443895_134998660380614_6150123070263656448_a.jpg?_nc_ht=scontent-cdg2-1.cdninstagram.com,"Believe in yourself
ENFERMERO",[],['False'],[],[],[],[],[],0,0,rafaelnadal,BqmqbmCAn_q,5c6732b4b5d85c3e0ada1e37,[],0.0,[]
396,396,0.4494364165239821,0.4494364165239821,0.0,0,1.3594389177297631e-05,0.034762919552477366,0.0015535876778303038,104,261,70,1,0,1,2,0.3333333333333333,impersonator,0,0,0,0,3,1992123547,--,rafael_wft,Rafael,https://scontent-cdg2-1.cdninstagram.com/vp/a32e0cc9cae184fc22595618a94e3789/5D36F3DA/t51.2885-19/s320x320/50312509_404019017038485_7963019737884000256_n.jpg?_nc_ht=scontent-cdg2-1.cdninstagram.com,,[],['False'],[],[],[],[],[],0,0,rafaelnadal,BqpsJ_zgPMY,5c66ee85b5d85c3ba6349b39,[],0.0,[]
398,398,0.4112070550676187,0.4112070550676187,0.1253669379873173,0,0.0019364161660816066,0.015583377730420884,0.10426792729209668,14814,117,4698,0,0,1,3,0.6666666666666667,impersonator,0,0,0,0,3,1994220328,http://www.facebook.com/ReyDelTenis,rafanadalfansmorocco,Rafa Nadal Fans Morocco,https://scontent-cdg2-1.cdninstagram.com/vp/61844f681ed02dede4025b9185318608/5D6DEC04/t51.2885-19/s320x320/49907007_2071199002967071_8011958171507621888_n.jpg?_nc_ht=scontent-cdg2-1.cdninstagram.com,"¡VAMOS RAFA! 👑🐂💪🏻
Founded and managed by @mehdielouadni",[],['False'],[],[],[],[],[],0,0,rafaelnadal,BqpsJ_zgPMY,5c66eb33b5d85c3ba634669c,[],0.0,[]
444,444,0.4494364165239821,0.4494364165239821,0.0,0,0.00013803533626179134,0.3442994139584443,0.013227689371240872,1056,2585,596,1,0,1,2,0.3333333333333333,impersonator,0,0,0,0,3,2130904131,--,rafael_rujano,Rafael Rujano,https://scontent-cdg2-1.cdninstagram.com/vp/4d3b8bed528e419dc278f6a58fffe17b/5D6B7166/t51.2885-19/s320x320/13651874_830800900386711_1766622342_a.jpg?_nc_ht=scontent-cdg2-1.cdninstagram.com,,[],['False'],[],[],[],[],[],0,0,rafaelnadal,BqmqbmCAn_q,5c672f5eb5d85c3e0ad9e784,[],0.0,[]
452,452,0.0,0.4494364165239821,0.0,0,9.699073816879656e-05,0.061401172083111334,8.87764387331602e-05,742,461,4,1,0,1,1,0.0,impersonator,0,0,0,0,3,2144960418,--,ralph_58__,Rafa,https://scontent-cdg2-1.cdninstagram.com/vp/146cdad48d2382782b4c11b03d3e5f33/5D51DBC8/t51.2885-19/s320x320/47377610_2861468290660556_2820247200691388416_n.jpg?_nc_ht=scontent-cdg2-1.cdninstagram.com,TX,[],['False'],[],[],[],[],[],0,0,rafaelnadal,BqmqbmCAn_q,5c673188b5d85c3e0ada0387,[],0.0,[]
464,464,0.2605556710562624,0.4494364165239821,0.0,0,8.627208516361959e-06,0.04901438465636654,0.00031071753556606075,66,368,14,1,0,1,2,0.3333333333333333,impersonator,0,0,0,0,3,2223593889,http://rafaelpiloto10.now.sh/,rafael.1010,🎾Rafael🎾,https://scontent-cdg2-1.cdninstagram.com/vp/f63c75ed840c49126325bb323553db7d/5D6BEC04/t51.2885-19/s320x320/20181264_1503269209725428_5374436347220066304_a.jpg?_nc_ht=scontent-cdg2-1.cdninstagram.com,🖥,[],['False'],[],[],[],[],[],0,0,rafaelnadal,BqpsJ_zgPMY,5c66e436b5d85c3ba634013c,[],0.0,[]
472,472,0.0,0.4494364165239821,0.0,0,0.00017515847593825795,0.1045551411827384,0.002086246310229265,1340,785,94,0,0,1,1,0.0,impersonator,0,0,0,0,3,2242278991,https://m.facebook.com/BarcelonaSailing/,barcelonasailing,Rafa,https://scontent-cdg2-1.cdninstagram.com/vp/e2f7f1a1319e6b0d42a91a2581c28ee1/5D516D80/t51.2885-19/s320x320/47584723_324438061480101_1406779613970956288_n.jpg?_nc_ht=scontent-cdg2-1.cdninstagram.com,coach sailing senior people,[],['False'],[],[],[],[],[],0,0,rafaelnadal,BqmqbmCAn_q,5c672d5ab5d85c3e0ad9ce6a,[],0.0,[]
501,501,0.0,0.4494364165239821,0.0,0,4.209032033740228e-05,0.06539690996270645,0.00048827041303238115,322,491,22,1,0,1,1,0.0,impersonator,0,0,0,0,3,2332121948,https://thebite.aisb.ro/index.php/to-be-black-an-aisb-experience,noa_1712,Noa Rafaeli,https://scontent-cdg2-1.cdninstagram.com/vp/c01143b4c2751dc50433748bedca2b08/5D39BC9A/t51.2885-19/s320x320/56431144_2116805868373908_8432919190477733888_n.jpg?_nc_ht=scontent-cdg2-1.cdninstagram.com,🎸🎤 🇮🇱•🇮🇳•🇨🇭•🇮🇱•🇹🇩,[],['False'],[],[],[],[],[],0,0,rafaelnadal,BqpsJ_zgPMY,5c66f11ab5d85c3ba634c182,[],0.0,[]
502,502,0.2605556710562624,0.4494364165239821,0.0,0,3.581598687095722e-05,0.0651305274374001,0.00017755287746632043,274,489,8,1,0,1,2,0.3333333333333333,impersonator,0,0,0,0,3,2334103701,--,_rafaeel09,Rafaaa♡,https://scontent-cdg2-1.cdninstagram.com/vp/5c03eef08ea6e46e2d0a42a92b7dbf7f/5D6B6ECE/t51.2885-19/s320x320/41994169_241201189882994_3703905673524805632_n.jpg?_nc_ht=scontent-cdg2-1.cdninstagram.com,"📍Jereez
Tennis player💨💨
💓🤪",[],['False'],[],[],[],[],[],0,0,rafaelnadal,BqpsJ_zgPMY,5c66f132b5d85c3ba634c3de,[],0.0,[]
519,519,0.0,0.4494364165239821,0.0,0,4.222103561795322e-05,0.05314331379861481,0.0,323,399,0,1,0,1,1,0.0,impersonator,0,0,0,0,3,2479491140,--,raafaarodriguez,Rafa,https://scontent-cdg2-1.cdninstagram.com/vp/483a2ae0ef472b085221653d0d7e5684/5D53A327/t51.2885-19/s320x320/20905383_1139545359478665_7648284603152596992_a.jpg?_nc_ht=scontent-cdg2-1.cdninstagram.com,Yo vengo de un lugar donde decían que triunfar era imposible ⛓🔐,[],['False'],[],[],[],[],[],0,0,rafaelnadal,BqpsJ_zgPMY,5c66e3a7b5d85c3ba633f508,[],0.0,[]
525,525,0.4494364165239821,0.4494364165239821,0.0,0,3.1502382612776244e-05,0.01864677677144379,0.005171227556206582,241,140,233,0,0,1,2,0.3333333333333333,impersonator,0,0,0,0,3,2532391619,--,rafa_toufik,Rafa Toufik,-,,[],"['False', 'False']",[],[],[],[],[],0,0,rafaelnadal,BqpsJ_zgPMY,5c66e20cb5d85c3ba633e613,[],0.0,[]
525,525,0.4494364165239821,0.4494364165239821,0.0,0,3.1502382612776244e-05,0.01864677677144379,0.005171227556206582,241,140,233,0,0,1,2,0.3333333333333333,impersonator,0,0,0,0,3,2532391619,--,rafa_toufik,Rafa Toufik,-,,[],"['False', 'False']",[],[],[],[],[],0,0,rafaelnadal,BqmqbmCAn_q,5c672fb1b5d85c3e0ad9ee79,[],0.0,[]
526,526,0.4494364165239821,0.2605556710562624,0.0,0,3.0325945087817798e-05,0.04075652637187,0.001708946445613334,232,306,77,1,0,1,2,0.3333333333333333,impersonator,0,0,0,0,3,2539460475,--,rafael97b,Rafa Perez,https://scontent-cdg2-1.cdninstagram.com/vp/5c6ad089fbe63e8e9a738e60b9c70605/5D50CA87/t51.2885-19/s320x320/33027184_138707536993859_5634829627282161664_n.jpg?_nc_ht=scontent-cdg2-1.cdninstagram.com,,[],['False'],[],[],[],[],[],0,0,rafaelnadal,BqpsJ_zgPMY,5c66df81b5d85c3ba633c0a3,[],0.0,[]
532,532,0.2019930924979183,0.4494364165239821,0.0,0,1.2025805810686368e-05,0.02370804475226425,0.0,92,178,0,1,0,1,2,0.3333333333333333,impersonator,0,0,0,0,3,2680914315,--,rafael2004_1018,Rafael 🇵🇹,https://scontent-cdg2-1.cdninstagram.com/vp/ae10c99cc1fd2c6f83e1d87bcfe79f50/5D75A698/t51.2885-19/s320x320/54732515_375264573068536_7801545876840644608_n.jpg?_nc_ht=scontent-cdg2-1.cdninstagram.com,,[],['False'],[],[],[],[],[],0,0,rafaelnadal,BqpsJ_zgPMY,5c66ec1eb5d85c3ba63478b9,[],0.0,[]
549,549,0.2605556710562624,0.4494364165239821,0.0,0,7.097839733915975e-05,0.07325519445924347,0.00013316465809974033,543,550,6,1,0,1,2,0.3333333333333333,impersonator,0,0,0,0,3,2902273264,--,budia_rafa,Rafa🔥,https://scontent-cdg2-1.cdninstagram.com/vp/23a7635356b266b32eda046ad7661871/5D5AB3AB/t51.2885-19/s320x320/31765087_238141246736111_3428452086344318976_n.jpg?_nc_ht=scontent-cdg2-1.cdninstagram.com,,[],"['False', 'False']",[],[],[],[],[],0,0,rafaelnadal,BqpsJ_zgPMY,5c66e3ceb5d85c3ba633f86f,[],0.0,[]
549,549,0.2605556710562624,0.4494364165239821,0.0,0,7.097839733915975e-05,0.07325519445924347,0.00013316465809974033,543,550,6,1,0,1,2,0.3333333333333333,impersonator,0,0,0,0,3,2902273264,--,budia_rafa,Rafa🔥,https://scontent-cdg2-1.cdninstagram.com/vp/23a7635356b266b32eda046ad7661871/5D5AB3AB/t51.2885-19/s320x320/31765087_238141246736111_3428452086344318976_n.jpg?_nc_ht=scontent-cdg2-1.cdninstagram.com,,[],"['False', 'False']",[],[],[],[],[],0,0,rafaelnadal,BqmqbmCAn_q,5c672fcab5d85c3e0ad9f09e,[],0.0,[]
554,554,0.4494364165239821,0.4494364165239821,0.0,0,4.470462594842106e-05,0.0598028769312733,0.0018199169940297845,342,449,82,0,0,1,2,0.3333333333333333,impersonator,0,0,0,0,3,2933086441,--,hjrafa,//|10|\\ Rafa,https://scontent-cdg2-1.cdninstagram.com/vp/f280e1c22a273bf6f2bb94f7c68292c3/5D3D9E58/t51.2885-19/s320x320/12627902_190555764636238_474423901_a.jpg?_nc_ht=scontent-cdg2-1.cdninstagram.com,,[],['False'],[],[],[],[],[],0,0,rafaelnadal,BqpsJ_zgPMY,5c66e3bcb5d85c3ba633f72c,[],0.0,[]
564,564,0.2605556710562624,0.4494364165239821,0.0,0,9.934361321871344e-06,0.04728289824187533,0.002752069600727967,76,355,124,1,0,1,2,0.3333333333333333,impersonator,0,0,0,0,3,3001949387,--,nadalwilson_,Nadal,https://scontent-cdg2-1.cdninstagram.com/vp/82692cbb6d71b2b6491896c73c6187bc/5D710C1D/t51.2885-19/s320x320/55912200_361917261086504_5268201804327288832_n.jpg?_nc_ht=scontent-cdg2-1.cdninstagram.com,,[],['False'],[],[],[],[],[],0,0,rafaelnadal,BqpsJ_zgPMY,5c66eb88b5d85c3ba6346c55,[],0.0,[]
568,568,0.0,0.4494364165239821,0.0,0,6.143618185894122e-06,0.0013319126265316993,0.0,47,10,0,0,0,1,1,0.0,impersonator,0,0,0,0,3,3022308853,--,jeongwon5606,Nadal♡,https://scontent-cdg2-1.cdninstagram.com/vp/a61dcbe6aef9b87b3d63e220e80f323a/5D5A8515/t51.2885-19/s320x320/41757569_765677747157611_624361375799443456_n.jpg?_nc_ht=scontent-cdg2-1.cdninstagram.com,,[],['False'],[],[],[],[],[],0,0,rafaelnadal,BqpsJ_zgPMY,5c66dcdbb5d85c3ba6339813,[],0.0,[]
575,575,0.0,0.4494364165239821,0.07642786054574813,0,3.9214584165281637e-07,0.011854022376132124,0.00033291164524935083,3,89,15,1,0,1,2,0.3333333333333333,impersonator,0,0,0,0,3,3060574813,--,beenadal,Rafael,https://scontent-cdg2-1.cdninstagram.com/vp/73257feb8223660cf439c500255b5104/5D413DF6/t51.2885-19/s320x320/43046161_247289689261347_8405617221543395328_n.jpg?_nc_ht=scontent-cdg2-1.cdninstagram.com,"Hey am Rafa,nice to see you.Could you follow me if like those pics of mine. Hola soy Rafa,me encanta conocerte ,Podría añadirme si te gusta mis fotos😉",[],['False'],[],[],[],[],[],0,0,rafaelnadal,BqmqbmCAn_q,5c672d2fb5d85c3e0ad9c9e8,[],0.0,[]
589,589,0.0,0.4494364165239821,0.0,0,1.0065076602422284e-05,0.009989344698987743,0.013516212797123645,77,75,609,1,0,1,1,0.0,impersonator,0,0,0,0,3,3102235057,--,jonkendonken1,Nadal,https://scontent-cdg2-1.cdninstagram.com/vp/d650b8559374d039d2889e3269b33438/5D7136BE/t51.2885-19/s320x320/14272008_1175777775815058_1726142900_n.jpg?_nc_ht=scontent-cdg2-1.cdninstagram.com,"Människan består av 70% vatten. 
Dom flesta är alltså i princip bara gurkor med ångest 🤷🏼‍♂️",[],['False'],[],[],[],[],[],0,0,rafaelnadal,BqpsJ_zgPMY,5c66d744b5d85c3ba6334161,[],0.0,[]
601,601,0.2605556710562624,0.4494364165239821,0.0,0,1.2810097493991996e-05,0.04195524773574853,6.658232904987016e-05,98,315,3,0,0,1,2,0.3333333333333333,impersonator,0,0,0,0,3,3160319722,--,rafatenis,Rafael Peña,https://scontent-cdg2-1.cdninstagram.com/vp/b99183ad2f6d2531742510e6904104de/5D55C0CF/t51.2885-19/s150x150/12445855_533962823456851_52067477_a.jpg?_nc_ht=scontent-cdg2-1.cdninstagram.com,,[],['False'],[],[],[],[],[],0,0,rafaelnadal,BqmqbmCAn_q,5c672c93b5d85c3e0ad9bc1f,[],0.0,[]
617,617,0.0,0.4494364165239821,0.0,0,6.7971945886488156e-06,0.005727224294086308,8.87764387331602e-05,52,43,4,0,0,1,1,0.0,impersonator,0,0,0,0,3,3224359854,--,ze_twain,Rafael,https://scontent-cdg2-1.cdninstagram.com/vp/20d194021ea557e7f40a80b075e96592/5D6DC8E8/t51.2885-19/s320x320/13181275_260565067628313_277465287_a.jpg?_nc_ht=scontent-cdg2-1.cdninstagram.com,,[],['False'],[],[],[],[],[],0,0,rafaelnadal,BqpsJ_zgPMY,5c66d920b5d85c3ba6335786,[],0.0,[]
624,624,0.0,0.4494364165239821,0.0,0,1.7777278154927672e-05,0.02197655833777304,2.219410968329005e-05,136,165,1,1,0,1,1,0.0,impersonator,0,0,0,0,3,3266123594,--,rdorta_03,Rafa🔥🚘,https://scontent-cdg2-1.cdninstagram.com/vp/6c468347453b3599d597e6024fa39d7b/5D5C1354/t51.2885-19/s320x320/53279576_804493273239927_3677324563311493120_n.jpg?_nc_ht=scontent-cdg2-1.cdninstagram.com,"❤💙
🌴enerife",[],['False'],[],[],[],[],[],0,0,rafaelnadal,BqpsJ_zgPMY,5c66ec74b5d85c3ba63480ae,[],0.0,[]
642,642,0.0,0.4494364165239821,0.0,0,8.967068245794398e-05,0.2854288758657432,0.0009543467163814725,686,2143,43,0,0,1,1,0.0,impersonator,0,0,0,0,3,3413678252,--,rfarsy,Rafael A.S.Y,https://scontent-cdg2-1.cdninstagram.com/vp/2849cf784b7b30092f33fdecd808cd38/5D7195B8/t51.2885-19/s320x320/53599812_403731813538964_7366425360012935168_n.jpg?_nc_ht=scontent-cdg2-1.cdninstagram.com,"Just wanna become a good person👊
🎾🎾🎾
#Percuma #KitaNgeGas",[],['False'],[],[],[],[],[],0,0,rafaelnadal,BqpsJ_zgPMY,5c66e331b5d85c3ba633ed09,[],0.0,[]
684,684,0.4494364165239821,0.2605556710562624,0.0,0,7.019410565585411e-05,0.11521044219499199,0.0030849812459773176,537,865,139,1,0,1,2,0.3333333333333333,impersonator,0,0,0,0,3,3630879647,--,rafaelfll,Rafael Fonseca,https://scontent-cdg2-1.cdninstagram.com/vp/4b3496de9c2d357740e99d218de14ed8/5D3BFEF7/t51.2885-19/s320x320/28429766_167766337362894_187942941329719296_n.jpg?_nc_ht=scontent-cdg2-1.cdninstagram.com,"Just another evolving being 🗿👦👽
A thought: life is a pool of opportunities 🔓",[],['False'],[],[],[],[],[],0,0,rafaelnadal,BqmqbmCAn_q,5c6731d7b5d85c3e0ada0b33,[],0.0,[]
709,709,0.2605556710562624,0.4494364165239821,0.0,0,6.483477915326563e-05,0.2461374533830581,0.0013760348003639836,496,1848,62,0,0,1,2,0.3333333333333333,impersonator,0,0,0,0,3,3953433237,--,rafazimmermann27,Rafael,https://scontent-cdg2-1.cdninstagram.com/vp/5276e75408fcb831ccf00f8c8f18bd12/5D6F1660/t51.2885-19/s320x320/35414639_2038849023035421_7831081988978114560_n.jpg?_nc_ht=scontent-cdg2-1.cdninstagram.com,"Tênis, Ciclismo e MTB
Colunista - Camisa Amarela
As vezes alguma coisa da vida.",[],['False'],[],[],[],[],[],0,0,rafaelnadal,BqmqbmCAn_q,5c672d49b5d85c3e0ad9cc87,[],0.0,[]
739,739,0.2019930924979183,0.4494364165239821,0.0,0,4.993323717045861e-05,0.1321257325519446,0.00013316465809974033,382,992,6,0,0,1,2,0.3333333333333333,impersonator,0,0,0,0,3,4047613276,--,rafael_belentanim,Rafael,https://scontent-cdg2-1.cdninstagram.com/vp/aec8f7b7fb9c63e3d1b781a5cab2a56f/5D73A183/t51.2885-19/s320x320/41937830_590842374663831_3936322047721865216_n.jpg?_nc_ht=scontent-cdg2-1.cdninstagram.com,Still trying🔱,[],['False'],[],[],[],[],[],0,0,rafaelnadal,BqpsJ_zgPMY,5c66d8cfb5d85c3ba633517d,[],0.0,[]
749,749,0.4494364165239821,0.4494364165239821,0.0,0,4.078316753189289e-05,0.11627597229621735,0.00011097054841645026,312,873,5,1,0,1,2,0.3333333333333333,impersonator,0,0,0,0,3,4090428099,--,rafabj24,Rafael,https://scontent-cdg2-1.cdninstagram.com/vp/95b59c0669c3bfb7e157976bca3523de/5D76A9ED/t51.2885-19/s320x320/37508237_2145415555785346_4612354044755705856_n.jpg?_nc_ht=scontent-cdg2-1.cdninstagram.com,El Puerto de Sta Maria,[],['False'],[],[],[],[],[],0,0,rafaelnadal,BqpsJ_zgPMY,5c66d8cdb5d85c3ba6335115,[],0.0,[]
758,758,0.4494364165239821,0.4494364165239821,0.0,0,9.306927975226841e-05,0.11014917421417154,0.0067248152340368865,712,827,303,1,0,1,2,0.3333333333333333,impersonator,0,0,0,0,3,4125558032,--,rafael19.10,Rafael R.,https://scontent-cdg2-1.cdninstagram.com/vp/a49327c5350ee8e4af5f1ef34157c863/5D77A855/t51.2885-19/s320x320/38860494_261759951114682_4627929421532102656_n.jpg?_nc_ht=scontent-cdg2-1.cdninstagram.com,"I'm an alien 👽🇻🇪🌎🇺🇸
I play🎾and♠ 
#SOSvenezuela🇻🇪
And she's buying the stairway to heaven🎶",[],['False'],[],[],[],[],[],0,0,rafaelnadal,BqpsJ_zgPMY,5c66ecb8b5d85c3ba63487d3,[],0.0,[]
787,787,0.2605556710562624,0.4494364165239821,0.0,0,3.5293125748753474e-05,0.0243740010655301,0.00033291164524935083,270,183,15,0,0,1,2,0.3333333333333333,impersonator,0,0,0,0,3,4228301740,http://bydesign-store.com/,wisniewski_rafa,Rafał W. 🍒,https://scontent-cdg2-1.cdninstagram.com/vp/e1bcc83a508b7a5ceaf9d3dbc538a80b/5D3EB3F1/t51.2885-19/s320x320/50725391_392800578217956_1190656314175389696_n.jpg?_nc_ht=scontent-cdg2-1.cdninstagram.com,🏡 Toruń,[],['False'],[],[],[],[],[],0,0,rafaelnadal,BqmqbmCAn_q,5c672cc9b5d85c3e0ad9c0cf,[],0.0,[]
799,799,0.4494364165239821,0.2019930924979183,0.0,0,4.601177875393045e-05,0.06752797016515716,0.00017755287746632043,352,507,8,1,0,1,2,0.3333333333333333,impersonator,0,0,0,0,3,4264079746,--,_rafadbv,Rafaa de Bloteau,https://scontent-cdg2-1.cdninstagram.com/vp/a197105fcae886a528c0f6b4ffdd6388/5D4260D6/t51.2885-19/s320x320/50981311_261481061414033_7861944472915935232_n.jpg?_nc_ht=scontent-cdg2-1.cdninstagram.com,🇪🇸 🇫🇷,[],['False'],[],[],[],[],[],0,0,rafaelnadal,BqpsJ_zgPMY,5c66e42eb5d85c3ba6340064,[],0.0,[]
828,828,0.0,0.4494364165239821,0.2605556710562624,0,0.0003361997015770145,0.0864411294619073,0.00044388219366580105,2572,649,20,1,0,1,2,0.3333333333333333,impersonator,0,0,0,0,3,4366730083,--,mixahl_tam,Μιχαήλ Ταμιωλάκης🎾(Nadal),https://scontent-cdg2-1.cdninstagram.com/vp/eaa5d8b5669446c1986139550f0379af/5D74AD07/t51.2885-19/s320x320/55783954_577075726124492_3469497078747496448_n.jpg?_nc_ht=scontent-cdg2-1.cdninstagram.com,"Αθλητής🎾🔥
🌍🏡🇬🇷 Ηράκλειο(Μεσσαμπέλα)🔥🔥
Ρέθυμνο
Nadals Boy🐃🐃👑 Γαυράκι🔴⚪👹",[],['False'],[],[],[],[],[],0,0,rafaelnadal,BqmqbmCAn_q,5c672ebfb5d85c3e0ad9d94d,[],0.0,[]
868,868,0.4494364165239821,0.2605556710562624,0.0,0,7.189340430301633e-06,0.009589770911028236,0.0,55,72,0,1,0,1,2,0.3333333333333333,impersonator,0,0,0,0,3,4653419706,--,rafa_87_kn,Rafael Heizmann,https://scontent-cdg2-1.cdninstagram.com/vp/10c62b47919a7efee03f85e60c9355fd/5D5B52FA/t51.2885-19/16584826_1279890628758029_9175803951201648640_a.jpg?_nc_ht=scontent-cdg2-1.cdninstagram.com,,[],['False'],[],[],[],[],[],0,0,rafaelnadal,BqmqbmCAn_q,5c673289b5d85c3e0ada1a69,[],0.0,[]
877,877,0.4494364165239821,0.2019930924979183,0.0,0,1.6339410068867345e-05,0.027171017581246668,8.87764387331602e-05,125,204,4,0,0,1,2,0.3333333333333333,impersonator,0,0,0,0,3,4714146114,--,nadalnadales,Maria Felicia Nadal Nadales,https://scontent-cdg2-1.cdninstagram.com/vp/a54a6598fe193e70bb45f66477f2429d/5D570ED9/t51.2885-19/s320x320/51612977_390534495099701_1299302786147549184_n.jpg?_nc_ht=scontent-cdg2-1.cdninstagram.com,,[],['False'],[],[],[],[],[],0,0,rafaelnadal,BqpsJ_zgPMY,5c66da13b5d85c3ba6336ce7,[],0.0,[]
921,921,0.4494364165239821,0.4494364165239821,0.0,0,0.0020924902110594275,0.9467234949387321,0.00019974698714961048,16008,7108,9,0,0,1,2,0.3333333333333333,impersonator,0,0,0,0,3,5125557267,--,ehirafael,Rafael,https://scontent-cdg2-1.cdninstagram.com/vp/8880185c5a2cd97d950838ac41b540b0/5D43309E/t51.2885-19/s320x320/56972103_2017577968539060_2301636526833926144_n.jpg?_nc_ht=scontent-cdg2-1.cdninstagram.com,"💎💕
Borgo a Buggiano -Firenze🏠
Secondo profilo",[],['False'],[],[],[],[],[],0,0,rafaelnadal,BqmqbmCAn_q,5c672d3ab5d85c3e0ad9caf4,[],0.0,[]
937,937,0.2605556710562624,0.4494364165239821,0.0,0,6.483477915326563e-05,0.06046883324453915,0.00011097054841645026,496,454,5,1,0,1,2,0.3333333333333333,impersonator,0,0,0,0,3,5352508132,--,rafa_yazji,Rafa,https://scontent-cdg2-1.cdninstagram.com/vp/0fb13d9310dcbae82b75b2dcca8fa972/5D5218D2/t51.2885-19/s320x320/38989751_279020569595822_7311982904324653056_n.jpg?_nc_ht=scontent-cdg2-1.cdninstagram.com,SJJ ‘22,[],['False'],[],[],[],[],[],0,0,rafaelnadal,BqpsJ_zgPMY,5c66e160b5d85c3ba633d56e,[],0.0,[]
1017,1017,0.4494364165239821,0.4494364165239821,0.0,0,1.0457222444075099e-05,0.004928076718167289,0.00430565727855827,80,37,194,1,0,1,2,0.3333333333333333,impersonator,0,0,0,0,3,5672132345,--,anshnadal,anshnadal,https://scontent-cdg2-1.cdninstagram.com/vp/97db84de08fa1a982318f2d38453048f/5D5531C5/t51.2885-19/s320x320/52730228_624225511360590_7612905647570419712_n.jpg?_nc_ht=scontent-cdg2-1.cdninstagram.com,I'm head cocah Tennis O Holic,[],['False'],[],[],[],[],[],0,0,rafaelnadal,BqpsJ_zgPMY,5c66e154b5d85c3ba633d48d,[],0.0,[]
1047,1047,0.0,0.4494364165239821,0.0,0,6.27433346644506e-05,0.04408630793819925,0.0011318995938477928,480,331,51,0,0,1,1,0.0,impersonator,0,0,0,0,3,5763987475,--,rafaela.donega,Rafa,https://scontent-cdg2-1.cdninstagram.com/vp/85d5f639e43475b12e84c6dd4ec7c46a/5D3F6F18/t51.2885-19/s320x320/49858559_347067839477412_8853032400083484672_n.jpg?_nc_ht=scontent-cdg2-1.cdninstagram.com,Resplandeça💡,[],['False'],[],[],[],[],[],0,0,rafaelnadal,BqpsJ_zgPMY,5c66d74db5d85c3ba6334267,[],0.0,[]
1048,1048,0.0,0.4494364165239821,0.0,0,3.490097990710065e-05,0.1037559936068194,0.0010653172647979226,267,779,48,1,0,1,1,0.0,impersonator,0,0,0,0,3,5764990712,--,rafaela_mart_,rafa💫,https://scontent-cdg2-1.cdninstagram.com/vp/234023fd550e9201637e71ce26ca4c76/5D6D1DC8/t51.2885-19/s320x320/53622799_418780382026510_8075705686727589888_n.jpg?_nc_ht=scontent-cdg2-1.cdninstagram.com,"|Greece, Heraklion|
    •hotter than your ex 
better than your next🔥
●•●•●•●•●•●•●•●•●•●•●
~better without you💣🚫~",[],['False'],[],[],[],[],[],0,0,rafaelnadal,BqpsJ_zgPMY,5c66ef2bb5d85c3ba634a9e5,[],0.0,[]
1050,1050,0.4494364165239821,0.4494364165239821,0.0,0,0.00011986591226521083,0.08830580713905167,0.00028852342588277073,917,663,13,1,0,1,2,0.3333333333333333,impersonator,0,0,0,0,3,5777543824,--,tomynadal27,Tomy Nadal,https://scontent-cdg2-1.cdninstagram.com/vp/70d0e968c144507332b5e8e0f03d220d/5D6C158A/t51.2885-19/s320x320/50499022_364123797503802_6081344499072630784_n.jpg?_nc_ht=scontent-cdg2-1.cdninstagram.com,,[],['False'],[],[],[],[],[],0,0,rafaelnadal,BqpsJ_zgPMY,5c66e72bb5d85c3ba63430b0,[],0.0,[]
1062,1062,0.2605556710562624,0.4494364165239821,0.0,0,2.0914444888150198e-05,0.07725093233883856,6.658232904987016e-05,160,580,3,1,0,1,2,0.3333333333333333,impersonator,0,0,0,0,3,5826425825,--,rafariveramqz,Rafa,https://scontent-cdg2-1.cdninstagram.com/vp/09ec2ecec44f644460de78c007429600/5D7654E7/t51.2885-19/s320x320/50115178_387324625366781_2357705525291909120_n.jpg?_nc_ht=scontent-cdg2-1.cdninstagram.com,,[],['False'],[],[],[],[],[],0,0,rafaelnadal,BqmqbmCAn_q,5c6734c8b5d85c3e0ada3a0b,[],0.0,[]
1072,1072,0.0,0.4494364165239821,0.0,0,1.9607292082640814e-06,0.005727224294086308,0.0003551057549326408,15,43,16,1,0,1,1,0.0,impersonator,0,0,0,0,3,5861404043,--,zabaleta7,rafael,https://scontent-cdg2-1.cdninstagram.com/vp/2688d1a64463fd3b43791caa1154af6a/5D38E153/t51.2885-19/s320x320/27880112_423394068093237_7105770851449962496_n.jpg?_nc_ht=scontent-cdg2-1.cdninstagram.com,,[],['False'],[],[],[],[],[],0,0,rafaelnadal,BqpsJ_zgPMY,5c66e889b5d85c3ba6343d80,[],0.0,[]
1092,1092,0.2605556710562624,0.5031026124151314,0.0,0,3.6600278554262855e-06,0.013052743740010656,0.0008211820582817318,28,98,37,1,0,1,2,0.3333333333333333,impersonator,0,0,0,0,3,5939240288,--,nadal_santos,Rafael Nadal🎾💖Santos F.C ⚽🖤,https://scontent-cdg2-1.cdninstagram.com/vp/8679ff3bdf1dc0ad48bcea25dd3807bb/5D3FFFBA/t51.2885-19/s320x320/52034007_309345699782803_412496643452043264_n.jpg?_nc_ht=scontent-cdg2-1.cdninstagram.com,#tenis🎾👑🏆 #futebol⚽,[],['False'],[],[],[],[],[],0,0,rafaelnadal,BqpsJ_zgPMY,5c66e141b5d85c3ba633d316,[],0.0,[]
1158,1158,0.2605556710562624,0.4494364165239821,0.0,0,1.1764375249584487e-05,0.015316995205114543,0.00026632931619948065,90,115,12,0,0,1,2,0.3333333333333333,impersonator,0,0,0,0,3,6210234886,--,arctic.rafa,Rafa,https://scontent-cdg2-1.cdninstagram.com/vp/80f6991940321bddff5410091531de19/5D713121/t51.2885-19/s320x320/45826501_309056513270987_7645386857437462528_n.jpg?_nc_ht=scontent-cdg2-1.cdninstagram.com,,[],['False'],[],[],[],[],[],0,0,rafaelnadal,BqpsJ_zgPMY,5c66e0b4b5d85c3ba633c7fb,[],0.0,[]
1165,1165,0.2605556710562624,0.4494364165239821,0.0,0,3.568527159040628e-05,0.04595098561534363,4.43882193665801e-05,273,345,2,1,0,1,2,0.3333333333333333,impersonator,0,0,0,0,3,6235276250,http://mambo.fm/rafaaagonzalez_,rafaaagonzalez_,rafa,https://scontent-cdg2-1.cdninstagram.com/vp/440af3e9ed69c322d63f107101d7b923/5D55F331/t51.2885-19/s320x320/22580544_350647112053285_3466466171866316800_n.jpg?_nc_ht=scontent-cdg2-1.cdninstagram.com,,[],['False'],[],[],[],[],[],0,0,rafaelnadal,BqpsJ_zgPMY,5c66d715b5d85c3ba6333dc6,[],0.0,[]
1166,1166,0.2605556710562624,0.4494364165239821,0.0,0,1.816942399658049e-05,0.006526371870005328,0.0,139,49,0,0,0,1,2,0.3333333333333333,impersonator,0,0,0,0,3,6238503430,--,rafa_6216,"""NADAL""1",https://scontent-cdg2-1.cdninstagram.com/vp/cd547b65f7f19c8d61fc0dfad394d387/5D6E7932/t51.2885-19/s320x320/43608417_699538513738594_6366850822281625600_n.jpg?_nc_ht=scontent-cdg2-1.cdninstagram.com,,[],"['False', 'False']",[],[],[],[],[],0,0,rafaelnadal,BqpsJ_zgPMY,5c66e620b5d85c3ba6341b20,[],0.0,[]
1166,1166,0.2605556710562624,0.4494364165239821,0.0,0,1.816942399658049e-05,0.006526371870005328,0.0,139,49,0,0,0,1,2,0.3333333333333333,impersonator,0,0,0,0,3,6238503430,--,rafa_6216,"""NADAL""1",https://scontent-cdg2-1.cdninstagram.com/vp/cd547b65f7f19c8d61fc0dfad394d387/5D6E7932/t51.2885-19/s320x320/43608417_699538513738594_6366850822281625600_n.jpg?_nc_ht=scontent-cdg2-1.cdninstagram.com,,[],"['False', 'False']",[],[],[],[],[],0,0,rafaelnadal,BqmqbmCAn_q,5c673001b5d85c3e0ad9f5fe,[],0.0,[]
1176,1176,0.2605556710562624,0.4494364165239821,0.0,0,6.274333466445062e-06,0.005993606819392648,0.00026632931619948065,48,45,12,0,0,1,2,0.3333333333333333,impersonator,0,0,0,0,3,6271668802,--,ggrafael7505,GGrafael,https://scontent-cdg2-1.cdninstagram.com/vp/99e0d78fbcc81174ef61999e4b243750/5D7813BE/t51.2885-19/s320x320/22710699_148042499144064_8954651803048214528_n.jpg?_nc_ht=scontent-cdg2-1.cdninstagram.com,,[],['False'],[],[],[],[],[],0,0,rafaelnadal,BqmqbmCAn_q,5c67395fb5d85c3e0ada7973,[],0.0,[]
1185,1185,0.0,0.4494364165239821,0.0,0,4.82339385232964e-05,0.21883324453915826,0.01282819539694165,369,1643,578,0,0,1,1,0.0,impersonator,0,0,0,0,3,6288821818,--,ra.fael402,Rafael,https://scontent-cdg2-1.cdninstagram.com/vp/9b3087551437088868af63d5089719dc/5D731B03/t51.2885-19/s320x320/54226372_409454213147493_3688541828182704128_n.jpg?_nc_ht=scontent-cdg2-1.cdninstagram.com,,[],['False'],[],[],[],[],[],0,0,rafaelnadal,BqpsJ_zgPMY,5c66e764b5d85c3ba634363f,[],0.0,[]
1204,1204,0.0,0.4494364165239821,0.0,0,6.6664793080978776e-06,0.029302077783697388,0.0026854872716780965,51,220,121,1,0,1,1,0.0,impersonator,0,0,0,0,3,6357535286,--,raffit1974,rafael,https://scontent-cdg2-1.cdninstagram.com/vp/6a27a0a63c4dbdfde7435a600df0cc54/5D6D9776/t51.2885-19/s320x320/23417172_312388665909025_1809811360683393024_n.jpg?_nc_ht=scontent-cdg2-1.cdninstagram.com,🇪🇸  🇻🇪,[],['False'],[],[],[],[],[],0,0,rafaelnadal,BqmqbmCAn_q,5c67377cb5d85c3e0ada62df,[],0.0,[]
1241,1241,0.2605556710562624,0.4494364165239821,0.1707761131901165,0,4.705750099833796e-06,0.0055940330314331365,0.0018421111037130746,36,42,83,0,0,1,3,0.6666666666666667,impersonator,0,0,0,0,3,6661404450,--,rafaismyheart,Rafa🐨,https://scontent-cdg2-1.cdninstagram.com/vp/cb9fd7cf6ae8d9c64e268bc6de91c4d1/5D771877/t51.2885-19/s320x320/53236619_2086932234946387_196177871104901120_n.jpg?_nc_ht=scontent-cdg2-1.cdninstagram.com,"I don't deserve RAFA, I really don't😭","['False', 'False', 'False', 'False', 'False']",['False'],"['2018-11-27 13:50:10', '2018-11-25 15:55:12', '2018-10-27 03:46:19', '2018-10-27 03:47:00', '2018-10-18 13:21:41']","['17986803421120566', '17995167586077970', '17974968343126838', '17970973720091695', '17872209253284501']","['BqpsJ_zgPMY', 'BqmqbmCAn_q', 'BpaMfCSHfzH', 'BpaMfCSHfzH', 'BpEixhJHuss']","['rafaelnadal', 'rafaelnadal', 'rafaelnadal', 'rafaelnadal', 'rafaelnadal']","['How can you be so handsome? 😭😘💘', 'happy holidays💖', '😘Rafaaaaaa', '好久没看到你了，想你想你想你爱你爱你爱你😃', 'Rafa, I miss you💕']",5,1,rafaelnadal,BqpsJ_zgPMY,5c66dbc8b5d85c3ba6337f3b,"['2018-11-26 17:11:53', '2018-11-25 12:56:42', '2018-10-26 20:12:45', '2018-10-26 20:12:45', '2018-10-18 10:24:47']",30018.0,"['74297.0', '10710.0', '27214.0', '27255.0', '10614.0']"
1265,1265,0.2605556710562624,0.4494364165239821,0.0,0,1.1110798846829797e-05,0.02916888652104422,2.219410968329005e-05,85,219,1,1,0,1,2,0.3333333333333333,impersonator,0,0,0,0,3,6809242038,--,rafael042004,Rafael,https://scontent-cdg2-1.cdninstagram.com/vp/95e83db80f51088b938b3ae3c66be42f/5D36D4DE/t51.2885-19/s320x320/46132180_2155332558115693_1180559962753990656_n.jpg?_nc_ht=scontent-cdg2-1.cdninstagram.com,,[],['False'],[],[],[],[],[],0,0,rafaelnadal,BqpsJ_zgPMY,5c66de36b5d85c3ba633a38c,[],0.0,[]
1448,1448,0.2605556710562624,0.4494364165239821,0.0,0,2.5620194987984e-05,0.0394246137453383,0.0,196,296,0,0,0,1,2,0.3333333333333333,impersonator,0,0,0,0,3,7584361665,--,rafa__001,RAFAEL,https://scontent-cdg2-1.cdninstagram.com/vp/a49fe85b909bf03ade6d2acc2ea1b972/5D74FD14/t51.2885-19/s320x320/55829774_316335699056098_213824611823910912_n.jpg?_nc_ht=scontent-cdg2-1.cdninstagram.com,,[],['False'],[],[],[],[],[],0,0,rafaelnadal,BqmqbmCAn_q,5c67355ab5d85c3e0ada4656,[],0.0,[]
1469,1469,0.0,0.4494364165239821,0.0,0,1.176437524958449e-06,0.005993606819392648,0.0,9,45,0,0,0,1,1,0.0,impersonator,0,0,0,0,3,7657290137,--,ramafarc,Rafael,https://instagram.fctg1-2.fna.fbcdn.net/vp/3b06abce33314ac68f54a1283ea1dde4/5D5480F1/t51.2885-19/44884218_345707102882519_2446069589734326272_n.jpg?_nc_ht=instagram.fctg1-2.fna.fbcdn.net,,"['False', 'False']","['False', 'False']","['2018-11-26 20:50:46', '2018-11-26 20:52:33']","['17982070678092920', '17914138624248602']","['BqpsJ_zgPMY', 'BqmqbmCAn_q']","['rafaelnadal', 'rafaelnadal']","['Eres un crak y me gustaría conocerte tengo un hijo de 7 años que sueña con ser como tú pero rafa Nadal solo hay uno', 'A disfrutar']",2,2,rafaelnadal,BqpsJ_zgPMY,5c66e68fb5d85c3ba6342300,"['2018-11-26 17:11:53', '2018-11-25 12:56:42']",64042.0,"['13133.0', '114951.0']"
1469,1469,0.0,0.4494364165239821,0.0,0,1.176437524958449e-06,0.005993606819392648,0.0,9,45,0,0,0,1,1,0.0,impersonator,0,0,0,0,3,7657290137,--,ramafarc,Rafael,https://instagram.fctg1-2.fna.fbcdn.net/vp/3b06abce33314ac68f54a1283ea1dde4/5D5480F1/t51.2885-19/44884218_345707102882519_2446069589734326272_n.jpg?_nc_ht=instagram.fctg1-2.fna.fbcdn.net,,"['False', 'False']","['False', 'False']","['2018-11-26 20:50:46', '2018-11-26 20:52:33']","['17982070678092920', '17914138624248602']","['BqpsJ_zgPMY', 'BqmqbmCAn_q']","['rafaelnadal', 'rafaelnadal']","['Eres un crak y me gustaría conocerte tengo un hijo de 7 años que sueña con ser como tú pero rafa Nadal solo hay uno', 'A disfrutar']",2,2,rafaelnadal,BqmqbmCAn_q,5c673009b5d85c3e0ad9f6d7,"['2018-11-26 17:11:53', '2018-11-25 12:56:42']",64042.0,"['13133.0', '114951.0']"
1473,1473,0.1707761131901165,0.4494364165239821,0.0,0,8.104347394158203e-06,0.021310602024507196,6.658232904987016e-05,62,160,3,0,0,1,2,0.3333333333333333,impersonator,0,0,0,0,3,7697296306,--,rafaelenriquealiaga,Rafael AR,https://scontent-cdg2-1.cdninstagram.com/vp/309fd1985960aca8229875f5eebfbb81/5D372BE9/t51.2885-19/s320x320/31520927_2049692715245670_8786116779547033600_n.jpg?_nc_ht=scontent-cdg2-1.cdninstagram.com,,[],['False'],[],[],[],[],[],0,0,rafaelnadal,BqmqbmCAn_q,5c6733f6b5d85c3e0ada27d5,[],0.0,[]
1494,1494,0.4494364165239821,0.4494364165239821,0.0,0,2.1829451852006773e-05,0.030633990410229087,2.219410968329005e-05,167,230,1,1,0,1,2,0.3333333333333333,impersonator,0,0,0,0,3,7763673790,--,rafa_x.12,Rafa_x.12,https://scontent-cdg2-1.cdninstagram.com/vp/b20540572e1edb7d3d59490383fca79b/5D364AF5/t51.2885-19/s320x320/37110254_214255932561895_8879240578286485504_n.jpg?_nc_ht=scontent-cdg2-1.cdninstagram.com,V❤️💍🖇                                                     Tennis 🎾,[],['False'],[],[],[],[],[],0,0,rafaelnadal,BqpsJ_zgPMY,5c66d959b5d85c3ba6335cf2,[],0.0,[]
1569,1569,0.2605556710562624,0.5031026124151314,0.0,0,1.0849368285727915e-05,0.012253596164091636,8.87764387331602e-05,83,92,4,1,0,1,2,0.3333333333333333,impersonator,0,0,0,0,3,8066767093,--,mmm_nadal,Rafa Nadal’s Fan,https://scontent-cdg2-1.cdninstagram.com/vp/2a9a7934923938830e5fed1a64744971/5D5C3677/t51.2885-19/s320x320/45748407_508319519644879_1458250441916678144_n.jpg?_nc_ht=scontent-cdg2-1.cdninstagram.com,,[],['False'],[],[],[],[],[],0,0,rafaelnadal,BqpsJ_zgPMY,5c66def8b5d85c3ba633b274,[],0.0,[]
1763,1763,0.4494364165239821,0.4494364165239821,0.0,0,1.8300139277131427e-06,0.003596164091635589,2.219410968329005e-05,14,27,1,0,0,1,2,0.3333333333333333,impersonator,0,0,0,0,3,8532772709,--,rafawikl,rafa Wikl,https://scontent-sea1-1.cdninstagram.com/vp/0eee8e8f04a8ee111f2bb319d9d605ac/5D5480F1/t51.2885-19/44884218_345707102882519_2446069589734326272_n.jpg?_nc_ht=scontent-sea1-1.cdninstagram.com,,[],['False'],[],[],[],[],[],0,0,rafaelnadal,BqpsJ_zgPMY,5c66d783b5d85c3ba6334716,[],0.0,[]
1796,1796,0.0,0.7092972666062739,0.0,0,1.9607292082640813e-05,0.034629728289824184,0.0011097054841645027,150,260,50,0,0,1,1,0.0,impersonator,0,0,0,0,3,8599108646,--,new_life_alive_,A -N 😘 rafael nadal 🤩,-,"We are the champions🇩🇪🇪🇸                             somos los campeones🇩🇪🇪🇸
Kita adalah sang juara 🇩🇪🇪🇸",[],['False'],[],[],[],[],[],0,0,rafaelnadal,BqpsJ_zgPMY,5c66dcacb5d85c3ba63393ec,[],0.0,[]
1797,1797,0.2605556710562624,0.4494364165239821,0.0,0,1.803870871602955e-05,0.02663825253063399,0.00024413520651619058,138,200,11,0,0,1,2,0.3333333333333333,impersonator,0,0,0,0,3,8599222212,--,rafatennis07,Rafa,https://scontent-cdg2-1.cdninstagram.com/vp/a72d63cc6cea5d2a53dcd7e29a908703/5D5CD019/t51.2885-19/s320x320/46559670_2386650311570020_109855685654609920_n.jpg?_nc_ht=scontent-cdg2-1.cdninstagram.com,"#Tennis🎾, #fun😂,💪🔥",[],['False'],[],[],[],[],[],0,0,rafaelnadal,BqpsJ_zgPMY,5c66ebe6b5d85c3ba6347402,[],0.0,[]
1822,1822,0.4494364165239821,0.4494364165239821,0.0,0,1.9607292082640814e-06,0.003063399041022909,0.00017755287746632043,15,23,8,0,0,1,2,0.3333333333333333,impersonator,0,0,0,0,3,8653605597,--,gu.rafa,Rafa Gu,https://scontent-cdg2-1.cdninstagram.com/vp/1d939d3848f1ff9215443264d4dc7d2b/5D702A06/t51.2885-19/s320x320/42317911_709123266125122_1713590332177776640_n.jpg?_nc_ht=scontent-cdg2-1.cdninstagram.com,,[],"['False', 'False']",[],[],[],[],[],0,0,rafaelnadal,BqpsJ_zgPMY,5c66d7b0b5d85c3ba6334bcb,[],0.0,[]
1822,1822,0.4494364165239821,0.4494364165239821,0.0,0,1.9607292082640814e-06,0.003063399041022909,0.00017755287746632043,15,23,8,0,0,1,2,0.3333333333333333,impersonator,0,0,0,0,3,8653605597,--,gu.rafa,Rafa Gu,https://scontent-cdg2-1.cdninstagram.com/vp/1d939d3848f1ff9215443264d4dc7d2b/5D702A06/t51.2885-19/s320x320/42317911_709123266125122_1713590332177776640_n.jpg?_nc_ht=scontent-cdg2-1.cdninstagram.com,,[],"['False', 'False']",[],[],[],[],[],0,0,rafaelnadal,BqmqbmCAn_q,5c672d37b5d85c3e0ad9ca98,[],0.0,[]
1892,1892,0.4494364165239821,0.4494364165239821,0.0,0,0.0,0.0003995737879595098,0.0,0,3,0,1,0,1,2,0.3333333333333333,impersonator,0,0,0,0,3,8944198657,--,rafae1.7,Rafa,https://scontent-sjc3-1.cdninstagram.com/vp/a2aa72e3f0421b3edc6b58bc41a2bedc/5D5480F1/t51.2885-19/44884218_345707102882519_2446069589734326272_n.jpg?_nc_ht=scontent-sjc3-1.cdninstagram.com,,[],['False'],[],[],[],[],[],0,0,rafaelnadal,BqpsJ_zgPMY,5c66d757b5d85c3ba633432f,[],0.0,[]
1956,1956,0.4494364165239821,0.2605556710562624,0.0,0,1.0849368285727915e-05,0.029568460309003727,0.000754599729231862,83,222,34,1,0,1,2,0.3333333333333333,impersonator,0,0,0,0,3,9149619578,--,rafael_20_12,Rafael Ocdy,https://scontent-cdg2-1.cdninstagram.com/vp/9aa794bf7d812d484c472af71d818a93/5D42D115/t51.2885-19/s320x320/47586344_2284189931702370_5577438972897918976_n.jpg?_nc_ht=scontent-cdg2-1.cdninstagram.com,OI!!! BOM DIA!!!,[],['False'],[],[],[],[],[],0,0,rafaelnadal,BqpsJ_zgPMY,5c66e610b5d85c3ba6341917,[],0.0,[]
1969,1969,0.4494364165239821,0.2019930924979183,0.0,0,1.699298647162204e-05,0.06965903036760789,0.00028852342588277073,130,523,13,1,0,1,2,0.3333333333333333,impersonator,0,0,0,0,3,9171785383,--,rafa_rt94,Rafael Reyes Torres,https://scontent-cdg2-1.cdninstagram.com/vp/93a12ace89555533c0bb4cb9e73d12d4/5D5305F7/t51.2885-19/s320x320/43575714_1211566145685608_2625022855275872256_n.jpg?_nc_ht=scontent-cdg2-1.cdninstagram.com,,[],"['False', 'False']",[],[],[],[],[],0,0,rafaelnadal,BqpsJ_zgPMY,5c66e46eb5d85c3ba63406b2,[],0.0,[]
1969,1969,0.4494364165239821,0.2019930924979183,0.0,0,1.699298647162204e-05,0.06965903036760789,0.00028852342588277073,130,523,13,1,0,1,2,0.3333333333333333,impersonator,0,0,0,0,3,9171785383,--,rafa_rt94,Rafael Reyes Torres,https://scontent-cdg2-1.cdninstagram.com/vp/93a12ace89555533c0bb4cb9e73d12d4/5D5305F7/t51.2885-19/s320x320/43575714_1211566145685608_2625022855275872256_n.jpg?_nc_ht=scontent-cdg2-1.cdninstagram.com,,[],"['False', 'False']",[],[],[],[],[],0,0,rafaelnadal,BqmqbmCAn_q,5c672fc1b5d85c3e0ad9ef8e,[],0.0,[]
2041,2041,0.2605556710562624,0.4494364165239821,0.0,0,7.973632113607263e-06,0.014517847629195524,0.00044388219366580105,61,109,20,0,0,1,2,0.3333333333333333,impersonator,0,0,0,0,3,9276847622,--,rifinio_rafa,Rìfiño Rafa,https://scontent-cdg2-1.cdninstagram.com/vp/90ea0b7246850f3569dc8933870f181d/5D3A4EF8/t51.2885-19/s320x320/45580798_470924993435402_2571798495262408704_n.jpg?_nc_ht=scontent-cdg2-1.cdninstagram.com,A friend in need is friend indeed😎,[],['False'],[],[],[],[],[],0,0,rafaelnadal,BqpsJ_zgPMY,5c66d731b5d85c3ba6333fc6,[],0.0,[]
2089,2089,0.7092972666062739,0.4112070550676187,0.4112070550676187,0,4.575034819282857e-06,0.0010655301012253596,0.00013316465809974033,35,8,6,0,0,1,3,0.6666666666666667,impersonator,0,0,0,0,3,9392689243,--,frafanadal,Rafa Nadal FanPage,https://scontent-cdg2-1.cdninstagram.com/vp/5bb917ca6af827f31056aa0b6dcb28b1/5D52138A/t51.2885-19/s150x150/44622178_2113315292253865_1092754974204493824_n.jpg?_nc_ht=scontent-cdg2-1.cdninstagram.com,Fan Page for Rafa Nadal,[],['False'],[],[],[],[],[],0,0,rafaelnadal,BqpsJ_zgPMY,5c66d7aeb5d85c3ba6334b5c,[],0.0,[]
2154,2154,0.2019930924979183,0.4112070550676187,0.23773923857522397,0,6.927909869199754e-06,0.005194459243473628,4.43882193665801e-05,53,39,2,0,0,1,3,0.6666666666666667,impersonator,0,0,0,0,3,9546279541,--,federer_nadal_fedal,Roger Federer & Rafa Nadal,https://scontent-cdg2-1.cdninstagram.com/vp/b9e2491ad072a389f097d3f1c4630275/5D5A164C/t51.2885-19/s320x320/47267444_356247501834007_1311907329750335488_n.jpg?_nc_ht=scontent-cdg2-1.cdninstagram.com,"• Dedicated to the amazing Roger Federer & Rafael Nadal 🎾
• 37 combined grand slam titles 🏆",['False'],['False'],['2018-12-22 08:08:28'],['17983479628180159'],['BqpsJ_zgPMY'],['rafaelnadal'],['God that pumped me up! Bring on 2019! 🥰'],1,1,rafaelnadal,BqpsJ_zgPMY,5c66d6e4b5d85c3ba633392e,['2018-11-26 17:11:53'],2213795.0,['2213795.0']
2184,2184,0.2019930924979183,0.2019930924979183,0.5031026124151314,0,6.0129029053431825e-06,0.026238678742674482,0.00011097054841645026,46,197,5,0,0,1,3,0.6666666666666667,impersonator,0,0,0,0,3,9674694285,--,rafaell_nadall_fans1,Rafaell_nadall_fans1,https://scontent-cdg2-1.cdninstagram.com/vp/467b1696de713fcc1b5f6fd5c61b8712/5D3AD920/t51.2885-19/46425631_524207531426971_7060566492458254336_n.jpg?_nc_ht=scontent-cdg2-1.cdninstagram.com,I love rafael. @rafaelnadal,[],['False'],[],[],[],[],[],0,0,rafaelnadal,BqpsJ_zgPMY,5c66d6ebb5d85c3ba6333a19,[],0.0,[]
