,Unnamed: 0,username,name,bio,photo,nfollower,nfollowee,nmediacount,follower,followee,mediacount,private,verified,lcm,mcm,nmcm,class,class BGM 3,class GM 3,class kmeans 3,class spectral 3,class GM 4,owener_id,combined_owener_external_url,combined_username,combined_full_name,combined_profile_pic_url,combined_biography,combined_similarity_photo_comment,combined_similarity_photo_like,comment_created_at,comment_id,comment_post_shortcode,comment_shortcode_username,comment_text,comment_total,like_total,like_shortcode_username,like_post_shortcode,like_id,comment_post_date,comment_avg_age_sec,comment_age_sec
181,181,0.2150703257057708,0.3032160644503863,0.0787446034559451,1,0.005737747239783457,0.04302077783697389,0.015735623765452646,43895,323,709,0,0,1,4,1.0,impersonator,2,1,2,1,1,1129809957,--,leomessi_pix,Leo Messi,https://scontent-cdg2-1.cdninstagram.com/vp/70ef87364d5bb47fea22960068e126cb/5D757C76/t51.2885-19/s320x320/44738322_573540026424730_1070572911229665280_n.jpg?_nc_ht=scontent-cdg2-1.cdninstagram.com,"Messista👧🇮🇷
FanPage for
King Leo and His Beautiful Family
and The Best Club in the world BARCA
#VamosArgentina
Leo❤Anto💙Thiago💚Mateo💜Ciro💛",True,['True'],2018-11-27 10:49:27,17978726314138372,BqncHSlHsdK,leomessi,Boys 😍😍👑😂😂,2,1,['leomessi'],['BqxsjDuHnIM'],['5c4793d00c2acb1d2a278cc0'],2018-11-25 20:11:01,139160.0,139106.0
181,181,0.2150703257057708,0.3032160644503863,0.0787446034559451,1,0.005737747239783457,0.04302077783697389,0.015735623765452646,43895,323,709,0,0,1,4,1.0,impersonator,2,1,2,1,1,1129809957,--,leomessi_pix,Leo Messi,https://scontent-cdg2-1.cdninstagram.com/vp/70ef87364d5bb47fea22960068e126cb/5D757C76/t51.2885-19/s320x320/44738322_573540026424730_1070572911229665280_n.jpg?_nc_ht=scontent-cdg2-1.cdninstagram.com,"Messista👧🇮🇷
FanPage for
King Leo and His Beautiful Family
and The Best Club in the world BARCA
#VamosArgentina
Leo❤Anto💙Thiago💚Mateo💜Ciro💛",True,['True'],2018-11-27 10:48:59,17989885999101390,BqnbzL3nJdX,leomessi,what a Dancer 😂😂😍😍,2,1,['leomessi'],['BqxsjDuHnIM'],['5c4793d00c2acb1d2a278cc0'],2018-11-25 20:08:45,139160.0,139214.0
1669,1669,0.0,0.3032160644503863,0.1362763414390864,1,7.320055710852571e-06,0.005194459243473628,0.0003551057549326408,56,39,16,1,0,1,3,0.6666666666666667,impersonator,2,1,2,1,1,8304943417,--,mostafakaltechean2,Leo  Messi,https://scontent-cdg2-1.cdninstagram.com/vp/cda7448dd0f569537f7af7f5273f2fc7/5D703FAD/t51.2885-19/s320x320/51679247_326969854594124_1101947037441589248_n.jpg?_nc_ht=scontent-cdg2-1.cdninstagram.com,👑@leomessi👑      @fcbarcelona 🏆  @afaseleccion 🏆    @leomessi 24/6/ 1987🎂,True,['True'],2018-12-14 07:54:39,17911085548268193,BqnbzL3nJdX,leomessi,😍😍😍,1,1,['leomessi'],['BqxsjDuHnIM'],['5c47a97b0c2acb1d2a28da4a'],2018-11-25 20:08:45,1597554.0,1597554.0
1831,1831,0.0,0.3032160644503863,0.0,1,2.535876442688212e-05,0.060202450719232824,0.0010653172647979226,194,452,48,0,0,1,2,0.3333333333333333,impersonator,2,1,2,1,1,8674871764,--,ma.hmoud7193,Leo Messi,https://scontent-cdg2-1.cdninstagram.com/vp/7db69d0b3973fa6bd59457587f58f880/5D744979/t51.2885-19/s320x320/43080342_415253202342322_6253068441301811200_n.jpg?_nc_ht=scontent-cdg2-1.cdninstagram.com,اللهم أجعل صلاتي جنة حياااتي🙏❤,True,['True'],2018-12-04 03:19:55,17973714037163030,BqxsjDuHnIM,leomessi,😘😘😘😘😘@leomessi,15,1,['leomessi'],['BqxsjDuHnIM'],['5c47a8b80c2acb1d2a28c6a4'],2018-11-29 19:49:04,54272.933333333334,372651.0
1831,1831,0.0,0.3032160644503863,0.0,1,2.535876442688212e-05,0.060202450719232824,0.0010653172647979226,194,452,48,0,0,1,2,0.3333333333333333,impersonator,2,1,2,1,1,8674871764,--,ma.hmoud7193,Leo Messi,https://scontent-cdg2-1.cdninstagram.com/vp/7db69d0b3973fa6bd59457587f58f880/5D744979/t51.2885-19/s320x320/43080342_415253202342322_6253068441301811200_n.jpg?_nc_ht=scontent-cdg2-1.cdninstagram.com,اللهم أجعل صلاتي جنة حياااتي🙏❤,True,['True'],2018-11-29 19:35:18,17972034343161578,BqxgsuYnITA,leomessi,@leomessi 😍😍😍😍😍😍😍💞💞💞💞💞💞💞💙💙💙💙💙💙💙💙😙😙😙😙😙😙😙😙😙,15,1,['leomessi'],['BqxsjDuHnIM'],['5c47a8b80c2acb1d2a28c6a4'],2018-11-29 18:03:19,54272.933333333334,5519.0
1831,1831,0.0,0.3032160644503863,0.0,1,2.535876442688212e-05,0.060202450719232824,0.0010653172647979226,194,452,48,0,0,1,2,0.3333333333333333,impersonator,2,1,2,1,1,8674871764,--,ma.hmoud7193,Leo Messi,https://scontent-cdg2-1.cdninstagram.com/vp/7db69d0b3973fa6bd59457587f58f880/5D744979/t51.2885-19/s320x320/43080342_415253202342322_6253068441301811200_n.jpg?_nc_ht=scontent-cdg2-1.cdninstagram.com,اللهم أجعل صلاتي جنة حياااتي🙏❤,True,['True'],2018-11-29 19:34:44,17968617892169073,BqspT5xlC9J,leomessi,@leomessi 😘😘😘😘😘,15,1,['leomessi'],['BqxsjDuHnIM'],['5c47a8b80c2acb1d2a28c6a4'],2018-11-27 20:42:22,54272.933333333334,168742.0
1831,1831,0.0,0.3032160644503863,0.0,1,2.535876442688212e-05,0.060202450719232824,0.0010653172647979226,194,452,48,0,0,1,2,0.3333333333333333,impersonator,2,1,2,1,1,8674871764,--,ma.hmoud7193,Leo Messi,https://scontent-cdg2-1.cdninstagram.com/vp/7db69d0b3973fa6bd59457587f58f880/5D744979/t51.2885-19/s320x320/43080342_415253202342322_6253068441301811200_n.jpg?_nc_ht=scontent-cdg2-1.cdninstagram.com,اللهم أجعل صلاتي جنة حياااتي🙏❤,True,['True'],2018-11-25 23:57:37,17967480463174731,BqncHSlHsdK,leomessi,@leomessi 😍😍😍😍😍😍😍😍😍😍😍😍😍😍😍,15,1,['leomessi'],['BqxsjDuHnIM'],['5c47a8b80c2acb1d2a28c6a4'],2018-11-25 20:11:01,54272.933333333334,13596.0
1831,1831,0.0,0.3032160644503863,0.0,1,2.535876442688212e-05,0.060202450719232824,0.0010653172647979226,194,452,48,0,0,1,2,0.3333333333333333,impersonator,2,1,2,1,1,8674871764,--,ma.hmoud7193,Leo Messi,https://scontent-cdg2-1.cdninstagram.com/vp/7db69d0b3973fa6bd59457587f58f880/5D744979/t51.2885-19/s320x320/43080342_415253202342322_6253068441301811200_n.jpg?_nc_ht=scontent-cdg2-1.cdninstagram.com,اللهم أجعل صلاتي جنة حياااتي🙏❤,True,['True'],2018-11-25 23:55:49,17978872384186234,BqnbzL3nJdX,leomessi,@leomessi 😍😍😍😍,15,1,['leomessi'],['BqxsjDuHnIM'],['5c47a8b80c2acb1d2a28c6a4'],2018-11-25 20:08:45,54272.933333333334,13624.0
1831,1831,0.0,0.3032160644503863,0.0,1,2.535876442688212e-05,0.060202450719232824,0.0010653172647979226,194,452,48,0,0,1,2,0.3333333333333333,impersonator,2,1,2,1,1,8674871764,--,ma.hmoud7193,Leo Messi,https://scontent-cdg2-1.cdninstagram.com/vp/7db69d0b3973fa6bd59457587f58f880/5D744979/t51.2885-19/s320x320/43080342_415253202342322_6253068441301811200_n.jpg?_nc_ht=scontent-cdg2-1.cdninstagram.com,اللهم أجعل صلاتي جنة حياااتي🙏❤,True,['True'],2018-11-23 02:56:05,18001965451040323,Bqe7TlHFzct,leomessi,@leomessi 😘😘😘😘😘,15,1,['leomessi'],['BqxsjDuHnIM'],['5c47a8b80c2acb1d2a28c6a4'],2018-11-22 12:50:14,54272.933333333334,50751.0
1831,1831,0.0,0.3032160644503863,0.0,1,2.535876442688212e-05,0.060202450719232824,0.0010653172647979226,194,452,48,0,0,1,2,0.3333333333333333,impersonator,2,1,2,1,1,8674871764,--,ma.hmoud7193,Leo Messi,https://scontent-cdg2-1.cdninstagram.com/vp/7db69d0b3973fa6bd59457587f58f880/5D744979/t51.2885-19/s320x320/43080342_415253202342322_6253068441301811200_n.jpg?_nc_ht=scontent-cdg2-1.cdninstagram.com,اللهم أجعل صلاتي جنة حياااتي🙏❤,True,['True'],2018-11-20 20:04:07,17938032226221645,Bqaer0ml3Pn,leomessi,@leomessi 💞💞💞💞💞,15,1,['leomessi'],['BqxsjDuHnIM'],['5c47a8b80c2acb1d2a28c6a4'],2018-11-20 19:23:11,54272.933333333334,2456.0
1831,1831,0.0,0.3032160644503863,0.0,1,2.535876442688212e-05,0.060202450719232824,0.0010653172647979226,194,452,48,0,0,1,2,0.3333333333333333,impersonator,2,1,2,1,1,8674871764,--,ma.hmoud7193,Leo Messi,https://scontent-cdg2-1.cdninstagram.com/vp/7db69d0b3973fa6bd59457587f58f880/5D744979/t51.2885-19/s320x320/43080342_415253202342322_6253068441301811200_n.jpg?_nc_ht=scontent-cdg2-1.cdninstagram.com,اللهم أجعل صلاتي جنة حياااتي🙏❤,True,['True'],2018-11-20 20:04:21,17975877070135887,Bqaer0ml3Pn,leomessi,😘😘😘😘😘😘ليو عشقي الأبدي,15,1,['leomessi'],['BqxsjDuHnIM'],['5c47a8b80c2acb1d2a28c6a4'],2018-11-20 19:23:11,54272.933333333334,2470.0
1831,1831,0.0,0.3032160644503863,0.0,1,2.535876442688212e-05,0.060202450719232824,0.0010653172647979226,194,452,48,0,0,1,2,0.3333333333333333,impersonator,2,1,2,1,1,8674871764,--,ma.hmoud7193,Leo Messi,https://scontent-cdg2-1.cdninstagram.com/vp/7db69d0b3973fa6bd59457587f58f880/5D744979/t51.2885-19/s320x320/43080342_415253202342322_6253068441301811200_n.jpg?_nc_ht=scontent-cdg2-1.cdninstagram.com,اللهم أجعل صلاتي جنة حياااتي🙏❤,True,['True'],2018-11-20 20:03:58,17871356161290673,Bqaer0ml3Pn,leomessi,@leomessi 💙💙💙💙,15,1,['leomessi'],['BqxsjDuHnIM'],['5c47a8b80c2acb1d2a28c6a4'],2018-11-20 19:23:11,54272.933333333334,2447.0
1831,1831,0.0,0.3032160644503863,0.0,1,2.535876442688212e-05,0.060202450719232824,0.0010653172647979226,194,452,48,0,0,1,2,0.3333333333333333,impersonator,2,1,2,1,1,8674871764,--,ma.hmoud7193,Leo Messi,https://scontent-cdg2-1.cdninstagram.com/vp/7db69d0b3973fa6bd59457587f58f880/5D744979/t51.2885-19/s320x320/43080342_415253202342322_6253068441301811200_n.jpg?_nc_ht=scontent-cdg2-1.cdninstagram.com,اللهم أجعل صلاتي جنة حياااتي🙏❤,True,['True'],2018-11-20 20:02:36,17894688262278520,BqZyb7_FFbY,leomessi,@leomessi 😘😘😘😘,15,1,['leomessi'],['BqxsjDuHnIM'],['5c47a8b80c2acb1d2a28c6a4'],2018-11-20 12:56:32,54272.933333333334,25564.0
1831,1831,0.0,0.3032160644503863,0.0,1,2.535876442688212e-05,0.060202450719232824,0.0010653172647979226,194,452,48,0,0,1,2,0.3333333333333333,impersonator,2,1,2,1,1,8674871764,--,ma.hmoud7193,Leo Messi,https://scontent-cdg2-1.cdninstagram.com/vp/7db69d0b3973fa6bd59457587f58f880/5D744979/t51.2885-19/s320x320/43080342_415253202342322_6253068441301811200_n.jpg?_nc_ht=scontent-cdg2-1.cdninstagram.com,اللهم أجعل صلاتي جنة حياااتي🙏❤,True,['True'],2018-11-20 20:02:42,17927029420241548,BqZyb7_FFbY,leomessi,@leomessi 💙💙💙💙,15,1,['leomessi'],['BqxsjDuHnIM'],['5c47a8b80c2acb1d2a28c6a4'],2018-11-20 12:56:32,54272.933333333334,25570.0
1831,1831,0.0,0.3032160644503863,0.0,1,2.535876442688212e-05,0.060202450719232824,0.0010653172647979226,194,452,48,0,0,1,2,0.3333333333333333,impersonator,2,1,2,1,1,8674871764,--,ma.hmoud7193,Leo Messi,https://scontent-cdg2-1.cdninstagram.com/vp/7db69d0b3973fa6bd59457587f58f880/5D744979/t51.2885-19/s320x320/43080342_415253202342322_6253068441301811200_n.jpg?_nc_ht=scontent-cdg2-1.cdninstagram.com,اللهم أجعل صلاتي جنة حياااتي🙏❤,True,['True'],2018-11-20 20:02:48,17871162493295458,BqZyb7_FFbY,leomessi,😙💙😘😍,15,1,['leomessi'],['BqxsjDuHnIM'],['5c47a8b80c2acb1d2a28c6a4'],2018-11-20 12:56:32,54272.933333333334,25576.0
1831,1831,0.0,0.3032160644503863,0.0,1,2.535876442688212e-05,0.060202450719232824,0.0010653172647979226,194,452,48,0,0,1,2,0.3333333333333333,impersonator,2,1,2,1,1,8674871764,--,ma.hmoud7193,Leo Messi,https://scontent-cdg2-1.cdninstagram.com/vp/7db69d0b3973fa6bd59457587f58f880/5D744979/t51.2885-19/s320x320/43080342_415253202342322_6253068441301811200_n.jpg?_nc_ht=scontent-cdg2-1.cdninstagram.com,اللهم أجعل صلاتي جنة حياااتي🙏❤,True,['True'],2018-11-20 20:03:02,18001430998033712,BqZyb7_FFbY,leomessi,@leomessi 😍😍😍😍,15,1,['leomessi'],['BqxsjDuHnIM'],['5c47a8b80c2acb1d2a28c6a4'],2018-11-20 12:56:32,54272.933333333334,25590.0
1831,1831,0.0,0.3032160644503863,0.0,1,2.535876442688212e-05,0.060202450719232824,0.0010653172647979226,194,452,48,0,0,1,2,0.3333333333333333,impersonator,2,1,2,1,1,8674871764,--,ma.hmoud7193,Leo Messi,https://scontent-cdg2-1.cdninstagram.com/vp/7db69d0b3973fa6bd59457587f58f880/5D744979/t51.2885-19/s320x320/43080342_415253202342322_6253068441301811200_n.jpg?_nc_ht=scontent-cdg2-1.cdninstagram.com,اللهم أجعل صلاتي جنة حياااتي🙏❤,True,['True'],2018-11-18 00:59:57,17870244223289869,BqSLFVBFLfq,leomessi,@leomessi 😘😘😘😘😘😘😘😘😘😘😘😘😘😘😘😘😘😘😘😘😘,15,1,['leomessi'],['BqxsjDuHnIM'],['5c47a8b80c2acb1d2a28c6a4'],2018-11-17 13:57:59,54272.933333333334,39718.0
1831,1831,0.0,0.3032160644503863,0.0,1,2.535876442688212e-05,0.060202450719232824,0.0010653172647979226,194,452,48,0,0,1,2,0.3333333333333333,impersonator,2,1,2,1,1,8674871764,--,ma.hmoud7193,Leo Messi,https://scontent-cdg2-1.cdninstagram.com/vp/7db69d0b3973fa6bd59457587f58f880/5D744979/t51.2885-19/s320x320/43080342_415253202342322_6253068441301811200_n.jpg?_nc_ht=scontent-cdg2-1.cdninstagram.com,اللهم أجعل صلاتي جنة حياااتي🙏❤,True,['True'],2018-11-18 01:01:39,17926873822239661,BqSLFVBFLfq,leomessi,@leomessi 😙😙😙,15,1,['leomessi'],['BqxsjDuHnIM'],['5c47a8b80c2acb1d2a28c6a4'],2018-11-17 13:57:59,54272.933333333334,39820.0
1955,1955,0.3032160644503863,0.3032160644503863,0.037900048683374266,1,2.0914444888150198e-06,0.010255727224294086,0.00017755287746632043,16,77,8,1,0,1,4,1.0,impersonator,2,1,2,1,1,9147796724,--,messi_leosleo,LEOS_MESSI,https://scontent-cdg2-1.cdninstagram.com/vp/54411541a936a95092ee1beb97c864df/5D5116E4/t51.2885-19/s320x320/49907329_233605227410703_2451587278384922624_n.jpg?_nc_ht=scontent-cdg2-1.cdninstagram.com,"My heart is messi❤
I love to chat with new friends
Love to play video games
Football is my drug😆
Dont hate me for a silly mistakes guys...😅",True,['True'],2018-11-23 04:28:56,17912702245252296,Bqe7TlHFzct,leomessi,Messi u always king👑👑👑,4,1,['leomessi'],['BqxsjDuHnIM'],['5c479b8b0c2acb1d2a27ff90'],2018-11-22 12:50:14,23111.25,56322.0
1955,1955,0.3032160644503863,0.3032160644503863,0.037900048683374266,1,2.0914444888150198e-06,0.010255727224294086,0.00017755287746632043,16,77,8,1,0,1,4,1.0,impersonator,2,1,2,1,1,9147796724,--,messi_leosleo,LEOS_MESSI,https://scontent-cdg2-1.cdninstagram.com/vp/54411541a936a95092ee1beb97c864df/5D5116E4/t51.2885-19/s320x320/49907329_233605227410703_2451587278384922624_n.jpg?_nc_ht=scontent-cdg2-1.cdninstagram.com,"My heart is messi❤
I love to chat with new friends
Love to play video games
Football is my drug😆
Dont hate me for a silly mistakes guys...😅",True,['True'],2018-11-21 02:32:46,17871345064290442,Bqaer0ml3Pn,leomessi,👍👍👍super messi.I also support with u.......,4,1,['leomessi'],['BqxsjDuHnIM'],['5c479b8b0c2acb1d2a27ff90'],2018-11-20 19:23:11,23111.25,25775.0
1955,1955,0.3032160644503863,0.3032160644503863,0.037900048683374266,1,2.0914444888150198e-06,0.010255727224294086,0.00017755287746632043,16,77,8,1,0,1,4,1.0,impersonator,2,1,2,1,1,9147796724,--,messi_leosleo,LEOS_MESSI,https://scontent-cdg2-1.cdninstagram.com/vp/54411541a936a95092ee1beb97c864df/5D5116E4/t51.2885-19/s320x320/49907329_233605227410703_2451587278384922624_n.jpg?_nc_ht=scontent-cdg2-1.cdninstagram.com,"My heart is messi❤
I love to chat with new friends
Love to play video games
Football is my drug😆
Dont hate me for a silly mistakes guys...😅",True,['True'],2018-11-20 14:20:00,17884552738284444,BqZyb7_FFbY,leomessi,Nice messi,4,1,['leomessi'],['BqxsjDuHnIM'],['5c479b8b0c2acb1d2a27ff90'],2018-11-20 12:56:32,23111.25,5008.0
1955,1955,0.3032160644503863,0.3032160644503863,0.037900048683374266,1,2.0914444888150198e-06,0.010255727224294086,0.00017755287746632043,16,77,8,1,0,1,4,1.0,impersonator,2,1,2,1,1,9147796724,--,messi_leosleo,LEOS_MESSI,https://scontent-cdg2-1.cdninstagram.com/vp/54411541a936a95092ee1beb97c864df/5D5116E4/t51.2885-19/s320x320/49907329_233605227410703_2451587278384922624_n.jpg?_nc_ht=scontent-cdg2-1.cdninstagram.com,"My heart is messi❤
I love to chat with new friends
Love to play video games
Football is my drug😆
Dont hate me for a silly mistakes guys...😅",True,['True'],2018-11-17 15:26:59,17976264034188733,BqSLFVBFLfq,leomessi,Messi son like messi,4,1,['leomessi'],['BqxsjDuHnIM'],['5c479b8b0c2acb1d2a27ff90'],2018-11-17 13:57:59,23111.25,5340.0
