,Unnamed: 0,username,name,bio,photo,nfollower,nfollowee,nmediacount,follower,followee,mediacount,private,verified,lcm,mcm,nmcm,class,class BGM 3,class GM 3,class kmeans 3,class spectral 3,class GM 4,owener_id,combined_owener_external_url,combined_username,combined_full_name,combined_profile_pic_url,combined_biography,combined_similarity_photo_comment,combined_similarity_photo_like,comment_created_at,comment_id,comment_post_shortcode,comment_shortcode_username,comment_text,comment_total,like_total,like_shortcode_username,like_post_shortcode,like_id,comment_post_date,comment_avg_age_sec,comment_age_sec
143,143,0.0,0.4826796606496646,0.4826796606496646,1,7.071696677805787e-05,0.0002663825253063399,0.05002552322613578,541,2,2254,1,0,1,3,0.6666666666666667,impersonator,2,1,2,1,1,650681343,--,adele201030,President Donald J. Trump,https://scontent-cdg2-1.cdninstagram.com/vp/e2576913157f1df5160bd2f6acb6bedd/5D38D4F4/t51.2885-19/s320x320/25024147_138193690215907_4844733598198136832_n.jpg?_nc_ht=scontent-cdg2-1.cdninstagram.com,45th President of the United States,True,"['True', 'True', 'True', 'True', 'True']",2018-10-28 18:24:15,17950550107197545,Bpe4fLZApVQ,realdonaldtrump,"I'M WITH YOU, I WILL FIGHT FOR YOU, AND I WILL WIN FOR YOU President Trump 👏",42,5,"['realdonaldtrump', 'realdonaldtrump', 'realdonaldtrump', 'realdonaldtrump', 'realdonaldtrump']","['Bpe4fLZApVQ', 'BpaEwYvgdDl', 'BpaEJqrA2Cn', 'BpZ6MWbAyfF', 'BpZqV_cAe68']","['5be49b2b0c2acb7ef447fbf4', '5be4e1800c2acb0394e8b05f', '5be565e60c2acb0394eaf976', '5be5aa170c2acb0394ebe20f', '5be65fda0c2acb18377271a5']",2018-10-28 15:54:13,17432.35714285714,9002.0
143,143,0.0,0.4826796606496646,0.4826796606496646,1,7.071696677805787e-05,0.0002663825253063399,0.05002552322613578,541,2,2254,1,0,1,3,0.6666666666666667,impersonator,2,1,2,1,1,650681343,--,adele201030,President Donald J. Trump,https://scontent-cdg2-1.cdninstagram.com/vp/e2576913157f1df5160bd2f6acb6bedd/5D38D4F4/t51.2885-19/s320x320/25024147_138193690215907_4844733598198136832_n.jpg?_nc_ht=scontent-cdg2-1.cdninstagram.com,45th President of the United States,True,"['True', 'True', 'True', 'True', 'True']",2018-10-28 09:07:46,17875085521303683,BpdlRGFguxL,realdonaldtrump,It doesn't get better than President Trump! TRUMP 2020 for sure! ✌✌,42,5,"['realdonaldtrump', 'realdonaldtrump', 'realdonaldtrump', 'realdonaldtrump', 'realdonaldtrump']","['Bpe4fLZApVQ', 'BpaEwYvgdDl', 'BpaEJqrA2Cn', 'BpZ6MWbAyfF', 'BpZqV_cAe68']","['5be49b2b0c2acb7ef447fbf4', '5be4e1800c2acb0394e8b05f', '5be565e60c2acb0394eaf976', '5be5aa170c2acb0394ebe20f', '5be65fda0c2acb18377271a5']",2018-10-28 03:47:01,17432.35714285714,19245.0
143,143,0.0,0.4826796606496646,0.4826796606496646,1,7.071696677805787e-05,0.0002663825253063399,0.05002552322613578,541,2,2254,1,0,1,3,0.6666666666666667,impersonator,2,1,2,1,1,650681343,--,adele201030,President Donald J. Trump,https://scontent-cdg2-1.cdninstagram.com/vp/e2576913157f1df5160bd2f6acb6bedd/5D38D4F4/t51.2885-19/s320x320/25024147_138193690215907_4844733598198136832_n.jpg?_nc_ht=scontent-cdg2-1.cdninstagram.com,45th President of the United States,True,"['True', 'True', 'True', 'True', 'True']",2018-10-27 23:32:38,17903619787246997,Bpc-knZA7xi,realdonaldtrump,keeping our country safer 🇺🇸🇺🇸,42,5,"['realdonaldtrump', 'realdonaldtrump', 'realdonaldtrump', 'realdonaldtrump', 'realdonaldtrump']","['Bpe4fLZApVQ', 'BpaEwYvgdDl', 'BpaEJqrA2Cn', 'BpZ6MWbAyfF', 'BpZqV_cAe68']","['5be49b2b0c2acb7ef447fbf4', '5be4e1800c2acb0394e8b05f', '5be565e60c2acb0394eaf976', '5be5aa170c2acb0394ebe20f', '5be65fda0c2acb18377271a5']",2018-10-27 22:08:54,17432.35714285714,5024.0
143,143,0.0,0.4826796606496646,0.4826796606496646,1,7.071696677805787e-05,0.0002663825253063399,0.05002552322613578,541,2,2254,1,0,1,3,0.6666666666666667,impersonator,2,1,2,1,1,650681343,--,adele201030,President Donald J. Trump,https://scontent-cdg2-1.cdninstagram.com/vp/e2576913157f1df5160bd2f6acb6bedd/5D38D4F4/t51.2885-19/s320x320/25024147_138193690215907_4844733598198136832_n.jpg?_nc_ht=scontent-cdg2-1.cdninstagram.com,45th President of the United States,True,"['True', 'True', 'True', 'True', 'True']",2018-10-27 09:58:42,17875459330284192,Bpatah5gJg8,realdonaldtrump,Wonderful and amazing and beautiful 🇺🇸🇺🇸😍😍😍,42,5,"['realdonaldtrump', 'realdonaldtrump', 'realdonaldtrump', 'realdonaldtrump', 'realdonaldtrump']","['Bpe4fLZApVQ', 'BpaEwYvgdDl', 'BpaEJqrA2Cn', 'BpZ6MWbAyfF', 'BpZqV_cAe68']","['5be49b2b0c2acb7ef447fbf4', '5be4e1800c2acb0394e8b05f', '5be565e60c2acb0394eaf976', '5be5aa170c2acb0394ebe20f', '5be65fda0c2acb18377271a5']",2018-10-27 01:00:30,17432.35714285714,32292.0
143,143,0.0,0.4826796606496646,0.4826796606496646,1,7.071696677805787e-05,0.0002663825253063399,0.05002552322613578,541,2,2254,1,0,1,3,0.6666666666666667,impersonator,2,1,2,1,1,650681343,--,adele201030,President Donald J. Trump,https://scontent-cdg2-1.cdninstagram.com/vp/e2576913157f1df5160bd2f6acb6bedd/5D38D4F4/t51.2885-19/s320x320/25024147_138193690215907_4844733598198136832_n.jpg?_nc_ht=scontent-cdg2-1.cdninstagram.com,45th President of the United States,True,"['True', 'True', 'True', 'True', 'True']",2018-10-26 21:10:20,17985049159078418,BpaEwYvgdDl,realdonaldtrump,"If you don't have borders, you don't have a COUNTRY!Bravo President 🇺🇸🇺🇸🇺🇸",42,5,"['realdonaldtrump', 'realdonaldtrump', 'realdonaldtrump', 'realdonaldtrump', 'realdonaldtrump']","['Bpe4fLZApVQ', 'BpaEwYvgdDl', 'BpaEJqrA2Cn', 'BpZ6MWbAyfF', 'BpZqV_cAe68']","['5be49b2b0c2acb7ef447fbf4', '5be4e1800c2acb0394e8b05f', '5be565e60c2acb0394eaf976', '5be5aa170c2acb0394ebe20f', '5be65fda0c2acb18377271a5']",2018-10-26 19:05:13,17432.35714285714,7507.0
143,143,0.0,0.4826796606496646,0.4826796606496646,1,7.071696677805787e-05,0.0002663825253063399,0.05002552322613578,541,2,2254,1,0,1,3,0.6666666666666667,impersonator,2,1,2,1,1,650681343,--,adele201030,President Donald J. Trump,https://scontent-cdg2-1.cdninstagram.com/vp/e2576913157f1df5160bd2f6acb6bedd/5D38D4F4/t51.2885-19/s320x320/25024147_138193690215907_4844733598198136832_n.jpg?_nc_ht=scontent-cdg2-1.cdninstagram.com,45th President of the United States,True,"['True', 'True', 'True', 'True', 'True']",2018-10-26 21:10:55,17993340871037051,BpaEJqrA2Cn,realdonaldtrump,"""We're one country and really one family and we salute one great and beautiful American flag. We love that flag Bravo Mr. President God bless USA #MAGA #Trump2020 🌹🌸🌸✌🇺🇸🇺🇸🇺🇸",42,5,"['realdonaldtrump', 'realdonaldtrump', 'realdonaldtrump', 'realdonaldtrump', 'realdonaldtrump']","['Bpe4fLZApVQ', 'BpaEwYvgdDl', 'BpaEJqrA2Cn', 'BpZ6MWbAyfF', 'BpZqV_cAe68']","['5be49b2b0c2acb7ef447fbf4', '5be4e1800c2acb0394e8b05f', '5be565e60c2acb0394eaf976', '5be5aa170c2acb0394ebe20f', '5be65fda0c2acb18377271a5']",2018-10-26 19:01:08,17432.35714285714,7787.0
143,143,0.0,0.4826796606496646,0.4826796606496646,1,7.071696677805787e-05,0.0002663825253063399,0.05002552322613578,541,2,2254,1,0,1,3,0.6666666666666667,impersonator,2,1,2,1,1,650681343,--,adele201030,President Donald J. Trump,https://scontent-cdg2-1.cdninstagram.com/vp/e2576913157f1df5160bd2f6acb6bedd/5D38D4F4/t51.2885-19/s320x320/25024147_138193690215907_4844733598198136832_n.jpg?_nc_ht=scontent-cdg2-1.cdninstagram.com,45th President of the United States,True,"['True', 'True', 'True', 'True', 'True']",2018-10-26 21:11:35,17862468697295881,BpaC3b8gaOb,realdonaldtrump,It doesn't get better than President Trump!TRUMP 2020 for sure! ✌✌🇺🇸🇺🇸🇺🇸🇺🇸,42,5,"['realdonaldtrump', 'realdonaldtrump', 'realdonaldtrump', 'realdonaldtrump', 'realdonaldtrump']","['Bpe4fLZApVQ', 'BpaEwYvgdDl', 'BpaEJqrA2Cn', 'BpZ6MWbAyfF', 'BpZqV_cAe68']","['5be49b2b0c2acb7ef447fbf4', '5be4e1800c2acb0394e8b05f', '5be565e60c2acb0394eaf976', '5be5aa170c2acb0394ebe20f', '5be65fda0c2acb18377271a5']",2018-10-26 18:50:52,17432.35714285714,8443.0
143,143,0.0,0.4826796606496646,0.4826796606496646,1,7.071696677805787e-05,0.0002663825253063399,0.05002552322613578,541,2,2254,1,0,1,3,0.6666666666666667,impersonator,2,1,2,1,1,650681343,--,adele201030,President Donald J. Trump,https://scontent-cdg2-1.cdninstagram.com/vp/e2576913157f1df5160bd2f6acb6bedd/5D38D4F4/t51.2885-19/s320x320/25024147_138193690215907_4844733598198136832_n.jpg?_nc_ht=scontent-cdg2-1.cdninstagram.com,45th President of the United States,True,"['True', 'True', 'True', 'True', 'True']",2018-10-26 21:12:28,17957114224168500,BpZ6MWbAyfF,realdonaldtrump,The great leader is proud that you are an intelligent and experienced politician 👍🌹🌹🌹🇺🇸😙,42,5,"['realdonaldtrump', 'realdonaldtrump', 'realdonaldtrump', 'realdonaldtrump', 'realdonaldtrump']","['Bpe4fLZApVQ', 'BpaEwYvgdDl', 'BpaEJqrA2Cn', 'BpZ6MWbAyfF', 'BpZqV_cAe68']","['5be49b2b0c2acb7ef447fbf4', '5be4e1800c2acb0394e8b05f', '5be565e60c2acb0394eaf976', '5be5aa170c2acb0394ebe20f', '5be65fda0c2acb18377271a5']",2018-10-26 17:33:57,17432.35714285714,13111.0
143,143,0.0,0.4826796606496646,0.4826796606496646,1,7.071696677805787e-05,0.0002663825253063399,0.05002552322613578,541,2,2254,1,0,1,3,0.6666666666666667,impersonator,2,1,2,1,1,650681343,--,adele201030,President Donald J. Trump,https://scontent-cdg2-1.cdninstagram.com/vp/e2576913157f1df5160bd2f6acb6bedd/5D38D4F4/t51.2885-19/s320x320/25024147_138193690215907_4844733598198136832_n.jpg?_nc_ht=scontent-cdg2-1.cdninstagram.com,45th President of the United States,True,"['True', 'True', 'True', 'True', 'True']",2018-10-26 15:17:14,17978658880114061,BpZqV_cAe68,realdonaldtrump,We will never forget the heroic soldiers who are always in our hearts everywhere and all the time of our prayers and prayers for them,42,5,"['realdonaldtrump', 'realdonaldtrump', 'realdonaldtrump', 'realdonaldtrump', 'realdonaldtrump']","['Bpe4fLZApVQ', 'BpaEwYvgdDl', 'BpaEJqrA2Cn', 'BpZ6MWbAyfF', 'BpZqV_cAe68']","['5be49b2b0c2acb7ef447fbf4', '5be4e1800c2acb0394e8b05f', '5be565e60c2acb0394eaf976', '5be5aa170c2acb0394ebe20f', '5be65fda0c2acb18377271a5']",2018-10-26 15:14:25,17432.35714285714,169.0
143,143,0.0,0.4826796606496646,0.4826796606496646,1,7.071696677805787e-05,0.0002663825253063399,0.05002552322613578,541,2,2254,1,0,1,3,0.6666666666666667,impersonator,2,1,2,1,1,650681343,--,adele201030,President Donald J. Trump,https://scontent-cdg2-1.cdninstagram.com/vp/e2576913157f1df5160bd2f6acb6bedd/5D38D4F4/t51.2885-19/s320x320/25024147_138193690215907_4844733598198136832_n.jpg?_nc_ht=scontent-cdg2-1.cdninstagram.com,45th President of the United States,True,"['True', 'True', 'True', 'True', 'True']",2018-10-26 15:17:58,17918399872237204,BpZnXgsAH4_,realdonaldtrump,Keep going good job 👏👏👏,42,5,"['realdonaldtrump', 'realdonaldtrump', 'realdonaldtrump', 'realdonaldtrump', 'realdonaldtrump']","['Bpe4fLZApVQ', 'BpaEwYvgdDl', 'BpaEJqrA2Cn', 'BpZ6MWbAyfF', 'BpZqV_cAe68']","['5be49b2b0c2acb7ef447fbf4', '5be4e1800c2acb0394e8b05f', '5be565e60c2acb0394eaf976', '5be5aa170c2acb0394ebe20f', '5be65fda0c2acb18377271a5']",2018-10-26 14:49:14,17432.35714285714,1724.0
143,143,0.0,0.4826796606496646,0.4826796606496646,1,7.071696677805787e-05,0.0002663825253063399,0.05002552322613578,541,2,2254,1,0,1,3,0.6666666666666667,impersonator,2,1,2,1,1,650681343,--,adele201030,President Donald J. Trump,https://scontent-cdg2-1.cdninstagram.com/vp/e2576913157f1df5160bd2f6acb6bedd/5D38D4F4/t51.2885-19/s320x320/25024147_138193690215907_4844733598198136832_n.jpg?_nc_ht=scontent-cdg2-1.cdninstagram.com,45th President of the United States,True,"['True', 'True', 'True', 'True', 'True']",2018-10-26 00:11:28,17993011957007735,BpYAVpSgmxz,realdonaldtrump,"More Americans are now employed than ever recorded before in our nation's history."" President Donald Trump 🇺🇸🇺🇸",42,5,"['realdonaldtrump', 'realdonaldtrump', 'realdonaldtrump', 'realdonaldtrump', 'realdonaldtrump']","['Bpe4fLZApVQ', 'BpaEwYvgdDl', 'BpaEJqrA2Cn', 'BpZ6MWbAyfF', 'BpZqV_cAe68']","['5be49b2b0c2acb7ef447fbf4', '5be4e1800c2acb0394e8b05f', '5be565e60c2acb0394eaf976', '5be5aa170c2acb0394ebe20f', '5be65fda0c2acb18377271a5']",2018-10-25 23:48:21,17432.35714285714,1387.0
143,143,0.0,0.4826796606496646,0.4826796606496646,1,7.071696677805787e-05,0.0002663825253063399,0.05002552322613578,541,2,2254,1,0,1,3,0.6666666666666667,impersonator,2,1,2,1,1,650681343,--,adele201030,President Donald J. Trump,https://scontent-cdg2-1.cdninstagram.com/vp/e2576913157f1df5160bd2f6acb6bedd/5D38D4F4/t51.2885-19/s320x320/25024147_138193690215907_4844733598198136832_n.jpg?_nc_ht=scontent-cdg2-1.cdninstagram.com,45th President of the United States,True,"['True', 'True', 'True', 'True', 'True']",2018-10-26 00:12:07,17991674821015604,BpXyXWlgcTv,realdonaldtrump,"I'M WITH YOU, I WILL FIGHT FOR YOU, AND I WILL WIN FOR YOU President Trump 🇺🇸👍🌟🌟🌟",42,5,"['realdonaldtrump', 'realdonaldtrump', 'realdonaldtrump', 'realdonaldtrump', 'realdonaldtrump']","['Bpe4fLZApVQ', 'BpaEwYvgdDl', 'BpaEJqrA2Cn', 'BpZ6MWbAyfF', 'BpZqV_cAe68']","['5be49b2b0c2acb7ef447fbf4', '5be4e1800c2acb0394e8b05f', '5be565e60c2acb0394eaf976', '5be5aa170c2acb0394ebe20f', '5be65fda0c2acb18377271a5']",2018-10-25 21:46:02,17432.35714285714,8765.0
143,143,0.0,0.4826796606496646,0.4826796606496646,1,7.071696677805787e-05,0.0002663825253063399,0.05002552322613578,541,2,2254,1,0,1,3,0.6666666666666667,impersonator,2,1,2,1,1,650681343,--,adele201030,President Donald J. Trump,https://scontent-cdg2-1.cdninstagram.com/vp/e2576913157f1df5160bd2f6acb6bedd/5D38D4F4/t51.2885-19/s320x320/25024147_138193690215907_4844733598198136832_n.jpg?_nc_ht=scontent-cdg2-1.cdninstagram.com,45th President of the United States,True,"['True', 'True', 'True', 'True', 'True']",2018-10-26 00:13:18,17963308063178411,BpXr3WWAznN,realdonaldtrump,God bless them 👍,42,5,"['realdonaldtrump', 'realdonaldtrump', 'realdonaldtrump', 'realdonaldtrump', 'realdonaldtrump']","['Bpe4fLZApVQ', 'BpaEwYvgdDl', 'BpaEJqrA2Cn', 'BpZ6MWbAyfF', 'BpZqV_cAe68']","['5be49b2b0c2acb7ef447fbf4', '5be4e1800c2acb0394e8b05f', '5be565e60c2acb0394eaf976', '5be5aa170c2acb0394ebe20f', '5be65fda0c2acb18377271a5']",2018-10-25 20:49:14,17432.35714285714,12244.0
143,143,0.0,0.4826796606496646,0.4826796606496646,1,7.071696677805787e-05,0.0002663825253063399,0.05002552322613578,541,2,2254,1,0,1,3,0.6666666666666667,impersonator,2,1,2,1,1,650681343,--,adele201030,President Donald J. Trump,https://scontent-cdg2-1.cdninstagram.com/vp/e2576913157f1df5160bd2f6acb6bedd/5D38D4F4/t51.2885-19/s320x320/25024147_138193690215907_4844733598198136832_n.jpg?_nc_ht=scontent-cdg2-1.cdninstagram.com,45th President of the United States,True,"['True', 'True', 'True', 'True', 'True']",2018-10-26 00:14:10,17966987035139281,BpXqlirA8in,realdonaldtrump,"America with President Trump will always win well, Mr. President, everyone loves you🇺🇸🇺🇸🌷🌷",42,5,"['realdonaldtrump', 'realdonaldtrump', 'realdonaldtrump', 'realdonaldtrump', 'realdonaldtrump']","['Bpe4fLZApVQ', 'BpaEwYvgdDl', 'BpaEJqrA2Cn', 'BpZ6MWbAyfF', 'BpZqV_cAe68']","['5be49b2b0c2acb7ef447fbf4', '5be4e1800c2acb0394e8b05f', '5be565e60c2acb0394eaf976', '5be5aa170c2acb0394ebe20f', '5be65fda0c2acb18377271a5']",2018-10-25 20:38:04,17432.35714285714,12966.0
143,143,0.0,0.4826796606496646,0.4826796606496646,1,7.071696677805787e-05,0.0002663825253063399,0.05002552322613578,541,2,2254,1,0,1,3,0.6666666666666667,impersonator,2,1,2,1,1,650681343,--,adele201030,President Donald J. Trump,https://scontent-cdg2-1.cdninstagram.com/vp/e2576913157f1df5160bd2f6acb6bedd/5D38D4F4/t51.2885-19/s320x320/25024147_138193690215907_4844733598198136832_n.jpg?_nc_ht=scontent-cdg2-1.cdninstagram.com,45th President of the United States,True,"['True', 'True', 'True', 'True', 'True']",2018-10-27 23:32:05,17963523109180388,Bpc_YSVgwen,realdonaldtrump,"To Paradise and the Blessings, and to meet him one day",42,5,"['realdonaldtrump', 'realdonaldtrump', 'realdonaldtrump', 'realdonaldtrump', 'realdonaldtrump']","['Bpe4fLZApVQ', 'BpaEwYvgdDl', 'BpaEJqrA2Cn', 'BpZ6MWbAyfF', 'BpZqV_cAe68']","['5be49b2b0c2acb7ef447fbf4', '5be4e1800c2acb0394e8b05f', '5be565e60c2acb0394eaf976', '5be5aa170c2acb0394ebe20f', '5be65fda0c2acb18377271a5']",2018-10-27 22:15:57,17432.35714285714,4568.0
143,143,0.0,0.4826796606496646,0.4826796606496646,1,7.071696677805787e-05,0.0002663825253063399,0.05002552322613578,541,2,2254,1,0,1,3,0.6666666666666667,impersonator,2,1,2,1,1,650681343,--,adele201030,President Donald J. Trump,https://scontent-cdg2-1.cdninstagram.com/vp/e2576913157f1df5160bd2f6acb6bedd/5D38D4F4/t51.2885-19/s320x320/25024147_138193690215907_4844733598198136832_n.jpg?_nc_ht=scontent-cdg2-1.cdninstagram.com,45th President of the United States,True,"['True', 'True', 'True', 'True', 'True']",2018-10-26 23:45:28,17993327536033751,BpaXXkUAAH6,realdonaldtrump,you are absolutely right Mr. President 👍👍🇺🇸🇺🇸,42,5,"['realdonaldtrump', 'realdonaldtrump', 'realdonaldtrump', 'realdonaldtrump', 'realdonaldtrump']","['Bpe4fLZApVQ', 'BpaEwYvgdDl', 'BpaEJqrA2Cn', 'BpZ6MWbAyfF', 'BpZqV_cAe68']","['5be49b2b0c2acb7ef447fbf4', '5be4e1800c2acb0394e8b05f', '5be565e60c2acb0394eaf976', '5be5aa170c2acb0394ebe20f', '5be65fda0c2acb18377271a5']",2018-10-26 21:47:51,17432.35714285714,7057.0
143,143,0.0,0.4826796606496646,0.4826796606496646,1,7.071696677805787e-05,0.0002663825253063399,0.05002552322613578,541,2,2254,1,0,1,3,0.6666666666666667,impersonator,2,1,2,1,1,650681343,--,adele201030,President Donald J. Trump,https://scontent-cdg2-1.cdninstagram.com/vp/e2576913157f1df5160bd2f6acb6bedd/5D38D4F4/t51.2885-19/s320x320/25024147_138193690215907_4844733598198136832_n.jpg?_nc_ht=scontent-cdg2-1.cdninstagram.com,45th President of the United States,True,"['True', 'True', 'True', 'True', 'True']",2018-10-25 11:14:10,17959882240166825,BpWAaKBgDyh,realdonaldtrump,proud of you Mr President 🇺🇸🇺🇸,42,5,"['realdonaldtrump', 'realdonaldtrump', 'realdonaldtrump', 'realdonaldtrump', 'realdonaldtrump']","['Bpe4fLZApVQ', 'BpaEwYvgdDl', 'BpaEJqrA2Cn', 'BpZ6MWbAyfF', 'BpZqV_cAe68']","['5be49b2b0c2acb7ef447fbf4', '5be4e1800c2acb0394e8b05f', '5be565e60c2acb0394eaf976', '5be5aa170c2acb0394ebe20f', '5be65fda0c2acb18377271a5']",2018-10-25 05:10:30,17432.35714285714,21820.0
143,143,0.0,0.4826796606496646,0.4826796606496646,1,7.071696677805787e-05,0.0002663825253063399,0.05002552322613578,541,2,2254,1,0,1,3,0.6666666666666667,impersonator,2,1,2,1,1,650681343,--,adele201030,President Donald J. Trump,https://scontent-cdg2-1.cdninstagram.com/vp/e2576913157f1df5160bd2f6acb6bedd/5D38D4F4/t51.2885-19/s320x320/25024147_138193690215907_4844733598198136832_n.jpg?_nc_ht=scontent-cdg2-1.cdninstagram.com,45th President of the United States,True,"['True', 'True', 'True', 'True', 'True']",2018-10-25 11:14:29,17894375701266175,BpV7mbnAQlT,realdonaldtrump,"Mr. President, you are doing a wonderful and amazing work that has continued, myth 👏👏",42,5,"['realdonaldtrump', 'realdonaldtrump', 'realdonaldtrump', 'realdonaldtrump', 'realdonaldtrump']","['Bpe4fLZApVQ', 'BpaEwYvgdDl', 'BpaEJqrA2Cn', 'BpZ6MWbAyfF', 'BpZqV_cAe68']","['5be49b2b0c2acb7ef447fbf4', '5be4e1800c2acb0394e8b05f', '5be565e60c2acb0394eaf976', '5be5aa170c2acb0394ebe20f', '5be65fda0c2acb18377271a5']",2018-10-25 04:28:31,17432.35714285714,24358.0
143,143,0.0,0.4826796606496646,0.4826796606496646,1,7.071696677805787e-05,0.0002663825253063399,0.05002552322613578,541,2,2254,1,0,1,3,0.6666666666666667,impersonator,2,1,2,1,1,650681343,--,adele201030,President Donald J. Trump,https://scontent-cdg2-1.cdninstagram.com/vp/e2576913157f1df5160bd2f6acb6bedd/5D38D4F4/t51.2885-19/s320x320/25024147_138193690215907_4844733598198136832_n.jpg?_nc_ht=scontent-cdg2-1.cdninstagram.com,45th President of the United States,True,"['True', 'True', 'True', 'True', 'True']",2018-10-25 11:14:49,17893734568262916,BpVwYU0g6F-,realdonaldtrump,America's economic surrender ended the day that I took office.President Donald Trump 👍👍,42,5,"['realdonaldtrump', 'realdonaldtrump', 'realdonaldtrump', 'realdonaldtrump', 'realdonaldtrump']","['Bpe4fLZApVQ', 'BpaEwYvgdDl', 'BpaEJqrA2Cn', 'BpZ6MWbAyfF', 'BpZqV_cAe68']","['5be49b2b0c2acb7ef447fbf4', '5be4e1800c2acb0394e8b05f', '5be565e60c2acb0394eaf976', '5be5aa170c2acb0394ebe20f', '5be65fda0c2acb18377271a5']",2018-10-25 02:51:11,17432.35714285714,30218.0
143,143,0.0,0.4826796606496646,0.4826796606496646,1,7.071696677805787e-05,0.0002663825253063399,0.05002552322613578,541,2,2254,1,0,1,3,0.6666666666666667,impersonator,2,1,2,1,1,650681343,--,adele201030,President Donald J. Trump,https://scontent-cdg2-1.cdninstagram.com/vp/e2576913157f1df5160bd2f6acb6bedd/5D38D4F4/t51.2885-19/s320x320/25024147_138193690215907_4844733598198136832_n.jpg?_nc_ht=scontent-cdg2-1.cdninstagram.com,45th President of the United States,True,"['True', 'True', 'True', 'True', 'True']",2018-10-25 11:15:17,17918587666233079,BpVrXHFABDH,realdonaldtrump,From victory to victory continued the wonderful work well done Mr. President and everyone loves you 💪💪🌟🌟🌟,42,5,"['realdonaldtrump', 'realdonaldtrump', 'realdonaldtrump', 'realdonaldtrump', 'realdonaldtrump']","['Bpe4fLZApVQ', 'BpaEwYvgdDl', 'BpaEJqrA2Cn', 'BpZ6MWbAyfF', 'BpZqV_cAe68']","['5be49b2b0c2acb7ef447fbf4', '5be4e1800c2acb0394e8b05f', '5be565e60c2acb0394eaf976', '5be5aa170c2acb0394ebe20f', '5be65fda0c2acb18377271a5']",2018-10-25 02:07:47,17432.35714285714,32850.0
143,143,0.0,0.4826796606496646,0.4826796606496646,1,7.071696677805787e-05,0.0002663825253063399,0.05002552322613578,541,2,2254,1,0,1,3,0.6666666666666667,impersonator,2,1,2,1,1,650681343,--,adele201030,President Donald J. Trump,https://scontent-cdg2-1.cdninstagram.com/vp/e2576913157f1df5160bd2f6acb6bedd/5D38D4F4/t51.2885-19/s320x320/25024147_138193690215907_4844733598198136832_n.jpg?_nc_ht=scontent-cdg2-1.cdninstagram.com,45th President of the United States,True,"['True', 'True', 'True', 'True', 'True']",2018-10-25 11:15:43,17965398166191816,BpVo89eAQjJ,realdonaldtrump,"Thank you, Mr. President, for working hard to preserve the safety of Americans and America first. Thank you from the heart 🇺🇸🇺🇸💪💪💪💪🌟",42,5,"['realdonaldtrump', 'realdonaldtrump', 'realdonaldtrump', 'realdonaldtrump', 'realdonaldtrump']","['Bpe4fLZApVQ', 'BpaEwYvgdDl', 'BpaEJqrA2Cn', 'BpZ6MWbAyfF', 'BpZqV_cAe68']","['5be49b2b0c2acb7ef447fbf4', '5be4e1800c2acb0394e8b05f', '5be565e60c2acb0394eaf976', '5be5aa170c2acb0394ebe20f', '5be65fda0c2acb18377271a5']",2018-10-25 01:45:18,17432.35714285714,34225.0
143,143,0.0,0.4826796606496646,0.4826796606496646,1,7.071696677805787e-05,0.0002663825253063399,0.05002552322613578,541,2,2254,1,0,1,3,0.6666666666666667,impersonator,2,1,2,1,1,650681343,--,adele201030,President Donald J. Trump,https://scontent-cdg2-1.cdninstagram.com/vp/e2576913157f1df5160bd2f6acb6bedd/5D38D4F4/t51.2885-19/s320x320/25024147_138193690215907_4844733598198136832_n.jpg?_nc_ht=scontent-cdg2-1.cdninstagram.com,45th President of the United States,True,"['True', 'True', 'True', 'True', 'True']",2018-11-18 06:57:12,17960184682198597,BqTkv80Fh0l,realdonaldtrump,God bless you Mr. President 🙏🇺🇸🇺🇸🇺🇸,42,5,"['realdonaldtrump', 'realdonaldtrump', 'realdonaldtrump', 'realdonaldtrump', 'realdonaldtrump']","['Bpe4fLZApVQ', 'BpaEwYvgdDl', 'BpaEJqrA2Cn', 'BpZ6MWbAyfF', 'BpZqV_cAe68']","['5be49b2b0c2acb7ef447fbf4', '5be4e1800c2acb0394e8b05f', '5be565e60c2acb0394eaf976', '5be5aa170c2acb0394ebe20f', '5be65fda0c2acb18377271a5']",2018-11-18 03:07:37,17432.35714285714,13775.0
143,143,0.0,0.4826796606496646,0.4826796606496646,1,7.071696677805787e-05,0.0002663825253063399,0.05002552322613578,541,2,2254,1,0,1,3,0.6666666666666667,impersonator,2,1,2,1,1,650681343,--,adele201030,President Donald J. Trump,https://scontent-cdg2-1.cdninstagram.com/vp/e2576913157f1df5160bd2f6acb6bedd/5D38D4F4/t51.2885-19/s320x320/25024147_138193690215907_4844733598198136832_n.jpg?_nc_ht=scontent-cdg2-1.cdninstagram.com,45th President of the United States,True,"['True', 'True', 'True', 'True', 'True']",2018-11-18 01:51:29,17978618344080207,BqTBtONFSJT,realdonaldtrump,Thank you President Trump for taking care of us!! May God bless you!! 🇺🇸🇺🇸,42,5,"['realdonaldtrump', 'realdonaldtrump', 'realdonaldtrump', 'realdonaldtrump', 'realdonaldtrump']","['Bpe4fLZApVQ', 'BpaEwYvgdDl', 'BpaEJqrA2Cn', 'BpZ6MWbAyfF', 'BpZqV_cAe68']","['5be49b2b0c2acb7ef447fbf4', '5be4e1800c2acb0394e8b05f', '5be565e60c2acb0394eaf976', '5be5aa170c2acb0394ebe20f', '5be65fda0c2acb18377271a5']",2018-11-17 21:55:17,17432.35714285714,14172.0
143,143,0.0,0.4826796606496646,0.4826796606496646,1,7.071696677805787e-05,0.0002663825253063399,0.05002552322613578,541,2,2254,1,0,1,3,0.6666666666666667,impersonator,2,1,2,1,1,650681343,--,adele201030,President Donald J. Trump,https://scontent-cdg2-1.cdninstagram.com/vp/e2576913157f1df5160bd2f6acb6bedd/5D38D4F4/t51.2885-19/s320x320/25024147_138193690215907_4844733598198136832_n.jpg?_nc_ht=scontent-cdg2-1.cdninstagram.com,45th President of the United States,True,"['True', 'True', 'True', 'True', 'True']",2018-10-14 23:40:38,17882342101278584,Bo7Em8OgX1Q,realdonaldtrump,You are accomplishing many of the services and promises promised and even much more and recovering a lot of stolen and exploited country funds from some countries of the world because of the foolish presidents who before you are the right president can not be repeated in American history 🇺🇸🇺🇸,42,5,"['realdonaldtrump', 'realdonaldtrump', 'realdonaldtrump', 'realdonaldtrump', 'realdonaldtrump']","['Bpe4fLZApVQ', 'BpaEwYvgdDl', 'BpaEJqrA2Cn', 'BpZ6MWbAyfF', 'BpZqV_cAe68']","['5be49b2b0c2acb7ef447fbf4', '5be4e1800c2acb0394e8b05f', '5be565e60c2acb0394eaf976', '5be5aa170c2acb0394ebe20f', '5be65fda0c2acb18377271a5']",2018-10-14 18:07:28,17432.35714285714,19990.0
143,143,0.0,0.4826796606496646,0.4826796606496646,1,7.071696677805787e-05,0.0002663825253063399,0.05002552322613578,541,2,2254,1,0,1,3,0.6666666666666667,impersonator,2,1,2,1,1,650681343,--,adele201030,President Donald J. Trump,https://scontent-cdg2-1.cdninstagram.com/vp/e2576913157f1df5160bd2f6acb6bedd/5D38D4F4/t51.2885-19/s320x320/25024147_138193690215907_4844733598198136832_n.jpg?_nc_ht=scontent-cdg2-1.cdninstagram.com,45th President of the United States,True,"['True', 'True', 'True', 'True', 'True']",2018-10-24 20:22:12,17977460509113246,BpU5EJZgmZO,realdonaldtrump,President Trump is the best for America and the people love him and with him and no matter how the media tried to distort his image and achievements is his achievements talk about him 😙😙🇺🇸🇺🇸🇺🇸👏,42,5,"['realdonaldtrump', 'realdonaldtrump', 'realdonaldtrump', 'realdonaldtrump', 'realdonaldtrump']","['Bpe4fLZApVQ', 'BpaEwYvgdDl', 'BpaEJqrA2Cn', 'BpZ6MWbAyfF', 'BpZqV_cAe68']","['5be49b2b0c2acb7ef447fbf4', '5be4e1800c2acb0394e8b05f', '5be565e60c2acb0394eaf976', '5be5aa170c2acb0394ebe20f', '5be65fda0c2acb18377271a5']",2018-10-24 18:47:56,17432.35714285714,5656.0
143,143,0.0,0.4826796606496646,0.4826796606496646,1,7.071696677805787e-05,0.0002663825253063399,0.05002552322613578,541,2,2254,1,0,1,3,0.6666666666666667,impersonator,2,1,2,1,1,650681343,--,adele201030,President Donald J. Trump,https://scontent-cdg2-1.cdninstagram.com/vp/e2576913157f1df5160bd2f6acb6bedd/5D38D4F4/t51.2885-19/s320x320/25024147_138193690215907_4844733598198136832_n.jpg?_nc_ht=scontent-cdg2-1.cdninstagram.com,45th President of the United States,True,"['True', 'True', 'True', 'True', 'True']",2018-10-14 07:37:51,17987964220048958,Bo47dhyATQC,realdonaldtrump,You are the best president of America God bless you Trump 😙😙🌷🌷,42,5,"['realdonaldtrump', 'realdonaldtrump', 'realdonaldtrump', 'realdonaldtrump', 'realdonaldtrump']","['Bpe4fLZApVQ', 'BpaEwYvgdDl', 'BpaEJqrA2Cn', 'BpZ6MWbAyfF', 'BpZqV_cAe68']","['5be49b2b0c2acb7ef447fbf4', '5be4e1800c2acb0394e8b05f', '5be565e60c2acb0394eaf976', '5be5aa170c2acb0394ebe20f', '5be65fda0c2acb18377271a5']",2018-10-13 22:09:04,17432.35714285714,34127.0
143,143,0.0,0.4826796606496646,0.4826796606496646,1,7.071696677805787e-05,0.0002663825253063399,0.05002552322613578,541,2,2254,1,0,1,3,0.6666666666666667,impersonator,2,1,2,1,1,650681343,--,adele201030,President Donald J. Trump,https://scontent-cdg2-1.cdninstagram.com/vp/e2576913157f1df5160bd2f6acb6bedd/5D38D4F4/t51.2885-19/s320x320/25024147_138193690215907_4844733598198136832_n.jpg?_nc_ht=scontent-cdg2-1.cdninstagram.com,45th President of the United States,True,"['True', 'True', 'True', 'True', 'True']",2018-10-14 17:19:43,17915599486225790,Bo64QFVgtzy,realdonaldtrump,Happy birthday 😍😍😙😙😙🎂🎈🎈🎈❤🌷,42,5,"['realdonaldtrump', 'realdonaldtrump', 'realdonaldtrump', 'realdonaldtrump', 'realdonaldtrump']","['Bpe4fLZApVQ', 'BpaEwYvgdDl', 'BpaEJqrA2Cn', 'BpZ6MWbAyfF', 'BpZqV_cAe68']","['5be49b2b0c2acb7ef447fbf4', '5be4e1800c2acb0394e8b05f', '5be565e60c2acb0394eaf976', '5be5aa170c2acb0394ebe20f', '5be65fda0c2acb18377271a5']",2018-10-14 16:19:30,17432.35714285714,3613.0
143,143,0.0,0.4826796606496646,0.4826796606496646,1,7.071696677805787e-05,0.0002663825253063399,0.05002552322613578,541,2,2254,1,0,1,3,0.6666666666666667,impersonator,2,1,2,1,1,650681343,--,adele201030,President Donald J. Trump,https://scontent-cdg2-1.cdninstagram.com/vp/e2576913157f1df5160bd2f6acb6bedd/5D38D4F4/t51.2885-19/s320x320/25024147_138193690215907_4844733598198136832_n.jpg?_nc_ht=scontent-cdg2-1.cdninstagram.com,45th President of the United States,True,"['True', 'True', 'True', 'True', 'True']",2018-10-14 07:36:26,17962451089132054,Bo5RIYeAyVr,realdonaldtrump,America's economic surrender ended the day that I took office.President Donald Trump 🇺🇸🇺🇸🇺🇸,42,5,"['realdonaldtrump', 'realdonaldtrump', 'realdonaldtrump', 'realdonaldtrump', 'realdonaldtrump']","['Bpe4fLZApVQ', 'BpaEwYvgdDl', 'BpaEJqrA2Cn', 'BpZ6MWbAyfF', 'BpZqV_cAe68']","['5be49b2b0c2acb7ef447fbf4', '5be4e1800c2acb0394e8b05f', '5be565e60c2acb0394eaf976', '5be5aa170c2acb0394ebe20f', '5be65fda0c2acb18377271a5']",2018-10-14 01:18:25,17432.35714285714,22681.0
143,143,0.0,0.4826796606496646,0.4826796606496646,1,7.071696677805787e-05,0.0002663825253063399,0.05002552322613578,541,2,2254,1,0,1,3,0.6666666666666667,impersonator,2,1,2,1,1,650681343,--,adele201030,President Donald J. Trump,https://scontent-cdg2-1.cdninstagram.com/vp/e2576913157f1df5160bd2f6acb6bedd/5D38D4F4/t51.2885-19/s320x320/25024147_138193690215907_4844733598198136832_n.jpg?_nc_ht=scontent-cdg2-1.cdninstagram.com,45th President of the United States,True,"['True', 'True', 'True', 'True', 'True']",2018-10-24 10:15:31,17990398423014479,BpSp6FYgV7Y,realdonaldtrump,"To Paradise and the Blessings, and to meet him one day 🙏🙏",42,5,"['realdonaldtrump', 'realdonaldtrump', 'realdonaldtrump', 'realdonaldtrump', 'realdonaldtrump']","['Bpe4fLZApVQ', 'BpaEwYvgdDl', 'BpaEJqrA2Cn', 'BpZ6MWbAyfF', 'BpZqV_cAe68']","['5be49b2b0c2acb7ef447fbf4', '5be4e1800c2acb0394e8b05f', '5be565e60c2acb0394eaf976', '5be5aa170c2acb0394ebe20f', '5be65fda0c2acb18377271a5']",2018-10-23 21:56:33,17432.35714285714,44338.0
143,143,0.0,0.4826796606496646,0.4826796606496646,1,7.071696677805787e-05,0.0002663825253063399,0.05002552322613578,541,2,2254,1,0,1,3,0.6666666666666667,impersonator,2,1,2,1,1,650681343,--,adele201030,President Donald J. Trump,https://scontent-cdg2-1.cdninstagram.com/vp/e2576913157f1df5160bd2f6acb6bedd/5D38D4F4/t51.2885-19/s320x320/25024147_138193690215907_4844733598198136832_n.jpg?_nc_ht=scontent-cdg2-1.cdninstagram.com,45th President of the United States,True,"['True', 'True', 'True', 'True', 'True']",2018-10-14 07:36:45,17974148296107153,Bo48MwggmpB,realdonaldtrump,"The USA/world"" shall cherish you for eternities to come. Long Lives Life & OA ""Gods Blessings dear President",42,5,"['realdonaldtrump', 'realdonaldtrump', 'realdonaldtrump', 'realdonaldtrump', 'realdonaldtrump']","['Bpe4fLZApVQ', 'BpaEwYvgdDl', 'BpaEJqrA2Cn', 'BpZ6MWbAyfF', 'BpZqV_cAe68']","['5be49b2b0c2acb7ef447fbf4', '5be4e1800c2acb0394e8b05f', '5be565e60c2acb0394eaf976', '5be5aa170c2acb0394ebe20f', '5be65fda0c2acb18377271a5']",2018-10-13 22:15:31,17432.35714285714,33674.0
143,143,0.0,0.4826796606496646,0.4826796606496646,1,7.071696677805787e-05,0.0002663825253063399,0.05002552322613578,541,2,2254,1,0,1,3,0.6666666666666667,impersonator,2,1,2,1,1,650681343,--,adele201030,President Donald J. Trump,https://scontent-cdg2-1.cdninstagram.com/vp/e2576913157f1df5160bd2f6acb6bedd/5D38D4F4/t51.2885-19/s320x320/25024147_138193690215907_4844733598198136832_n.jpg?_nc_ht=scontent-cdg2-1.cdninstagram.com,45th President of the United States,True,"['True', 'True', 'True', 'True', 'True']",2018-11-29 23:08:27,17983675447087029,BqxkcApl-Ep,realdonaldtrump,You are the best president of America God bless you Trump 🇺🇸🇺🇸,42,5,"['realdonaldtrump', 'realdonaldtrump', 'realdonaldtrump', 'realdonaldtrump', 'realdonaldtrump']","['Bpe4fLZApVQ', 'BpaEwYvgdDl', 'BpaEJqrA2Cn', 'BpZ6MWbAyfF', 'BpZqV_cAe68']","['5be49b2b0c2acb7ef447fbf4', '5be4e1800c2acb0394e8b05f', '5be565e60c2acb0394eaf976', '5be5aa170c2acb0394ebe20f', '5be65fda0c2acb18377271a5']",2018-11-29 18:36:45,17432.35714285714,16302.0
143,143,0.0,0.4826796606496646,0.4826796606496646,1,7.071696677805787e-05,0.0002663825253063399,0.05002552322613578,541,2,2254,1,0,1,3,0.6666666666666667,impersonator,2,1,2,1,1,650681343,--,adele201030,President Donald J. Trump,https://scontent-cdg2-1.cdninstagram.com/vp/e2576913157f1df5160bd2f6acb6bedd/5D38D4F4/t51.2885-19/s320x320/25024147_138193690215907_4844733598198136832_n.jpg?_nc_ht=scontent-cdg2-1.cdninstagram.com,45th President of the United States,True,"['True', 'True', 'True', 'True', 'True']",2018-11-29 23:10:38,17989518376128625,BqxHoGSFPbg,realdonaldtrump,My hero l love you Mr President keep up the fantastic work 🇺🇸🇺🇸🎄🎄,42,5,"['realdonaldtrump', 'realdonaldtrump', 'realdonaldtrump', 'realdonaldtrump', 'realdonaldtrump']","['Bpe4fLZApVQ', 'BpaEwYvgdDl', 'BpaEJqrA2Cn', 'BpZ6MWbAyfF', 'BpZqV_cAe68']","['5be49b2b0c2acb7ef447fbf4', '5be4e1800c2acb0394e8b05f', '5be565e60c2acb0394eaf976', '5be5aa170c2acb0394ebe20f', '5be65fda0c2acb18377271a5']",2018-11-29 14:24:32,17432.35714285714,31566.0
143,143,0.0,0.4826796606496646,0.4826796606496646,1,7.071696677805787e-05,0.0002663825253063399,0.05002552322613578,541,2,2254,1,0,1,3,0.6666666666666667,impersonator,2,1,2,1,1,650681343,--,adele201030,President Donald J. Trump,https://scontent-cdg2-1.cdninstagram.com/vp/e2576913157f1df5160bd2f6acb6bedd/5D38D4F4/t51.2885-19/s320x320/25024147_138193690215907_4844733598198136832_n.jpg?_nc_ht=scontent-cdg2-1.cdninstagram.com,45th President of the United States,True,"['True', 'True', 'True', 'True', 'True']",2018-11-29 23:11:33,18005157055031572,BqxHMaAlEt-,realdonaldtrump,Donald Trump is a true American who loves the USA. Unlike the dems who want to destroy the fabric that makes us great. Long Live Trump and his family.,42,5,"['realdonaldtrump', 'realdonaldtrump', 'realdonaldtrump', 'realdonaldtrump', 'realdonaldtrump']","['Bpe4fLZApVQ', 'BpaEwYvgdDl', 'BpaEJqrA2Cn', 'BpZ6MWbAyfF', 'BpZqV_cAe68']","['5be49b2b0c2acb7ef447fbf4', '5be4e1800c2acb0394e8b05f', '5be565e60c2acb0394eaf976', '5be5aa170c2acb0394ebe20f', '5be65fda0c2acb18377271a5']",2018-11-29 14:20:27,17432.35714285714,31866.0
143,143,0.0,0.4826796606496646,0.4826796606496646,1,7.071696677805787e-05,0.0002663825253063399,0.05002552322613578,541,2,2254,1,0,1,3,0.6666666666666667,impersonator,2,1,2,1,1,650681343,--,adele201030,President Donald J. Trump,https://scontent-cdg2-1.cdninstagram.com/vp/e2576913157f1df5160bd2f6acb6bedd/5D38D4F4/t51.2885-19/s320x320/25024147_138193690215907_4844733598198136832_n.jpg?_nc_ht=scontent-cdg2-1.cdninstagram.com,45th President of the United States,True,"['True', 'True', 'True', 'True', 'True']",2018-11-29 23:12:02,18006491107008967,BqxGs_YF-Ph,realdonaldtrump,You are doing the impossible and your enemies are burning with fire when they see your success Continue with the wonderful work everyone is with you Do not get upset by the false media Everyone knows they want to distort your image and not show your achievements 🌷🇺🇸🌷🇺🇸,42,5,"['realdonaldtrump', 'realdonaldtrump', 'realdonaldtrump', 'realdonaldtrump', 'realdonaldtrump']","['Bpe4fLZApVQ', 'BpaEwYvgdDl', 'BpaEJqrA2Cn', 'BpZ6MWbAyfF', 'BpZqV_cAe68']","['5be49b2b0c2acb7ef447fbf4', '5be4e1800c2acb0394e8b05f', '5be565e60c2acb0394eaf976', '5be5aa170c2acb0394ebe20f', '5be65fda0c2acb18377271a5']",2018-11-29 14:16:09,17432.35714285714,32153.0
143,143,0.0,0.4826796606496646,0.4826796606496646,1,7.071696677805787e-05,0.0002663825253063399,0.05002552322613578,541,2,2254,1,0,1,3,0.6666666666666667,impersonator,2,1,2,1,1,650681343,--,adele201030,President Donald J. Trump,https://scontent-cdg2-1.cdninstagram.com/vp/e2576913157f1df5160bd2f6acb6bedd/5D38D4F4/t51.2885-19/s320x320/25024147_138193690215907_4844733598198136832_n.jpg?_nc_ht=scontent-cdg2-1.cdninstagram.com,45th President of the United States,True,"['True', 'True', 'True', 'True', 'True']",2018-11-29 04:28:54,18004237825033532,BqvwoHZFxPv,realdonaldtrump,the President who care of people,42,5,"['realdonaldtrump', 'realdonaldtrump', 'realdonaldtrump', 'realdonaldtrump', 'realdonaldtrump']","['Bpe4fLZApVQ', 'BpaEwYvgdDl', 'BpaEJqrA2Cn', 'BpZ6MWbAyfF', 'BpZqV_cAe68']","['5be49b2b0c2acb7ef447fbf4', '5be4e1800c2acb0394e8b05f', '5be565e60c2acb0394eaf976', '5be5aa170c2acb0394ebe20f', '5be65fda0c2acb18377271a5']",2018-11-29 01:44:01,17432.35714285714,9893.0
143,143,0.0,0.4826796606496646,0.4826796606496646,1,7.071696677805787e-05,0.0002663825253063399,0.05002552322613578,541,2,2254,1,0,1,3,0.6666666666666667,impersonator,2,1,2,1,1,650681343,--,adele201030,President Donald J. Trump,https://scontent-cdg2-1.cdninstagram.com/vp/e2576913157f1df5160bd2f6acb6bedd/5D38D4F4/t51.2885-19/s320x320/25024147_138193690215907_4844733598198136832_n.jpg?_nc_ht=scontent-cdg2-1.cdninstagram.com,45th President of the United States,True,"['True', 'True', 'True', 'True', 'True']",2018-11-29 04:29:33,18005443306061615,BqvwIoXFJrX,realdonaldtrump,Trump of the people and working for the people and fighting for the people 🇺🇸🇺🇸 🎄🎄,42,5,"['realdonaldtrump', 'realdonaldtrump', 'realdonaldtrump', 'realdonaldtrump', 'realdonaldtrump']","['Bpe4fLZApVQ', 'BpaEwYvgdDl', 'BpaEJqrA2Cn', 'BpZ6MWbAyfF', 'BpZqV_cAe68']","['5be49b2b0c2acb7ef447fbf4', '5be4e1800c2acb0394e8b05f', '5be565e60c2acb0394eaf976', '5be5aa170c2acb0394ebe20f', '5be65fda0c2acb18377271a5']",2018-11-29 01:39:43,17432.35714285714,10190.0
143,143,0.0,0.4826796606496646,0.4826796606496646,1,7.071696677805787e-05,0.0002663825253063399,0.05002552322613578,541,2,2254,1,0,1,3,0.6666666666666667,impersonator,2,1,2,1,1,650681343,--,adele201030,President Donald J. Trump,https://scontent-cdg2-1.cdninstagram.com/vp/e2576913157f1df5160bd2f6acb6bedd/5D38D4F4/t51.2885-19/s320x320/25024147_138193690215907_4844733598198136832_n.jpg?_nc_ht=scontent-cdg2-1.cdninstagram.com,45th President of the United States,True,"['True', 'True', 'True', 'True', 'True']",2018-11-29 04:30:11,17897682058272033,BqvvQm-F6xO,realdonaldtrump,The effort and credit goes back to Trump the best 🇺🇸🇺🇸🎄,42,5,"['realdonaldtrump', 'realdonaldtrump', 'realdonaldtrump', 'realdonaldtrump', 'realdonaldtrump']","['Bpe4fLZApVQ', 'BpaEwYvgdDl', 'BpaEJqrA2Cn', 'BpZ6MWbAyfF', 'BpZqV_cAe68']","['5be49b2b0c2acb7ef447fbf4', '5be4e1800c2acb0394e8b05f', '5be565e60c2acb0394eaf976', '5be5aa170c2acb0394ebe20f', '5be65fda0c2acb18377271a5']",2018-11-29 01:32:59,17432.35714285714,10632.0
143,143,0.0,0.4826796606496646,0.4826796606496646,1,7.071696677805787e-05,0.0002663825253063399,0.05002552322613578,541,2,2254,1,0,1,3,0.6666666666666667,impersonator,2,1,2,1,1,650681343,--,adele201030,President Donald J. Trump,https://scontent-cdg2-1.cdninstagram.com/vp/e2576913157f1df5160bd2f6acb6bedd/5D38D4F4/t51.2885-19/s320x320/25024147_138193690215907_4844733598198136832_n.jpg?_nc_ht=scontent-cdg2-1.cdninstagram.com,45th President of the United States,True,"['True', 'True', 'True', 'True', 'True']",2018-11-29 04:30:46,18005947186050511,BqvsQvPljGG,realdonaldtrump,From victory to victory continued the wonderful work well done Mr. President and everyone loves you #MerryChristmas 🎄🎄,42,5,"['realdonaldtrump', 'realdonaldtrump', 'realdonaldtrump', 'realdonaldtrump', 'realdonaldtrump']","['Bpe4fLZApVQ', 'BpaEwYvgdDl', 'BpaEJqrA2Cn', 'BpZ6MWbAyfF', 'BpZqV_cAe68']","['5be49b2b0c2acb7ef447fbf4', '5be4e1800c2acb0394e8b05f', '5be565e60c2acb0394eaf976', '5be5aa170c2acb0394ebe20f', '5be65fda0c2acb18377271a5']",2018-11-29 01:07:28,17432.35714285714,12198.0
143,143,0.0,0.4826796606496646,0.4826796606496646,1,7.071696677805787e-05,0.0002663825253063399,0.05002552322613578,541,2,2254,1,0,1,3,0.6666666666666667,impersonator,2,1,2,1,1,650681343,--,adele201030,President Donald J. Trump,https://scontent-cdg2-1.cdninstagram.com/vp/e2576913157f1df5160bd2f6acb6bedd/5D38D4F4/t51.2885-19/s320x320/25024147_138193690215907_4844733598198136832_n.jpg?_nc_ht=scontent-cdg2-1.cdninstagram.com,45th President of the United States,True,"['True', 'True', 'True', 'True', 'True']",2018-11-29 04:31:21,17887439542284891,BqvhldElbr1,realdonaldtrump,"I'M WITH YOU, I WILL FIGHT FOR YOU, AND I WILL WIN FOR YOU President Trump 🇺🇸🇺🇸",42,5,"['realdonaldtrump', 'realdonaldtrump', 'realdonaldtrump', 'realdonaldtrump', 'realdonaldtrump']","['Bpe4fLZApVQ', 'BpaEwYvgdDl', 'BpaEJqrA2Cn', 'BpZ6MWbAyfF', 'BpZqV_cAe68']","['5be49b2b0c2acb7ef447fbf4', '5be4e1800c2acb0394e8b05f', '5be565e60c2acb0394eaf976', '5be5aa170c2acb0394ebe20f', '5be65fda0c2acb18377271a5']",2018-11-28 23:32:35,17432.35714285714,17926.0
143,143,0.0,0.4826796606496646,0.4826796606496646,1,7.071696677805787e-05,0.0002663825253063399,0.05002552322613578,541,2,2254,1,0,1,3,0.6666666666666667,impersonator,2,1,2,1,1,650681343,--,adele201030,President Donald J. Trump,https://scontent-cdg2-1.cdninstagram.com/vp/e2576913157f1df5160bd2f6acb6bedd/5D38D4F4/t51.2885-19/s320x320/25024147_138193690215907_4844733598198136832_n.jpg?_nc_ht=scontent-cdg2-1.cdninstagram.com,45th President of the United States,True,"['True', 'True', 'True', 'True', 'True']",2018-11-29 04:32:06,17996542849072803,BqvNJ11lpB-,realdonaldtrump,Thank you for the great work done by you and your wonderful team and continued to win 👏👏🇺🇸🇺🇸🌹🌸💕💞❤,42,5,"['realdonaldtrump', 'realdonaldtrump', 'realdonaldtrump', 'realdonaldtrump', 'realdonaldtrump']","['Bpe4fLZApVQ', 'BpaEwYvgdDl', 'BpaEJqrA2Cn', 'BpZ6MWbAyfF', 'BpZqV_cAe68']","['5be49b2b0c2acb7ef447fbf4', '5be4e1800c2acb0394e8b05f', '5be565e60c2acb0394eaf976', '5be5aa170c2acb0394ebe20f', '5be65fda0c2acb18377271a5']",2018-11-28 20:34:03,17432.35714285714,28683.0
143,143,0.0,0.4826796606496646,0.4826796606496646,1,7.071696677805787e-05,0.0002663825253063399,0.05002552322613578,541,2,2254,1,0,1,3,0.6666666666666667,impersonator,2,1,2,1,1,650681343,--,adele201030,President Donald J. Trump,https://scontent-cdg2-1.cdninstagram.com/vp/e2576913157f1df5160bd2f6acb6bedd/5D38D4F4/t51.2885-19/s320x320/25024147_138193690215907_4844733598198136832_n.jpg?_nc_ht=scontent-cdg2-1.cdninstagram.com,45th President of the United States,True,"['True', 'True', 'True', 'True', 'True']",2018-11-29 04:32:47,17975884087155696,Bqu_cO9F95T,realdonaldtrump,"""We're one country and really one family and we salute one great and beautiful American flag. We love that flag Bravo Mr. President God bless USA #MAGA #Trump2020👏🇺🇸👏🇺🇸",42,5,"['realdonaldtrump', 'realdonaldtrump', 'realdonaldtrump', 'realdonaldtrump', 'realdonaldtrump']","['Bpe4fLZApVQ', 'BpaEwYvgdDl', 'BpaEJqrA2Cn', 'BpZ6MWbAyfF', 'BpZqV_cAe68']","['5be49b2b0c2acb7ef447fbf4', '5be4e1800c2acb0394e8b05f', '5be565e60c2acb0394eaf976', '5be5aa170c2acb0394ebe20f', '5be65fda0c2acb18377271a5']",2018-11-28 18:34:39,17432.35714285714,35888.0
143,143,0.0,0.4826796606496646,0.4826796606496646,1,7.071696677805787e-05,0.0002663825253063399,0.05002552322613578,541,2,2254,1,0,1,3,0.6666666666666667,impersonator,2,1,2,1,1,650681343,--,adele201030,President Donald J. Trump,https://scontent-cdg2-1.cdninstagram.com/vp/e2576913157f1df5160bd2f6acb6bedd/5D38D4F4/t51.2885-19/s320x320/25024147_138193690215907_4844733598198136832_n.jpg?_nc_ht=scontent-cdg2-1.cdninstagram.com,45th President of the United States,True,"['True', 'True', 'True', 'True', 'True']",2018-11-28 03:06:09,17926613413246562,BqtF1QHFN9D,realdonaldtrump,God bless you Mr. President 🇺🇸🇺🇸,42,5,"['realdonaldtrump', 'realdonaldtrump', 'realdonaldtrump', 'realdonaldtrump', 'realdonaldtrump']","['Bpe4fLZApVQ', 'BpaEwYvgdDl', 'BpaEJqrA2Cn', 'BpZ6MWbAyfF', 'BpZqV_cAe68']","['5be49b2b0c2acb7ef447fbf4', '5be4e1800c2acb0394e8b05f', '5be565e60c2acb0394eaf976', '5be5aa170c2acb0394ebe20f', '5be65fda0c2acb18377271a5']",2018-11-28 00:51:35,17432.35714285714,8074.0
743,743,0.1505569696020495,0.4826796606496646,0.4826796606496646,1,0.00018561569838233303,0.0010655301012253596,0.04933750582595379,1420,8,2223,1,0,1,4,1.0,impersonator,2,1,2,1,1,4064604675,--,trump_for_ever,President Donald J. Trump,https://scontent-cdg2-1.cdninstagram.com/vp/88977f6ec61bdf3387c5268f37c1de22/5D6FCDA2/t51.2885-19/s320x320/25009778_154446445179825_1144877859790127104_n.jpg?_nc_ht=scontent-cdg2-1.cdninstagram.com,45th President of the United States,True,"['True', 'True', 'True', 'True', 'True']",2018-10-28 18:50:49,17895196834270771,Bpe4fLZApVQ,realdonaldtrump,"Our warm condolences to the dead and these criminals must be punished, and those like them spread extremism around the world and must be stopped",42,5,"['realdonaldtrump', 'realdonaldtrump', 'realdonaldtrump', 'realdonaldtrump', 'realdonaldtrump']","['Bpe4fLZApVQ', 'BpaEwYvgdDl', 'BpaEJqrA2Cn', 'BpZ6MWbAyfF', 'BpZqV_cAe68']","['5be498490c2acb7ef447e518', '5be4e5b20c2acb0394e8c63a', '5be56b7a0c2acb0394eb0ddf', '5be5ace20c2acb0394ebeab8', '5be6527b0c2acb1837724e55']",2018-10-28 15:54:13,13728.0,10596.0
743,743,0.1505569696020495,0.4826796606496646,0.4826796606496646,1,0.00018561569838233303,0.0010655301012253596,0.04933750582595379,1420,8,2223,1,0,1,4,1.0,impersonator,2,1,2,1,1,4064604675,--,trump_for_ever,President Donald J. Trump,https://scontent-cdg2-1.cdninstagram.com/vp/88977f6ec61bdf3387c5268f37c1de22/5D6FCDA2/t51.2885-19/s320x320/25009778_154446445179825_1144877859790127104_n.jpg?_nc_ht=scontent-cdg2-1.cdninstagram.com,45th President of the United States,True,"['True', 'True', 'True', 'True', 'True']",2018-10-28 09:46:56,17875831975281081,BpdlRGFguxL,realdonaldtrump,"""I have vowed,I WIl never vote for a Democrat again. o matter who they are. I don't care if God becomes a Democrat. These Democrats are communists. This Is communism This is gangsterism This is crazy."" -Howard Stern",42,5,"['realdonaldtrump', 'realdonaldtrump', 'realdonaldtrump', 'realdonaldtrump', 'realdonaldtrump']","['Bpe4fLZApVQ', 'BpaEwYvgdDl', 'BpaEJqrA2Cn', 'BpZ6MWbAyfF', 'BpZqV_cAe68']","['5be498490c2acb7ef447e518', '5be4e5b20c2acb0394e8c63a', '5be56b7a0c2acb0394eb0ddf', '5be5ace20c2acb0394ebeab8', '5be6527b0c2acb1837724e55']",2018-10-28 03:47:01,13728.0,21595.0
743,743,0.1505569696020495,0.4826796606496646,0.4826796606496646,1,0.00018561569838233303,0.0010655301012253596,0.04933750582595379,1420,8,2223,1,0,1,4,1.0,impersonator,2,1,2,1,1,4064604675,--,trump_for_ever,President Donald J. Trump,https://scontent-cdg2-1.cdninstagram.com/vp/88977f6ec61bdf3387c5268f37c1de22/5D6FCDA2/t51.2885-19/s320x320/25009778_154446445179825_1144877859790127104_n.jpg?_nc_ht=scontent-cdg2-1.cdninstagram.com,45th President of the United States,True,"['True', 'True', 'True', 'True', 'True']",2018-10-27 22:51:01,17996507767000783,Bpc-knZA7xi,realdonaldtrump,"Our warm condolences to the dead and these criminals must be punished, and those like them spread extremism around the world and must be stopped",42,5,"['realdonaldtrump', 'realdonaldtrump', 'realdonaldtrump', 'realdonaldtrump', 'realdonaldtrump']","['Bpe4fLZApVQ', 'BpaEwYvgdDl', 'BpaEJqrA2Cn', 'BpZ6MWbAyfF', 'BpZqV_cAe68']","['5be498490c2acb7ef447e518', '5be4e5b20c2acb0394e8c63a', '5be56b7a0c2acb0394eb0ddf', '5be5ace20c2acb0394ebeab8', '5be6527b0c2acb1837724e55']",2018-10-27 22:08:54,13728.0,2527.0
743,743,0.1505569696020495,0.4826796606496646,0.4826796606496646,1,0.00018561569838233303,0.0010655301012253596,0.04933750582595379,1420,8,2223,1,0,1,4,1.0,impersonator,2,1,2,1,1,4064604675,--,trump_for_ever,President Donald J. Trump,https://scontent-cdg2-1.cdninstagram.com/vp/88977f6ec61bdf3387c5268f37c1de22/5D6FCDA2/t51.2885-19/s320x320/25009778_154446445179825_1144877859790127104_n.jpg?_nc_ht=scontent-cdg2-1.cdninstagram.com,45th President of the United States,True,"['True', 'True', 'True', 'True', 'True']",2018-10-27 08:48:17,17930701198213564,Bpatah5gJg8,realdonaldtrump,trump love faith protection 😙😙😙😙😍,42,5,"['realdonaldtrump', 'realdonaldtrump', 'realdonaldtrump', 'realdonaldtrump', 'realdonaldtrump']","['Bpe4fLZApVQ', 'BpaEwYvgdDl', 'BpaEJqrA2Cn', 'BpZ6MWbAyfF', 'BpZqV_cAe68']","['5be498490c2acb7ef447e518', '5be4e5b20c2acb0394e8c63a', '5be56b7a0c2acb0394eb0ddf', '5be5ace20c2acb0394ebeab8', '5be6527b0c2acb1837724e55']",2018-10-27 01:00:30,13728.0,28067.0
743,743,0.1505569696020495,0.4826796606496646,0.4826796606496646,1,0.00018561569838233303,0.0010655301012253596,0.04933750582595379,1420,8,2223,1,0,1,4,1.0,impersonator,2,1,2,1,1,4064604675,--,trump_for_ever,President Donald J. Trump,https://scontent-cdg2-1.cdninstagram.com/vp/88977f6ec61bdf3387c5268f37c1de22/5D6FCDA2/t51.2885-19/s320x320/25009778_154446445179825_1144877859790127104_n.jpg?_nc_ht=scontent-cdg2-1.cdninstagram.com,45th President of the United States,True,"['True', 'True', 'True', 'True', 'True']",2018-10-26 20:44:02,17978283226097947,BpaEwYvgdDl,realdonaldtrump,President Trump made tremendous progress God Bless Our President! 😙😙😙👏,42,5,"['realdonaldtrump', 'realdonaldtrump', 'realdonaldtrump', 'realdonaldtrump', 'realdonaldtrump']","['Bpe4fLZApVQ', 'BpaEwYvgdDl', 'BpaEJqrA2Cn', 'BpZ6MWbAyfF', 'BpZqV_cAe68']","['5be498490c2acb7ef447e518', '5be4e5b20c2acb0394e8c63a', '5be56b7a0c2acb0394eb0ddf', '5be5ace20c2acb0394ebeab8', '5be6527b0c2acb1837724e55']",2018-10-26 19:05:13,13728.0,5929.0
743,743,0.1505569696020495,0.4826796606496646,0.4826796606496646,1,0.00018561569838233303,0.0010655301012253596,0.04933750582595379,1420,8,2223,1,0,1,4,1.0,impersonator,2,1,2,1,1,4064604675,--,trump_for_ever,President Donald J. Trump,https://scontent-cdg2-1.cdninstagram.com/vp/88977f6ec61bdf3387c5268f37c1de22/5D6FCDA2/t51.2885-19/s320x320/25009778_154446445179825_1144877859790127104_n.jpg?_nc_ht=scontent-cdg2-1.cdninstagram.com,45th President of the United States,True,"['True', 'True', 'True', 'True', 'True']",2018-10-26 20:44:32,17978520031102309,BpaEJqrA2Cn,realdonaldtrump,Trump and long live life 😙😙😙😙😙💪💪🌟,42,5,"['realdonaldtrump', 'realdonaldtrump', 'realdonaldtrump', 'realdonaldtrump', 'realdonaldtrump']","['Bpe4fLZApVQ', 'BpaEwYvgdDl', 'BpaEJqrA2Cn', 'BpZ6MWbAyfF', 'BpZqV_cAe68']","['5be498490c2acb7ef447e518', '5be4e5b20c2acb0394e8c63a', '5be56b7a0c2acb0394eb0ddf', '5be5ace20c2acb0394ebeab8', '5be6527b0c2acb1837724e55']",2018-10-26 19:01:08,13728.0,6204.0
743,743,0.1505569696020495,0.4826796606496646,0.4826796606496646,1,0.00018561569838233303,0.0010655301012253596,0.04933750582595379,1420,8,2223,1,0,1,4,1.0,impersonator,2,1,2,1,1,4064604675,--,trump_for_ever,President Donald J. Trump,https://scontent-cdg2-1.cdninstagram.com/vp/88977f6ec61bdf3387c5268f37c1de22/5D6FCDA2/t51.2885-19/s320x320/25009778_154446445179825_1144877859790127104_n.jpg?_nc_ht=scontent-cdg2-1.cdninstagram.com,45th President of the United States,True,"['True', 'True', 'True', 'True', 'True']",2018-10-26 20:45:07,17989317151066079,BpaC3b8gaOb,realdonaldtrump,red wave squadron 🙌🙌🙌🙌🙌😙😙👏,42,5,"['realdonaldtrump', 'realdonaldtrump', 'realdonaldtrump', 'realdonaldtrump', 'realdonaldtrump']","['Bpe4fLZApVQ', 'BpaEwYvgdDl', 'BpaEJqrA2Cn', 'BpZ6MWbAyfF', 'BpZqV_cAe68']","['5be498490c2acb7ef447e518', '5be4e5b20c2acb0394e8c63a', '5be56b7a0c2acb0394eb0ddf', '5be5ace20c2acb0394ebeab8', '5be6527b0c2acb1837724e55']",2018-10-26 18:50:52,13728.0,6855.0
743,743,0.1505569696020495,0.4826796606496646,0.4826796606496646,1,0.00018561569838233303,0.0010655301012253596,0.04933750582595379,1420,8,2223,1,0,1,4,1.0,impersonator,2,1,2,1,1,4064604675,--,trump_for_ever,President Donald J. Trump,https://scontent-cdg2-1.cdninstagram.com/vp/88977f6ec61bdf3387c5268f37c1de22/5D6FCDA2/t51.2885-19/s320x320/25009778_154446445179825_1144877859790127104_n.jpg?_nc_ht=scontent-cdg2-1.cdninstagram.com,45th President of the United States,True,"['True', 'True', 'True', 'True', 'True']",2018-10-26 20:46:01,17964673963178517,BpZ6MWbAyfF,realdonaldtrump,keeping our country safer 👍😍😙❤❤❤,42,5,"['realdonaldtrump', 'realdonaldtrump', 'realdonaldtrump', 'realdonaldtrump', 'realdonaldtrump']","['Bpe4fLZApVQ', 'BpaEwYvgdDl', 'BpaEJqrA2Cn', 'BpZ6MWbAyfF', 'BpZqV_cAe68']","['5be498490c2acb7ef447e518', '5be4e5b20c2acb0394e8c63a', '5be56b7a0c2acb0394eb0ddf', '5be5ace20c2acb0394ebeab8', '5be6527b0c2acb1837724e55']",2018-10-26 17:33:57,13728.0,11524.0
743,743,0.1505569696020495,0.4826796606496646,0.4826796606496646,1,0.00018561569838233303,0.0010655301012253596,0.04933750582595379,1420,8,2223,1,0,1,4,1.0,impersonator,2,1,2,1,1,4064604675,--,trump_for_ever,President Donald J. Trump,https://scontent-cdg2-1.cdninstagram.com/vp/88977f6ec61bdf3387c5268f37c1de22/5D6FCDA2/t51.2885-19/s320x320/25009778_154446445179825_1144877859790127104_n.jpg?_nc_ht=scontent-cdg2-1.cdninstagram.com,45th President of the United States,True,"['True', 'True', 'True', 'True', 'True']",2018-10-26 15:42:34,17885820736276015,BpZqV_cAe68,realdonaldtrump,"To Paradise and the Blessings, and to meet him one day 🙏🙏",42,5,"['realdonaldtrump', 'realdonaldtrump', 'realdonaldtrump', 'realdonaldtrump', 'realdonaldtrump']","['Bpe4fLZApVQ', 'BpaEwYvgdDl', 'BpaEJqrA2Cn', 'BpZ6MWbAyfF', 'BpZqV_cAe68']","['5be498490c2acb7ef447e518', '5be4e5b20c2acb0394e8c63a', '5be56b7a0c2acb0394eb0ddf', '5be5ace20c2acb0394ebeab8', '5be6527b0c2acb1837724e55']",2018-10-26 15:14:25,13728.0,1689.0
743,743,0.1505569696020495,0.4826796606496646,0.4826796606496646,1,0.00018561569838233303,0.0010655301012253596,0.04933750582595379,1420,8,2223,1,0,1,4,1.0,impersonator,2,1,2,1,1,4064604675,--,trump_for_ever,President Donald J. Trump,https://scontent-cdg2-1.cdninstagram.com/vp/88977f6ec61bdf3387c5268f37c1de22/5D6FCDA2/t51.2885-19/s320x320/25009778_154446445179825_1144877859790127104_n.jpg?_nc_ht=scontent-cdg2-1.cdninstagram.com,45th President of the United States,True,"['True', 'True', 'True', 'True', 'True']",2018-10-26 15:41:52,17993778991009414,BpZnXgsAH4_,realdonaldtrump,Wooow Congratulations Mr. President 💪💪💪🌟🌟,42,5,"['realdonaldtrump', 'realdonaldtrump', 'realdonaldtrump', 'realdonaldtrump', 'realdonaldtrump']","['Bpe4fLZApVQ', 'BpaEwYvgdDl', 'BpaEJqrA2Cn', 'BpZ6MWbAyfF', 'BpZqV_cAe68']","['5be498490c2acb7ef447e518', '5be4e5b20c2acb0394e8c63a', '5be56b7a0c2acb0394eb0ddf', '5be5ace20c2acb0394ebeab8', '5be6527b0c2acb1837724e55']",2018-10-26 14:49:14,13728.0,3158.0
743,743,0.1505569696020495,0.4826796606496646,0.4826796606496646,1,0.00018561569838233303,0.0010655301012253596,0.04933750582595379,1420,8,2223,1,0,1,4,1.0,impersonator,2,1,2,1,1,4064604675,--,trump_for_ever,President Donald J. Trump,https://scontent-cdg2-1.cdninstagram.com/vp/88977f6ec61bdf3387c5268f37c1de22/5D6FCDA2/t51.2885-19/s320x320/25009778_154446445179825_1144877859790127104_n.jpg?_nc_ht=scontent-cdg2-1.cdninstagram.com,45th President of the United States,True,"['True', 'True', 'True', 'True', 'True']",2018-10-25 23:52:57,17902244524253490,BpYAVpSgmxz,realdonaldtrump,You are my God and I love you forever,42,5,"['realdonaldtrump', 'realdonaldtrump', 'realdonaldtrump', 'realdonaldtrump', 'realdonaldtrump']","['Bpe4fLZApVQ', 'BpaEwYvgdDl', 'BpaEJqrA2Cn', 'BpZ6MWbAyfF', 'BpZqV_cAe68']","['5be498490c2acb7ef447e518', '5be4e5b20c2acb0394e8c63a', '5be56b7a0c2acb0394eb0ddf', '5be5ace20c2acb0394ebeab8', '5be6527b0c2acb1837724e55']",2018-10-25 23:48:21,13728.0,276.0
743,743,0.1505569696020495,0.4826796606496646,0.4826796606496646,1,0.00018561569838233303,0.0010655301012253596,0.04933750582595379,1420,8,2223,1,0,1,4,1.0,impersonator,2,1,2,1,1,4064604675,--,trump_for_ever,President Donald J. Trump,https://scontent-cdg2-1.cdninstagram.com/vp/88977f6ec61bdf3387c5268f37c1de22/5D6FCDA2/t51.2885-19/s320x320/25009778_154446445179825_1144877859790127104_n.jpg?_nc_ht=scontent-cdg2-1.cdninstagram.com,45th President of the United States,True,"['True', 'True', 'True', 'True', 'True']",2018-10-25 23:19:03,17991965413013636,BpXyXWlgcTv,realdonaldtrump,You are the best president of America God bless you Trump 👏👏👏👍,42,5,"['realdonaldtrump', 'realdonaldtrump', 'realdonaldtrump', 'realdonaldtrump', 'realdonaldtrump']","['Bpe4fLZApVQ', 'BpaEwYvgdDl', 'BpaEJqrA2Cn', 'BpZ6MWbAyfF', 'BpZqV_cAe68']","['5be498490c2acb7ef447e518', '5be4e5b20c2acb0394e8c63a', '5be56b7a0c2acb0394eb0ddf', '5be5ace20c2acb0394ebeab8', '5be6527b0c2acb1837724e55']",2018-10-25 21:46:02,13728.0,5581.0
743,743,0.1505569696020495,0.4826796606496646,0.4826796606496646,1,0.00018561569838233303,0.0010655301012253596,0.04933750582595379,1420,8,2223,1,0,1,4,1.0,impersonator,2,1,2,1,1,4064604675,--,trump_for_ever,President Donald J. Trump,https://scontent-cdg2-1.cdninstagram.com/vp/88977f6ec61bdf3387c5268f37c1de22/5D6FCDA2/t51.2885-19/s320x320/25009778_154446445179825_1144877859790127104_n.jpg?_nc_ht=scontent-cdg2-1.cdninstagram.com,45th President of the United States,True,"['True', 'True', 'True', 'True', 'True']",2018-10-25 23:17:34,17930464774208170,BpXr3WWAznN,realdonaldtrump,Happy Anniversary 👏👏😍😍,42,5,"['realdonaldtrump', 'realdonaldtrump', 'realdonaldtrump', 'realdonaldtrump', 'realdonaldtrump']","['Bpe4fLZApVQ', 'BpaEwYvgdDl', 'BpaEJqrA2Cn', 'BpZ6MWbAyfF', 'BpZqV_cAe68']","['5be498490c2acb7ef447e518', '5be4e5b20c2acb0394e8c63a', '5be56b7a0c2acb0394eb0ddf', '5be5ace20c2acb0394ebeab8', '5be6527b0c2acb1837724e55']",2018-10-25 20:49:14,13728.0,8900.0
743,743,0.1505569696020495,0.4826796606496646,0.4826796606496646,1,0.00018561569838233303,0.0010655301012253596,0.04933750582595379,1420,8,2223,1,0,1,4,1.0,impersonator,2,1,2,1,1,4064604675,--,trump_for_ever,President Donald J. Trump,https://scontent-cdg2-1.cdninstagram.com/vp/88977f6ec61bdf3387c5268f37c1de22/5D6FCDA2/t51.2885-19/s320x320/25009778_154446445179825_1144877859790127104_n.jpg?_nc_ht=scontent-cdg2-1.cdninstagram.com,45th President of the United States,True,"['True', 'True', 'True', 'True', 'True']",2018-10-25 23:16:12,17970553426083233,BpXqlirA8in,realdonaldtrump,"""With The Lord His Protector, Make A Bow To His Will TRUMP God Bless our beloved President Trump #MAGA #Trump2020",42,5,"['realdonaldtrump', 'realdonaldtrump', 'realdonaldtrump', 'realdonaldtrump', 'realdonaldtrump']","['Bpe4fLZApVQ', 'BpaEwYvgdDl', 'BpaEJqrA2Cn', 'BpZ6MWbAyfF', 'BpZqV_cAe68']","['5be498490c2acb7ef447e518', '5be4e5b20c2acb0394e8c63a', '5be56b7a0c2acb0394eb0ddf', '5be5ace20c2acb0394ebeab8', '5be6527b0c2acb1837724e55']",2018-10-25 20:38:04,13728.0,9488.0
743,743,0.1505569696020495,0.4826796606496646,0.4826796606496646,1,0.00018561569838233303,0.0010655301012253596,0.04933750582595379,1420,8,2223,1,0,1,4,1.0,impersonator,2,1,2,1,1,4064604675,--,trump_for_ever,President Donald J. Trump,https://scontent-cdg2-1.cdninstagram.com/vp/88977f6ec61bdf3387c5268f37c1de22/5D6FCDA2/t51.2885-19/s320x320/25009778_154446445179825_1144877859790127104_n.jpg?_nc_ht=scontent-cdg2-1.cdninstagram.com,45th President of the United States,True,"['True', 'True', 'True', 'True', 'True']",2018-10-27 22:46:55,17915095906244361,Bpc_YSVgwen,realdonaldtrump,"I have done well, Mr. President. We must stand against the Jews. They are peaceful. They are, after all, a heavenly religion like all other religions. You must respect and have all their rights, like others, and not anti-Semitism. As I said, Mr. President, we must unite to conquer hatred. 👏👏👏",42,5,"['realdonaldtrump', 'realdonaldtrump', 'realdonaldtrump', 'realdonaldtrump', 'realdonaldtrump']","['Bpe4fLZApVQ', 'BpaEwYvgdDl', 'BpaEJqrA2Cn', 'BpZ6MWbAyfF', 'BpZqV_cAe68']","['5be498490c2acb7ef447e518', '5be4e5b20c2acb0394e8c63a', '5be56b7a0c2acb0394eb0ddf', '5be5ace20c2acb0394ebeab8', '5be6527b0c2acb1837724e55']",2018-10-27 22:15:57,13728.0,1858.0
743,743,0.1505569696020495,0.4826796606496646,0.4826796606496646,1,0.00018561569838233303,0.0010655301012253596,0.04933750582595379,1420,8,2223,1,0,1,4,1.0,impersonator,2,1,2,1,1,4064604675,--,trump_for_ever,President Donald J. Trump,https://scontent-cdg2-1.cdninstagram.com/vp/88977f6ec61bdf3387c5268f37c1de22/5D6FCDA2/t51.2885-19/s320x320/25009778_154446445179825_1144877859790127104_n.jpg?_nc_ht=scontent-cdg2-1.cdninstagram.com,45th President of the United States,True,"['True', 'True', 'True', 'True', 'True']",2018-10-27 00:02:27,17902043089256085,BpaXXkUAAH6,realdonaldtrump,President Trump miracle from God & for the country,42,5,"['realdonaldtrump', 'realdonaldtrump', 'realdonaldtrump', 'realdonaldtrump', 'realdonaldtrump']","['Bpe4fLZApVQ', 'BpaEwYvgdDl', 'BpaEJqrA2Cn', 'BpZ6MWbAyfF', 'BpZqV_cAe68']","['5be498490c2acb7ef447e518', '5be4e5b20c2acb0394e8c63a', '5be56b7a0c2acb0394eb0ddf', '5be5ace20c2acb0394ebeab8', '5be6527b0c2acb1837724e55']",2018-10-26 21:47:51,13728.0,8076.0
743,743,0.1505569696020495,0.4826796606496646,0.4826796606496646,1,0.00018561569838233303,0.0010655301012253596,0.04933750582595379,1420,8,2223,1,0,1,4,1.0,impersonator,2,1,2,1,1,4064604675,--,trump_for_ever,President Donald J. Trump,https://scontent-cdg2-1.cdninstagram.com/vp/88977f6ec61bdf3387c5268f37c1de22/5D6FCDA2/t51.2885-19/s320x320/25009778_154446445179825_1144877859790127104_n.jpg?_nc_ht=scontent-cdg2-1.cdninstagram.com,45th President of the United States,True,"['True', 'True', 'True', 'True', 'True']",2018-10-25 10:52:51,17993257510022247,BpWAaKBgDyh,realdonaldtrump,You are my God and I love you forever,42,5,"['realdonaldtrump', 'realdonaldtrump', 'realdonaldtrump', 'realdonaldtrump', 'realdonaldtrump']","['Bpe4fLZApVQ', 'BpaEwYvgdDl', 'BpaEJqrA2Cn', 'BpZ6MWbAyfF', 'BpZqV_cAe68']","['5be498490c2acb7ef447e518', '5be4e5b20c2acb0394e8c63a', '5be56b7a0c2acb0394eb0ddf', '5be5ace20c2acb0394ebeab8', '5be6527b0c2acb1837724e55']",2018-10-25 05:10:30,13728.0,20541.0
743,743,0.1505569696020495,0.4826796606496646,0.4826796606496646,1,0.00018561569838233303,0.0010655301012253596,0.04933750582595379,1420,8,2223,1,0,1,4,1.0,impersonator,2,1,2,1,1,4064604675,--,trump_for_ever,President Donald J. Trump,https://scontent-cdg2-1.cdninstagram.com/vp/88977f6ec61bdf3387c5268f37c1de22/5D6FCDA2/t51.2885-19/s320x320/25009778_154446445179825_1144877859790127104_n.jpg?_nc_ht=scontent-cdg2-1.cdninstagram.com,45th President of the United States,True,"['True', 'True', 'True', 'True', 'True']",2018-10-25 10:53:10,17929249075220415,BpV7mbnAQlT,realdonaldtrump,"The USA/world"" shall cherish you for eternities to come. Long Lives Life & OA ""Gods Blessings dear President",42,5,"['realdonaldtrump', 'realdonaldtrump', 'realdonaldtrump', 'realdonaldtrump', 'realdonaldtrump']","['Bpe4fLZApVQ', 'BpaEwYvgdDl', 'BpaEJqrA2Cn', 'BpZ6MWbAyfF', 'BpZqV_cAe68']","['5be498490c2acb7ef447e518', '5be4e5b20c2acb0394e8c63a', '5be56b7a0c2acb0394eb0ddf', '5be5ace20c2acb0394ebeab8', '5be6527b0c2acb1837724e55']",2018-10-25 04:28:31,13728.0,23079.0
743,743,0.1505569696020495,0.4826796606496646,0.4826796606496646,1,0.00018561569838233303,0.0010655301012253596,0.04933750582595379,1420,8,2223,1,0,1,4,1.0,impersonator,2,1,2,1,1,4064604675,--,trump_for_ever,President Donald J. Trump,https://scontent-cdg2-1.cdninstagram.com/vp/88977f6ec61bdf3387c5268f37c1de22/5D6FCDA2/t51.2885-19/s320x320/25009778_154446445179825_1144877859790127104_n.jpg?_nc_ht=scontent-cdg2-1.cdninstagram.com,45th President of the United States,True,"['True', 'True', 'True', 'True', 'True']",2018-10-25 10:53:32,17977397143108896,BpVwYU0g6F-,realdonaldtrump,Donald Trump is a true American who loves the USA.Unlike the dems who want to destroy the fabric that makes us great.Long Live Trump and his family.,42,5,"['realdonaldtrump', 'realdonaldtrump', 'realdonaldtrump', 'realdonaldtrump', 'realdonaldtrump']","['Bpe4fLZApVQ', 'BpaEwYvgdDl', 'BpaEJqrA2Cn', 'BpZ6MWbAyfF', 'BpZqV_cAe68']","['5be498490c2acb7ef447e518', '5be4e5b20c2acb0394e8c63a', '5be56b7a0c2acb0394eb0ddf', '5be5ace20c2acb0394ebeab8', '5be6527b0c2acb1837724e55']",2018-10-25 02:51:11,13728.0,28941.0
743,743,0.1505569696020495,0.4826796606496646,0.4826796606496646,1,0.00018561569838233303,0.0010655301012253596,0.04933750582595379,1420,8,2223,1,0,1,4,1.0,impersonator,2,1,2,1,1,4064604675,--,trump_for_ever,President Donald J. Trump,https://scontent-cdg2-1.cdninstagram.com/vp/88977f6ec61bdf3387c5268f37c1de22/5D6FCDA2/t51.2885-19/s320x320/25009778_154446445179825_1144877859790127104_n.jpg?_nc_ht=scontent-cdg2-1.cdninstagram.com,45th President of the United States,True,"['True', 'True', 'True', 'True', 'True']",2018-10-25 10:53:55,17875286431282942,BpVrXHFABDH,realdonaldtrump,Thank you for the great work done by you and your wonderful team and continued to win,42,5,"['realdonaldtrump', 'realdonaldtrump', 'realdonaldtrump', 'realdonaldtrump', 'realdonaldtrump']","['Bpe4fLZApVQ', 'BpaEwYvgdDl', 'BpaEJqrA2Cn', 'BpZ6MWbAyfF', 'BpZqV_cAe68']","['5be498490c2acb7ef447e518', '5be4e5b20c2acb0394e8c63a', '5be56b7a0c2acb0394eb0ddf', '5be5ace20c2acb0394ebeab8', '5be6527b0c2acb1837724e55']",2018-10-25 02:07:47,13728.0,31568.0
743,743,0.1505569696020495,0.4826796606496646,0.4826796606496646,1,0.00018561569838233303,0.0010655301012253596,0.04933750582595379,1420,8,2223,1,0,1,4,1.0,impersonator,2,1,2,1,1,4064604675,--,trump_for_ever,President Donald J. Trump,https://scontent-cdg2-1.cdninstagram.com/vp/88977f6ec61bdf3387c5268f37c1de22/5D6FCDA2/t51.2885-19/s320x320/25009778_154446445179825_1144877859790127104_n.jpg?_nc_ht=scontent-cdg2-1.cdninstagram.com,45th President of the United States,True,"['True', 'True', 'True', 'True', 'True']",2018-10-25 10:54:32,17874827935283409,BpVo89eAQjJ,realdonaldtrump,I can't believe how lucky we are to have President Trump.Thank You God for this amazing gift.,42,5,"['realdonaldtrump', 'realdonaldtrump', 'realdonaldtrump', 'realdonaldtrump', 'realdonaldtrump']","['Bpe4fLZApVQ', 'BpaEwYvgdDl', 'BpaEJqrA2Cn', 'BpZ6MWbAyfF', 'BpZqV_cAe68']","['5be498490c2acb7ef447e518', '5be4e5b20c2acb0394e8c63a', '5be56b7a0c2acb0394eb0ddf', '5be5ace20c2acb0394ebeab8', '5be6527b0c2acb1837724e55']",2018-10-25 01:45:18,13728.0,32954.0
743,743,0.1505569696020495,0.4826796606496646,0.4826796606496646,1,0.00018561569838233303,0.0010655301012253596,0.04933750582595379,1420,8,2223,1,0,1,4,1.0,impersonator,2,1,2,1,1,4064604675,--,trump_for_ever,President Donald J. Trump,https://scontent-cdg2-1.cdninstagram.com/vp/88977f6ec61bdf3387c5268f37c1de22/5D6FCDA2/t51.2885-19/s320x320/25009778_154446445179825_1144877859790127104_n.jpg?_nc_ht=scontent-cdg2-1.cdninstagram.com,45th President of the United States,True,"['True', 'True', 'True', 'True', 'True']",2018-11-18 06:53:24,17882937703303973,BqTkv80Fh0l,realdonaldtrump,The great leader is proud that you are an intelligent and experienced politician,42,5,"['realdonaldtrump', 'realdonaldtrump', 'realdonaldtrump', 'realdonaldtrump', 'realdonaldtrump']","['Bpe4fLZApVQ', 'BpaEwYvgdDl', 'BpaEJqrA2Cn', 'BpZ6MWbAyfF', 'BpZqV_cAe68']","['5be498490c2acb7ef447e518', '5be4e5b20c2acb0394e8c63a', '5be56b7a0c2acb0394eb0ddf', '5be5ace20c2acb0394ebeab8', '5be6527b0c2acb1837724e55']",2018-11-18 03:07:37,13728.0,13547.0
743,743,0.1505569696020495,0.4826796606496646,0.4826796606496646,1,0.00018561569838233303,0.0010655301012253596,0.04933750582595379,1420,8,2223,1,0,1,4,1.0,impersonator,2,1,2,1,1,4064604675,--,trump_for_ever,President Donald J. Trump,https://scontent-cdg2-1.cdninstagram.com/vp/88977f6ec61bdf3387c5268f37c1de22/5D6FCDA2/t51.2885-19/s320x320/25009778_154446445179825_1144877859790127104_n.jpg?_nc_ht=scontent-cdg2-1.cdninstagram.com,45th President of the United States,True,"['True', 'True', 'True', 'True', 'True']",2018-11-18 01:08:54,18001055512000666,BqTBtONFSJT,realdonaldtrump,"President Trump is working hard to keep America safe and to eliminate terrorists and terrorism and make co-existence among the American people with all love and will, but he can not if some people stand against him, we must all unite with him. 😙😙😘😘",42,5,"['realdonaldtrump', 'realdonaldtrump', 'realdonaldtrump', 'realdonaldtrump', 'realdonaldtrump']","['Bpe4fLZApVQ', 'BpaEwYvgdDl', 'BpaEJqrA2Cn', 'BpZ6MWbAyfF', 'BpZqV_cAe68']","['5be498490c2acb7ef447e518', '5be4e5b20c2acb0394e8c63a', '5be56b7a0c2acb0394eb0ddf', '5be5ace20c2acb0394ebeab8', '5be6527b0c2acb1837724e55']",2018-11-17 21:55:17,13728.0,11617.0
743,743,0.1505569696020495,0.4826796606496646,0.4826796606496646,1,0.00018561569838233303,0.0010655301012253596,0.04933750582595379,1420,8,2223,1,0,1,4,1.0,impersonator,2,1,2,1,1,4064604675,--,trump_for_ever,President Donald J. Trump,https://scontent-cdg2-1.cdninstagram.com/vp/88977f6ec61bdf3387c5268f37c1de22/5D6FCDA2/t51.2885-19/s320x320/25009778_154446445179825_1144877859790127104_n.jpg?_nc_ht=scontent-cdg2-1.cdninstagram.com,45th President of the United States,True,"['True', 'True', 'True', 'True', 'True']",2018-10-14 23:06:46,17974470715100757,Bo7Em8OgX1Q,realdonaldtrump,Trump is a gift from God to mankind to spread peace and love in the world,42,5,"['realdonaldtrump', 'realdonaldtrump', 'realdonaldtrump', 'realdonaldtrump', 'realdonaldtrump']","['Bpe4fLZApVQ', 'BpaEwYvgdDl', 'BpaEJqrA2Cn', 'BpZ6MWbAyfF', 'BpZqV_cAe68']","['5be498490c2acb7ef447e518', '5be4e5b20c2acb0394e8c63a', '5be56b7a0c2acb0394eb0ddf', '5be5ace20c2acb0394ebeab8', '5be6527b0c2acb1837724e55']",2018-10-14 18:07:28,13728.0,17958.0
743,743,0.1505569696020495,0.4826796606496646,0.4826796606496646,1,0.00018561569838233303,0.0010655301012253596,0.04933750582595379,1420,8,2223,1,0,1,4,1.0,impersonator,2,1,2,1,1,4064604675,--,trump_for_ever,President Donald J. Trump,https://scontent-cdg2-1.cdninstagram.com/vp/88977f6ec61bdf3387c5268f37c1de22/5D6FCDA2/t51.2885-19/s320x320/25009778_154446445179825_1144877859790127104_n.jpg?_nc_ht=scontent-cdg2-1.cdninstagram.com,45th President of the United States,True,"['True', 'True', 'True', 'True', 'True']",2018-10-24 20:14:08,17970578485095336,BpU5EJZgmZO,realdonaldtrump,You are my God and I love you forever,42,5,"['realdonaldtrump', 'realdonaldtrump', 'realdonaldtrump', 'realdonaldtrump', 'realdonaldtrump']","['Bpe4fLZApVQ', 'BpaEwYvgdDl', 'BpaEJqrA2Cn', 'BpZ6MWbAyfF', 'BpZqV_cAe68']","['5be498490c2acb7ef447e518', '5be4e5b20c2acb0394e8c63a', '5be56b7a0c2acb0394eb0ddf', '5be5ace20c2acb0394ebeab8', '5be6527b0c2acb1837724e55']",2018-10-24 18:47:56,13728.0,5172.0
743,743,0.1505569696020495,0.4826796606496646,0.4826796606496646,1,0.00018561569838233303,0.0010655301012253596,0.04933750582595379,1420,8,2223,1,0,1,4,1.0,impersonator,2,1,2,1,1,4064604675,--,trump_for_ever,President Donald J. Trump,https://scontent-cdg2-1.cdninstagram.com/vp/88977f6ec61bdf3387c5268f37c1de22/5D6FCDA2/t51.2885-19/s320x320/25009778_154446445179825_1144877859790127104_n.jpg?_nc_ht=scontent-cdg2-1.cdninstagram.com,45th President of the United States,True,"['True', 'True', 'True', 'True', 'True']",2018-10-14 05:55:28,17958934828147526,Bo47dhyATQC,realdonaldtrump,My hero l love you Mr President keep up the fantastic work 👏👏👍,42,5,"['realdonaldtrump', 'realdonaldtrump', 'realdonaldtrump', 'realdonaldtrump', 'realdonaldtrump']","['Bpe4fLZApVQ', 'BpaEwYvgdDl', 'BpaEJqrA2Cn', 'BpZ6MWbAyfF', 'BpZqV_cAe68']","['5be498490c2acb7ef447e518', '5be4e5b20c2acb0394e8c63a', '5be56b7a0c2acb0394eb0ddf', '5be5ace20c2acb0394ebeab8', '5be6527b0c2acb1837724e55']",2018-10-13 22:09:04,13728.0,27984.0
743,743,0.1505569696020495,0.4826796606496646,0.4826796606496646,1,0.00018561569838233303,0.0010655301012253596,0.04933750582595379,1420,8,2223,1,0,1,4,1.0,impersonator,2,1,2,1,1,4064604675,--,trump_for_ever,President Donald J. Trump,https://scontent-cdg2-1.cdninstagram.com/vp/88977f6ec61bdf3387c5268f37c1de22/5D6FCDA2/t51.2885-19/s320x320/25009778_154446445179825_1144877859790127104_n.jpg?_nc_ht=scontent-cdg2-1.cdninstagram.com,45th President of the United States,True,"['True', 'True', 'True', 'True', 'True']",2018-10-14 16:58:00,17988751681016218,Bo64QFVgtzy,realdonaldtrump,Happy birthday Joseph 🎁🎉🎊🎈🎈🎈🎈🎂,42,5,"['realdonaldtrump', 'realdonaldtrump', 'realdonaldtrump', 'realdonaldtrump', 'realdonaldtrump']","['Bpe4fLZApVQ', 'BpaEwYvgdDl', 'BpaEJqrA2Cn', 'BpZ6MWbAyfF', 'BpZqV_cAe68']","['5be498490c2acb7ef447e518', '5be4e5b20c2acb0394e8c63a', '5be56b7a0c2acb0394eb0ddf', '5be5ace20c2acb0394ebeab8', '5be6527b0c2acb1837724e55']",2018-10-14 16:19:30,13728.0,2310.0
743,743,0.1505569696020495,0.4826796606496646,0.4826796606496646,1,0.00018561569838233303,0.0010655301012253596,0.04933750582595379,1420,8,2223,1,0,1,4,1.0,impersonator,2,1,2,1,1,4064604675,--,trump_for_ever,President Donald J. Trump,https://scontent-cdg2-1.cdninstagram.com/vp/88977f6ec61bdf3387c5268f37c1de22/5D6FCDA2/t51.2885-19/s320x320/25009778_154446445179825_1144877859790127104_n.jpg?_nc_ht=scontent-cdg2-1.cdninstagram.com,45th President of the United States,True,"['True', 'True', 'True', 'True', 'True']",2018-10-14 05:51:30,17988240856025184,Bo5RIYeAyVr,realdonaldtrump,Donald Trump is a true American who loves the USA.Unlike the dems who want to destroy the fabric that makes us great.Long Live Trump and his family. 😙😙😙👏,42,5,"['realdonaldtrump', 'realdonaldtrump', 'realdonaldtrump', 'realdonaldtrump', 'realdonaldtrump']","['Bpe4fLZApVQ', 'BpaEwYvgdDl', 'BpaEJqrA2Cn', 'BpZ6MWbAyfF', 'BpZqV_cAe68']","['5be498490c2acb7ef447e518', '5be4e5b20c2acb0394e8c63a', '5be56b7a0c2acb0394eb0ddf', '5be5ace20c2acb0394ebeab8', '5be6527b0c2acb1837724e55']",2018-10-14 01:18:25,13728.0,16385.0
743,743,0.1505569696020495,0.4826796606496646,0.4826796606496646,1,0.00018561569838233303,0.0010655301012253596,0.04933750582595379,1420,8,2223,1,0,1,4,1.0,impersonator,2,1,2,1,1,4064604675,--,trump_for_ever,President Donald J. Trump,https://scontent-cdg2-1.cdninstagram.com/vp/88977f6ec61bdf3387c5268f37c1de22/5D6FCDA2/t51.2885-19/s320x320/25009778_154446445179825_1144877859790127104_n.jpg?_nc_ht=scontent-cdg2-1.cdninstagram.com,45th President of the United States,True,"['True', 'True', 'True', 'True', 'True']",2018-10-24 09:19:45,17902523278247807,BpSp6FYgV7Y,realdonaldtrump,May God let the heaven's doors al opened them,42,5,"['realdonaldtrump', 'realdonaldtrump', 'realdonaldtrump', 'realdonaldtrump', 'realdonaldtrump']","['Bpe4fLZApVQ', 'BpaEwYvgdDl', 'BpaEJqrA2Cn', 'BpZ6MWbAyfF', 'BpZqV_cAe68']","['5be498490c2acb7ef447e518', '5be4e5b20c2acb0394e8c63a', '5be56b7a0c2acb0394eb0ddf', '5be5ace20c2acb0394ebeab8', '5be6527b0c2acb1837724e55']",2018-10-23 21:56:33,13728.0,40992.0
743,743,0.1505569696020495,0.4826796606496646,0.4826796606496646,1,0.00018561569838233303,0.0010655301012253596,0.04933750582595379,1420,8,2223,1,0,1,4,1.0,impersonator,2,1,2,1,1,4064604675,--,trump_for_ever,President Donald J. Trump,https://scontent-cdg2-1.cdninstagram.com/vp/88977f6ec61bdf3387c5268f37c1de22/5D6FCDA2/t51.2885-19/s320x320/25009778_154446445179825_1144877859790127104_n.jpg?_nc_ht=scontent-cdg2-1.cdninstagram.com,45th President of the United States,True,"['True', 'True', 'True', 'True', 'True']",2018-10-14 05:55:03,17959780258146938,Bo48MwggmpB,realdonaldtrump,You dropped your opponents one by one Mr. President dropped Obama then Hilary then Detective Mueller and then North Korea then false and counterfeit media You have the spirit of courage and the same long in dropping the opponents Well done by force and faith You are the best and we love you more 😙😙😙😙,42,5,"['realdonaldtrump', 'realdonaldtrump', 'realdonaldtrump', 'realdonaldtrump', 'realdonaldtrump']","['Bpe4fLZApVQ', 'BpaEwYvgdDl', 'BpaEJqrA2Cn', 'BpZ6MWbAyfF', 'BpZqV_cAe68']","['5be498490c2acb7ef447e518', '5be4e5b20c2acb0394e8c63a', '5be56b7a0c2acb0394eb0ddf', '5be5ace20c2acb0394ebeab8', '5be6527b0c2acb1837724e55']",2018-10-13 22:15:31,13728.0,27572.0
743,743,0.1505569696020495,0.4826796606496646,0.4826796606496646,1,0.00018561569838233303,0.0010655301012253596,0.04933750582595379,1420,8,2223,1,0,1,4,1.0,impersonator,2,1,2,1,1,4064604675,--,trump_for_ever,President Donald J. Trump,https://scontent-cdg2-1.cdninstagram.com/vp/88977f6ec61bdf3387c5268f37c1de22/5D6FCDA2/t51.2885-19/s320x320/25009778_154446445179825_1144877859790127104_n.jpg?_nc_ht=scontent-cdg2-1.cdninstagram.com,45th President of the United States,True,"['True', 'True', 'True', 'True', 'True']",2018-11-29 22:20:55,17976011335181577,BqxkcApl-Ep,realdonaldtrump,well said 👍👍👍,42,5,"['realdonaldtrump', 'realdonaldtrump', 'realdonaldtrump', 'realdonaldtrump', 'realdonaldtrump']","['Bpe4fLZApVQ', 'BpaEwYvgdDl', 'BpaEJqrA2Cn', 'BpZ6MWbAyfF', 'BpZqV_cAe68']","['5be498490c2acb7ef447e518', '5be4e5b20c2acb0394e8c63a', '5be56b7a0c2acb0394eb0ddf', '5be5ace20c2acb0394ebeab8', '5be6527b0c2acb1837724e55']",2018-11-29 18:36:45,13728.0,13450.0
743,743,0.1505569696020495,0.4826796606496646,0.4826796606496646,1,0.00018561569838233303,0.0010655301012253596,0.04933750582595379,1420,8,2223,1,0,1,4,1.0,impersonator,2,1,2,1,1,4064604675,--,trump_for_ever,President Donald J. Trump,https://scontent-cdg2-1.cdninstagram.com/vp/88977f6ec61bdf3387c5268f37c1de22/5D6FCDA2/t51.2885-19/s320x320/25009778_154446445179825_1144877859790127104_n.jpg?_nc_ht=scontent-cdg2-1.cdninstagram.com,45th President of the United States,True,"['True', 'True', 'True', 'True', 'True']",2018-11-29 22:20:19,17974596214145969,BqxHoGSFPbg,realdonaldtrump,so lovely #merrychristmas President 😍😍,42,5,"['realdonaldtrump', 'realdonaldtrump', 'realdonaldtrump', 'realdonaldtrump', 'realdonaldtrump']","['Bpe4fLZApVQ', 'BpaEwYvgdDl', 'BpaEJqrA2Cn', 'BpZ6MWbAyfF', 'BpZqV_cAe68']","['5be498490c2acb7ef447e518', '5be4e5b20c2acb0394e8c63a', '5be56b7a0c2acb0394eb0ddf', '5be5ace20c2acb0394ebeab8', '5be6527b0c2acb1837724e55']",2018-11-29 14:24:32,13728.0,28547.0
743,743,0.1505569696020495,0.4826796606496646,0.4826796606496646,1,0.00018561569838233303,0.0010655301012253596,0.04933750582595379,1420,8,2223,1,0,1,4,1.0,impersonator,2,1,2,1,1,4064604675,--,trump_for_ever,President Donald J. Trump,https://scontent-cdg2-1.cdninstagram.com/vp/88977f6ec61bdf3387c5268f37c1de22/5D6FCDA2/t51.2885-19/s320x320/25009778_154446445179825_1144877859790127104_n.jpg?_nc_ht=scontent-cdg2-1.cdninstagram.com,45th President of the United States,True,"['True', 'True', 'True', 'True', 'True']",2018-11-29 22:19:43,17979223576130400,BqxHMaAlEt-,realdonaldtrump,Keep up the wonderful work,42,5,"['realdonaldtrump', 'realdonaldtrump', 'realdonaldtrump', 'realdonaldtrump', 'realdonaldtrump']","['Bpe4fLZApVQ', 'BpaEwYvgdDl', 'BpaEJqrA2Cn', 'BpZ6MWbAyfF', 'BpZqV_cAe68']","['5be498490c2acb7ef447e518', '5be4e5b20c2acb0394e8c63a', '5be56b7a0c2acb0394eb0ddf', '5be5ace20c2acb0394ebeab8', '5be6527b0c2acb1837724e55']",2018-11-29 14:20:27,13728.0,28756.0
743,743,0.1505569696020495,0.4826796606496646,0.4826796606496646,1,0.00018561569838233303,0.0010655301012253596,0.04933750582595379,1420,8,2223,1,0,1,4,1.0,impersonator,2,1,2,1,1,4064604675,--,trump_for_ever,President Donald J. Trump,https://scontent-cdg2-1.cdninstagram.com/vp/88977f6ec61bdf3387c5268f37c1de22/5D6FCDA2/t51.2885-19/s320x320/25009778_154446445179825_1144877859790127104_n.jpg?_nc_ht=scontent-cdg2-1.cdninstagram.com,45th President of the United States,True,"['True', 'True', 'True', 'True', 'True']",2018-11-29 22:19:22,17982680476082122,BqxGs_YF-Ph,realdonaldtrump,The great leader is proud that you are an intelligent and experienced politician 👏👏👏,42,5,"['realdonaldtrump', 'realdonaldtrump', 'realdonaldtrump', 'realdonaldtrump', 'realdonaldtrump']","['Bpe4fLZApVQ', 'BpaEwYvgdDl', 'BpaEJqrA2Cn', 'BpZ6MWbAyfF', 'BpZqV_cAe68']","['5be498490c2acb7ef447e518', '5be4e5b20c2acb0394e8c63a', '5be56b7a0c2acb0394eb0ddf', '5be5ace20c2acb0394ebeab8', '5be6527b0c2acb1837724e55']",2018-11-29 14:16:09,13728.0,28993.0
743,743,0.1505569696020495,0.4826796606496646,0.4826796606496646,1,0.00018561569838233303,0.0010655301012253596,0.04933750582595379,1420,8,2223,1,0,1,4,1.0,impersonator,2,1,2,1,1,4064604675,--,trump_for_ever,President Donald J. Trump,https://scontent-cdg2-1.cdninstagram.com/vp/88977f6ec61bdf3387c5268f37c1de22/5D6FCDA2/t51.2885-19/s320x320/25009778_154446445179825_1144877859790127104_n.jpg?_nc_ht=scontent-cdg2-1.cdninstagram.com,45th President of the United States,True,"['True', 'True', 'True', 'True', 'True']",2018-11-29 03:30:11,17887371208282664,BqvwoHZFxPv,realdonaldtrump,thanks God that you are our president,42,5,"['realdonaldtrump', 'realdonaldtrump', 'realdonaldtrump', 'realdonaldtrump', 'realdonaldtrump']","['Bpe4fLZApVQ', 'BpaEwYvgdDl', 'BpaEJqrA2Cn', 'BpZ6MWbAyfF', 'BpZqV_cAe68']","['5be498490c2acb7ef447e518', '5be4e5b20c2acb0394e8c63a', '5be56b7a0c2acb0394eb0ddf', '5be5ace20c2acb0394ebeab8', '5be6527b0c2acb1837724e55']",2018-11-29 01:44:01,13728.0,6370.0
743,743,0.1505569696020495,0.4826796606496646,0.4826796606496646,1,0.00018561569838233303,0.0010655301012253596,0.04933750582595379,1420,8,2223,1,0,1,4,1.0,impersonator,2,1,2,1,1,4064604675,--,trump_for_ever,President Donald J. Trump,https://scontent-cdg2-1.cdninstagram.com/vp/88977f6ec61bdf3387c5268f37c1de22/5D6FCDA2/t51.2885-19/s320x320/25009778_154446445179825_1144877859790127104_n.jpg?_nc_ht=scontent-cdg2-1.cdninstagram.com,45th President of the United States,True,"['True', 'True', 'True', 'True', 'True']",2018-11-29 03:30:59,17889102049301243,BqvwIoXFJrX,realdonaldtrump,i wish the best times for you and your family,42,5,"['realdonaldtrump', 'realdonaldtrump', 'realdonaldtrump', 'realdonaldtrump', 'realdonaldtrump']","['Bpe4fLZApVQ', 'BpaEwYvgdDl', 'BpaEJqrA2Cn', 'BpZ6MWbAyfF', 'BpZqV_cAe68']","['5be498490c2acb7ef447e518', '5be4e5b20c2acb0394e8c63a', '5be56b7a0c2acb0394eb0ddf', '5be5ace20c2acb0394ebeab8', '5be6527b0c2acb1837724e55']",2018-11-29 01:39:43,13728.0,6676.0
743,743,0.1505569696020495,0.4826796606496646,0.4826796606496646,1,0.00018561569838233303,0.0010655301012253596,0.04933750582595379,1420,8,2223,1,0,1,4,1.0,impersonator,2,1,2,1,1,4064604675,--,trump_for_ever,President Donald J. Trump,https://scontent-cdg2-1.cdninstagram.com/vp/88977f6ec61bdf3387c5268f37c1de22/5D6FCDA2/t51.2885-19/s320x320/25009778_154446445179825_1144877859790127104_n.jpg?_nc_ht=scontent-cdg2-1.cdninstagram.com,45th President of the United States,True,"['True', 'True', 'True', 'True', 'True']",2018-11-29 03:31:32,17974688878144269,BqvvQm-F6xO,realdonaldtrump,handsome President 😍😙😙😙,42,5,"['realdonaldtrump', 'realdonaldtrump', 'realdonaldtrump', 'realdonaldtrump', 'realdonaldtrump']","['Bpe4fLZApVQ', 'BpaEwYvgdDl', 'BpaEJqrA2Cn', 'BpZ6MWbAyfF', 'BpZqV_cAe68']","['5be498490c2acb7ef447e518', '5be4e5b20c2acb0394e8c63a', '5be56b7a0c2acb0394eb0ddf', '5be5ace20c2acb0394ebeab8', '5be6527b0c2acb1837724e55']",2018-11-29 01:32:59,13728.0,7113.0
743,743,0.1505569696020495,0.4826796606496646,0.4826796606496646,1,0.00018561569838233303,0.0010655301012253596,0.04933750582595379,1420,8,2223,1,0,1,4,1.0,impersonator,2,1,2,1,1,4064604675,--,trump_for_ever,President Donald J. Trump,https://scontent-cdg2-1.cdninstagram.com/vp/88977f6ec61bdf3387c5268f37c1de22/5D6FCDA2/t51.2885-19/s320x320/25009778_154446445179825_1144877859790127104_n.jpg?_nc_ht=scontent-cdg2-1.cdninstagram.com,45th President of the United States,True,"['True', 'True', 'True', 'True', 'True']",2018-11-29 01:10:00,17929257844243264,BqvsQvPljGG,realdonaldtrump,Long live the God Emperor,42,5,"['realdonaldtrump', 'realdonaldtrump', 'realdonaldtrump', 'realdonaldtrump', 'realdonaldtrump']","['Bpe4fLZApVQ', 'BpaEwYvgdDl', 'BpaEJqrA2Cn', 'BpZ6MWbAyfF', 'BpZqV_cAe68']","['5be498490c2acb7ef447e518', '5be4e5b20c2acb0394e8c63a', '5be56b7a0c2acb0394eb0ddf', '5be5ace20c2acb0394ebeab8', '5be6527b0c2acb1837724e55']",2018-11-29 01:07:28,13728.0,152.0
743,743,0.1505569696020495,0.4826796606496646,0.4826796606496646,1,0.00018561569838233303,0.0010655301012253596,0.04933750582595379,1420,8,2223,1,0,1,4,1.0,impersonator,2,1,2,1,1,4064604675,--,trump_for_ever,President Donald J. Trump,https://scontent-cdg2-1.cdninstagram.com/vp/88977f6ec61bdf3387c5268f37c1de22/5D6FCDA2/t51.2885-19/s320x320/25009778_154446445179825_1144877859790127104_n.jpg?_nc_ht=scontent-cdg2-1.cdninstagram.com,45th President of the United States,True,"['True', 'True', 'True', 'True', 'True']",2018-11-29 01:00:17,17929894006243337,BqvhldElbr1,realdonaldtrump,You are my God and I love you forever,42,5,"['realdonaldtrump', 'realdonaldtrump', 'realdonaldtrump', 'realdonaldtrump', 'realdonaldtrump']","['Bpe4fLZApVQ', 'BpaEwYvgdDl', 'BpaEJqrA2Cn', 'BpZ6MWbAyfF', 'BpZqV_cAe68']","['5be498490c2acb7ef447e518', '5be4e5b20c2acb0394e8c63a', '5be56b7a0c2acb0394eb0ddf', '5be5ace20c2acb0394ebeab8', '5be6527b0c2acb1837724e55']",2018-11-28 23:32:35,13728.0,5262.0
743,743,0.1505569696020495,0.4826796606496646,0.4826796606496646,1,0.00018561569838233303,0.0010655301012253596,0.04933750582595379,1420,8,2223,1,0,1,4,1.0,impersonator,2,1,2,1,1,4064604675,--,trump_for_ever,President Donald J. Trump,https://scontent-cdg2-1.cdninstagram.com/vp/88977f6ec61bdf3387c5268f37c1de22/5D6FCDA2/t51.2885-19/s320x320/25009778_154446445179825_1144877859790127104_n.jpg?_nc_ht=scontent-cdg2-1.cdninstagram.com,45th President of the United States,True,"['True', 'True', 'True', 'True', 'True']",2018-11-28 21:36:43,17976156958192026,BqvNJ11lpB-,realdonaldtrump,greatest President ever 😍😍😍😍😙😙,42,5,"['realdonaldtrump', 'realdonaldtrump', 'realdonaldtrump', 'realdonaldtrump', 'realdonaldtrump']","['Bpe4fLZApVQ', 'BpaEwYvgdDl', 'BpaEJqrA2Cn', 'BpZ6MWbAyfF', 'BpZqV_cAe68']","['5be498490c2acb7ef447e518', '5be4e5b20c2acb0394e8c63a', '5be56b7a0c2acb0394eb0ddf', '5be5ace20c2acb0394ebeab8', '5be6527b0c2acb1837724e55']",2018-11-28 20:34:03,13728.0,3760.0
743,743,0.1505569696020495,0.4826796606496646,0.4826796606496646,1,0.00018561569838233303,0.0010655301012253596,0.04933750582595379,1420,8,2223,1,0,1,4,1.0,impersonator,2,1,2,1,1,4064604675,--,trump_for_ever,President Donald J. Trump,https://scontent-cdg2-1.cdninstagram.com/vp/88977f6ec61bdf3387c5268f37c1de22/5D6FCDA2/t51.2885-19/s320x320/25009778_154446445179825_1144877859790127104_n.jpg?_nc_ht=scontent-cdg2-1.cdninstagram.com,45th President of the United States,True,"['True', 'True', 'True', 'True', 'True']",2018-11-28 21:37:43,17968189798171336,Bqu_cO9F95T,realdonaldtrump,God Bless the USA 👏🌲🌲,42,5,"['realdonaldtrump', 'realdonaldtrump', 'realdonaldtrump', 'realdonaldtrump', 'realdonaldtrump']","['Bpe4fLZApVQ', 'BpaEwYvgdDl', 'BpaEJqrA2Cn', 'BpZ6MWbAyfF', 'BpZqV_cAe68']","['5be498490c2acb7ef447e518', '5be4e5b20c2acb0394e8c63a', '5be56b7a0c2acb0394eb0ddf', '5be5ace20c2acb0394ebeab8', '5be6527b0c2acb1837724e55']",2018-11-28 18:34:39,13728.0,10984.0
743,743,0.1505569696020495,0.4826796606496646,0.4826796606496646,1,0.00018561569838233303,0.0010655301012253596,0.04933750582595379,1420,8,2223,1,0,1,4,1.0,impersonator,2,1,2,1,1,4064604675,--,trump_for_ever,President Donald J. Trump,https://scontent-cdg2-1.cdninstagram.com/vp/88977f6ec61bdf3387c5268f37c1de22/5D6FCDA2/t51.2885-19/s320x320/25009778_154446445179825_1144877859790127104_n.jpg?_nc_ht=scontent-cdg2-1.cdninstagram.com,45th President of the United States,True,"['True', 'True', 'True', 'True', 'True']",2018-11-28 01:51:05,17873830732295692,BqtF1QHFN9D,realdonaldtrump,you rock my world,42,5,"['realdonaldtrump', 'realdonaldtrump', 'realdonaldtrump', 'realdonaldtrump', 'realdonaldtrump']","['Bpe4fLZApVQ', 'BpaEwYvgdDl', 'BpaEJqrA2Cn', 'BpZ6MWbAyfF', 'BpZqV_cAe68']","['5be498490c2acb7ef447e518', '5be4e5b20c2acb0394e8c63a', '5be56b7a0c2acb0394eb0ddf', '5be5ace20c2acb0394ebeab8', '5be6527b0c2acb1837724e55']",2018-11-28 00:51:35,13728.0,3570.0
869,869,0.0,0.3799783615910079,0.0,1,8.365777955260079e-06,0.004794885455514118,0.002108440419912555,64,36,95,0,0,1,2,0.3333333333333333,impersonator,2,1,2,1,1,4657451189,--,weloveducks1,We ❤ Donalds Trump,https://scontent-cdg2-1.cdninstagram.com/vp/92f2e58953cbb34127a8e3e5089d7bdf/5D744DC7/t51.2885-19/s320x320/30601899_2057749921129299_2136128630642704384_n.jpg?_nc_ht=scontent-cdg2-1.cdninstagram.com,Don't claim ownership of contents posted. We're here to support &❤ ducks as a friend. Nothing less nothing more 😊,True,['True'],2018-10-14 18:07:38,17961837313135851,Bo64QFVgtzy,realdonaldtrump,"Happy birthday,  little Joseph 💚 xx",1,1,['realdonaldtrump'],['Bpe4fLZApVQ'],['5be4615b0c2acb7e97f575a2'],2018-10-14 16:19:30,6488.0,6488.0
1137,1137,0.3799783615910079,0.3799783615910079,0.1707761131901165,1,0.0001918900318487781,0.03316462440063932,0.0034622811105932483,1468,249,156,0,0,1,4,1.0,impersonator,2,1,2,1,1,6099519495,--,xmypresidenttrump,Donald Trump 🖤 17,https://scontent-cdg2-1.cdninstagram.com/vp/e4ece259d1088aa287ecc0b683d77e3d/5D39CD0A/t51.2885-19/s320x320/46941132_572403353181685_5038934925353418752_n.jpg?_nc_ht=scontent-cdg2-1.cdninstagram.com,"•Trumpwife 💯
@trumpwife 👈 Join the Fandom ❤️
•Donald Trump 😩
•MAGA 🇺🇸💯
•WWG1WGA",True,['True'],2018-10-26 17:45:28,17883339340300902,BpZ6MWbAyfF,realdonaldtrump,@mymir7475 WRONGGG,5,1,['realdonaldtrump'],['BpZqV_cAe68'],['5be63c430c2acb1837721307'],2018-10-26 17:33:57,831.0,691.0
1137,1137,0.3799783615910079,0.3799783615910079,0.1707761131901165,1,0.0001918900318487781,0.03316462440063932,0.0034622811105932483,1468,249,156,0,0,1,4,1.0,impersonator,2,1,2,1,1,6099519495,--,xmypresidenttrump,Donald Trump 🖤 17,https://scontent-cdg2-1.cdninstagram.com/vp/e4ece259d1088aa287ecc0b683d77e3d/5D39CD0A/t51.2885-19/s320x320/46941132_572403353181685_5038934925353418752_n.jpg?_nc_ht=scontent-cdg2-1.cdninstagram.com,"•Trumpwife 💯
@trumpwife 👈 Join the Fandom ❤️
•Donald Trump 😩
•MAGA 🇺🇸💯
•WWG1WGA",True,['True'],2018-10-26 17:46:18,17902724041254435,BpZ6MWbAyfF,realdonaldtrump,@planetasempt 🙌🏽🇺🇸🇧🇷,5,1,['realdonaldtrump'],['BpZqV_cAe68'],['5be63c430c2acb1837721307'],2018-10-26 17:33:57,831.0,741.0
1137,1137,0.3799783615910079,0.3799783615910079,0.1707761131901165,1,0.0001918900318487781,0.03316462440063932,0.0034622811105932483,1468,249,156,0,0,1,4,1.0,impersonator,2,1,2,1,1,6099519495,--,xmypresidenttrump,Donald Trump 🖤 17,https://scontent-cdg2-1.cdninstagram.com/vp/e4ece259d1088aa287ecc0b683d77e3d/5D39CD0A/t51.2885-19/s320x320/46941132_572403353181685_5038934925353418752_n.jpg?_nc_ht=scontent-cdg2-1.cdninstagram.com,"•Trumpwife 💯
@trumpwife 👈 Join the Fandom ❤️
•Donald Trump 😩
•MAGA 🇺🇸💯
•WWG1WGA",True,['True'],2018-10-26 14:50:22,17961859546152482,BpZnXgsAH4_,realdonaldtrump,Love seeing this 🙌🏽🇺🇸❤️,5,1,['realdonaldtrump'],['BpZqV_cAe68'],['5be63c430c2acb1837721307'],2018-10-26 14:49:14,831.0,68.0
1137,1137,0.3799783615910079,0.3799783615910079,0.1707761131901165,1,0.0001918900318487781,0.03316462440063932,0.0034622811105932483,1468,249,156,0,0,1,4,1.0,impersonator,2,1,2,1,1,6099519495,--,xmypresidenttrump,Donald Trump 🖤 17,https://scontent-cdg2-1.cdninstagram.com/vp/e4ece259d1088aa287ecc0b683d77e3d/5D39CD0A/t51.2885-19/s320x320/46941132_572403353181685_5038934925353418752_n.jpg?_nc_ht=scontent-cdg2-1.cdninstagram.com,"•Trumpwife 💯
@trumpwife 👈 Join the Fandom ❤️
•Donald Trump 😩
•MAGA 🇺🇸💯
•WWG1WGA",True,['True'],2018-10-25 21:24:34,17965069663192378,BpXr3WWAznN,realdonaldtrump,😍😍😍,5,1,['realdonaldtrump'],['BpZqV_cAe68'],['5be63c430c2acb1837721307'],2018-10-25 20:49:14,831.0,2120.0
1137,1137,0.3799783615910079,0.3799783615910079,0.1707761131901165,1,0.0001918900318487781,0.03316462440063932,0.0034622811105932483,1468,249,156,0,0,1,4,1.0,impersonator,2,1,2,1,1,6099519495,--,xmypresidenttrump,Donald Trump 🖤 17,https://scontent-cdg2-1.cdninstagram.com/vp/e4ece259d1088aa287ecc0b683d77e3d/5D39CD0A/t51.2885-19/s320x320/46941132_572403353181685_5038934925353418752_n.jpg?_nc_ht=scontent-cdg2-1.cdninstagram.com,"•Trumpwife 💯
@trumpwife 👈 Join the Fandom ❤️
•Donald Trump 😩
•MAGA 🇺🇸💯
•WWG1WGA",True,['True'],2018-10-14 16:28:25,17928023788205892,Bo64QFVgtzy,realdonaldtrump,😍😍❤️,5,1,['realdonaldtrump'],['BpZqV_cAe68'],['5be63c430c2acb1837721307'],2018-10-14 16:19:30,831.0,535.0
1612,1612,0.3748077700589727,0.0,0.05224985350000812,1,8.352706427204987e-05,0.02450719232818327,0.0067248152340368865,639,184,303,0,0,1,3,0.6666666666666667,impersonator,2,1,2,1,1,8161519465,--,realdonaldtrumpfan,Zack Knapp,https://scontent-cdg2-1.cdninstagram.com/vp/4ad35a292cfda4bd1dbbdec63d5ba770/5D762B30/t51.2885-19/s320x320/37169512_213559599307334_4467659697519853568_n.jpg?_nc_ht=scontent-cdg2-1.cdninstagram.com,"America First 🇺🇸
Political Updates
Gen-Z Conservative Leaning Libertarian
⚠️Click ""BELIEFS"" Highlight for a detailed synopsis of my beliefs",True,['True'],2018-10-25 20:38:59,17900542072259923,BpXqlirA8in,realdonaldtrump,#MAGA 🇺🇸🇺🇸🇺🇸,2,1,['realdonaldtrump'],['BpZnXgsAH4_'],['5be67ade0c2acb183772c06a'],2018-10-25 20:38:04,4410.5,55.0
1612,1612,0.3748077700589727,0.0,0.05224985350000812,1,8.352706427204987e-05,0.02450719232818327,0.0067248152340368865,639,184,303,0,0,1,3,0.6666666666666667,impersonator,2,1,2,1,1,8161519465,--,realdonaldtrumpfan,Zack Knapp,https://scontent-cdg2-1.cdninstagram.com/vp/4ad35a292cfda4bd1dbbdec63d5ba770/5D762B30/t51.2885-19/s320x320/37169512_213559599307334_4467659697519853568_n.jpg?_nc_ht=scontent-cdg2-1.cdninstagram.com,"America First 🇺🇸
Political Updates
Gen-Z Conservative Leaning Libertarian
⚠️Click ""BELIEFS"" Highlight for a detailed synopsis of my beliefs",True,['True'],2018-11-29 16:42:15,17977117813189094,BqxGs_YF-Ph,realdonaldtrump,Full scale invasion,2,1,['realdonaldtrump'],['BpZnXgsAH4_'],['5be67ade0c2acb183772c06a'],2018-11-29 14:16:09,4410.5,8766.0
1676,1676,0.0,0.0,0.317107466580271,1,1.1372229407931672e-05,0.016116142781033564,0.00031071753556606075,87,121,14,1,0,1,2,0.3333333333333333,impersonator,2,1,2,1,1,8323976198,--,hmg_theog,Hmg ist die gang,https://scontent-cdg2-1.cdninstagram.com/vp/ba6d46a243fab0b94108ccaf863609a1/5D510ED8/t51.2885-19/s320x320/42380392_297562980973209_4635615982767833088_n.jpg?_nc_ht=scontent-cdg2-1.cdninstagram.com,Alle hässlich                                                                             @realdonaldtrump❤️,True,['True'],2018-10-14 19:55:15,17858253499295509,Bo64QFVgtzy,realdonaldtrump,Joseph is Killing These pictures!!😍😍,1,1,['realdonaldtrump'],['Bpe4fLZApVQ'],['5be46a290c2acb7ef4461d53'],2018-10-14 16:19:30,12945.0,12945.0
