,Unnamed: 0,username,name,bio,photo,nfollower,nfollowee,nmediacount,follower,followee,mediacount,private,verified,lcm,mcm,nmcm,class,class BGM 3,class GM 3,class kmeans 3,class spectral 3,class GM 4,owener_id,combined_owener_external_url,combined_username,combined_full_name,combined_profile_pic_url,combined_biography,combined_similarity_photo_comment,combined_similarity_photo_like,comment_created_at,comment_id,comment_post_shortcode,comment_shortcode_username,comment_text,comment_total,like_total,like_shortcode_username,like_post_shortcode,like_id,comment_post_date,comment_avg_age_sec,comment_age_sec
52,52,0.0,0.0,0.3684799318577813,0,7.058625149750693e-05,0.0394246137453383,0.002996204807244157,540,296,135,0,0,1,1,0.0,impersonator,1,2,1,2,2,261147802,--,beamerdreamer911,Laura Kahle,https://scontent-cdg2-1.cdninstagram.com/vp/87c6f144383ec4d4ca783f7c4daa02a7/5D3986C7/t51.2885-19/s320x320/43441403_153743948912185_7847679254438346752_n.jpg?_nc_ht=scontent-cdg2-1.cdninstagram.com,I’m running for President of the United States is America! Vote Kahle 2020! Help me @barackobama,False,['False'],2018-10-31 05:15:57,17920424923233222,BpkBAjRgrqI,barackobama,#kahle2020 #kahleforpresident,11,1,['barackobama'],['Bpm3hFPgk-h'],['5c13e9af9c86fa4d5a33dc21'],2018-10-30 15:44:53,2086793.2727272727,48664.0
52,52,0.0,0.0,0.3684799318577813,0,7.058625149750693e-05,0.0394246137453383,0.002996204807244157,540,296,135,0,0,1,1,0.0,impersonator,1,2,1,2,2,261147802,--,beamerdreamer911,Laura Kahle,https://scontent-cdg2-1.cdninstagram.com/vp/87c6f144383ec4d4ca783f7c4daa02a7/5D3986C7/t51.2885-19/s320x320/43441403_153743948912185_7847679254438346752_n.jpg?_nc_ht=scontent-cdg2-1.cdninstagram.com,I’m running for President of the United States is America! Vote Kahle 2020! Help me @barackobama,False,['False'],2018-10-31 05:16:06,17972550652095128,BpkBAjRgrqI,barackobama,🚨🇺🇸💗🌈🦋,11,1,['barackobama'],['Bpm3hFPgk-h'],['5c13e9af9c86fa4d5a33dc21'],2018-10-30 15:44:53,2086793.2727272727,48673.0
52,52,0.0,0.0,0.3684799318577813,0,7.058625149750693e-05,0.0394246137453383,0.002996204807244157,540,296,135,0,0,1,1,0.0,impersonator,1,2,1,2,2,261147802,--,beamerdreamer911,Laura Kahle,https://scontent-cdg2-1.cdninstagram.com/vp/87c6f144383ec4d4ca783f7c4daa02a7/5D3986C7/t51.2885-19/s320x320/43441403_153743948912185_7847679254438346752_n.jpg?_nc_ht=scontent-cdg2-1.cdninstagram.com,I’m running for President of the United States is America! Vote Kahle 2020! Help me @barackobama,False,['False'],2018-10-08 02:30:01,17982226600067663,BneQYW7nhkb,barackobama,911,11,1,['barackobama'],['Bpm3hFPgk-h'],['5c13e9af9c86fa4d5a33dc21'],2018-09-08 17:00:58,2086793.2727272727,2539743.0
52,52,0.0,0.0,0.3684799318577813,0,7.058625149750693e-05,0.0394246137453383,0.002996204807244157,540,296,135,0,0,1,1,0.0,impersonator,1,2,1,2,2,261147802,--,beamerdreamer911,Laura Kahle,https://scontent-cdg2-1.cdninstagram.com/vp/87c6f144383ec4d4ca783f7c4daa02a7/5D3986C7/t51.2885-19/s320x320/43441403_153743948912185_7847679254438346752_n.jpg?_nc_ht=scontent-cdg2-1.cdninstagram.com,I’m running for President of the United States is America! Vote Kahle 2020! Help me @barackobama,False,['False'],2018-10-08 02:30:24,17911626811242344,BneQYW7nhkb,barackobama,Barack Obama. Call #kahle2020,11,1,['barackobama'],['Bpm3hFPgk-h'],['5c13e9af9c86fa4d5a33dc21'],2018-09-08 17:00:58,2086793.2727272727,2539766.0
52,52,0.0,0.0,0.3684799318577813,0,7.058625149750693e-05,0.0394246137453383,0.002996204807244157,540,296,135,0,0,1,1,0.0,impersonator,1,2,1,2,2,261147802,--,beamerdreamer911,Laura Kahle,https://scontent-cdg2-1.cdninstagram.com/vp/87c6f144383ec4d4ca783f7c4daa02a7/5D3986C7/t51.2885-19/s320x320/43441403_153743948912185_7847679254438346752_n.jpg?_nc_ht=scontent-cdg2-1.cdninstagram.com,I’m running for President of the United States is America! Vote Kahle 2020! Help me @barackobama,False,['False'],2018-10-08 02:28:33,17925791152203755,BneQYW7nhkb,barackobama,Here I am. #46. Call me 513-502-9253. Please help.,11,1,['barackobama'],['Bpm3hFPgk-h'],['5c13e9af9c86fa4d5a33dc21'],2018-09-08 17:00:58,2086793.2727272727,2539655.0
52,52,0.0,0.0,0.3684799318577813,0,7.058625149750693e-05,0.0394246137453383,0.002996204807244157,540,296,135,0,0,1,1,0.0,impersonator,1,2,1,2,2,261147802,--,beamerdreamer911,Laura Kahle,https://scontent-cdg2-1.cdninstagram.com/vp/87c6f144383ec4d4ca783f7c4daa02a7/5D3986C7/t51.2885-19/s320x320/43441403_153743948912185_7847679254438346752_n.jpg?_nc_ht=scontent-cdg2-1.cdninstagram.com,I’m running for President of the United States is America! Vote Kahle 2020! Help me @barackobama,False,['False'],2018-10-08 02:28:46,17954109073160363,BneQYW7nhkb,barackobama,Presidential Alert 🚨!!!!,11,1,['barackobama'],['Bpm3hFPgk-h'],['5c13e9af9c86fa4d5a33dc21'],2018-09-08 17:00:58,2086793.2727272727,2539668.0
52,52,0.0,0.0,0.3684799318577813,0,7.058625149750693e-05,0.0394246137453383,0.002996204807244157,540,296,135,0,0,1,1,0.0,impersonator,1,2,1,2,2,261147802,--,beamerdreamer911,Laura Kahle,https://scontent-cdg2-1.cdninstagram.com/vp/87c6f144383ec4d4ca783f7c4daa02a7/5D3986C7/t51.2885-19/s320x320/43441403_153743948912185_7847679254438346752_n.jpg?_nc_ht=scontent-cdg2-1.cdninstagram.com,I’m running for President of the United States is America! Vote Kahle 2020! Help me @barackobama,False,['False'],2018-10-08 02:29:00,17969972938120758,BneQYW7nhkb,barackobama,Barack Obama. 911. Call me.,11,1,['barackobama'],['Bpm3hFPgk-h'],['5c13e9af9c86fa4d5a33dc21'],2018-09-08 17:00:58,2086793.2727272727,2539682.0
52,52,0.0,0.0,0.3684799318577813,0,7.058625149750693e-05,0.0394246137453383,0.002996204807244157,540,296,135,0,0,1,1,0.0,impersonator,1,2,1,2,2,261147802,--,beamerdreamer911,Laura Kahle,https://scontent-cdg2-1.cdninstagram.com/vp/87c6f144383ec4d4ca783f7c4daa02a7/5D3986C7/t51.2885-19/s320x320/43441403_153743948912185_7847679254438346752_n.jpg?_nc_ht=scontent-cdg2-1.cdninstagram.com,I’m running for President of the United States is America! Vote Kahle 2020! Help me @barackobama,False,['False'],2018-10-08 02:29:10,17964992242094617,BneQYW7nhkb,barackobama,#kahle2020,11,1,['barackobama'],['Bpm3hFPgk-h'],['5c13e9af9c86fa4d5a33dc21'],2018-09-08 17:00:58,2086793.2727272727,2539692.0
52,52,0.0,0.0,0.3684799318577813,0,7.058625149750693e-05,0.0394246137453383,0.002996204807244157,540,296,135,0,0,1,1,0.0,impersonator,1,2,1,2,2,261147802,--,beamerdreamer911,Laura Kahle,https://scontent-cdg2-1.cdninstagram.com/vp/87c6f144383ec4d4ca783f7c4daa02a7/5D3986C7/t51.2885-19/s320x320/43441403_153743948912185_7847679254438346752_n.jpg?_nc_ht=scontent-cdg2-1.cdninstagram.com,I’m running for President of the United States is America! Vote Kahle 2020! Help me @barackobama,False,['False'],2018-10-08 02:29:38,17856213736289339,BneQYW7nhkb,barackobama,513-502-9253,11,1,['barackobama'],['Bpm3hFPgk-h'],['5c13e9af9c86fa4d5a33dc21'],2018-09-08 17:00:58,2086793.2727272727,2539720.0
52,52,0.0,0.0,0.3684799318577813,0,7.058625149750693e-05,0.0394246137453383,0.002996204807244157,540,296,135,0,0,1,1,0.0,impersonator,1,2,1,2,2,261147802,--,beamerdreamer911,Laura Kahle,https://scontent-cdg2-1.cdninstagram.com/vp/87c6f144383ec4d4ca783f7c4daa02a7/5D3986C7/t51.2885-19/s320x320/43441403_153743948912185_7847679254438346752_n.jpg?_nc_ht=scontent-cdg2-1.cdninstagram.com,I’m running for President of the United States is America! Vote Kahle 2020! Help me @barackobama,False,['False'],2018-10-08 02:29:44,17986919986018432,BneQYW7nhkb,barackobama,🇺🇸💗🌈🦋,11,1,['barackobama'],['Bpm3hFPgk-h'],['5c13e9af9c86fa4d5a33dc21'],2018-09-08 17:00:58,2086793.2727272727,2539726.0
52,52,0.0,0.0,0.3684799318577813,0,7.058625149750693e-05,0.0394246137453383,0.002996204807244157,540,296,135,0,0,1,1,0.0,impersonator,1,2,1,2,2,261147802,--,beamerdreamer911,Laura Kahle,https://scontent-cdg2-1.cdninstagram.com/vp/87c6f144383ec4d4ca783f7c4daa02a7/5D3986C7/t51.2885-19/s320x320/43441403_153743948912185_7847679254438346752_n.jpg?_nc_ht=scontent-cdg2-1.cdninstagram.com,I’m running for President of the United States is America! Vote Kahle 2020! Help me @barackobama,False,['False'],2018-10-08 02:29:55,17869267600284353,BneQYW7nhkb,barackobama,Presidential Alert 🚨,11,1,['barackobama'],['Bpm3hFPgk-h'],['5c13e9af9c86fa4d5a33dc21'],2018-09-08 17:00:58,2086793.2727272727,2539737.0
2324,2324,0.0,0.0,0.3799783615910079,0,0.00013581317649242537,0.1134789557805008,0.0011984819228976632,1039,852,54,1,0,1,1,0.0,impersonator,1,2,1,2,2,295712887,--,mycahstewart,m y c a h,https://scontent-cdg2-1.cdninstagram.com/vp/9ee05fa39e44a9c82c8a95a6d9921817/5D3E872A/t51.2885-19/s320x320/51459498_395575154321260_7847520856044470272_n.jpg?_nc_ht=scontent-cdg2-1.cdninstagram.com,@barackobama,False,[],2018-09-09 13:37:34,17871314719274654,BneQYW7nhkb,barackobama,@julietgear hey look it’s us,1,1,[],[],[],2018-09-08 17:00:58,74196.0,74196.0
2385,2385,0.0,0.0,0.4826796606496646,0,0.000226268150633675,0.5978955780500799,0.0010209290454313423,1731,4489,46,1,0,1,1,0.0,impersonator,1,2,1,2,2,1009522019,--,maasai_adventures,Samson Maasai,-,"Dad,husband,citizen",False,[],2018-10-04 05:36:11,17987684371037710,Boe36wUhTKe,barackobama,"Congrats,Wishing all the best",2,1,[],[],[],2018-10-03 19:17:51,37166.5,37100.0
2385,2385,0.0,0.0,0.4826796606496646,0,0.000226268150633675,0.5978955780500799,0.0010209290454313423,1731,4489,46,1,0,1,1,0.0,impersonator,1,2,1,2,2,1009522019,--,maasai_adventures,Samson Maasai,-,"Dad,husband,citizen",False,[],2018-10-04 05:38:24,17970430141106028,Boe36wUhTKe,barackobama,@gemma_hancy am support her @michelleobama,2,1,[],[],[],2018-10-03 19:17:51,37166.5,37233.0
2390,2390,0.0,0.0,0.3799783615910079,0,8.614136988306865e-05,0.2457378795950985,0.00011097054841645026,659,1845,5,1,0,1,1,0.0,impersonator,1,2,1,2,2,1062592542,--,whoissamii,سامي,https://scontent-cdg2-1.cdninstagram.com/vp/d3ba391de5c2e61e0d107fcb25db84bd/5D42D814/t51.2885-19/s320x320/56803573_409727673141992_9062000915724107776_n.jpg?_nc_ht=scontent-cdg2-1.cdninstagram.com,United States,False,[],2018-09-08 22:41:24,17945936095165767,BneQYW7nhkb,barackobama,Miss you daddy,1,1,[],[],[],2018-09-08 17:00:58,20426.0,20426.0
2975,2975,0.0,0.0,0.4826796606496646,0,3.0456660368368733e-05,0.017048481619605753,0.00013316465809974033,233,128,6,0,0,1,1,0.0,impersonator,1,2,1,2,2,4668384399,--,m_aas3,Kwame,https://scontent-cdg2-1.cdninstagram.com/vp/8a86f2a00819fcdccfb789d795afd963/5D523B68/t51.2885-19/s320x320/55765616_375281249726241_6719661460567359488_n.jpg?_nc_ht=scontent-cdg2-1.cdninstagram.com,@barackobama is my president🇺🇸🇺🇸,False,[],2018-09-09 16:19:32,17879620267269457,Bnb_D40nl_q,barackobama,🙌,1,1,[],[],[],2018-09-07 19:51:09,160103.0,160103.0
2997,2997,0.0,0.0,0.5797386715376658,0,3.6600278554262855e-06,0.033697389451251995,0.011740684022460438,28,253,529,1,0,1,1,0.0,impersonator,1,2,1,2,2,4947852726,--,sikoralovingjuice,"raz ""not a queen stan"" carnako",-,"Dad, husband, President, citizen.",False,[],2018-10-18 05:18:21,17989987615005434,BneQYW7nhkb,barackobama,🐐🐐,1,1,[],[],[],2018-09-08 17:00:58,3413843.0,3413843.0
3032,3032,0.0,0.0,0.3799783615910079,0,4.470462594842106e-05,0.05913692061800745,0.002752069600727967,342,444,124,0,0,1,1,0.0,impersonator,1,2,1,2,2,5462759276,--,geoffgrund,Geoff Grund,https://scontent-cdg2-1.cdninstagram.com/vp/6eaf227ff0f58deae0c642701537fec5/5D71EEC2/t51.2885-19/s320x320/18443201_498886560502319_5611282490556678144_a.jpg?_nc_ht=scontent-cdg2-1.cdninstagram.com,Husband and Dad.,False,[],2018-09-07 20:06:43,17951362156191886,Bnb_D40nl_q,barackobama,His remarks are so refreshing to hear. !! Go BO. #hope,1,1,[],[],[],2018-09-07 19:51:09,934.0,934.0
3205,3205,0.0,0.0,0.3799783615910079,0,7.842916833056327e-07,0.005993606819392648,0.00033291164524935083,6,45,15,1,0,1,1,0.0,impersonator,1,2,1,2,2,6609508342,--,enjoycouponing,Barbara Perry,https://scontent-arn2-2.cdninstagram.com/vp/af4fb198ca1f0e7c5c62fcb9dd769435/5D5480F1/t51.2885-19/44884218_345707102882519_2446069589734326272_n.jpg?_nc_ht=scontent-arn2-2.cdninstagram.com,United States,False,[],2018-09-08 17:50:59,17976961024024147,BneQYW7nhkb,barackobama,Lol...,1,1,[],[],[],2018-09-08 17:00:58,3001.0,3001.0
3519,3519,0.0,0.0,0.5056055588739691,0,4.575034819282857e-06,0.0010655301012253596,6.658232904987016e-05,35,8,3,0,0,1,1,0.0,impersonator,1,2,1,2,2,8322254459,--,ron_orlowski,Ron Orlowski,https://scontent-cdg2-1.cdninstagram.com/vp/76377b25e1994275140abb824f4fecdd/5D3CD1D6/t51.2885-19/s320x320/38081234_293144277912354_2276996844917620736_n.jpg?_nc_ht=scontent-cdg2-1.cdninstagram.com,"Dad, husband, president, citizen
www.obama.org/",False,[],2018-10-04 20:09:01,17953141732164805,Boe36wUhTKe,barackobama,Congratulations my brother,1,1,[],[],[],2018-10-03 19:17:51,89470.0,89470.0
3560,3560,0.0,0.0,0.3748077700589727,0,7.5814862719544495e-06,0.0033297815663292487,0.001708946445613334,58,25,77,0,0,1,1,0.0,impersonator,1,2,1,2,2,8504975976,--,realherpestrump,Herpes D. Trump,https://scontent-cdg2-1.cdninstagram.com/vp/c4fc1ce3179a343dfefee491d25997b6/5D74BE40/t51.2885-19/s320x320/39304310_390546548144614_3654571312635969536_n.jpg?_nc_ht=scontent-cdg2-1.cdninstagram.com,"My son, 45th President of the United States",False,[],2018-09-27 23:30:56,17953995775181777,BneQYW7nhkb,barackobama,"@barackobama you should follow me, I am @realdonaldtrump dad 💕💕",1,1,[],[],[],2018-09-08 17:00:58,1664998.0,1664998.0
3630,3630,0.0,0.0,0.4826796606496646,0,9.934361321871344e-06,0.0007991475759190198,4.43882193665801e-05,76,6,2,0,0,1,1,0.0,impersonator,1,2,1,2,2,8685019677,--,thomasoppar,thomas jefferson,-,3rd President of the United States 🇺🇸✊🏻,False,[],2018-10-08 17:57:51,17957052169158727,Boe36wUhTKe,barackobama,"you sir, keep our country thriving",1,1,[],[],[],2018-10-03 19:17:51,427200.0,427200.0
3665,3665,0.0,0.0,0.4826796606496646,0,5.490041783139428e-06,0.0005327650506126798,0.00011097054841645026,42,4,5,0,0,1,1,0.0,impersonator,1,2,1,2,2,8880854383,--,sameimageofbaldtrump,Donald J. Trump,-,45th President of the United States,False,[],2018-10-20 01:11:02,17976607846099850,Boe36wUhTKe,barackobama,"I post the same image of bald trump everyday 
MAGA 🇺🇸🇺🇸🇺🇸🇺🇸🇺🇸",2,1,[],[],[],2018-10-03 19:17:51,1372466.5,1403591.0
3665,3665,0.0,0.0,0.4826796606496646,0,5.490041783139428e-06,0.0005327650506126798,0.00011097054841645026,42,4,5,0,0,1,1,0.0,impersonator,1,2,1,2,2,8880854383,--,sameimageofbaldtrump,Donald J. Trump,-,45th President of the United States,False,[],2018-10-19 07:53:33,17975920453099498,Boe36wUhTKe,barackobama,"I post the same picture of bald Donald Trump everyday. 
Join me as I Make America Great Again 🇺🇸",2,1,[],[],[],2018-10-03 19:17:51,1372466.5,1341342.0
