,Unnamed: 0,username,name,bio,photo,nfollower,nfollowee,nmediacount,follower,followee,mediacount,private,verified,lcm,mcm,nmcm,class,class BGM 3,class GM 3,class kmeans 3,class spectral 3,class GM 4,owener_id,combined_owener_external_url,combined_username,combined_full_name,combined_profile_pic_url,combined_biography,combined_similarity_photo_comment,combined_similarity_photo_like,comment_created_at,comment_id,comment_post_shortcode,comment_shortcode_username,comment_text,comment_total,like_total,like_shortcode_username,like_post_shortcode,like_id,comment_post_date,comment_avg_age_sec,comment_age_sec
170,170,0.0,0.0,0.3032160644503863,1,6.182832770059403e-05,0.08084709643047415,2.219410968329005e-05,473,607,1,1,0,1,2,0.3333333333333333,impersonator,2,1,2,1,1,1022298227,--,gonii_os,Goni Osmani 🇽🇰,https://scontent-cdg2-1.cdninstagram.com/vp/70bed962d8ecb8d2003c6deace9cd5a0/5D70D7C9/t51.2885-19/s320x320/53607369_266845410897643_6414043832735760384_n.jpg?_nc_ht=scontent-cdg2-1.cdninstagram.com,@leomessi ⚽️❤️,[],['True'],[],[],[],[],[],0,0,leomessi,BqxsjDuHnIM,5c47abf10c2acb1d2a28fac7,[],0.0,[]
181,181,0.2150703257057708,0.3032160644503863,0.0787446034559451,1,0.005737747239783457,0.04302077783697389,0.015735623765452646,43895,323,709,0,0,1,4,1.0,impersonator,2,1,2,1,1,1129809957,--,leomessi_pix,Leo Messi,https://scontent-cdg2-1.cdninstagram.com/vp/70ef87364d5bb47fea22960068e126cb/5D757C76/t51.2885-19/s320x320/44738322_573540026424730_1070572911229665280_n.jpg?_nc_ht=scontent-cdg2-1.cdninstagram.com,"Messista👧🇮🇷
FanPage for
King Leo and His Beautiful Family
and The Best Club in the world BARCA
#VamosArgentina
Leo❤Anto💙Thiago💚Mateo💜Ciro💛","['True', 'True']",['True'],"['2018-11-27 10:49:27', '2018-11-27 10:48:59']","['17978726314138372', '17989885999101390']","['BqncHSlHsdK', 'BqnbzL3nJdX']","['leomessi', 'leomessi']","['Boys 😍😍👑😂😂', 'what a Dancer 😂😂😍😍']",2,1,leomessi,BqxsjDuHnIM,5c4793d00c2acb1d2a278cc0,"['2018-11-25 20:11:01', '2018-11-25 20:08:45']",139160.0,"['139106.0', '139214.0']"
234,234,0.0,0.0,0.3032160644503863,1,5.934473737012621e-05,0.0007991475759190198,0.00033291164524935083,454,6,15,1,0,1,2,0.3333333333333333,impersonator,2,1,2,1,1,1462262013,--,1mazen_osama,mazen osama,https://scontent-cdg2-1.cdninstagram.com/vp/335ab49888932413cfa458668f9dccb7/5D3B9C94/t51.2885-19/s320x320/19534155_1852042768455960_6189313963939856384_a.jpg?_nc_ht=scontent-cdg2-1.cdninstagram.com,Leo Messi 🌚,[],['True'],[],[],[],[],[],0,0,leomessi,BqxsjDuHnIM,5c47919a0c2acb1d2a276f8f,[],0.0,[]
370,370,0.0,0.3032160644503863,0.0,1,9.803646041320406e-06,0.059669685668620125,0.00022194109683290053,75,448,10,1,0,1,2,0.3333333333333333,impersonator,2,1,2,1,1,1913096055,--,aadeaa123,💎🔐Leo Messi🔐💎,https://scontent-cdg2-1.cdninstagram.com/vp/5cac5a1339bc12a773bb64ebbf0c9b0b/5D53628A/t51.2885-19/s320x320/56400584_327930681127410_6484820809259941888_n.jpg?_nc_ht=scontent-cdg2-1.cdninstagram.com,DURIMI IKA RRËNJET E THELA POR FRUTRT I KA TË ËMBLA,[],['True'],[],[],[],[],[],0,0,leomessi,BqxsjDuHnIM,5c47a65b0c2acb1d2a28a561,[],0.0,[]
476,476,0.2150703257057708,0.3032160644503863,0.0,1,1.1241514127380734e-05,0.0006659563132658497,0.0025523226135783558,86,5,115,1,0,1,3,0.6666666666666667,impersonator,2,1,2,1,1,2254711824,--,leo_messi_the_legend_,Leo  Messi,https://scontent-cdg2-1.cdninstagram.com/vp/dc248237e15212fc730b5f51ecb8137d/5D722499/t51.2885-19/s320x320/21227108_160806071140931_8374072005309235200_a.jpg?_nc_ht=scontent-cdg2-1.cdninstagram.com,,[],['True'],[],[],[],[],[],0,0,leomessi,BqxsjDuHnIM,5c478ce30c2acb1d2a27310d,[],0.0,[]
477,477,0.1216033147861901,0.3032160644503863,0.1152155433779312,1,0.00014600896837539857,0.5384922749067661,0.0076125796213684874,1117,4043,343,0,0,1,4,1.0,impersonator,2,1,2,1,1,2257832872,--,leomes5i,LeoMessi,https://scontent-cdg2-1.cdninstagram.com/vp/c4961a7617d24e7256d9b87339c15908/5D76EC87/t51.2885-19/s320x320/43076631_244845922876060_1926985150919344128_n.jpg?_nc_ht=scontent-cdg2-1.cdninstagram.com,"Welcome to the fan page of( Messi and Barcelona)
Top management: mmmt",[],['True'],[],[],[],[],[],0,0,leomessi,BqxsjDuHnIM,5c4792850c2acb1d2a2788fc,[],0.0,[]
740,740,0.1216033147861901,0.3032160644503863,0.0,1,7.607629328064636e-05,0.02144379328716036,0.0,582,161,0,0,0,1,3,0.6666666666666667,impersonator,2,1,2,1,1,4051055443,--,boleo_messi,leo messi,https://scontent-cdg2-1.cdninstagram.com/vp/5f5ab0f1e6ec5baae3e268737bf1658e/5D5B0FE7/t51.2885-19/s320x320/46722454_675184936210283_7630392551081508864_n.jpg?_nc_ht=scontent-cdg2-1.cdninstagram.com,,[],['True'],[],[],[],[],[],0,0,leomessi,BqxsjDuHnIM,5c479f280c2acb1d2a2841a7,[],0.0,[]
965,965,0.0,0.0,0.3032160644503863,1,1.0457222444075099e-05,0.008124667021843366,2.219410968329005e-05,80,61,1,1,0,1,2,0.3333333333333333,impersonator,2,1,2,1,1,5487872129,--,__.suman_10,Suman Giri,https://scontent-cdg2-1.cdninstagram.com/vp/dcf7b6f4241b459a96ea598a7ef417f1/5D6F6A83/t51.2885-19/s320x320/40944099_849084922148549_7061125950603264000_n.jpg?_nc_ht=scontent-cdg2-1.cdninstagram.com,Leo Messi❤,[],['True'],[],[],[],[],[],0,0,leomessi,BqxsjDuHnIM,5c47ae780c2acb1d2a2920f0,[],0.0,[]
1119,1119,0.0,0.3032160644503863,0.0,1,2.1175875449252082e-05,0.20138518913159292,0.0008433761679650222,162,1512,38,0,0,1,2,0.3333333333333333,impersonator,2,1,2,1,1,6030201007,--,i_am_limon_faisal,Leo Messi,https://scontent-cdg2-1.cdninstagram.com/vp/d16d72ddaae3351f24613cf61b10164c/5D5D03A3/t51.2885-19/s320x320/24332406_1948364941846661_3337680473689161728_n.jpg?_nc_ht=scontent-cdg2-1.cdninstagram.com,,[],['True'],[],[],[],[],[],0,0,leomessi,BqxsjDuHnIM,5c47a9d20c2acb1d2a28e263,[],0.0,[]
1232,1232,0.1757860783933462,0.3032160644503863,0.5797386715376658,1,1.947657680208988e-05,0.999334043686734,0.0005104645227156712,149,7503,23,0,0,1,4,1.0,impersonator,2,1,2,1,1,6607578730,--,leomessi.best8856,Leo Messi,https://scontent-cdg2-1.cdninstagram.com/vp/31ff442cd4160ad0ff7999fd3fd21510/5D534225/t51.2885-19/s320x320/41632011_346959802709500_3949582776428134400_n.jpg?_nc_ht=scontent-cdg2-1.cdninstagram.com,Welcome to my Instagram account/ Leo Messi,[],['True'],[],[],[],[],[],0,0,leomessi,BqxsjDuHnIM,5c4797140c2acb1d2a27c4b9,[],0.0,[]
1258,1258,0.2150703257057708,0.3032160644503863,0.0,1,2.627377139073869e-05,0.0019978689397975487,0.0010209290454313423,201,15,46,0,0,1,3,0.6666666666666667,impersonator,2,1,2,1,1,6780567585,--,leomessi9510,LeoMessi,https://scontent-cdg2-1.cdninstagram.com/vp/7f504a06de28bc9b1c48bac053396b42/5D55473B/t51.2885-19/s320x320/42002973_2105130013041037_3026143831167860736_n.jpg?_nc_ht=scontent-cdg2-1.cdninstagram.com,Est&fcb,[],['True'],[],[],[],[],[],0,0,leomessi,BqxsjDuHnIM,5c47a0e90c2acb1d2a285101,[],0.0,[]
1276,1276,0.3032160644503863,0.3032160644503863,0.0,1,2.653520195184057e-05,0.11014917421417154,0.00019974698714961048,203,827,9,0,0,1,3,0.6666666666666667,impersonator,2,1,2,1,1,6836156718,--,0leo_messi0,Leo Messi,https://scontent-cdg2-1.cdninstagram.com/vp/ac4c2f6a770f0c90fc7e9dc83465f5b9/5D50E87C/t51.2885-19/s320x320/47584828_337828337054584_8521359958741090304_n.jpg?_nc_ht=scontent-cdg2-1.cdninstagram.com,,[],['True'],[],[],[],[],[],0,0,leomessi,BqxsjDuHnIM,5c4797340c2acb1d2a27c8b7,[],0.0,[]
1291,1291,0.3032160644503863,0.3032160644503863,0.0,1,0.003833617747997932,0.005327650506126797,0.0042612690591916896,29328,40,192,0,0,1,3,0.6666666666666667,impersonator,2,1,2,1,1,6877447204,--,leomessi.al,Leo Messi,https://scontent-cdg2-1.cdninstagram.com/vp/095693b7ce33b069f6f6a6203d950e10/5D434B5B/t51.2885-19/s320x320/51780449_356644391591649_314409932692652032_n.jpg?_nc_ht=scontent-cdg2-1.cdninstagram.com,🇦🇱,[],['True'],[],[],[],[],[],0,0,leomessi,BqxsjDuHnIM,5c47a6be0c2acb1d2a28afef,[],0.0,[]
1313,1313,0.2150703257057708,0.3032160644503863,0.0,1,1.816942399658049e-05,0.0500799147575919,0.003728610426792729,139,376,168,0,0,1,3,0.6666666666666667,impersonator,2,1,2,1,1,6969171551,--,leomessi9090,Leo  Messi10,https://scontent-cdg2-1.cdninstagram.com/vp/23bd9fc0673a88edaaaf679f7b88edd7/5D53E3F1/t51.2885-19/s320x320/47693240_374900446402593_8211695161751633920_n.jpg?_nc_ht=scontent-cdg2-1.cdninstagram.com,,[],['True'],[],[],[],[],[],0,0,leomessi,BqxsjDuHnIM,5c478fee0c2acb1d2a2761f5,[],0.0,[]
1353,1353,0.0942717136498496,0.3032160644503863,0.0762461164831138,1,0.0031442253583722807,0.006393180607352157,0.0014870053487804336,24054,48,67,0,0,1,4,1.0,impersonator,2,1,2,1,1,7162197033,--,lio.messi.club,Leo Messi❤,https://scontent-cdg2-1.cdninstagram.com/vp/f299cb457397b146a47c1fe919cc3b16/5D7825AC/t51.2885-19/s320x320/52634677_392223921609386_6916481463642750976_n.jpg?_nc_ht=scontent-cdg2-1.cdninstagram.com,"Fan page dedicated to Leo Messi the greatest footballer ever
Start-8/7/18
Follow & support
Goal-25k
My best friend forever @neymarjr523",[],['True'],[],[],[],[],[],0,0,leomessi,BqxsjDuHnIM,5c479bb30c2acb1d2a28039b,[],0.0,[]
1441,1441,0.1216033147861901,0.3032160644503863,0.0,1,7.842916833056325e-06,0.003596164091635589,0.0027076813813613865,60,27,122,1,0,1,3,0.6666666666666667,impersonator,2,1,2,1,1,7561800847,--,messi_4880,LEO MESSI,https://scontent-cdg2-1.cdninstagram.com/vp/de3e3187f821341df47e3aa980b013e1/5D76C42C/t51.2885-19/s320x320/57113200_841215316213364_6823865763829383168_n.jpg?_nc_ht=scontent-cdg2-1.cdninstagram.com,,[],['True'],[],[],[],[],[],0,0,leomessi,BqxsjDuHnIM,5c47a8bb0c2acb1d2a28c742,[],0.0,[]
1532,1532,0.3032160644503863,0.0,0.1757860783933462,1,6.143618185894122e-06,0.040889717634523176,0.00013316465809974033,47,307,6,0,0,1,3,0.6666666666666667,impersonator,2,1,2,1,1,7930900509,--,_leo_messi_1.0_,,https://scontent-cdg2-1.cdninstagram.com/vp/ac2d689db5fc23a071f44cfb0600bfc2/5D50F855/t51.2885-19/s320x320/46344072_339090463545541_9072759920469737472_n.jpg?_nc_ht=scontent-cdg2-1.cdninstagram.com,"Leo Messi 
Fan Page
MESSI 10 👈👌💪💚👀👦",[],['True'],[],[],[],[],[],0,0,leomessi,BqxsjDuHnIM,5c47a6f40c2acb1d2a28b5e4,[],0.0,[]
1561,1561,0.0,0.3032160644503863,0.0,1,3.921458416528163e-06,0.005194459243473628,0.0009765408260647623,30,39,44,0,0,1,2,0.3333333333333333,impersonator,2,1,2,1,1,8052171776,--,izwy8t9,leomessie,https://scontent-cdg2-1.cdninstagram.com/vp/cef0f3f0570d2b07a8c37a1daacbf236/5D6F253C/t51.2885-19/s320x320/34650198_2031667787094266_1729445199655993344_n.jpg?_nc_ht=scontent-cdg2-1.cdninstagram.com,,[],['True'],[],[],[],[],[],0,0,leomessi,BqxsjDuHnIM,5c4794d10c2acb1d2a27a804,[],0.0,[]
1657,1657,0.3032160644503863,0.3032160644503863,1.0,1,3.790743135977224e-06,0.014517847629195524,8.87764387331602e-05,29,109,4,0,0,1,4,1.0,impersonator,2,1,2,1,1,8276695609,--,10leomessi10____,Leo Messi,https://scontent-cdg2-1.cdninstagram.com/vp/93d2da426c2df658a88c32ef7fdd777d/5D76241D/t51.2885-19/s320x320/38792568_709146722773612_4352397176320557056_n.jpg?_nc_ht=scontent-cdg2-1.cdninstagram.com,Bienvenidos a la cuenta oficial de Instagram de Leo Messi / Welcome to the official Leo Messi Instagram account,[],['True'],[],[],[],[],[],0,0,leomessi,BqxsjDuHnIM,5c4797110c2acb1d2a27c3d4,[],0.0,[]
1666,1666,0.0942717136498496,0.3032160644503863,0.1523141551937591,1,9.803646041320406e-06,0.002797016515716569,0.0025079343942117764,75,21,113,0,0,1,4,1.0,impersonator,2,1,2,1,1,8295534291,--,lionel_messi_acc,LeoMessi,https://scontent-cdg2-1.cdninstagram.com/vp/4f5243185306ffee9b1cc1db2942cc32/5D6DA572/t51.2885-19/s320x320/44361121_411737922693795_2674163362815803392_n.jpg?_nc_ht=scontent-cdg2-1.cdninstagram.com,"❤️|supporting @leomessi 
💜|@antoroccuzzo88 
🧡|@fcbarcelona",[],['True'],[],[],[],[],[],0,0,leomessi,BqxsjDuHnIM,5c4792180c2acb1d2a277dcf,[],0.0,[]
1669,1669,0.0,0.3032160644503863,0.1362763414390864,1,7.320055710852571e-06,0.005194459243473628,0.0003551057549326408,56,39,16,1,0,1,3,0.6666666666666667,impersonator,2,1,2,1,1,8304943417,--,mostafakaltechean2,Leo  Messi,https://scontent-cdg2-1.cdninstagram.com/vp/cda7448dd0f569537f7af7f5273f2fc7/5D703FAD/t51.2885-19/s320x320/51679247_326969854594124_1101947037441589248_n.jpg?_nc_ht=scontent-cdg2-1.cdninstagram.com,👑@leomessi👑      @fcbarcelona 🏆  @afaseleccion 🏆    @leomessi 24/6/ 1987🎂,['True'],['True'],['2018-12-14 07:54:39'],['17911085548268193'],['BqnbzL3nJdX'],['leomessi'],['😍😍😍'],1,1,leomessi,BqxsjDuHnIM,5c47a97b0c2acb1d2a28da4a,['2018-11-25 20:08:45'],1597554.0,['1597554.0']
1711,1711,0.1216033147861901,0.3032160644503863,0.2496354941438124,1,6.535764027546938e-06,0.004794885455514118,0.0003551057549326408,50,36,16,0,0,1,4,1.0,impersonator,2,1,2,1,1,8442522091,--,goatmessi,Leo Messi,https://scontent-cdg2-1.cdninstagram.com/vp/9da5e1e00732e8268a78c638fffcc145/5D708967/t51.2885-19/s320x320/43913449_186820312194790_7938871335801847808_n.jpg?_nc_ht=scontent-cdg2-1.cdninstagram.com,Official Leo Messi Fan Page,[],['True'],[],[],[],[],[],0,0,leomessi,BqxsjDuHnIM,5c47921d0c2acb1d2a277e55,[],0.0,[]
1729,1729,0.1216033147861901,0.2097553962782169,0.3032160644503863,1,6.535764027546938e-06,0.031433137986148114,8.87764387331602e-05,50,236,4,1,0,1,4,1.0,impersonator,2,1,2,1,1,8473864018,--,_leomesi10_,Messi10,https://scontent-cdg2-1.cdninstagram.com/vp/8451875f7f193bbcf0cf1d309e861e6d/5D5B8D0B/t51.2885-19/s320x320/44587988_201403254120423_8574927976267776_n.jpg?_nc_ht=scontent-cdg2-1.cdninstagram.com,LeoMessi❤,[],['True'],[],[],[],[],[],0,0,leomessi,BqxsjDuHnIM,5c47974c0c2acb1d2a27cbba,[],0.0,[]
1746,1746,0.3032160644503863,0.3032160644503863,0.09193998174078083,1,0.00012169592619292397,0.13798614810868404,0.0010431231551146325,931,1036,47,0,0,1,4,1.0,impersonator,2,1,2,1,1,8492452068,--,leomessi10.me,leomessi,https://scontent-cdg2-1.cdninstagram.com/vp/761dcc6db60233dcc677c235efde3174/5D6E37C0/t51.2885-19/s320x320/44591718_201954844028641_2280998899739000832_n.jpg?_nc_ht=scontent-cdg2-1.cdninstagram.com,"⭕ Fan page for leo ⭕
Orginal page ☞ @leomessi
I love king Leo in the Fc Barcelona ☞ @fcbarcelona
Laliga 2018/19 ☞ @laliga
🏟campnou 🏟 ☞ #campno",[],['True'],[],[],[],[],[],0,0,leomessi,BqxsjDuHnIM,5c47976e0c2acb1d2a27cf28,[],0.0,[]
1783,1783,0.3032160644503863,0.2150703257057708,0.0,1,9.672930760769471e-06,0.009057005860415556,0.0015313935681470134,74,68,69,0,0,1,3,0.6666666666666667,impersonator,2,1,2,1,1,8567284544,--,leo_.messi._10_,Messi Fan Account,https://scontent-cdg2-1.cdninstagram.com/vp/7923e05b4514801eaac8d63a0568d14a/5D579958/t51.2885-19/s320x320/47582842_1791852404254821_8857186900474068992_n.jpg?_nc_ht=scontent-cdg2-1.cdninstagram.com,"Follow me!
🔴 Barcelona 🔵
🇦🇷 Argentina 🇦🇷",[],['True'],[],[],[],[],[],0,0,leomessi,BqxsjDuHnIM,5c479bae0c2acb1d2a28030b,[],0.0,[]
1831,1831,0.0,0.3032160644503863,0.0,1,2.535876442688212e-05,0.060202450719232824,0.0010653172647979226,194,452,48,0,0,1,2,0.3333333333333333,impersonator,2,1,2,1,1,8674871764,--,ma.hmoud7193,Leo Messi,https://scontent-cdg2-1.cdninstagram.com/vp/7db69d0b3973fa6bd59457587f58f880/5D744979/t51.2885-19/s320x320/43080342_415253202342322_6253068441301811200_n.jpg?_nc_ht=scontent-cdg2-1.cdninstagram.com,اللهم أجعل صلاتي جنة حياااتي🙏❤,"['True', 'True', 'True', 'True', 'True', 'True', 'True', 'True', 'True', 'True', 'True', 'True', 'True', 'True', 'True']",['True'],"['2018-12-04 03:19:55', '2018-11-29 19:35:18', '2018-11-29 19:34:44', '2018-11-25 23:57:37', '2018-11-25 23:55:49', '2018-11-23 02:56:05', '2018-11-20 20:04:07', '2018-11-20 20:04:21', '2018-11-20 20:03:58', '2018-11-20 20:02:36', '2018-11-20 20:02:42', '2018-11-20 20:02:48', '2018-11-20 20:03:02', '2018-11-18 00:59:57', '2018-11-18 01:01:39']","['17973714037163030', '17972034343161578', '17968617892169073', '17967480463174731', '17978872384186234', '18001965451040323', '17938032226221645', '17975877070135887', '17871356161290673', '17894688262278520', '17927029420241548', '17871162493295458', '18001430998033712', '17870244223289869', '17926873822239661']","['BqxsjDuHnIM', 'BqxgsuYnITA', 'BqspT5xlC9J', 'BqncHSlHsdK', 'BqnbzL3nJdX', 'Bqe7TlHFzct', 'Bqaer0ml3Pn', 'Bqaer0ml3Pn', 'Bqaer0ml3Pn', 'BqZyb7_FFbY', 'BqZyb7_FFbY', 'BqZyb7_FFbY', 'BqZyb7_FFbY', 'BqSLFVBFLfq', 'BqSLFVBFLfq']","['leomessi', 'leomessi', 'leomessi', 'leomessi', 'leomessi', 'leomessi', 'leomessi', 'leomessi', 'leomessi', 'leomessi', 'leomessi', 'leomessi', 'leomessi', 'leomessi', 'leomessi']","['😘😘😘😘😘@leomessi', '@leomessi 😍😍😍😍😍😍😍💞💞💞💞💞💞💞💙💙💙💙💙💙💙💙😙😙😙😙😙😙😙😙😙', '@leomessi 😘😘😘😘😘', '@leomessi 😍😍😍😍😍😍😍😍😍😍😍😍😍😍😍', '@leomessi 😍😍😍😍', '@leomessi 😘😘😘😘😘', '@leomessi 💞💞💞💞💞', '😘😘😘😘😘😘ليو عشقي الأبدي', '@leomessi 💙💙💙💙', '@leomessi 😘😘😘😘', '@leomessi 💙💙💙💙', '😙💙😘😍', '@leomessi 😍😍😍😍', '@leomessi 😘😘😘😘😘😘😘😘😘😘😘😘😘😘😘😘😘😘😘😘😘', '@leomessi 😙😙😙']",15,1,leomessi,BqxsjDuHnIM,5c47a8b80c2acb1d2a28c6a4,"['2018-11-29 19:49:04', '2018-11-29 18:03:19', '2018-11-27 20:42:22', '2018-11-25 20:11:01', '2018-11-25 20:08:45', '2018-11-22 12:50:14', '2018-11-20 19:23:11', '2018-11-20 19:23:11', '2018-11-20 19:23:11', '2018-11-20 12:56:32', '2018-11-20 12:56:32', '2018-11-20 12:56:32', '2018-11-20 12:56:32', '2018-11-17 13:57:59', '2018-11-17 13:57:59']",54272.933333333334,"['372651.0', '5519.0', '168742.0', '13596.0', '13624.0', '50751.0', '2456.0', '2470.0', '2447.0', '25564.0', '25570.0', '25576.0', '25590.0', '39718.0', '39820.0']"
1955,1955,0.3032160644503863,0.3032160644503863,0.037900048683374266,1,2.0914444888150198e-06,0.010255727224294086,0.00017755287746632043,16,77,8,1,0,1,4,1.0,impersonator,2,1,2,1,1,9147796724,--,messi_leosleo,LEOS_MESSI,https://scontent-cdg2-1.cdninstagram.com/vp/54411541a936a95092ee1beb97c864df/5D5116E4/t51.2885-19/s320x320/49907329_233605227410703_2451587278384922624_n.jpg?_nc_ht=scontent-cdg2-1.cdninstagram.com,"My heart is messi❤
I love to chat with new friends
Love to play video games
Football is my drug😆
Dont hate me for a silly mistakes guys...😅","['True', 'True', 'True', 'True']",['True'],"['2018-11-23 04:28:56', '2018-11-21 02:32:46', '2018-11-20 14:20:00', '2018-11-17 15:26:59']","['17912702245252296', '17871345064290442', '17884552738284444', '17976264034188733']","['Bqe7TlHFzct', 'Bqaer0ml3Pn', 'BqZyb7_FFbY', 'BqSLFVBFLfq']","['leomessi', 'leomessi', 'leomessi', 'leomessi']","['Messi u always king👑👑👑', '👍👍👍super messi.I also support with u.......', 'Nice messi', 'Messi son like messi']",4,1,leomessi,BqxsjDuHnIM,5c479b8b0c2acb1d2a27ff90,"['2018-11-22 12:50:14', '2018-11-20 19:23:11', '2018-11-20 12:56:32', '2018-11-17 13:57:59']",23111.25,"['56322.0', '25775.0', '5008.0', '5340.0']"
1976,1976,0.2150703257057708,0.3032160644503863,0.0,1,3.790743135977224e-06,0.0005327650506126798,6.658232904987016e-05,29,4,3,0,0,1,3,0.6666666666666667,impersonator,2,1,2,1,1,9184114745,--,leo_messi_1072,Leo Messi,https://scontent-cdg2-1.cdninstagram.com/vp/c1471afd9810fd0b590c41931a2a5c1d/5D377F9F/t51.2885-19/s320x320/47584675_763348947356064_7030338203391361024_n.jpg?_nc_ht=scontent-cdg2-1.cdninstagram.com,,[],['True'],[],[],[],[],[],0,0,leomessi,BqxsjDuHnIM,5c47949c0c2acb1d2a27a28c,[],0.0,[]
2030,2030,0.3032160644503863,0.1216033147861901,0.1077862696149231,1,4.8626084364949215e-05,0.015716568993074054,0.00013316465809974033,372,118,6,0,0,1,4,1.0,impersonator,2,1,2,1,1,9257013892,--,messigramhd,Lionel Messi 👽,https://scontent-cdg2-1.cdninstagram.com/vp/fa662ceeea5d46f78887fa193cd08d59/5D6DEA83/t51.2885-19/s320x320/52784792_313218136005645_3309931647767412736_n.jpg?_nc_ht=scontent-cdg2-1.cdninstagram.com,"FC Barcelona & Argentina | @leomessi 
🚫| No copyright intended
Lionel Messi Fan Page 🔥",[],['True'],[],[],[],[],[],0,0,leomessi,BqxsjDuHnIM,5c47ab800c2acb1d2a28f113,[],0.0,[]
2046,2046,0.1216033147861901,0.3032160644503863,0.0,1,7.5814862719544495e-06,0.0003995737879595098,0.00013316465809974033,58,3,6,0,0,1,3,0.6666666666666667,impersonator,2,1,2,1,1,9286260592,--,_leonel_messi_1,LEO_MESSI,https://scontent-cdg2-1.cdninstagram.com/vp/8142e351268dd777d2a336b1c766be7f/5D5522A4/t51.2885-19/s320x320/45366393_513553209144252_3101171622724239360_n.jpg?_nc_ht=scontent-cdg2-1.cdninstagram.com,Ok,[],['True'],[],[],[],[],[],0,0,leomessi,BqxsjDuHnIM,5c47a9440c2acb1d2a28d30e,[],0.0,[]
2067,2067,0.3032160644503863,0.3032160644503863,0.0,1,4.313604258180978e-06,0.005327650506126797,4.43882193665801e-05,33,40,2,0,0,1,3,0.6666666666666667,impersonator,2,1,2,1,1,9361883692,--,messiofficial8,Messi official,https://scontent-cdg2-1.cdninstagram.com/vp/d0a854dea021fb2262c0427eccb41091/5D39157E/t51.2885-19/s320x320/44818687_329244844531825_7400243455760269312_n.jpg?_nc_ht=scontent-cdg2-1.cdninstagram.com,,[],['True'],[],[],[],[],[],0,0,leomessi,BqxsjDuHnIM,5c4792380c2acb1d2a2780d3,[],0.0,[]
2201,2201,0.0,0.3032160644503863,0.0,1,7.842916833056325e-06,0.013985082578582844,0.007790132498834808,60,105,351,0,0,1,2,0.3333333333333333,impersonator,2,1,2,1,1,9765289962,--,lionl_10,leomessi,https://scontent-cdg2-1.cdninstagram.com/vp/9c07887971fa12dec776e488dcf20eeb/5D41B6A6/t51.2885-19/s320x320/46307841_1804099323051347_6901187424404111360_n.jpg?_nc_ht=scontent-cdg2-1.cdninstagram.com,,[],['True'],[],[],[],[],[],0,0,leomessi,BqxsjDuHnIM,5c4791920c2acb1d2a276e80,[],0.0,[]
2244,2244,0.0942717136498496,0.3032160644503863,0.1523141551937591,1,6.143618185894122e-06,0.020911028236547682,2.219410968329005e-05,47,157,1,0,0,1,4,1.0,impersonator,2,1,2,1,1,10031930980,--,alanmessihassan10,Leo Messi,https://scontent-cdg2-1.cdninstagram.com/vp/8dbae09039969697fe5bb1eba6ad35d1/5D6C96F7/t51.2885-19/s320x320/54247738_2049418565358158_8209731348085080064_n.jpg?_nc_ht=scontent-cdg2-1.cdninstagram.com,"@leomessi ❤
Fußball❤🔟⚽ 
Nk player
@fcbarcelona ❤",[],['True'],[],[],[],[],[],0,0,leomessi,BqxsjDuHnIM,5c4791b30c2acb1d2a277322,[],0.0,[]
2255,2255,0.3032160644503863,0.3032160644503863,0.0,1,3.3985972943244078e-06,0.0013319126265316993,0.0,26,10,0,0,0,1,3,0.6666666666666667,impersonator,2,1,2,1,1,10146519703,--,cf_leo_messi_10,cf_leo_messi_10,https://scontent-cdg2-1.cdninstagram.com/vp/ec9e6af7536b121b0b7c4b238bceea47/5D77EB1F/t51.2885-19/s320x320/47691387_941162659416706_2337941962696425472_n.jpg?_nc_ht=scontent-cdg2-1.cdninstagram.com,,[],['True'],[],[],[],[],[],0,0,leomessi,BqxsjDuHnIM,5c478fd70c2acb1d2a275ed4,[],0.0,[]
2259,2259,0.1757860783933462,0.3032160644503863,0.1016306697911266,1,5.6207570636903675e-05,0.02810335641981886,0.0044610160463413005,430,211,201,0,0,1,4,1.0,impersonator,2,1,2,1,1,10160160378,--,leomessifansflrwer,Leo Messi,https://scontent-cdg2-1.cdninstagram.com/vp/90fcc80e0015bfa63515882af5668844/5D7769A1/t51.2885-19/s320x320/47691965_2585711321468992_8565049435522859008_n.jpg?_nc_ht=scontent-cdg2-1.cdninstagram.com,Leo Messi ❤ Anto Roccuzzo ❤ Thiago Messi ❤ Mateo Messi ❤ Ciro Messi ❤ FC Barcelona ❤ Argentina ❤ My dream is to meet Leo Messi ❤,[],['True'],[],[],[],[],[],0,0,leomessi,BqxsjDuHnIM,5c4792430c2acb1d2a278226,[],0.0,[]
2263,2263,0.1216033147861901,0.3032160644503863,0.0,1,8.49649323581102e-06,0.04661694192860948,4.43882193665801e-05,65,350,2,0,0,1,3,0.6666666666666667,impersonator,2,1,2,1,1,10188035899,--,messi_605,Leo messi,https://scontent-cdg2-1.cdninstagram.com/vp/970d0e9bf488c9235581a70b636f71a6/5D5D109C/t51.2885-19/s320x320/49711685_2118540961502028_8435662377499754496_n.jpg?_nc_ht=scontent-cdg2-1.cdninstagram.com,,[],['True'],[],[],[],[],[],0,0,leomessi,BqxsjDuHnIM,5c4791230c2acb1d2a276343,[],0.0,[]
2281,2281,0.3032160644503863,0.3032160644503863,0.1152155433779312,1,1.3071528055093876e-06,0.002397442727757059,6.658232904987016e-05,10,18,3,0,0,1,4,1.0,impersonator,2,1,2,1,1,10412257926,--,being_leo_messi,leomessi,https://scontent-cdg2-1.cdninstagram.com/vp/740ea6e589e6c00018fb26db05d003f0/5D6DB05D/t51.2885-19/s320x320/49498974_349526935637088_6496290055567441920_n.jpg?_nc_ht=scontent-cdg2-1.cdninstagram.com,FAN PAGE DEDICATED TO LEO MESSI' THE GREATEST FOOTBALLER EVER!,[],['True'],[],[],[],[],[],0,0,leomessi,BqxsjDuHnIM,5c478f200c2acb1d2a274cd7,[],0.0,[]
