,Unnamed: 0,username,name,bio,photo,nfollower,nfollowee,nmediacount,follower,followee,mediacount,private,verified,lcm,mcm,nmcm,class,class BGM 3,class GM 3,class kmeans 3,class spectral 3,class GM 4,owener_id,combined_owener_external_url,combined_username,combined_full_name,combined_profile_pic_url,combined_biography,combined_similarity_photo_comment,combined_similarity_photo_like,comment_created_at,comment_id,comment_post_shortcode,comment_shortcode_username,comment_text,comment_total,like_total,like_shortcode_username,like_post_shortcode,like_id,comment_post_date,comment_avg_age_sec,comment_age_sec
14,14,0.7092972666062739,0.7092972666062739,0.1783584986133385,1,0.0090786990953849,0.02464038359083644,0.05546308009854185,69454,185,2499,0,0,1,4,1.0,impersonator,2,1,2,1,1,145957253,https://www.rafaelnadal.com/,rafaelnadalfc,Rafael Nadal,https://scontent-cdg2-1.cdninstagram.com/vp/ec4eac46549e0c2381baaabeed7214f4/5D776690/t51.2885-19/s320x320/47692961_2215791615310622_1830522053761957888_n.jpg?_nc_ht=scontent-cdg2-1.cdninstagram.com,"Dedicated to the spanish tennis player, king of clay, 17-time grand slam champion & olympic gold medalist in both singles & doubles: Rafael Nadal.",True,['True'],2018-11-11 16:02:54,17984391610103307,BqCe54TA8mN,rafaelnadal,❤️👏🏻,2,1,['rafaelnadal'],['BqpsJ_zgPMY'],['5c66d9acb5d85c3ba6336439'],2018-11-11 11:43:20,97308.5,15574.0
14,14,0.7092972666062739,0.7092972666062739,0.1783584986133385,1,0.0090786990953849,0.02464038359083644,0.05546308009854185,69454,185,2499,0,0,1,4,1.0,impersonator,2,1,2,1,1,145957253,https://www.rafaelnadal.com/,rafaelnadalfc,Rafael Nadal,https://scontent-cdg2-1.cdninstagram.com/vp/ec4eac46549e0c2381baaabeed7214f4/5D776690/t51.2885-19/s320x320/47692961_2215791615310622_1830522053761957888_n.jpg?_nc_ht=scontent-cdg2-1.cdninstagram.com,"Dedicated to the spanish tennis player, king of clay, 17-time grand slam champion & olympic gold medalist in both singles & doubles: Rafael Nadal.",True,['True'],2018-11-04 15:26:55,17922045400234894,Bprhbf2A1ML,rafaelnadal,❤️,2,1,['rafaelnadal'],['BqpsJ_zgPMY'],['5c66d9acb5d85c3ba6336439'],2018-11-02 13:42:52,97308.5,179043.0
42,42,0.4494364165239821,0.4494364165239821,0.3631100119331374,1,1.1372229407931672e-05,0.02450719232818327,0.1975497702909648,87,184,8901,1,0,1,4,1.0,impersonator,2,1,2,1,1,240603594,--,inra_rafa,inra_rafa,https://scontent-cdg2-1.cdninstagram.com/vp/aca2bf757423fd01ccd8d42b58457e88/5D3F3859/t51.2885-19/s320x320/13731208_1355451137816388_1562102026_a.jpg?_nc_ht=scontent-cdg2-1.cdninstagram.com,"Rafael Nadal from Spain, my favourite. And some sporadic pics. Vamos Rafa! Photos are my own or from online, credit to original source.",True,['True'],2018-11-25 14:10:30,17974834354179256,BqmqbmCAn_q,rafaelnadal,Beautiful pics Rafa! Thank you for sharing 😀😀😀❤️,1,1,['rafaelnadal'],['BqpsJ_zgPMY'],['5c66e1c2b5d85c3ba633ddb5'],2018-11-25 12:56:42,4428.0,4428.0
158,158,0.7092972666062739,0.4112070550676187,0.3631100119331375,1,0.0021081760447255408,0.03702717101758125,0.03755243358412677,16128,278,1692,0,0,1,4,1.0,impersonator,2,1,2,1,1,856203851,https://www.trainingaddictshop.com/,rafaelnadal__,Rafael Nadal Fan Page,https://scontent-cdg2-1.cdninstagram.com/vp/41a677e24256da9399f509911479f0c2/5D75135D/t51.2885-19/s320x320/56197334_1253151914839957_6615979141860687872_n.jpg?_nc_ht=scontent-cdg2-1.cdninstagram.com,"✨17 Grand Slams✨ ✨33 Masters 1000✨ ✨80 Titles✨ ✨2 Gold Medals 🏅🏅✨Page dedicated to my idol, RAFAEL NADAL. #rafanadal @rafaelnadal",True,['True'],2018-10-30 10:06:54,17995215409016551,BpjZlJineoR,rafaelnadal,Can’t wait for tomorrow 👌🏻😍,1,1,['rafaelnadal'],['BqpsJ_zgPMY'],['5c66ec0eb5d85c3ba6347750'],2018-10-30 10:00:21,393.0,393.0
490,490,0.5031026124151314,0.5031026124151314,0.1636830616936349,1,8.30042031498461e-05,0.08790623335109217,0.005370974543356193,635,660,242,0,0,1,4,1.0,impersonator,2,1,2,1,1,2301500434,--,rafa_nadal_the_king,Rafa Nadal The King,https://scontent-cdg2-1.cdninstagram.com/vp/57f4b137230001ccae0fbdd5f26af740/5D3F2B88/t51.2885-19/s320x320/33989967_250431462359379_3153368600790695936_n.jpg?_nc_ht=scontent-cdg2-1.cdninstagram.com,"Rafa NADAL Fan
03/06/1986
Single&Double Gold Medal
11 RG 
SnapChat: fati_nadalista
Twitter: @hamdifatimazah1
Facebook page: Rafa Nadal The King
#Nadal",True,['True'],2018-11-11 11:45:46,17965528696166071,BqCe54TA8mN,rafaelnadal,"You deserved it my everything every year.  Have a good recovery Rafa,  take care of yourself my love 😍😍😍😘😘😘😘😘",3,1,['rafaelnadal'],['BqpsJ_zgPMY'],['5c66ea12b5d85c3ba6345f8c'],2018-11-11 11:43:20,96.0,146.0
490,490,0.5031026124151314,0.5031026124151314,0.1636830616936349,1,8.30042031498461e-05,0.08790623335109217,0.005370974543356193,635,660,242,0,0,1,4,1.0,impersonator,2,1,2,1,1,2301500434,--,rafa_nadal_the_king,Rafa Nadal The King,https://scontent-cdg2-1.cdninstagram.com/vp/57f4b137230001ccae0fbdd5f26af740/5D3F2B88/t51.2885-19/s320x320/33989967_250431462359379_3153368600790695936_n.jpg?_nc_ht=scontent-cdg2-1.cdninstagram.com,"Rafa NADAL Fan
03/06/1986
Single&Double Gold Medal
11 RG 
SnapChat: fati_nadalista
Twitter: @hamdifatimazah1
Facebook page: Rafa Nadal The King
#Nadal",True,['True'],2018-10-18 10:25:57,17973969277119915,BpEixhJHuss,rafaelnadal,💞💞💞💞💞💞💕💕💕💕🏆🏆🏆😍😍😍💪💪,3,1,['rafaelnadal'],['BqpsJ_zgPMY'],['5c66ea12b5d85c3ba6345f8c'],2018-10-18 10:24:47,96.0,70.0
490,490,0.5031026124151314,0.5031026124151314,0.1636830616936349,1,8.30042031498461e-05,0.08790623335109217,0.005370974543356193,635,660,242,0,0,1,4,1.0,impersonator,2,1,2,1,1,2301500434,--,rafa_nadal_the_king,Rafa Nadal The King,https://scontent-cdg2-1.cdninstagram.com/vp/57f4b137230001ccae0fbdd5f26af740/5D3F2B88/t51.2885-19/s320x320/33989967_250431462359379_3153368600790695936_n.jpg?_nc_ht=scontent-cdg2-1.cdninstagram.com,"Rafa NADAL Fan
03/06/1986
Single&Double Gold Medal
11 RG 
SnapChat: fati_nadalista
Twitter: @hamdifatimazah1
Facebook page: Rafa Nadal The King
#Nadal",True,['True'],2018-10-18 10:25:59,17962179418183602,BpEixhJHuss,rafaelnadal,Missed u Rafa,3,1,['rafaelnadal'],['BqpsJ_zgPMY'],['5c66ea12b5d85c3ba6345f8c'],2018-10-18 10:24:47,96.0,72.0
940,940,0.5031026124151314,0.5031026124151314,0.1906626345747656,1,0.0011583988162424193,0.07858284496537027,0.018243558159664424,8862,590,822,0,0,1,4,1.0,impersonator,2,1,2,1,1,5375283013,--,rafanadal_lovers,rafanadal_lovers ®,https://scontent-cdg2-1.cdninstagram.com/vp/fdf6b6bdee72679f9359b13403dfcd2d/5D3BB1AC/t51.2885-19/s320x320/31905448_579351352449749_1738128012915769344_n.jpg?_nc_ht=scontent-cdg2-1.cdninstagram.com,"👑 of 🆑AY
🏆17 Grand Slam titles 🏆33 Masters1000 titles
Rafa Nadal #ranking 2
🎾Season tournaments↪2019 ©LAY season
@rolexmontecarlomasters 13-21/04",True,"['True', 'True']",2018-11-13 20:52:27,17891806120273655,BqCe54TA8mN,rafaelnadal,Congrats Rafa! 👏🏽 the most beautiful prize and Congrats also for the 6.000.000 Fans! 🔥 You deserve all the best! 🏆,1,2,"['rafaelnadal', 'rafaelnadal']","['BqpsJ_zgPMY', 'BqmqbmCAn_q']","['5c66e5c1b5d85c3ba63413c5', '5c672ff5b5d85c3e0ad9f4fc']",2018-11-11 11:43:20,205747.0,205747.0
1733,1733,0.7092972666062739,0.4112070550676187,0.0,1,3.176381317387812e-05,0.02916888652104422,0.001686752335930044,243,219,76,0,0,1,3,0.6666666666666667,impersonator,2,1,2,1,1,8477498844,--,rafaelnadal__17,Rafael Nadal Fanpage,https://scontent-cdg2-1.cdninstagram.com/vp/ff7408a05b9a7df0632a0cbc84553832/5D736614/t51.2885-19/s320x320/43045323_279989792641739_6359514365305028608_n.jpg?_nc_ht=scontent-cdg2-1.cdninstagram.com,🎾🎾🎾🎾🎾,True,['True'],2018-11-01 01:55:29,17989710001070833,BpmwsusAR-2,rafaelnadal,Get well soon....,1,1,['rafaelnadal'],['BqpsJ_zgPMY'],['5c66ed97b5d85c3ba6348993'],2018-10-31 17:20:05,30924.0,30924.0
