,Unnamed: 0,username,name,bio,photo,nfollower,nfollowee,nmediacount,follower,followee,mediacount,private,verified,lcm,mcm,nmcm,class,class BGM 3,class GM 3,class kmeans 3,class spectral 3,class GM 4,owener_id,combined_owener_external_url,combined_username,combined_full_name,combined_profile_pic_url,combined_biography,combined_similarity_photo_comment,combined_similarity_photo_like,comment_created_at,comment_id,comment_post_shortcode,comment_shortcode_username,comment_text,comment_total,like_total,like_shortcode_username,like_post_shortcode,like_id,comment_post_date,comment_avg_age_sec,comment_age_sec
26,26,0.0,0.0,0.33517574332792605,0,0.0002248302825476147,0.1311933937133724,0.01637925294626806,1720,985,738,1,0,1,1,0.0,impersonator,1,2,1,2,2,194260865,https://twitter.com/JericNicolson,jericnicolson,Jeric Cruz,https://scontent-cdg2-1.cdninstagram.com/vp/2050782f5a49fc242d92f01aecce1e8d/5D71DC71/t51.2885-19/s320x320/55752850_324041031797164_8759714297023561728_n.jpg?_nc_ht=scontent-cdg2-1.cdninstagram.com,Roger that.,False,['False'],2018-10-29 08:38:25,17979038911106333,BpfDe9uAGDP,rogerfederer,Congrats!! #RF99 🏆,1,1,['rogerfederer'],['Br5c93bgKdq'],['5cb0aa7f1386644a3f956d89'],2018-10-28 17:30:18,54487.0,54487.0
453,453,0.0,0.0,0.33517574332792605,0,1.6470125349418287e-05,0.010122535961640916,0.003595445768692989,126,76,162,0,0,1,1,0.0,impersonator,1,2,1,2,2,2154930662,--,miemkaya,Mie,https://scontent-cdg2-1.cdninstagram.com/vp/2c83826157d3512c6f28428c0ebcdf3a/5D5AA9B5/t51.2885-19/s150x150/11350926_1683180928561087_2014628571_a.jpg?_nc_ht=scontent-cdg2-1.cdninstagram.com,"低糖質スコーンと珈琲と猫❤️
#federer  #ねこ #しばいぬ #スコーン #コーヒー #低糖スコーン#珈琲#猫",False,['False'],2018-10-28 21:31:49,17920547083228679,BpfDe9uAGDP,rogerfederer,㊗️🎉😍❤️✨,1,1,['rogerfederer'],['Br5c93bgKdq'],['5cb0ab151386644a3f957b41'],2018-10-28 17:30:18,14491.0,14491.0
660,660,0.0,0.0,0.5023287782256719,0,0.0003654799244204248,0.0380927011188066,0.002064052200545975,2796,286,93,0,0,1,1,0.0,impersonator,1,2,1,2,2,3503794731,--,rad080rad,Mohammad Radmanesh,https://scontent-cdg2-1.cdninstagram.com/vp/727da6960ce5ab59f31b9010ac5a4cb7/5D6E260C/t51.2885-19/s320x320/56517209_282955889298808_3854538096515219456_n.jpg?_nc_ht=scontent-cdg2-1.cdninstagram.com,Tennis player 🎾,False,['False'],2018-11-05 17:17:31,17866092040288893,BpfUQFoAueV,rogerfederer,hey roger dont give up man you are the best yes you might lose your ranking dont care just keep going i need to see you in tv mam ❤️💪🇮🇷,2,1,['rogerfederer'],['Br5c93bgKdq'],['5cb0a7fd1386644a3f954955'],2018-10-28 19:56:49,681664.5,681642.0
660,660,0.0,0.0,0.5023287782256719,0,0.0003654799244204248,0.0380927011188066,0.002064052200545975,2796,286,93,0,0,1,1,0.0,impersonator,1,2,1,2,2,3503794731,--,rad080rad,Mohammad Radmanesh,https://scontent-cdg2-1.cdninstagram.com/vp/727da6960ce5ab59f31b9010ac5a4cb7/5D6E260C/t51.2885-19/s320x320/56517209_282955889298808_3854538096515219456_n.jpg?_nc_ht=scontent-cdg2-1.cdninstagram.com,Tennis player 🎾,False,['False'],2018-11-05 17:18:16,17968033309179816,BpfUQFoAueV,rogerfederer,@rad080rad @mohammad__talaei,2,1,['rogerfederer'],['Br5c93bgKdq'],['5cb0a7fd1386644a3f954955'],2018-10-28 19:56:49,681664.5,681687.0
2293,2293,0.0,0.0,0.5023287782256719,0,4.9410376048254855e-05,0.0957645178476292,0.01706727034645005,378,719,769,1,0,1,1,0.0,impersonator,1,2,1,2,2,15652569,--,coletteklein,Colette,https://scontent-cdg2-1.cdninstagram.com/vp/fba7ceb7c47bdc108036d3d21e69ce69/5D50C501/t51.2885-19/s150x150/11906274_605523992913113_1098658488_a.jpg?_nc_ht=scontent-cdg2-1.cdninstagram.com,🎾💪👙🌴☀️🇺🇸 and @rogerfederer,False,[],2018-10-28 22:36:31,17993433085053689,BpfUQFoAueV,rogerfederer,Awesome!,2,1,[],[],[],2018-10-28 19:56:49,13759.5,9582.0
2293,2293,0.0,0.0,0.5023287782256719,0,4.9410376048254855e-05,0.0957645178476292,0.01706727034645005,378,719,769,1,0,1,1,0.0,impersonator,1,2,1,2,2,15652569,--,coletteklein,Colette,https://scontent-cdg2-1.cdninstagram.com/vp/fba7ceb7c47bdc108036d3d21e69ce69/5D50C501/t51.2885-19/s150x150/11906274_605523992913113_1098658488_a.jpg?_nc_ht=scontent-cdg2-1.cdninstagram.com,🎾💪👙🌴☀️🇺🇸 and @rogerfederer,False,[],2018-10-28 22:29:15,17894739550266339,BpfDe9uAGDP,rogerfederer,"Congrats, Roger!!",2,1,[],[],[],2018-10-28 17:30:18,13759.5,17937.0
2304,2304,0.0,0.0,0.33517574332792605,0,0.00014548610725319486,0.13225892381459775,0.005459750982089353,1113,993,246,0,0,1,1,0.0,impersonator,1,2,1,2,2,198135355,--,agu_11,C a r l o s,https://scontent-cdg2-1.cdninstagram.com/vp/eccc448fe19a0caa0db9145db28ac5aa/5D52DC22/t51.2885-19/s320x320/22500451_1958305857827916_7920522861851181056_n.jpg?_nc_ht=scontent-cdg2-1.cdninstagram.com,"📍M ∆ d r i z  😼
▪️📱🎥 🌍
▪️ 📸 @GoPro 
▪️💈⚽💜🌄🍔🌇💈",False,[],2018-11-14 12:34:57,17977353004083700,BqI1njOAMvO,rogerfederer,🔝🔝,1,1,[],[],[],2018-11-13 22:57:15,49062.0,49062.0
2310,2310,0.0,0.0,0.5023287782256719,0,0.0003002529994255063,0.13758657432072455,0.0009321526066981825,2297,1033,42,0,0,1,1,0.0,impersonator,1,2,1,2,2,213950876,--,sofi.cabezas,Sofia Cabezas,https://scontent-cdg2-1.cdninstagram.com/vp/a868e8c8469f3941d408b5b720ff60df/5D40D255/t51.2885-19/s320x320/13741048_1262767803736115_302312690_a.jpg?_nc_ht=scontent-cdg2-1.cdninstagram.com,Tennis player🇻🇪,False,[],2018-11-13 23:03:55,18000231808035042,BqI1njOAMvO,rogerfederer,Te amo,1,1,[],[],[],2018-11-13 22:57:15,400.0,400.0
2312,2312,0.0,0.0,0.5023287782256719,0,7.659915440285011e-05,0.08870538092701118,0.003639833988059569,586,666,164,0,0,1,1,0.0,impersonator,1,2,1,2,2,240123366,--,alvarodv8,Alvaro del Valle,https://scontent-cdg2-1.cdninstagram.com/vp/e577fc8fc4461e6e42ced86d7b46e82c/5D6CCE8B/t51.2885-19/s320x320/47359280_2084347045146795_4943548795540471808_n.jpg?_nc_ht=scontent-cdg2-1.cdninstagram.com,Tennis player.,False,[],2018-12-19 19:43:03,17881573891289482,BrlLQjNA8y9,rogerfederer,❤️😍,1,1,[],[],[],2018-12-19 19:36:28,395.0,395.0
2316,2316,0.0,0.0,0.33517574332792605,0,0.00011019298150444138,0.06632924880127862,0.0019308875424462347,843,498,87,0,0,1,1,0.0,impersonator,1,2,1,2,2,253361942,--,vikacrudele,Vika Crudele,https://scontent-cdg2-1.cdninstagram.com/vp/995980c47864c5ed06afc15b11bcf28b/5D718D2A/t51.2885-19/s320x320/37373057_661742307525999_9131323637796700160_n.jpg?_nc_ht=scontent-cdg2-1.cdninstagram.com,ROGER THAT! 🎾,False,[],2018-12-19 19:39:59,18011582836043787,BrlLQjNA8y9,rogerfederer,😍😍😍😍😍😍😍😍😍😍😍😍😍😍😍😍😍😍😍😍😍😍😍😍😍😍😍😍😍😍😍😍😍😍😍😍😍😍😍😍😍,1,1,[],[],[],2018-12-19 19:36:28,211.0,211.0
2320,2320,0.0,0.0,0.3808726084759436,0,1.9607292082640814e-06,0.014651038891848694,2.219410968329005e-05,15,110,1,1,0,1,1,0.0,impersonator,1,2,1,2,2,284283427,--,fatma1_123,Fatma,https://scontent-cdg2-1.cdninstagram.com/vp/a08f47611b5415415dee1bcfa5f26c59/5D57713C/t51.2885-19/s320x320/13183311_1731968097051102_1582434292_a.jpg?_nc_ht=scontent-cdg2-1.cdninstagram.com,"Sydney, Australia. ROGER FEDERER,TENNIS and F1 FANATIC.",False,[],2018-12-27 21:42:17,18015354787040940,Br5c93bgKdq,rogerfederer,Go Roger! 2019 Aus Open Champ 🙏🙏🙏🙏,4,1,[],[],[],2018-12-27 16:36:01,9757.25,18376.0
2320,2320,0.0,0.0,0.3808726084759436,0,1.9607292082640814e-06,0.014651038891848694,2.219410968329005e-05,15,110,1,1,0,1,1,0.0,impersonator,1,2,1,2,2,284283427,--,fatma1_123,Fatma,https://scontent-cdg2-1.cdninstagram.com/vp/a08f47611b5415415dee1bcfa5f26c59/5D57713C/t51.2885-19/s320x320/13183311_1731968097051102_1582434292_a.jpg?_nc_ht=scontent-cdg2-1.cdninstagram.com,"Sydney, Australia. ROGER FEDERER,TENNIS and F1 FANATIC.",False,[],2018-11-14 01:32:58,17967264937163372,BqI1njOAMvO,rogerfederer,Legends💙,4,1,[],[],[],2018-11-13 22:57:15,9757.25,9343.0
2320,2320,0.0,0.0,0.3808726084759436,0,1.9607292082640814e-06,0.014651038891848694,2.219410968329005e-05,15,110,1,1,0,1,1,0.0,impersonator,1,2,1,2,2,284283427,--,fatma1_123,Fatma,https://scontent-cdg2-1.cdninstagram.com/vp/a08f47611b5415415dee1bcfa5f26c59/5D57713C/t51.2885-19/s320x320/13183311_1731968097051102_1582434292_a.jpg?_nc_ht=scontent-cdg2-1.cdninstagram.com,"Sydney, Australia. ROGER FEDERER,TENNIS and F1 FANATIC.",False,[],2018-10-28 20:35:13,17919422389234906,BpfUQFoAueV,rogerfederer,Champion 🙏🙏💪💪💪💪😍,4,1,[],[],[],2018-10-28 19:56:49,9757.25,2304.0
2320,2320,0.0,0.0,0.3808726084759436,0,1.9607292082640814e-06,0.014651038891848694,2.219410968329005e-05,15,110,1,1,0,1,1,0.0,impersonator,1,2,1,2,2,284283427,--,fatma1_123,Fatma,https://scontent-cdg2-1.cdninstagram.com/vp/a08f47611b5415415dee1bcfa5f26c59/5D57713C/t51.2885-19/s320x320/13183311_1731968097051102_1582434292_a.jpg?_nc_ht=scontent-cdg2-1.cdninstagram.com,"Sydney, Australia. ROGER FEDERER,TENNIS and F1 FANATIC.",False,[],2018-10-28 20:00:24,17931088387209852,BpfDe9uAGDP,rogerfederer,Yes yes yes!!!!! 2019 Aus Open here we come 🙏🙏💪💪💪💪💪,4,1,[],[],[],2018-10-28 17:30:18,9757.25,9006.0
2321,2321,0.0,0.0,0.3563004293331382,0,7.202411958356726e-05,0.08590836441129461,0.0005104645227156712,551,645,23,1,0,1,1,0.0,impersonator,1,2,1,2,2,284766302,--,patric.prinoth,Patric Prinoth,https://scontent-cdg2-1.cdninstagram.com/vp/b7fafaadc367f8dae5bade537ede312a/5D4119F2/t51.2885-19/s320x320/21911298_1474360585945334_6535811489926742016_n.jpg?_nc_ht=scontent-cdg2-1.cdninstagram.com,📍Italy / Tennis Player 🎾,False,[],2018-12-19 21:54:35,17938237789238058,BrlLQjNA8y9,rogerfederer,@dazzedave4 i sog zum @alexanderweis_ vamos alla playa!😂😎🌴,1,1,[],[],[],2018-12-19 19:36:28,8287.0,8287.0
2323,2323,0.0,0.0,0.3563004293331382,0,7.58148627195445e-05,0.05394246137453383,0.0,580,405,0,0,0,1,1,0.0,impersonator,1,2,1,2,2,293485033,--,emanuelcolman,,https://scontent-cdg2-1.cdninstagram.com/vp/5aed3a1bcbae6d0ec2d1df3d121db66f/5D39D3C1/t51.2885-19/s320x320/41258674_237544923777100_764630111424086016_n.jpg?_nc_ht=scontent-cdg2-1.cdninstagram.com,"C.P.N- UCI
Tennis Player 🇵🇾",False,[],2018-12-19 19:52:33,17849515108314090,BrlLQjNA8y9,rogerfederer,Unbelievable! 🔥🔥,1,1,[],[],[],2018-12-19 19:36:28,965.0,965.0
2333,2333,0.0,0.0,0.5023287782256719,0,0.00011816661361804863,0.19259456579648374,0.0015979758971968838,904,1446,72,1,0,1,1,0.0,impersonator,1,2,1,2,2,332788142,--,santiago_perez5,Santi Perez,https://scontent-cdg2-1.cdninstagram.com/vp/e5ba77dbabf31e99b6f2dcf85e8e9b8a/5D6D19A5/t51.2885-19/s320x320/50174042_2100776510234469_8319165018843119616_n.jpg?_nc_ht=scontent-cdg2-1.cdninstagram.com,Tennis Player 🎾,False,[],2018-10-28 20:55:24,17976617854120050,BpfDe9uAGDP,rogerfederer,🐐🐐🐐,1,1,[],[],[],2018-10-28 17:30:18,12306.0,12306.0
2334,2334,0.0,0.0,0.3563004293331382,0,0.00010470293972130197,0.10295684603090036,0.00039949397429922095,801,773,18,1,0,1,1,0.0,impersonator,1,2,1,2,2,339341012,--,rishfire123,Rishit Roy,https://scontent-cdg2-1.cdninstagram.com/vp/cd5e1f54f4ba9062c2afdc45326ded4e/5D3E8579/t51.2885-19/s320x320/36912150_271400946953872_3168225365113962496_n.jpg?_nc_ht=scontent-cdg2-1.cdninstagram.com,"TJ '18 || Pitt ‘22
🙏🏻Roger Federer🙏🏻
S💕",False,[],2018-12-28 05:24:09,17985019672178664,Br5c93bgKdq,rogerfederer,Okay goat😩❤️😍,1,1,[],[],[],2018-12-27 16:36:01,46088.0,46088.0
2340,2340,0.33517574332792605,0.0,0.1683684216367985,0,0.00010666366892956604,0.1897975492807672,0.0591251081962847,816,1425,2664,0,0,1,2,0.3333333333333333,impersonator,0,0,1,2,3,364575827,--,isafederer,Isabel Bataller,https://scontent-cdg2-1.cdninstagram.com/vp/da128b406267e2b8c7e240671ae12958/5D378342/t51.2885-19/s320x320/57306189_308947003112174_6621596881774444544_n.jpg?_nc_ht=scontent-cdg2-1.cdninstagram.com,SAM STOSUR 💕 & ROGER FEDERER 💕are my idols forever ❤️❤️❤️❤️ I ❤️ Australia 🇦🇺 Forever Aussie 💚 Living in Melbourne 🇦🇺🇪🇸,False,[],2018-12-27 21:45:06,18001866319103992,Br5c93bgKdq,rogerfederer,Welcome back my boy. I can’t wait to see you again. I missed you a lot 😍😍😍😍❤️❤️❤️🇦🇺🇦🇺🇦🇺🇦🇺🇦🇺,1,1,[],[],[],2018-12-27 16:36:01,18545.0,18545.0
2350,2350,0.0,0.0,0.5023287782256719,0,7.189340430301632e-05,0.12826318593500266,0.05819295558958652,550,963,2622,1,0,1,1,0.0,impersonator,1,2,1,2,2,465353955,--,simonclaudia11,Claudia Simon,https://scontent-cdg2-1.cdninstagram.com/vp/6df2cf3f87a777af8023f73ef189f7d1/5D57A3AC/t51.2885-19/s320x320/22280052_470612030004862_8932155644820062208_n.jpg?_nc_ht=scontent-cdg2-1.cdninstagram.com,RogerFederer 🎾🎾🎾,False,[],2018-12-27 16:38:49,17951351734215969,Br5c93bgKdq,rogerfederer,You simply are the best 😊💛,1,1,[],[],[],2018-12-27 16:36:01,168.0,168.0
2353,2353,0.0,0.0,0.5023287782256719,0,0.00016679269798299787,0.11720831113478955,0.00017755287746632043,1276,880,8,1,0,1,1,0.0,impersonator,1,2,1,2,2,500274533,https://youtu.be/CH1oqwmGnWE,isagarcia29,María García,https://scontent-cdg2-1.cdninstagram.com/vp/8f964b7242026cd706febb806c29fce7/5D520E0E/t51.2885-19/s320x320/57232504_286531452225643_1056094808403083264_n.jpg?_nc_ht=scontent-cdg2-1.cdninstagram.com,Tennis player,False,[],2018-12-19 23:48:43,18007650700069041,BrlLQjNA8y9,rogerfederer,@andreaocampo_,1,1,[],[],[],2018-12-19 19:36:28,15135.0,15135.0
2368,2368,0.0,0.0,0.3563004293331382,0,7.960560585552171e-05,0.07551944592434735,0.00015535876778303038,609,567,7,1,0,1,1,0.0,impersonator,1,2,1,2,2,617782303,--,zaferduha,Zafer Duha Fazla,https://scontent-cdg2-1.cdninstagram.com/vp/aeab8a0f4776313d94c96bdf812df5fd/5D3C2175/t51.2885-19/s320x320/47586162_393509611397041_985686086669828096_n.jpg?_nc_ht=scontent-cdg2-1.cdninstagram.com,"Ual'20
Tennis player from Turkey🇹🇷",False,[],2018-12-27 16:37:03,17936672887244922,Br5c93bgKdq,rogerfederer,Goaattt🎆❤️,1,1,[],[],[],2018-12-27 16:36:01,62.0,62.0
2370,2370,0.0,0.0,0.5023287782256719,0,6.0259744333982776e-05,0.07485348961108151,0.00019974698714961048,461,562,9,0,0,1,1,0.0,impersonator,1,2,1,2,2,620555447,--,david.flores20,David Flores ♛.,https://scontent-cdg2-1.cdninstagram.com/vp/e8e87be66044180330be9e0325e02cf0/5D5588CE/t51.2885-19/s320x320/51961993_308036339900762_5614040155913453568_n.jpg?_nc_ht=scontent-cdg2-1.cdninstagram.com,"📍 MX 
Tennis Player 🎾🇲🇽",False,[],2018-10-28 20:06:02,17915649961244036,BpfUQFoAueV,rogerfederer,The greatest,1,1,[],[],[],2018-10-28 19:56:49,553.0,553.0
2382,2382,0.0,0.0,0.5023287782256719,0,6.797194588648816e-05,0.08284496537027171,0.00017755287746632043,520,622,8,1,0,1,1,0.0,impersonator,1,2,1,2,2,887864643,--,patosepu04,Patricio Sepulveda Garza,https://scontent-cdg2-1.cdninstagram.com/vp/7e22eb1fd7062f5e90bce5d274ecf785/5D6D9716/t51.2885-19/s320x320/54513530_563789267461815_6774396996233986048_n.jpg?_nc_ht=scontent-cdg2-1.cdninstagram.com,"Tennis player 🎾🇲🇽 MX,NL",False,[],2018-12-19 22:47:04,17949291925212566,BrlLQjNA8y9,rogerfederer,@johnrisner 😂😂,1,1,[],[],[],2018-12-19 19:36:28,11436.0,11436.0
2383,2383,0.0,0.0,0.3563004293331382,0,9.032425886069868e-05,0.09629728289824188,0.00430565727855827,691,723,194,1,0,1,1,0.0,impersonator,1,2,1,2,2,925373721,--,arianna.f18,Αrianna Foti🌍,https://scontent-cdg2-1.cdninstagram.com/vp/82a3b0c666250bf45b53550bdd3a3aee/5D7189C2/t51.2885-19/s320x320/43292477_362564354287200_9004539677847322624_n.jpg?_nc_ht=scontent-cdg2-1.cdninstagram.com,"Tennis player 🎾   
📍italy ,rc 🇮🇹",False,[],2018-10-29 08:10:47,17979089791104488,BpfDe9uAGDP,rogerfederer,😍😍😍😍😍😍👑,1,1,[],[],[],2018-10-28 17:30:18,52829.0,52829.0
2392,2392,0.33517574332792605,0.0,0.0,0,0.00017267488560779009,0.0938998401704848,0.0023969638457953264,1321,705,108,0,0,1,1,0.0,impersonator,0,2,1,2,2,1069471326,--,rogerrrw_12,R o g e r W e n g S C,https://scontent-cdg2-1.cdninstagram.com/vp/f0a6f8ec9416653bc51b824b9abf13fd/5D4054AE/t51.2885-19/11375362_114084318939873_428990890_a.jpg?_nc_ht=scontent-cdg2-1.cdninstagram.com,"🎱 ""Darkhorse."" Shanghai - Toronto",False,[],2018-12-19 21:22:38,17986174633187941,BrlLQjNA8y9,rogerfederer,You guys should team up for us open doubles next time 😂🔥,1,1,[],[],[],2018-12-19 19:36:28,6370.0,6370.0
2394,2394,0.0,0.0,0.3563004293331382,0,7.842916833056325e-05,0.05207778369738945,0.0008655702776483121,600,391,39,0,0,1,1,0.0,impersonator,1,2,1,2,2,1079767740,--,zouillerichard,Zoé Richard,https://scontent-cdg2-1.cdninstagram.com/vp/1e77050c23bd595c113093828d21fbc7/5D5D0A4A/t51.2885-19/s320x320/49759371_2305704122993672_1306116339445792768_n.jpg?_nc_ht=scontent-cdg2-1.cdninstagram.com,|| Tennis player || french || 20yo ||,False,[],2018-12-19 19:41:47,17849591386313343,BrlLQjNA8y9,rogerfederer,😍😍😍😍😍,2,1,[],[],[],2018-12-19 19:36:28,1082.5,319.0
2394,2394,0.0,0.0,0.3563004293331382,0,7.842916833056325e-05,0.05207778369738945,0.0008655702776483121,600,391,39,0,0,1,1,0.0,impersonator,1,2,1,2,2,1079767740,--,zouillerichard,Zoé Richard,https://scontent-cdg2-1.cdninstagram.com/vp/1e77050c23bd595c113093828d21fbc7/5D5D0A4A/t51.2885-19/s320x320/49759371_2305704122993672_1306116339445792768_n.jpg?_nc_ht=scontent-cdg2-1.cdninstagram.com,|| Tennis player || french || 20yo ||,False,[],2018-10-28 20:27:35,17988374455069471,BpfUQFoAueV,rogerfederer,@gwendalhh non elles ont des meilleures têtes les 911 pizzas 😂,2,1,[],[],[],2018-10-28 19:56:49,1082.5,1846.0
2395,2395,0.0,0.0,0.3563004293331382,0,9.019354358014774e-05,0.06632924880127862,0.00033291164524935083,690,498,15,1,0,1,1,0.0,impersonator,1,2,1,2,2,1101743827,--,yusuf_cetints,Yusuf Çetintaş,https://scontent-cdg2-1.cdninstagram.com/vp/37f5234ccc9cf665c1f5e68418a59b71/5D522690/t51.2885-19/s320x320/35617261_239121803337644_7803240490547019776_n.jpg?_nc_ht=scontent-cdg2-1.cdninstagram.com,"Tennis Player 🎾
KAL",False,[],2018-12-27 16:38:17,17985238585152839,Br5c93bgKdq,rogerfederer,Kral yakıyosun yine 🔥,1,1,[],[],[],2018-12-27 16:36:01,136.0,136.0
2398,2398,0.0,0.0,0.33517574332792605,0,0.00010195791882973224,0.11840703249866807,0.00015535876778303038,780,889,7,1,0,1,1,0.0,impersonator,1,2,1,2,2,1140500519,--,vishvambhagat,Vishvam Bhagat,https://scontent-cdg2-1.cdninstagram.com/vp/fbc236b00a64969a3a8d0bf9c2f7aae2/5D5CB341/t51.2885-19/s320x320/21910146_117676535576411_8575776885143764992_n.jpg?_nc_ht=scontent-cdg2-1.cdninstagram.com,LFHS '21 🎾Tennis🎾,False,[],2018-10-28 19:27:43,17978906470096764,BpfDe9uAGDP,rogerfederer,Novak is still better than u,1,1,[],[],[],2018-10-28 17:30:18,7045.0,7045.0
2404,2404,0.0,0.0,0.3563004293331382,0,8.02591822582764e-05,0.10135855087906233,0.00042168808398251103,614,761,19,1,0,1,1,0.0,impersonator,1,2,1,2,2,1179257412,http://vsco.co/nery-1619,nery_1619,Nery,https://scontent-cdg2-1.cdninstagram.com/vp/d44b2f64eedcfea29a1760a3d89c18ed/5D54D6D3/t51.2885-19/s320x320/52355823_305553410160605_4393080704276103168_n.jpg?_nc_ht=scontent-cdg2-1.cdninstagram.com,"✭ ✮ ✯ ✰
sʟᴀʏɪɴɢ ɪᴛ 
⇢ Tennis Player 🎾
⇢ Blessed 🙏🏻",False,[],2018-12-27 16:48:12,18011678194069740,Br5c93bgKdq,rogerfederer,😻😻😻😻👌🏻,1,1,[],[],[],2018-12-27 16:36:01,731.0,731.0
2415,2415,0.0,0.0,0.33517574332792605,0,6.156689713949216e-05,0.05420884389984017,8.87764387331602e-05,471,407,4,0,0,1,1,0.0,impersonator,1,2,1,2,2,1251740112,--,gaetano.dimare,Gaetano,https://scontent-cdg2-1.cdninstagram.com/vp/213c1642a1af7cd3deeb7dd1ded3e456/5D53BAB4/t51.2885-19/s320x320/51986103_411522809604304_5915718517050572800_n.jpg?_nc_ht=scontent-cdg2-1.cdninstagram.com,tennis | 🇮🇹🇨🇭,False,[],2018-10-28 19:07:37,17886473905276359,BpfDe9uAGDP,rogerfederer,🤩🤩🏆👌🏻👌🏻,1,1,[],[],[],2018-10-28 17:30:18,5839.0,5839.0
2418,2418,0.0,0.0,0.5023287782256719,0,0.0005951466723484242,0.2868939797549281,0.0007989879485984419,4553,2154,36,0,0,1,1,0.0,impersonator,1,2,1,2,2,1282956966,--,itay_bity,itay bity,https://scontent-cdg2-1.cdninstagram.com/vp/56c543e7669b7ba5a799ce770936af08/5D579DFA/t51.2885-19/s320x320/47279012_2587311111408143_5458292280844615680_n.jpg?_nc_ht=scontent-cdg2-1.cdninstagram.com,Tennis player🎾🎾🏆🏆,False,[],2018-12-19 20:23:05,17997285739105658,BrlLQjNA8y9,rogerfederer,@itamartapi  חחח הוא אחיקר @rogerfederer,3,1,[],[],[],2018-12-19 19:36:28,1371.6666666666667,2797.0
2418,2418,0.0,0.0,0.5023287782256719,0,0.0005951466723484242,0.2868939797549281,0.0007989879485984419,4553,2154,36,0,0,1,1,0.0,impersonator,1,2,1,2,2,1282956966,--,itay_bity,itay bity,https://scontent-cdg2-1.cdninstagram.com/vp/56c543e7669b7ba5a799ce770936af08/5D579DFA/t51.2885-19/s320x320/47279012_2587311111408143_5458292280844615680_n.jpg?_nc_ht=scontent-cdg2-1.cdninstagram.com,Tennis player🎾🎾🏆🏆,False,[],2018-12-19 19:47:32,17985904621185465,BrlLQjNA8y9,rogerfederer,אחיקר,3,1,[],[],[],2018-12-19 19:36:28,1371.6666666666667,664.0
2418,2418,0.0,0.0,0.5023287782256719,0,0.0005951466723484242,0.2868939797549281,0.0007989879485984419,4553,2154,36,0,0,1,1,0.0,impersonator,1,2,1,2,2,1282956966,--,itay_bity,itay bity,https://scontent-cdg2-1.cdninstagram.com/vp/56c543e7669b7ba5a799ce770936af08/5D579DFA/t51.2885-19/s320x320/47279012_2587311111408143_5458292280844615680_n.jpg?_nc_ht=scontent-cdg2-1.cdninstagram.com,Tennis player🎾🎾🏆🏆,False,[],2018-12-19 19:47:22,18012804064048369,BrlLQjNA8y9,rogerfederer,גבר,3,1,[],[],[],2018-12-19 19:36:28,1371.6666666666667,654.0
2427,2427,0.0,0.0,0.33517574332792605,0,0.00017463561481605418,0.129328716036228,0.0012650642519475331,1336,971,57,1,0,1,1,0.0,impersonator,1,2,1,2,2,1353456438,https://vsco.co/raquelbolin,raquel.bolin,raquel❥,https://scontent-cdg2-1.cdninstagram.com/vp/a515e9b8ae5647d1b25b36d52b3fd682/5D3F976F/t51.2885-19/s320x320/45751985_2013255258973298_8340841847635050496_n.jpg?_nc_ht=scontent-cdg2-1.cdninstagram.com,tennis//NC,False,[],2018-12-19 19:51:43,18012285802050108,BrlLQjNA8y9,rogerfederer,@_tylerzink_,1,1,[],[],[],2018-12-19 19:36:28,915.0,915.0
2429,2429,0.0,0.0,0.3563004293331382,0,3.37245423821422e-05,0.02583910495471497,0.0005326586323989613,258,194,24,1,0,1,1,0.0,impersonator,1,2,1,2,2,1356726715,http://www.giomol.it/,gio_mol_02,Giovanni Moles,https://scontent-cdg2-1.cdninstagram.com/vp/8ceb77568c574c80fd1a87a59552f5cf/5D760851/t51.2885-19/s320x320/21041477_113204982715910_7061397761903558656_a.jpg?_nc_ht=scontent-cdg2-1.cdninstagram.com,Italian Tennis Player🇮🇹🎾,False,[],2018-12-28 12:48:50,17942072761231729,Br5c93bgKdq,rogerfederer,Oh you are back on clay😂,1,1,[],[],[],2018-12-27 16:36:01,72769.0,72769.0
2433,2433,0.0,0.0,0.3563004293331382,0,8.823281437188367e-05,0.2581246670218433,0.0007324056195485717,675,1938,33,0,0,1,1,0.0,impersonator,1,2,1,2,2,1383960529,--,angeloliccardo_,Angelo Liccardo⚡🖤,https://scontent-cdg2-1.cdninstagram.com/vp/048caed34a8f50ad8570497811089a76/5D56E80F/t51.2885-19/s320x320/49907091_321183158490580_149460176091480064_n.jpg?_nc_ht=scontent-cdg2-1.cdninstagram.com,Tennis player🔙🎾/Naples🌊,False,[],2018-10-28 22:40:05,17971137451087466,BpfDe9uAGDP,rogerfederer,@mariano_vice ne ha vinti pochi,1,1,[],[],[],2018-10-28 17:30:18,18587.0,18587.0
2434,2434,0.33517574332792605,0.0,0.0,0,5.320111918423208e-05,0.03689397975492807,0.02192778036709057,407,277,988,0,0,1,1,0.0,impersonator,0,2,1,2,2,1386851072,--,tennisxtennis,Tournament: Monte Carlos,https://scontent-cdg2-1.cdninstagram.com/vp/e5bc8d4166fc43a78a0cb843ebb142d3/5D526859/t51.2885-19/s320x320/50803468_548994615614575_800215328515686400_n.jpg?_nc_ht=scontent-cdg2-1.cdninstagram.com,"Current Grand Slam Champions:
AO: Naomi Osaka, Djokovic 
RG: Simona Halep, Nadal
Wimbledon: Angelique Kerber, Djokovic 
US: Naomi Osaka, Djokovic",False,[],2018-12-28 08:29:26,17849067106321524,Br5c93bgKdq,rogerfederer,Can’t wait for the season to start!,1,1,[],[],[],2018-12-27 16:36:01,57205.0,57205.0
2435,2435,0.0,0.0,0.5023287782256719,0,8.666423100527242e-05,0.054075652637187,0.007213085647069267,663,406,325,1,0,1,1,0.0,impersonator,1,2,1,2,2,1388364878,--,javierjara_baez,javier,https://scontent-cdg2-1.cdninstagram.com/vp/9950e0eaaa77da7e857c1245c427e676/5D77C748/t51.2885-19/s320x320/50201808_241296666783212_7775309188644732928_n.jpg?_nc_ht=scontent-cdg2-1.cdninstagram.com,Roger Federer !!,False,[],2018-12-28 00:40:59,18015370135058271,Br5c93bgKdq,rogerfederer,Mi idolo máximo del deporte. El gran maestro suizo. Vamos Roger,1,1,[],[],[],2018-12-27 16:36:01,29098.0,29098.0
2451,2451,0.0,0.0,0.5023287782256719,0,0.0001946350527403478,0.060069259456579635,0.0015979758971968838,1489,451,72,0,0,1,1,0.0,impersonator,1,2,1,2,2,1476860242,--,dea.tafarshiku,Dea Tafarshiku,https://scontent-cdg2-1.cdninstagram.com/vp/6b17a74456d287970f313e2a8dfb7c41/5D3AF44E/t51.2885-19/s320x320/57104309_356495574963069_4068228456251392000_n.jpg?_nc_ht=scontent-cdg2-1.cdninstagram.com,Tennis player🎾,False,[],2018-12-19 19:57:13,18013180996009061,BrlLQjNA8y9,rogerfederer,😍,1,1,[],[],[],2018-12-19 19:36:28,1245.0,1245.0
2454,2454,0.0,0.0,0.5023287782256719,0,8.914782133574023e-05,0.08191262653169952,2.219410968329005e-05,682,615,1,1,0,1,1,0.0,impersonator,1,2,1,2,2,1485806989,--,utkusuer,Utku Süer,https://scontent-cdg2-1.cdninstagram.com/vp/d1fb7dd1a8b216598556203ce122e4fc/5D777820/t51.2885-19/s320x320/39940892_239195553463827_799913022947590144_n.jpg?_nc_ht=scontent-cdg2-1.cdninstagram.com,tennis player,False,[],2018-12-19 19:52:33,18013877635003583,BrlLQjNA8y9,rogerfederer,sen önce clay oynamaya bak bırak şimdi laver cup falan,1,1,[],[],[],2018-12-19 19:36:28,965.0,965.0
2465,2465,0.0,0.0,0.5023287782256719,0,0.00010875511341838105,0.28609483217900905,0.0007767938389151519,832,2148,35,1,0,1,1,0.0,impersonator,1,2,1,2,2,1518402814,--,andreablanco18,A n d r e a B l a n c o 💖,https://scontent-cdg2-1.cdninstagram.com/vp/96c8efddf5fc0366a36ce3477592166b/5D40236A/t51.2885-19/s320x320/50256953_2240797199522538_6428810218062217216_n.jpg?_nc_ht=scontent-cdg2-1.cdninstagram.com,"Tennis Player 🎾
13✨
🇻🇪|🇵🇹",False,[],2018-11-13 23:06:46,17998856701045444,BqI1njOAMvO,rogerfederer,Demasiada calidad en esta foto,1,1,[],[],[],2018-11-13 22:57:15,571.0,571.0
2469,2469,0.0,0.0,0.5023287782256719,0,9.424571727722685e-05,0.08257858284496536,0.00033291164524935083,721,620,15,0,0,1,1,0.0,impersonator,1,2,1,2,2,1523973098,http://Muhammadkaramm.Sarahah.com/,mohamedkaram14,KARAM,https://scontent-cdg2-1.cdninstagram.com/vp/fd2f07e8d2afbc41b00f9e378afb98ac/5D726D16/t51.2885-19/s320x320/54446725_432750724162434_7983866955088003072_n.jpg?_nc_ht=scontent-cdg2-1.cdninstagram.com,| Tennis player  🎾,False,[],2018-12-27 20:22:57,17915922385267271,Br5c93bgKdq,rogerfederer,❤️❤️❤️❤️❤️❤️❤️,1,1,[],[],[],2018-12-27 16:36:01,13616.0,13616.0
2474,2474,0.0,0.0,0.6569729210330906,0,0.00017646562874376734,0.08124667021843368,0.0065694564662538545,1350,610,296,1,0,1,1,0.0,impersonator,1,2,1,2,2,1545045213,https://profile.ir/nimaparsi,nima.parsiii,Nima Parsi,https://scontent-cdg2-1.cdninstagram.com/vp/5181df08c18f33a0b823fa3c6260d665/5D3E0609/t51.2885-19/s320x320/54446798_381677459229455_6435457238298525696_n.jpg?_nc_ht=scontent-cdg2-1.cdninstagram.com,Pro tennis player🇮🇷🎾,False,[],2018-12-20 15:47:06,17913251413267296,BrlLQjNA8y9,rogerfederer,❤️❤️,1,1,[],[],[],2018-12-19 19:36:28,72638.0,72638.0
2475,2475,0.0,0.0,0.5023287782256719,0,0.00010509508556295476,0.13625466169419284,0.00033291164524935083,804,1023,15,1,0,1,1,0.0,impersonator,1,2,1,2,2,1546019981,--,celeste_belienx,Celeste Aimée Beliën,https://scontent-cdg2-1.cdninstagram.com/vp/4b5b938859469e11f10de11d70130de7/5D6E75BF/t51.2885-19/s320x320/50815370_836402426696089_8086380140747030528_n.jpg?_nc_ht=scontent-cdg2-1.cdninstagram.com,SCW📚 // Tennisplayer U16🇳🇱,False,[],2018-12-19 20:50:59,17913194656270145,BrlLQjNA8y9,rogerfederer,❤️,1,1,[],[],[],2018-12-19 19:36:28,4471.0,4471.0
2479,2479,0.0,0.0,0.4109954639349511,0,0.00035672200062351184,0.06166755460841768,0.002152828639279135,2729,463,97,1,0,1,1,0.0,impersonator,1,2,1,2,2,1548957913,--,annairenepagano_,Pagaia🚣🏼‍♀️,https://scontent-cdg2-1.cdninstagram.com/vp/d5fd61e6e3482616546a0b7f91ea138e/5D3907E7/t51.2885-19/s320x320/54732299_2170185196625387_778800449779138560_n.jpg?_nc_ht=scontent-cdg2-1.cdninstagram.com,"Lerici,17.💚❤️
Professional tennis player (or almost)🎾🇮🇹  
Skier ⛷ 
Countries visited: 🇪🇬, 🇧🇧, 🇺🇸,🇨🇭, 🇬🇧 , 🇧🇪, 🇩🇪, 🇵🇷,🇱🇨, 🇫🇷 
 #rogerfederer",False,[],2018-12-20 16:17:12,17984864536134335,BrlLQjNA8y9,rogerfederer,@luca.magno22 rf ❤️,1,1,[],[],[],2018-12-19 19:36:28,74444.0,74444.0
2480,2480,0.0,0.0,0.5101490193104813,0,1.0849368285727915e-05,0.012519978689397977,0.0009987349357480524,83,94,45,0,0,1,1,0.0,impersonator,1,2,1,2,2,1552459364,--,lushlondonuk,,https://scontent-cdg2-1.cdninstagram.com/vp/a70c0c0520a02697cc380fc2f86954da/5D3F8FF0/t51.2885-19/s320x320/36771109_741608696279440_2772754534663979008_n.jpg?_nc_ht=scontent-cdg2-1.cdninstagram.com,Tennis nut from the UK 🎾 Roger Federer ❤️❤️,False,[],2018-10-28 20:52:19,17931459943214617,BpfUQFoAueV,rogerfederer,🏆🏆🏆🏆🏆🏆🏆🏆🏆Make it 10 next year ❤️❤️,1,1,[],[],[],2018-10-28 19:56:49,3330.0,3330.0
2482,2482,0.0,0.0,0.3563004293331382,0,0.00011725160665419208,0.7068460309003729,0.001620170006880174,897,5307,73,0,0,1,1,0.0,impersonator,1,2,1,2,2,1556899461,--,diego_dimey,Diego Dimey,https://scontent-cdg2-1.cdninstagram.com/vp/b5275cde473b5d809296c0d5d8de04b5/5D5933AF/t51.2885-19/s320x320/52684738_401932833685491_5461388724631764992_n.jpg?_nc_ht=scontent-cdg2-1.cdninstagram.com,Tennis player🎾🎾 Poesía✍🏻,False,[],2018-12-19 19:43:08,17949340270209635,BrlLQjNA8y9,rogerfederer,YES YES YES⚡️🎾🎾,1,1,[],[],[],2018-12-19 19:36:28,400.0,400.0
2508,2508,0.0,0.0,0.5023287782256719,0,5.686114703965836e-05,0.0420884389984017,0.003595445768692989,435,316,162,1,0,1,1,0.0,impersonator,1,2,1,2,2,1638628706,--,samyar__samanian,samyar,https://scontent-cdg2-1.cdninstagram.com/vp/606d66a14d810823a48c406cac0d35ac/5D3CD837/t51.2885-19/s320x320/54511330_643585106088678_1147527068632743936_n.jpg?_nc_ht=scontent-cdg2-1.cdninstagram.com,Tennis player 🎾❤💪🏻,False,[],2018-12-27 21:02:13,17992390759083665,Br5c93bgKdq,rogerfederer,Best😎💙🔥👌🏼👑😍💪🏻,5,1,[],[],[],2018-12-27 16:36:01,74282.2,15972.0
2508,2508,0.0,0.0,0.5023287782256719,0,5.686114703965836e-05,0.0420884389984017,0.003595445768692989,435,316,162,1,0,1,1,0.0,impersonator,1,2,1,2,2,1638628706,--,samyar__samanian,samyar,https://scontent-cdg2-1.cdninstagram.com/vp/606d66a14d810823a48c406cac0d35ac/5D3CD837/t51.2885-19/s320x320/54511330_643585106088678_1147527068632743936_n.jpg?_nc_ht=scontent-cdg2-1.cdninstagram.com,Tennis player 🎾❤💪🏻,False,[],2018-12-21 23:02:01,17997582496101342,BrlLQjNA8y9,rogerfederer,Legends💙👑🤩💪🏻🎾🔥,5,1,[],[],[],2018-12-19 19:36:28,74282.2,185133.0
2508,2508,0.0,0.0,0.5023287782256719,0,5.686114703965836e-05,0.0420884389984017,0.003595445768692989,435,316,162,1,0,1,1,0.0,impersonator,1,2,1,2,2,1638628706,--,samyar__samanian,samyar,https://scontent-cdg2-1.cdninstagram.com/vp/606d66a14d810823a48c406cac0d35ac/5D3CD837/t51.2885-19/s320x320/54511330_643585106088678_1147527068632743936_n.jpg?_nc_ht=scontent-cdg2-1.cdninstagram.com,Tennis player 🎾❤💪🏻,False,[],2018-11-14 22:36:51,17991401113075581,BqI1njOAMvO,rogerfederer,💙👑👌🏼💪🏻👍🏻🎾💣🔥😍,5,1,[],[],[],2018-11-13 22:57:15,74282.2,85176.0
2508,2508,0.0,0.0,0.5023287782256719,0,5.686114703965836e-05,0.0420884389984017,0.003595445768692989,435,316,162,1,0,1,1,0.0,impersonator,1,2,1,2,2,1638628706,--,samyar__samanian,samyar,https://scontent-cdg2-1.cdninstagram.com/vp/606d66a14d810823a48c406cac0d35ac/5D3CD837/t51.2885-19/s320x320/54511330_643585106088678_1147527068632743936_n.jpg?_nc_ht=scontent-cdg2-1.cdninstagram.com,Tennis player 🎾❤💪🏻,False,[],2018-10-29 17:17:12,17989915414070213,BpfUQFoAueV,rogerfederer,😍🧡💙💣👑👍🏻👌🏼💪🏻,5,1,[],[],[],2018-10-28 19:56:49,74282.2,76823.0
2508,2508,0.0,0.0,0.5023287782256719,0,5.686114703965836e-05,0.0420884389984017,0.003595445768692989,435,316,162,1,0,1,1,0.0,impersonator,1,2,1,2,2,1638628706,--,samyar__samanian,samyar,https://scontent-cdg2-1.cdninstagram.com/vp/606d66a14d810823a48c406cac0d35ac/5D3CD837/t51.2885-19/s320x320/54511330_643585106088678_1147527068632743936_n.jpg?_nc_ht=scontent-cdg2-1.cdninstagram.com,Tennis player 🎾❤💪🏻,False,[],2018-10-28 19:48:45,17993854408037732,BpfDe9uAGDP,rogerfederer,Congrats king you are the best🏆❤💣🔥👑💪🏻🎾👏🏻,5,1,[],[],[],2018-10-28 17:30:18,74282.2,8307.0
2514,2514,0.0,0.0,0.5023287782256719,0,4.914894548715298e-05,0.06939264784230154,0.0027298754910446764,376,521,123,1,0,1,1,0.0,impersonator,1,2,1,2,2,1653813442,--,baghamirzaei,Bagha Mirzaei,https://scontent-cdg2-1.cdninstagram.com/vp/1a58b8c674112474506c4efefa66e71c/5D56095D/t51.2885-19/s320x320/45521199_2244150555830085_5243371352848596992_n.jpg?_nc_ht=scontent-cdg2-1.cdninstagram.com,♥️👑roger federer👑♥️,False,[],2018-10-28 18:38:18,17994865807015985,BpfDe9uAGDP,rogerfederer,Roger tnx 👏🏻👏🏻👏🏻,1,1,[],[],[],2018-10-28 17:30:18,4080.0,4080.0
2522,2522,0.0,0.0,0.33517574332792605,0,0.00034103616695739915,0.04222163026105488,0.0005104645227156712,2609,317,23,1,0,1,1,0.0,impersonator,1,2,1,2,2,1678217564,--,_ali.salehi._,🔹Ali Salehi🔹,https://scontent-cdg2-1.cdninstagram.com/vp/5ba13548e9400111cb3d1dfce904041a/5D3DF6E1/t51.2885-19/s320x320/47076381_1192341730916076_3795584348913139712_n.jpg?_nc_ht=scontent-cdg2-1.cdninstagram.com,🎾#tennis🇬🇧,False,[],2018-10-28 18:29:36,17929838380217713,BpfDe9uAGDP,rogerfederer,✔️,1,1,[],[],[],2018-10-28 17:30:18,3558.0,3558.0
2524,2524,0.33517574332792605,0.0,0.05699752852140606,0,9.280784919116653e-06,0.04754928076718167,0.012628448409792041,71,357,569,1,0,1,2,0.3333333333333333,impersonator,0,0,1,0,3,1685629665,--,rofederer_ok,ro,https://scontent-cdg2-1.cdninstagram.com/vp/518abf75bd35ee6fdfab97dc6b0aa64c/5D3E900C/t51.2885-19/s320x320/28153966_1564281150288113_5700234420057800704_n.jpg?_nc_ht=scontent-cdg2-1.cdninstagram.com,"""El destino pone muchas personas en tu vida, pero solo las mejores permanecen para siempre"" 👧👩❤ #Federerfans / #Ilovemarcanthony 😍😍",False,[],2018-12-27 16:50:14,17923064281257841,Br5c93bgKdq,rogerfederer,Dios mío mi amor ❤️,1,1,[],[],[],2018-12-27 16:36:01,853.0,853.0
2525,2525,0.0,0.0,0.3446421410380547,0,1.163365996903355e-05,0.009589770911028236,0.0011097054841645027,89,72,50,1,0,1,1,0.0,impersonator,1,2,1,2,2,1700699832,--,mariamhusseinali,♏e♏a,https://scontent-cdg2-1.cdninstagram.com/vp/fec0ad32e843ed46c2c5464ccee58425/5D425D9D/t51.2885-19/s320x320/56791046_1378574008950984_693707685832425472_n.jpg?_nc_ht=scontent-cdg2-1.cdninstagram.com,"Iraqi🇮🇶😌
Architect ✏📏📐📌💻
Love Tennis 🎾& Roger Federer 👑🐐🎾🏆
Love Novels 📗📘📙📓📕📒📖📚
🔚",False,[],2018-12-27 16:36:51,17941027318232759,Br5c93bgKdq,rogerfederer,Love love love you champ😘,1,1,[],[],[],2018-12-27 16:36:01,50.0,50.0
2530,2530,0.0,0.0,0.5023287782256719,0,0.00010574866196570948,0.07671816728822589,0.00024413520651619058,809,576,11,1,0,1,1,0.0,impersonator,1,2,1,2,2,1743899463,--,teunrozenberg._,Teun Rozenberg,https://scontent-cdg2-1.cdninstagram.com/vp/f10c5f435c5c28f38dce261eaa381fa3/5D72871A/t51.2885-19/s320x320/47586195_1786979898080349_6015970943594135552_n.jpg?_nc_ht=scontent-cdg2-1.cdninstagram.com,Tennis player U16,False,[],2018-12-19 19:40:33,18013293415021902,BrlLQjNA8y9,rogerfederer,❤️❤️,1,1,[],[],[],2018-12-19 19:36:28,245.0,245.0
2550,2550,0.0,0.0,0.6569729210330906,0,0.0005984145543621978,0.08590836441129461,0.00015535876778303038,4578,645,7,0,0,1,1,0.0,impersonator,1,2,1,2,2,1906051359,http://facebook.com/yasinpov,yasinpov,Yasin Pov👉🏻👑,https://scontent-cdg2-1.cdninstagram.com/vp/3035f18c56771aa6e6c1fd9f37252051/5D41269A/t51.2885-19/s320x320/55777058_299719534054638_3904638082569207808_n.jpg?_nc_ht=scontent-cdg2-1.cdninstagram.com,Pro Tennis Player 🇮🇷🎾,False,[],2018-10-28 20:33:18,17933459821207474,BpfUQFoAueV,rogerfederer,@arash_aminzadeh1 كي پيتزا بخوريم😂😂,5,1,[],[],[],2018-10-28 19:56:49,4372.8,2189.0
2550,2550,0.0,0.0,0.6569729210330906,0,0.0005984145543621978,0.08590836441129461,0.00015535876778303038,4578,645,7,0,0,1,1,0.0,impersonator,1,2,1,2,2,1906051359,http://facebook.com/yasinpov,yasinpov,Yasin Pov👉🏻👑,https://scontent-cdg2-1.cdninstagram.com/vp/3035f18c56771aa6e6c1fd9f37252051/5D41269A/t51.2885-19/s320x320/55777058_299719534054638_3904638082569207808_n.jpg?_nc_ht=scontent-cdg2-1.cdninstagram.com,Pro Tennis Player 🇮🇷🎾,False,[],2018-10-28 20:33:23,17964350992149169,BpfUQFoAueV,rogerfederer,@amirhosseinsalehiofficial 😻😎😘😎😻,5,1,[],[],[],2018-10-28 19:56:49,4372.8,2194.0
2550,2550,0.0,0.0,0.6569729210330906,0,0.0005984145543621978,0.08590836441129461,0.00015535876778303038,4578,645,7,0,0,1,1,0.0,impersonator,1,2,1,2,2,1906051359,http://facebook.com/yasinpov,yasinpov,Yasin Pov👉🏻👑,https://scontent-cdg2-1.cdninstagram.com/vp/3035f18c56771aa6e6c1fd9f37252051/5D41269A/t51.2885-19/s320x320/55777058_299719534054638_3904638082569207808_n.jpg?_nc_ht=scontent-cdg2-1.cdninstagram.com,Pro Tennis Player 🇮🇷🎾,False,[],2018-10-28 20:33:58,17975628685122187,BpfUQFoAueV,rogerfederer,@arash_aminzadeh1 بيا تلگراممم😤😡,5,1,[],[],[],2018-10-28 19:56:49,4372.8,2229.0
2550,2550,0.0,0.0,0.6569729210330906,0,0.0005984145543621978,0.08590836441129461,0.00015535876778303038,4578,645,7,0,0,1,1,0.0,impersonator,1,2,1,2,2,1906051359,http://facebook.com/yasinpov,yasinpov,Yasin Pov👉🏻👑,https://scontent-cdg2-1.cdninstagram.com/vp/3035f18c56771aa6e6c1fd9f37252051/5D41269A/t51.2885-19/s320x320/55777058_299719534054638_3904638082569207808_n.jpg?_nc_ht=scontent-cdg2-1.cdninstagram.com,Pro Tennis Player 🇮🇷🎾,False,[],2018-10-28 19:36:31,17895106987269412,BpfDe9uAGDP,rogerfederer,😻😻💕💕❤️,5,1,[],[],[],2018-10-28 17:30:18,4372.8,7573.0
2550,2550,0.0,0.0,0.6569729210330906,0,0.0005984145543621978,0.08590836441129461,0.00015535876778303038,4578,645,7,0,0,1,1,0.0,impersonator,1,2,1,2,2,1906051359,http://facebook.com/yasinpov,yasinpov,Yasin Pov👉🏻👑,https://scontent-cdg2-1.cdninstagram.com/vp/3035f18c56771aa6e6c1fd9f37252051/5D41269A/t51.2885-19/s320x320/55777058_299719534054638_3904638082569207808_n.jpg?_nc_ht=scontent-cdg2-1.cdninstagram.com,Pro Tennis Player 🇮🇷🎾,False,[],2018-10-28 19:38:17,17989909378069371,BpfDe9uAGDP,rogerfederer,It wonder💕😘👻ful☺️😻😍,5,1,[],[],[],2018-10-28 17:30:18,4372.8,7679.0
2572,2572,0.0,0.0,0.3563004293331382,0,7.5814862719544495e-06,0.006259989344698989,0.002175022748962425,58,47,98,0,0,1,1,0.0,impersonator,1,2,1,2,2,1987794849,https://www.youtube.com/channel/UCFa76BSRkTPr1rurQWzgq5A,nickygalvin,Nicholas Galvin,https://scontent-cdg2-1.cdninstagram.com/vp/57cdc1470aecab57d8bafec2068105f7/5D512C22/t51.2885-19/s320x320/56819231_2173870329364264_6337903064829132800_n.jpg?_nc_ht=scontent-cdg2-1.cdninstagram.com,🎾 Tennis player 🎬Actor  🇮🇪🇷🇺🇭🇺,False,[],2018-10-30 12:48:19,17903900587255581,BpfUQFoAueV,rogerfederer,Same for me!,1,1,[],[],[],2018-10-28 19:56:49,147090.0,147090.0
2576,2576,0.0,0.0,0.3563004293331382,0,7.542271687789168e-05,0.11281299946723496,0.007368444414852298,577,847,332,1,0,1,1,0.0,impersonator,1,2,1,2,2,2015011946,--,sanjuktabanerjee,Sanjukta Banerjee,https://scontent-cdg2-1.cdninstagram.com/vp/0993eeb004a9e1e8314dfcbd59a9c579/5D76A07E/t51.2885-19/s320x320/53398143_381185029136746_3933173140909195264_n.jpg?_nc_ht=scontent-cdg2-1.cdninstagram.com,Crazy about Roger federer!!!,False,[],2018-10-28 18:48:29,17863084084294566,BpfDe9uAGDP,rogerfederer,Yes the uniqlo curse is over! Congratulations roger.. love u,1,1,[],[],[],2018-10-28 17:30:18,4691.0,4691.0
2581,2581,0.0,0.0,0.3563004293331382,0,9.450714783832872e-05,0.05327650506126798,0.00046607630334909113,723,400,21,1,0,1,1,0.0,impersonator,1,2,1,2,2,2033086936,--,rawanesherif,rawane sherif,https://scontent-cdg2-1.cdninstagram.com/vp/25e7e94249f3376997cf173c21c761b8/5D5B3CB2/t51.2885-19/s320x320/56325340_590429931468107_5183545391877980160_n.jpg?_nc_ht=scontent-cdg2-1.cdninstagram.com,Francophone/TENNiS Player🎾,False,[],2018-10-28 21:30:05,17992008745035901,BpfDe9uAGDP,rogerfederer,G.o.a.t😘😘😘,2,1,[],[],[],2018-10-28 17:30:18,14377.5,14387.0
2581,2581,0.0,0.0,0.3563004293331382,0,9.450714783832872e-05,0.05327650506126798,0.00046607630334909113,723,400,21,1,0,1,1,0.0,impersonator,1,2,1,2,2,2033086936,--,rawanesherif,rawane sherif,https://scontent-cdg2-1.cdninstagram.com/vp/25e7e94249f3376997cf173c21c761b8/5D5B3CB2/t51.2885-19/s320x320/56325340_590429931468107_5183545391877980160_n.jpg?_nc_ht=scontent-cdg2-1.cdninstagram.com,Francophone/TENNiS Player🎾,False,[],2018-10-28 21:29:46,17929788130222360,BpfDe9uAGDP,rogerfederer,❤️❤️❤️❤️❤️❤️❤️,2,1,[],[],[],2018-10-28 17:30:18,14377.5,14368.0
2590,2590,0.0,0.0,0.33517574332792605,0,2.365946577971992e-05,0.02290889717634523,0.0003772998646159309,181,172,17,0,0,1,1,0.0,impersonator,1,2,1,2,2,2045152789,--,carsten_fed,Carsten,https://scontent-cdg2-1.cdninstagram.com/vp/7386592f055fa52e843e2b20283c23fe/5D3E1DAD/t51.2885-19/s320x320/40592852_289963145155013_2970755653745770496_n.jpg?_nc_ht=scontent-cdg2-1.cdninstagram.com,19 ⏳/ Tennis 🎾🔝,False,[],2018-10-28 22:38:35,17993118532011962,BpfUQFoAueV,rogerfederer,@by_max.d hab 2 Bilder mit ihm 💁🏻‍♂️😂,1,1,[],[],[],2018-10-28 19:56:49,9706.0,9706.0
2609,2609,0.3563004293331382,0.0,0.0,0,0.00027110349186264704,0.012253596164091636,0.005548527420822513,2074,92,250,0,0,1,1,0.0,impersonator,0,2,1,2,2,2101520453,--,roger_federer_goat_20,,https://scontent-cdg2-1.cdninstagram.com/vp/62f47763077ceb21c2435a632965bd07/5D6CA4E5/t51.2885-19/s320x320/13392898_634537000038996_24601897_a.jpg?_nc_ht=scontent-cdg2-1.cdninstagram.com,THE GOAT = 💙💙 LOVE LOVE LOVE 💜💜,False,[],2018-12-19 20:22:17,17993350501125486,BrlLQjNA8y9,rogerfederer,💚💚💚💚💚💚💚,5,1,[],[],[],2018-12-19 19:36:28,2754.4,2749.0
2609,2609,0.3563004293331382,0.0,0.0,0,0.00027110349186264704,0.012253596164091636,0.005548527420822513,2074,92,250,0,0,1,1,0.0,impersonator,0,2,1,2,2,2101520453,--,roger_federer_goat_20,,https://scontent-cdg2-1.cdninstagram.com/vp/62f47763077ceb21c2435a632965bd07/5D6CA4E5/t51.2885-19/s320x320/13392898_634537000038996_24601897_a.jpg?_nc_ht=scontent-cdg2-1.cdninstagram.com,THE GOAT = 💙💙 LOVE LOVE LOVE 💜💜,False,[],2018-12-19 20:22:19,17938105378233082,BrlLQjNA8y9,rogerfederer,💓💓💓💓💓💓💓💓,5,1,[],[],[],2018-12-19 19:36:28,2754.4,2751.0
2609,2609,0.3563004293331382,0.0,0.0,0,0.00027110349186264704,0.012253596164091636,0.005548527420822513,2074,92,250,0,0,1,1,0.0,impersonator,0,2,1,2,2,2101520453,--,roger_federer_goat_20,,https://scontent-cdg2-1.cdninstagram.com/vp/62f47763077ceb21c2435a632965bd07/5D6CA4E5/t51.2885-19/s320x320/13392898_634537000038996_24601897_a.jpg?_nc_ht=scontent-cdg2-1.cdninstagram.com,THE GOAT = 💙💙 LOVE LOVE LOVE 💜💜,False,[],2018-12-19 20:22:22,17849896465309765,BrlLQjNA8y9,rogerfederer,💜💜💜💜💜💜💜💜💜💜,5,1,[],[],[],2018-12-19 19:36:28,2754.4,2754.0
2609,2609,0.3563004293331382,0.0,0.0,0,0.00027110349186264704,0.012253596164091636,0.005548527420822513,2074,92,250,0,0,1,1,0.0,impersonator,0,2,1,2,2,2101520453,--,roger_federer_goat_20,,https://scontent-cdg2-1.cdninstagram.com/vp/62f47763077ceb21c2435a632965bd07/5D6CA4E5/t51.2885-19/s320x320/13392898_634537000038996_24601897_a.jpg?_nc_ht=scontent-cdg2-1.cdninstagram.com,THE GOAT = 💙💙 LOVE LOVE LOVE 💜💜,False,[],2018-12-19 20:22:25,17997051805110620,BrlLQjNA8y9,rogerfederer,💙💙💙💙💙💙💙💙💙💙💙,5,1,[],[],[],2018-12-19 19:36:28,2754.4,2757.0
2609,2609,0.3563004293331382,0.0,0.0,0,0.00027110349186264704,0.012253596164091636,0.005548527420822513,2074,92,250,0,0,1,1,0.0,impersonator,0,2,1,2,2,2101520453,--,roger_federer_goat_20,,https://scontent-cdg2-1.cdninstagram.com/vp/62f47763077ceb21c2435a632965bd07/5D6CA4E5/t51.2885-19/s320x320/13392898_634537000038996_24601897_a.jpg?_nc_ht=scontent-cdg2-1.cdninstagram.com,THE GOAT = 💙💙 LOVE LOVE LOVE 💜💜,False,[],2018-12-19 20:22:29,17996968837116670,BrlLQjNA8y9,rogerfederer,😉😉😉😉💚💚😉😉😉💚💚😉😉,5,1,[],[],[],2018-12-19 19:36:28,2754.4,2761.0
2610,2610,0.0,0.0,0.33517574332792605,0,0.00010810153701562636,0.1058870538092701,0.0010875113744812123,827,795,49,1,0,1,1,0.0,impersonator,1,2,1,2,2,2113452370,http://vsco.co/averypal28,averypalandjian,Avery Palandjian,https://scontent-cdg2-1.cdninstagram.com/vp/841d5cb1d4a226157eee81d52730b802/5D75BF0A/t51.2885-19/s320x320/56853000_603208643487377_7571753564452683776_n.jpg?_nc_ht=scontent-cdg2-1.cdninstagram.com,tennis,False,[],2018-12-27 19:12:04,17985452044178456,BpfDe9uAGDP,rogerfederer,You are gonna win aus open 2019 ans have 100 singles titles!,1,1,[],[],[],2018-10-28 17:30:18,5190106.0,5190106.0
2616,2616,0.0,0.0,0.5023287782256719,0,9.280784919116653e-06,0.01877996803409696,0.00013316465809974033,71,141,6,0,0,1,1,0.0,impersonator,1,2,1,2,2,2123963004,--,nina_fr_,Nani Nouna,https://scontent-cdg2-1.cdninstagram.com/vp/e61139d0b63c97402dbb55da8f4b42ac/5D3EECE4/t51.2885-19/s320x320/38153511_516884365431575_8312905417541812224_n.jpg?_nc_ht=scontent-cdg2-1.cdninstagram.com,Roger Federer 👑 ✌ 💌,False,[],2018-12-19 20:53:09,17969907838196403,BrlLQjNA8y9,rogerfederer,💜😍,1,1,[],[],[],2018-12-19 19:36:28,4601.0,4601.0
2633,2633,0.0,0.0,0.3563004293331382,0,6.627264723932597e-05,0.12866275972296218,0.00022194109683290053,507,966,10,1,0,1,1,0.0,impersonator,1,2,1,2,2,2225594943,--,andree_fanzz,Andrea Fanzaga,https://scontent-cdg2-1.cdninstagram.com/vp/b413f1e80b438edd9fb712fe1eb05b23/5D6C47BD/t51.2885-19/s320x320/54511120_565701530585065_5095621505748828160_n.jpg?_nc_ht=scontent-cdg2-1.cdninstagram.com,"Tennis Player❤🎾🏆
iis Badoni📚",False,[],2018-11-02 11:41:44,17995920793019820,BpfDe9uAGDP,rogerfederer,"Simply the best, thanks ROGER❤",1,1,[],[],[],2018-10-28 17:30:18,411086.0,411086.0
2639,2639,0.0,0.0,0.5023287782256719,0,5.359326502588489e-06,0.03982418753329781,0.0008655702776483121,41,299,39,1,0,1,1,0.0,impersonator,1,2,1,2,2,2238287970,--,jing_shiou,jing-shiou,https://scontent-cdg2-1.cdninstagram.com/vp/c116adc0a82079fa4425113e59555bc9/5D715D64/t51.2885-19/s320x320/46591806_317298768883934_3457960079330902016_n.jpg?_nc_ht=scontent-cdg2-1.cdninstagram.com,"帳號停止使用至會考結束。
🌈腹有詩書氣自華🌈
🎾ROGER FEDERER🎾",False,[],2018-10-28 22:32:34,17992839310016014,BpfDe9uAGDP,rogerfederer,Make it to 100 in London! ❤,1,1,[],[],[],2018-10-28 17:30:18,18136.0,18136.0
2647,2647,0.0,0.0,0.5023287782256719,0,2.73194936351462e-05,0.035029302077783694,0.0005770468517655412,209,263,26,1,0,1,1,0.0,impersonator,1,2,1,2,2,2249255518,--,pallavi_koka,Sai Pallavi Koka,https://scontent-cdg2-1.cdninstagram.com/vp/a046b226e7bd3cab048bdba1efb8253d/5D37C445/t51.2885-19/s320x320/40099972_2264476077120025_487203686850756608_n.jpg?_nc_ht=scontent-cdg2-1.cdninstagram.com,ROGER FEDERER,True,[],2018-10-29 02:49:32,17994577798050192,BpfUQFoAueV,rogerfederer,ROGER❤️❤️❤️💞💕💓💖💗,2,1,[],[],[],2018-10-28 19:56:49,28816.0,24763.0
2647,2647,0.0,0.0,0.5023287782256719,0,2.73194936351462e-05,0.035029302077783694,0.0005770468517655412,209,263,26,1,0,1,1,0.0,impersonator,1,2,1,2,2,2249255518,--,pallavi_koka,Sai Pallavi Koka,https://scontent-cdg2-1.cdninstagram.com/vp/a046b226e7bd3cab048bdba1efb8253d/5D37C445/t51.2885-19/s320x320/40099972_2264476077120025_487203686850756608_n.jpg?_nc_ht=scontent-cdg2-1.cdninstagram.com,ROGER FEDERER,True,[],2018-10-29 02:38:07,17967935254140331,BpfDe9uAGDP,rogerfederer,G. O. A. T,2,1,[],[],[],2018-10-28 17:30:18,28816.0,32869.0
2653,2653,0.0,0.0,0.3563004293331382,0,6.496549443381656e-05,0.06766116142781033,0.00024413520651619058,497,508,11,0,0,1,1,0.0,impersonator,1,2,1,2,2,2261115172,--,xd_joshdc,Josh Cameron,https://scontent-cdg2-1.cdninstagram.com/vp/5ebd6740e25a01a86f0f28d5ce77991e/5D368D47/t51.2885-19/s320x320/26152708_1970666586526572_6223433300103397376_n.jpg?_nc_ht=scontent-cdg2-1.cdninstagram.com,Tennis player 🎾 👻 came.jo22,False,[],2018-12-28 19:49:21,18017605555046884,Br5c93bgKdq,rogerfederer,Come to New Zealand :),1,1,[],[],[],2018-12-27 16:36:01,98000.0,98000.0
2654,2654,0.0,0.0,0.33517574332792605,0,3.019522980726686e-05,0.015050612679808202,0.00013316465809974033,231,113,6,1,0,1,1,0.0,impersonator,1,2,1,2,2,2265842448,--,lelebayern,Léon,https://scontent-cdg2-1.cdninstagram.com/vp/f0011098cad000a12740a01ea3c857b1/5D55D429/t51.2885-19/s320x320/31255822_1890958947591681_4923206408792440832_n.jpg?_nc_ht=scontent-cdg2-1.cdninstagram.com,Tennis 🎾,False,[],2018-10-29 10:23:23,17931544918211371,BpfUQFoAueV,rogerfederer,Isch cool gse mit dir,1,1,[],[],[],2018-10-28 19:56:49,51994.0,51994.0
2655,2655,0.0,0.0,0.3563004293331382,0,0.0070259463296129575,0.04515183803942461,0.007790132498834808,53750,339,351,0,1,1,1,0.0,impersonator,1,0,1,2,2,2272052871,http://www.andreasseppi.com/,andyseppio,Andreas Seppi,https://scontent-cdg2-1.cdninstagram.com/vp/bb3ea0b11c164ff1d6ebfa50f0ced822/5D3B11BA/t51.2885-19/s320x320/22637532_135456907104083_1694737014886236160_n.jpg?_nc_ht=scontent-cdg2-1.cdninstagram.com,Professional Tennis Player,False,[],2018-12-19 21:02:49,17895302272284471,BrlLQjNA8y9,rogerfederer,🇪🇺🇪🇺🇪🇺,2,1,[],[],[],2018-12-19 19:36:28,5156.0,5181.0
2655,2655,0.0,0.0,0.3563004293331382,0,0.0070259463296129575,0.04515183803942461,0.007790132498834808,53750,339,351,0,1,1,1,0.0,impersonator,1,0,1,2,2,2272052871,http://www.andreasseppi.com/,andyseppio,Andreas Seppi,https://scontent-cdg2-1.cdninstagram.com/vp/bb3ea0b11c164ff1d6ebfa50f0ced822/5D3B11BA/t51.2885-19/s320x320/22637532_135456907104083_1694737014886236160_n.jpg?_nc_ht=scontent-cdg2-1.cdninstagram.com,Professional Tennis Player,False,[],2018-10-28 18:55:49,17919211957231411,BpfDe9uAGDP,rogerfederer,👏👏👏 Number 99 😎,2,1,[],[],[],2018-10-28 17:30:18,5156.0,5131.0
2666,2666,0.0,0.0,0.6694188517266485,0,3.019522980726686e-05,0.037426744805540764,0.0006214350711321215,231,281,28,0,0,1,1,0.0,impersonator,1,2,1,2,2,2301831431,--,nicomauro05,Nicolas Mauro,https://scontent-cdg2-1.cdninstagram.com/vp/91c26fe7082c791021c2aa23415d1da1/5D6EBA2C/t51.2885-19/s320x320/53908342_994140307451279_7337025965274431488_n.jpg?_nc_ht=scontent-cdg2-1.cdninstagram.com,"Tennis player 🎾
Roger Federer 🇨🇭 😍🏆
Umons📚 🔞
🇧🇪🇮🇹",False,[],2018-12-19 20:08:33,18013410367006462,BrlLQjNA8y9,rogerfederer,@jonathan_raulier 😍,1,1,[],[],[],2018-12-19 19:36:28,1925.0,1925.0
2709,2709,0.0,0.0,0.3108907746813973,0,2.2744458815863345e-05,0.08803942461374534,0.0006436291808154115,174,661,29,1,0,1,1,0.0,impersonator,1,2,1,2,2,2961451291,--,sandy_cool8010,Sandeep Kumar,https://scontent-cdg2-1.cdninstagram.com/vp/89fa325667679da3ec3a17b6d1d3d840/5D743129/t51.2885-19/s320x320/53043257_2310830945831561_8235421871059763200_n.jpg?_nc_ht=scontent-cdg2-1.cdninstagram.com,"❤ 10August❤🍫
📚JNV Faridabad, NIT Allahabad❤
💼HPCL-MEL, Engineer❤
🎾Lawn Tennis Player❤
     @rogerfederer fan
🏠Faridabad,Haryana🏠
🏡Bhatinda,Punj",False,[],2018-12-27 16:50:24,18016094752039734,Br5c93bgKdq,rogerfederer,@rogerfederer  you are king.Australian open 2019 trophy coming to you soon🎾👌,1,1,[],[],[],2018-12-27 16:36:01,863.0,863.0
2755,2755,0.0,0.0,0.5023287782256719,0,9.150069638565714e-07,0.002797016515716569,0.0,7,21,0,1,0,1,1,0.0,impersonator,1,2,1,2,2,3200652868,--,tai807,たえぇ,https://scontent-cdg2-1.cdninstagram.com/vp/afd15aa22a3a96ca72a4ba67e8fa5154/5D43AE32/t51.2885-19/s320x320/13117960_524725794378965_1103137087_a.jpg?_nc_ht=scontent-cdg2-1.cdninstagram.com,岡村靖幸大好きじゃけん💜 RogerFederer 🎾ダウンタウン😎 韓ドラ ❤️吉田秋生📙 だいすき♡ 最近のお気に入りはビッケブランカ🎵 テソン😃 ユチョン😊  ポインコ🐥🐥広島県呉市🇯🇵,False,[],2018-12-19 20:54:09,17951439286207649,BrlLQjNA8y9,rogerfederer,🤗,1,1,[],[],[],2018-12-19 19:36:28,4661.0,4661.0
2808,2808,0.0,0.0,0.3563004293331382,0,3.0848806210021546e-05,0.0757858284496537,0.0023969638457953264,236,569,108,0,0,1,1,0.0,impersonator,1,2,1,2,2,3544343373,--,maria.fidelus,Maria Fidelus,https://scontent-cdg2-1.cdninstagram.com/vp/3786a42467f69b40f6aaaa606eeb5926/5D54FD61/t51.2885-19/s320x320/53236501_632885930493702_7532256761730826240_n.jpg?_nc_ht=scontent-cdg2-1.cdninstagram.com,team Roger Federer,False,[],2018-12-19 19:44:30,17846476252321593,BrlLQjNA8y9,rogerfederer,🤗,1,1,[],[],[],2018-12-19 19:36:28,482.0,482.0
2843,2843,0.0,0.0,0.3563004293331382,0,7.267769598632196e-05,0.06433137986148109,8.87764387331602e-05,556,483,4,1,0,1,1,0.0,impersonator,1,2,1,2,2,3764659946,--,_sofidelmar_,sofía,https://scontent-cdg2-1.cdninstagram.com/vp/bcb72c718bdb61fd0f5d8112443859fb/5D7418D4/t51.2885-19/s320x320/52551511_467201177149660_4530889050705362944_n.jpg?_nc_ht=scontent-cdg2-1.cdninstagram.com,"Tennis player🎾
👻 sofidelmar.10",False,[],2018-10-28 21:27:27,17971731784090260,BpfDe9uAGDP,rogerfederer,❤️,4,1,[],[],[],2018-10-28 17:30:18,14229.75,14229.0
2843,2843,0.0,0.0,0.3563004293331382,0,7.267769598632196e-05,0.06433137986148109,8.87764387331602e-05,556,483,4,1,0,1,1,0.0,impersonator,1,2,1,2,2,3764659946,--,_sofidelmar_,sofía,https://scontent-cdg2-1.cdninstagram.com/vp/bcb72c718bdb61fd0f5d8112443859fb/5D7418D4/t51.2885-19/s320x320/52551511_467201177149660_4530889050705362944_n.jpg?_nc_ht=scontent-cdg2-1.cdninstagram.com,"Tennis player🎾
👻 sofidelmar.10",False,[],2018-10-28 21:27:28,17966533120185729,BpfDe9uAGDP,rogerfederer,❤️,4,1,[],[],[],2018-10-28 17:30:18,14229.75,14230.0
2843,2843,0.0,0.0,0.3563004293331382,0,7.267769598632196e-05,0.06433137986148109,8.87764387331602e-05,556,483,4,1,0,1,1,0.0,impersonator,1,2,1,2,2,3764659946,--,_sofidelmar_,sofía,https://scontent-cdg2-1.cdninstagram.com/vp/bcb72c718bdb61fd0f5d8112443859fb/5D7418D4/t51.2885-19/s320x320/52551511_467201177149660_4530889050705362944_n.jpg?_nc_ht=scontent-cdg2-1.cdninstagram.com,"Tennis player🎾
👻 sofidelmar.10",False,[],2018-10-28 21:27:28,17971689010080753,BpfDe9uAGDP,rogerfederer,❤️,4,1,[],[],[],2018-10-28 17:30:18,14229.75,14230.0
2843,2843,0.0,0.0,0.3563004293331382,0,7.267769598632196e-05,0.06433137986148109,8.87764387331602e-05,556,483,4,1,0,1,1,0.0,impersonator,1,2,1,2,2,3764659946,--,_sofidelmar_,sofía,https://scontent-cdg2-1.cdninstagram.com/vp/bcb72c718bdb61fd0f5d8112443859fb/5D7418D4/t51.2885-19/s320x320/52551511_467201177149660_4530889050705362944_n.jpg?_nc_ht=scontent-cdg2-1.cdninstagram.com,"Tennis player🎾
👻 sofidelmar.10",False,[],2018-10-28 21:27:28,17975155093123607,BpfDe9uAGDP,rogerfederer,❤️,4,1,[],[],[],2018-10-28 17:30:18,14229.75,14230.0
2923,2923,0.0,0.0,0.3563004293331382,0,2.0260868485395507e-05,0.047016515716568986,8.87764387331602e-05,155,353,4,1,0,1,1,0.0,impersonator,1,2,1,2,2,4260505567,--,daniel_h122,Daniel Harris,https://scontent-cdg2-1.cdninstagram.com/vp/481e73334c2a1bc5d24d3eb4fc58dd2d/5D6CEF8E/t51.2885-19/s320x320/37871682_236595527047963_8396680910723874816_n.jpg?_nc_ht=scontent-cdg2-1.cdninstagram.com,"Tennis Player 🎾💪
#blessed",False,[],2018-10-29 01:59:48,17968194055140793,BpfDe9uAGDP,rogerfederer,Hahaha I get it..... 99 like your titles ha....no one. ok,1,1,[],[],[],2018-10-28 17:30:18,30570.0,30570.0
2930,2930,0.0,0.0,0.5023287782256719,0,4.483534122897199e-05,0.04661694192860948,0.00028852342588277073,343,350,13,1,0,1,1,0.0,impersonator,1,2,1,2,2,4310935374,--,noel_holei,Noel,https://scontent-cdg2-1.cdninstagram.com/vp/bb4227cef896f8050c68471b9c8b91d2/5D3DB14E/t51.2885-19/s320x320/23101717_479153449130794_2910460716706168832_n.jpg?_nc_ht=scontent-cdg2-1.cdninstagram.com,Tennisplayer🎾,False,[],2018-10-28 19:09:54,17902190497258190,BpfDe9uAGDP,rogerfederer,Congrats❤️❤️,1,1,[],[],[],2018-10-28 17:30:18,5976.0,5976.0
2953,2953,0.0,0.0,0.3563004293331382,0,4.156745921519853e-05,0.14531166755460842,0.0007989879485984419,318,1091,36,1,0,1,1,0.0,impersonator,1,2,1,2,2,4509748628,--,haidyytarekk,Haidy,https://scontent-cdg2-1.cdninstagram.com/vp/c4ccb236dbb69578bc3147b37212c878/5D51382C/t51.2885-19/s320x320/24838221_159116101527752_2297655010546155520_n.jpg?_nc_ht=scontent-cdg2-1.cdninstagram.com,"volleyballer #2
Roger Federer👅",False,[],2018-12-27 20:22:07,17987081380176149,Br5c93bgKdq,rogerfederer,😍😍😍😍😍😍,3,1,[],[],[],2018-12-27 16:36:01,7412.0,13566.0
2953,2953,0.0,0.0,0.3563004293331382,0,4.156745921519853e-05,0.14531166755460842,0.0007989879485984419,318,1091,36,1,0,1,1,0.0,impersonator,1,2,1,2,2,4509748628,--,haidyytarekk,Haidy,https://scontent-cdg2-1.cdninstagram.com/vp/c4ccb236dbb69578bc3147b37212c878/5D51382C/t51.2885-19/s320x320/24838221_159116101527752_2297655010546155520_n.jpg?_nc_ht=scontent-cdg2-1.cdninstagram.com,"volleyballer #2
Roger Federer👅",False,[],2018-12-19 21:24:52,17904727741277832,BrlLQjNA8y9,rogerfederer,😍😍😍😍😍😍,3,1,[],[],[],2018-12-19 19:36:28,7412.0,6504.0
2953,2953,0.0,0.0,0.3563004293331382,0,4.156745921519853e-05,0.14531166755460842,0.0007989879485984419,318,1091,36,1,0,1,1,0.0,impersonator,1,2,1,2,2,4509748628,--,haidyytarekk,Haidy,https://scontent-cdg2-1.cdninstagram.com/vp/c4ccb236dbb69578bc3147b37212c878/5D51382C/t51.2885-19/s320x320/24838221_159116101527752_2297655010546155520_n.jpg?_nc_ht=scontent-cdg2-1.cdninstagram.com,"volleyballer #2
Roger Federer👅",False,[],2018-10-28 20:32:55,17920306876235993,BpfUQFoAueV,rogerfederer,Cutieeee❤❤❤❤,3,1,[],[],[],2018-10-28 19:56:49,7412.0,2166.0
2987,2987,0.1506401849870651,0.0,0.3563004293331382,0,0.0,0.007325519445924347,0.0,0,55,0,1,0,1,2,0.3333333333333333,impersonator,0,0,1,2,3,4783448393,--,koreanrogerfan,fantastic,https://scontent-cdg2-1.cdninstagram.com/vp/c2880b61b59df0eb1d1f3bc19d09290a/5D3F3292/t51.2885-19/s320x320/52913926_316930619027075_8536190605368229888_n.jpg?_nc_ht=scontent-cdg2-1.cdninstagram.com,I'm Roger Federer Fan:),False,[],2018-12-27 16:42:21,17999486758106432,Br5c93bgKdq,rogerfederer,My King❤️🎾,7,1,[],[],[],2018-12-27 16:36:01,256996.2857142857,380.0
2987,2987,0.1506401849870651,0.0,0.3563004293331382,0,0.0,0.007325519445924347,0.0,0,55,0,1,0,1,2,0.3333333333333333,impersonator,0,0,1,2,3,4783448393,--,koreanrogerfan,fantastic,https://scontent-cdg2-1.cdninstagram.com/vp/c2880b61b59df0eb1d1f3bc19d09290a/5D3F3292/t51.2885-19/s320x320/52913926_316930619027075_8536190605368229888_n.jpg?_nc_ht=scontent-cdg2-1.cdninstagram.com,I'm Roger Federer Fan:),False,[],2018-12-27 16:40:40,17987536585133704,Br5c93bgKdq,rogerfederer,❤️❤️❤️❤️❤️❤️❤️😎😎😎😎😎,7,1,[],[],[],2018-12-27 16:36:01,256996.2857142857,279.0
2987,2987,0.1506401849870651,0.0,0.3563004293331382,0,0.0,0.007325519445924347,0.0,0,55,0,1,0,1,2,0.3333333333333333,impersonator,0,0,1,2,3,4783448393,--,koreanrogerfan,fantastic,https://scontent-cdg2-1.cdninstagram.com/vp/c2880b61b59df0eb1d1f3bc19d09290a/5D3F3292/t51.2885-19/s320x320/52913926_316930619027075_8536190605368229888_n.jpg?_nc_ht=scontent-cdg2-1.cdninstagram.com,I'm Roger Federer Fan:),False,[],2018-12-27 16:40:08,17848843522317842,Br5c93bgKdq,rogerfederer,I LOVE U ROGI❤️😍😘,7,1,[],[],[],2018-12-27 16:36:01,256996.2857142857,247.0
2987,2987,0.1506401849870651,0.0,0.3563004293331382,0,0.0,0.007325519445924347,0.0,0,55,0,1,0,1,2,0.3333333333333333,impersonator,0,0,1,2,3,4783448393,--,koreanrogerfan,fantastic,https://scontent-cdg2-1.cdninstagram.com/vp/c2880b61b59df0eb1d1f3bc19d09290a/5D3F3292/t51.2885-19/s320x320/52913926_316930619027075_8536190605368229888_n.jpg?_nc_ht=scontent-cdg2-1.cdninstagram.com,I'm Roger Federer Fan:),False,[],2018-11-14 07:48:19,17999598430040746,BqI1njOAMvO,rogerfederer,@rogerfederer I LOVE U MY KING ❤️❤️❤️❤️❤️ YOU ARE ALWAYS THE BEST💙💙💙💙💙,7,1,[],[],[],2018-11-13 22:57:15,256996.2857142857,31864.0
2987,2987,0.1506401849870651,0.0,0.3563004293331382,0,0.0,0.007325519445924347,0.0,0,55,0,1,0,1,2,0.3333333333333333,impersonator,0,0,1,2,3,4783448393,--,koreanrogerfan,fantastic,https://scontent-cdg2-1.cdninstagram.com/vp/c2880b61b59df0eb1d1f3bc19d09290a/5D3F3292/t51.2885-19/s320x320/52913926_316930619027075_8536190605368229888_n.jpg?_nc_ht=scontent-cdg2-1.cdninstagram.com,I'm Roger Federer Fan:),False,[],2018-11-14 04:03:34,17981378890125714,BqI1njOAMvO,rogerfederer,😍😍😍😍😍😍😍😍😍,7,1,[],[],[],2018-11-13 22:57:15,256996.2857142857,18379.0
2987,2987,0.1506401849870651,0.0,0.3563004293331382,0,0.0,0.007325519445924347,0.0,0,55,0,1,0,1,2,0.3333333333333333,impersonator,0,0,1,2,3,4783448393,--,koreanrogerfan,fantastic,https://scontent-cdg2-1.cdninstagram.com/vp/c2880b61b59df0eb1d1f3bc19d09290a/5D3F3292/t51.2885-19/s320x320/52913926_316930619027075_8536190605368229888_n.jpg?_nc_ht=scontent-cdg2-1.cdninstagram.com,I'm Roger Federer Fan:),False,[],2018-11-17 19:34:41,17910281974255070,BpfUQFoAueV,rogerfederer,@rogerfederer You are always the best❤❤❤❤❤ See U next year!!!,7,1,[],[],[],2018-10-28 19:56:49,256996.2857142857,1726672.0
2987,2987,0.1506401849870651,0.0,0.3563004293331382,0,0.0,0.007325519445924347,0.0,0,55,0,1,0,1,2,0.3333333333333333,impersonator,0,0,1,2,3,4783448393,--,koreanrogerfan,fantastic,https://scontent-cdg2-1.cdninstagram.com/vp/c2880b61b59df0eb1d1f3bc19d09290a/5D3F3292/t51.2885-19/s320x320/52913926_316930619027075_8536190605368229888_n.jpg?_nc_ht=scontent-cdg2-1.cdninstagram.com,I'm Roger Federer Fan:),False,[],2018-10-29 01:49:22,17988068206068862,BpfUQFoAueV,rogerfederer,😍😍😍😍😍😍😍,7,1,[],[],[],2018-10-28 19:56:49,256996.2857142857,21153.0
3045,3045,0.0,0.0,0.5023287782256719,0,1.0457222444075099e-05,0.003995737879595097,0.00013316465809974033,80,30,6,0,0,1,1,0.0,impersonator,1,2,1,2,2,5553243441,--,_qianshenxx,劉茜伸,https://scontent-cdg2-1.cdninstagram.com/vp/bb3ce913ee985ecbc56b2734b3e0039b/5D512988/t51.2885-19/s320x320/57488252_2325577381099426_5950739989619802112_n.jpg?_nc_ht=scontent-cdg2-1.cdninstagram.com,@rogerfederer 🇨🇭,False,[],2018-12-27 16:36:48,17915356114263730,Br5c93bgKdq,rogerfederer,Welcome back 💪💪💪,1,1,[],[],[],2018-12-27 16:36:01,47.0,47.0
3059,3059,0.0,0.0,0.33517574332792605,0,6.470406387271469e-05,0.02197655833777304,8.87764387331602e-05,495,165,4,1,0,1,1,0.0,impersonator,1,2,1,2,2,5653557647,--,paul_he02,,https://scontent-cdg2-1.cdninstagram.com/vp/04abe28786257ea25ab0b42a8d079ce8/5D55F332/t51.2885-19/s320x320/54510798_409384079872373_2428040846034075648_n.jpg?_nc_ht=scontent-cdg2-1.cdninstagram.com,"A🔗
tennis 🎾",False,[],2018-11-14 13:22:20,17997933751055485,BqI1njOAMvO,rogerfederer,👑👑,1,1,[],[],[],2018-11-13 22:57:15,51905.0,51905.0
3060,3060,0.0,0.0,0.33517574332792605,0,4.287461202070791e-05,0.04195524773574853,0.00031071753556606075,328,315,14,1,0,1,1,0.0,impersonator,1,2,1,2,2,5653672760,--,yashraj_2103,Yashraj Dalvi,https://scontent-cdg2-1.cdninstagram.com/vp/1613d6abdc0cad5c928026413a1dc769/5D58391E/t51.2885-19/s320x320/53395121_386058335325150_1974906192689889280_n.jpg?_nc_ht=scontent-cdg2-1.cdninstagram.com,Tennis ❤,False,[],2018-12-20 03:44:09,17857570927306996,BrlLQjNA8y9,rogerfederer,two legend in one pic,1,1,[],[],[],2018-12-19 19:36:28,29261.0,29261.0
3094,3094,0.0,0.0,0.5023287782256719,0,3.620813271261004e-05,0.07418753329781566,4.43882193665801e-05,277,557,2,1,0,1,1,0.0,impersonator,1,2,1,2,2,5791277861,--,_luciee034,,https://scontent-cdg2-1.cdninstagram.com/vp/d5b2f560554fe4ac217798ab217a412c/5D73CC11/t51.2885-19/s320x320/54512960_349150649041419_334999722441834496_n.jpg?_nc_ht=scontent-cdg2-1.cdninstagram.com,🎾🇫🇷💙 Tennis player🥰,False,[],2018-10-29 07:10:23,17965065676144153,BpfDe9uAGDP,rogerfederer,The best🥇💓😍,1,1,[],[],[],2018-10-28 17:30:18,49205.0,49205.0
3096,3096,0.0,0.0,0.5023287782256719,0,6.039045961453372e-05,0.11774107618540225,0.00011097054841645026,462,884,5,1,0,1,1,0.0,impersonator,1,2,1,2,2,5801083007,--,valrg88,VALE,https://scontent-cdg2-1.cdninstagram.com/vp/36be2e524fd9a813889213e70195505e/5D596929/t51.2885-19/s320x320/56340225_621822251576526_5147345741059981312_n.jpg?_nc_ht=scontent-cdg2-1.cdninstagram.com,ROGER FEDERER 💛🎾,False,[],2018-12-27 17:10:56,17846832427325950,Br5c93bgKdq,rogerfederer,Te amo Roger ❤️😘,1,1,[],[],[],2018-12-27 16:36:01,2095.0,2095.0
3111,3111,0.0,0.0,0.33517574332792605,0,3.8691723043077884e-05,0.047016515716568986,6.658232904987016e-05,296,353,3,1,0,1,1,0.0,impersonator,1,2,1,2,2,5883869189,--,noeerard,Noé.E,https://scontent-cdg2-1.cdninstagram.com/vp/26737119ecdd517433df6d42e947560b/5D745445/t51.2885-19/s320x320/26864034_525689061146433_8366524437805137920_n.jpg?_nc_ht=scontent-cdg2-1.cdninstagram.com,Tennis👌🎾,False,[],2018-10-28 19:46:36,17978472298096659,BpfDe9uAGDP,rogerfederer,"Bravo, une légende!!👑🎉",1,1,[],[],[],2018-10-28 17:30:18,8178.0,8178.0
3144,3144,0.0,0.0,0.33517574332792605,0,9.934361321871344e-06,0.011321257325519446,0.0,76,85,0,1,0,1,1,0.0,impersonator,1,2,1,2,2,6121160689,--,joejo03,joel,https://scontent-cdg2-1.cdninstagram.com/vp/2a736af2ca710087581ce0e0f9722418/5D7641CC/t51.2885-19/s320x320/36805156_308714843005430_337224532681031680_n.jpg?_nc_ht=scontent-cdg2-1.cdninstagram.com,🎾Tennis🎾,False,[],2018-10-29 20:14:44,17920821295228153,BpfUQFoAueV,rogerfederer,🎾👌🥇Wo lueg ich ahne😂🤦‍♂️,1,1,[],[],[],2018-10-28 19:56:49,87475.0,87475.0
3169,3169,0.0,0.0,0.5023287782256719,0,2.1568021290904892e-05,0.02157698454981353,0.0,165,162,0,1,0,1,1,0.0,impersonator,1,2,1,2,2,6278373466,--,hasaanaltann,Hasan,https://scontent-cdg2-1.cdninstagram.com/vp/a9d7ac9e960ded59d6e4769222864f8d/5D76D757/t51.2885-19/s320x320/53484936_295786037757361_4699714925096861696_n.jpg?_nc_ht=scontent-cdg2-1.cdninstagram.com,Tennis player 🎾🗽,False,[],2018-11-16 19:49:38,17978058661093760,BqI1njOAMvO,rogerfederer,King 👑🔥❤️❤️❤️,1,1,[],[],[],2018-11-13 22:57:15,247943.0,247943.0
3185,3185,0.0,0.0,0.5023287782256719,0,6.143618185894122e-06,0.034096963239211506,0.00028852342588277073,47,256,13,1,0,1,1,0.0,impersonator,1,2,1,2,2,6406015265,--,steffanengle,Steffan Engle,https://scontent-cdg2-1.cdninstagram.com/vp/745869e28fee615d41681beda923a825/5D6F5BC2/t51.2885-19/s320x320/47693497_440809366734464_7270106556576825344_n.jpg?_nc_ht=scontent-cdg2-1.cdninstagram.com,Tennis player,False,[],2018-12-27 17:22:26,17999362951096119,Br5c93bgKdq,rogerfederer,"Amazing, Roger.",1,1,[],[],[],2018-12-27 16:36:01,2785.0,2785.0
3200,3200,0.0,0.0,0.33517574332792605,0,7.882131417221607e-05,0.07938199254128929,8.87764387331602e-05,603,596,4,1,0,1,1,0.0,impersonator,1,2,1,2,2,6554382825,--,sreejay.ram,Sreejay Ramakrishnan,https://scontent-cdg2-1.cdninstagram.com/vp/05a14735f4ff5253587cad5bbee21c1b/5D6F0519/t51.2885-19/s320x320/51732508_295654221091560_3201225686203236352_n.jpg?_nc_ht=scontent-cdg2-1.cdninstagram.com,| fhe | '23 | tennis |,False,[],2018-12-19 23:11:38,17986525390188336,BrlLQjNA8y9,rogerfederer,@nanda.murali haha I’m the better one tho,3,1,[],[],[],2018-12-19 19:36:28,13034.333333333334,12910.0
3200,3200,0.0,0.0,0.33517574332792605,0,7.882131417221607e-05,0.07938199254128929,8.87764387331602e-05,603,596,4,1,0,1,1,0.0,impersonator,1,2,1,2,2,6554382825,--,sreejay.ram,Sreejay Ramakrishnan,https://scontent-cdg2-1.cdninstagram.com/vp/05a14735f4ff5253587cad5bbee21c1b/5D6F0519/t51.2885-19/s320x320/51732508_295654221091560_3201225686203236352_n.jpg?_nc_ht=scontent-cdg2-1.cdninstagram.com,| fhe | '23 | tennis |,False,[],2018-12-19 23:11:42,17921346937251980,BrlLQjNA8y9,rogerfederer,@nanda.murali jkjk,3,1,[],[],[],2018-12-19 19:36:28,13034.333333333334,12914.0
3200,3200,0.0,0.0,0.33517574332792605,0,7.882131417221607e-05,0.07938199254128929,8.87764387331602e-05,603,596,4,1,0,1,1,0.0,impersonator,1,2,1,2,2,6554382825,--,sreejay.ram,Sreejay Ramakrishnan,https://scontent-cdg2-1.cdninstagram.com/vp/05a14735f4ff5253587cad5bbee21c1b/5D6F0519/t51.2885-19/s320x320/51732508_295654221091560_3201225686203236352_n.jpg?_nc_ht=scontent-cdg2-1.cdninstagram.com,| fhe | '23 | tennis |,False,[],2018-12-19 23:17:47,17846075158318025,BrlLQjNA8y9,rogerfederer,@shiva.rajan_ ha thx,3,1,[],[],[],2018-12-19 19:36:28,13034.333333333334,13279.0
3247,3247,0.0,0.0,0.3563004293331382,0,4.6926785717787014e-05,0.04635055940330314,8.87764387331602e-05,359,348,4,0,0,1,1,0.0,impersonator,1,2,1,2,2,6870002482,--,blake2004__,Blake Pollard,https://scontent-cdg2-1.cdninstagram.com/vp/317476faa1299d94a5ab9cdb0bf9aac9/5D391CBF/t51.2885-19/s320x320/37728514_472838243179581_896459335096336384_n.jpg?_nc_ht=scontent-cdg2-1.cdninstagram.com,Tennis player🎾 (Toowoomba),False,[],2018-12-28 08:25:40,17922565477262814,Br5c93bgKdq,rogerfederer,Your my favourite tennis player I play tennis 🎾 my favourite sprot,2,1,[],[],[],2018-12-27 16:36:01,56981.0,56979.0
3247,3247,0.0,0.0,0.3563004293331382,0,4.6926785717787014e-05,0.04635055940330314,8.87764387331602e-05,359,348,4,0,0,1,1,0.0,impersonator,1,2,1,2,2,6870002482,--,blake2004__,Blake Pollard,https://scontent-cdg2-1.cdninstagram.com/vp/317476faa1299d94a5ab9cdb0bf9aac9/5D391CBF/t51.2885-19/s320x320/37728514_472838243179581_896459335096336384_n.jpg?_nc_ht=scontent-cdg2-1.cdninstagram.com,Tennis player🎾 (Toowoomba),False,[],2018-12-28 08:25:44,17908213903277089,Br5c93bgKdq,rogerfederer,Sport,2,1,[],[],[],2018-12-27 16:36:01,56981.0,56983.0
3263,3263,0.0,0.0,0.3808726084759436,0,3.189452845442906e-05,0.08058071390516781,0.00042168808398251103,244,605,19,0,0,1,1,0.0,impersonator,1,2,1,2,2,6965594191,http://www.thiscrush.com/~ALEMONDO07,easy_maseneva,easy_maseneva,https://scontent-cdg2-1.cdninstagram.com/vp/6bd514cb5f554f85e450b31daeb72a4d/5D5B6D91/t51.2885-19/s150x150/27576994_1233567450121231_3651224291866836992_n.jpg?_nc_ht=scontent-cdg2-1.cdninstagram.com,"2°H Tinozzi, Tennis ❤🎾🎾,Roger Federer🥇🥇 SINGLE😈",False,[],2018-12-27 09:08:34,18014384998020448,BrlLQjNA8y9,rogerfederer,❤️,1,1,[],[],[],2018-12-19 19:36:28,653526.0,653526.0
3296,3296,0.0,0.0,0.5023287782256719,0,2.5097333865780248e-05,0.07165689930740543,0.001686752335930044,192,538,76,0,0,1,1,0.0,impersonator,1,2,1,2,2,7100225896,--,mateovalero_,Mateo Valero Zepeda,https://scontent-cdg2-1.cdninstagram.com/vp/de5b7cb67f35621234d50bf956ce3fbb/5D6E0ED5/t51.2885-19/s320x320/44298997_1887865457998304_3041258714435682304_n.jpg?_nc_ht=scontent-cdg2-1.cdninstagram.com,Tennis player🎾🔥👍😀,False,[],2018-12-19 20:17:17,17939216158228492,BrlLQjNA8y9,rogerfederer,Woohoo,1,1,[],[],[],2018-12-19 19:36:28,2449.0,2449.0
3306,3306,0.0,0.0,0.3563004293331382,0,9.437643255777778e-05,0.05074587107085775,0.002108440419912555,722,381,95,1,0,1,1,0.0,impersonator,1,2,1,2,2,7151406008,--,vuk_bradiccc,Vuk Bradic,https://scontent-cdg2-1.cdninstagram.com/vp/9fc3647e43796f2e2c9e9fc476986ad5/5D42EF39/t51.2885-19/s320x320/56681389_345245309458017_581470294783295488_n.jpg?_nc_ht=scontent-cdg2-1.cdninstagram.com,"Tennis player🎾🏆🥇
ZTS📚
MUFC❤🏆",False,[],2018-12-27 19:23:09,18016058716051212,Br5c93bgKdq,rogerfederer,The king😍,1,1,[],[],[],2018-12-27 16:36:01,10028.0,10028.0
3340,3340,0.0,0.0,0.5023287782256719,0,2.6927347793493385e-05,0.017847629195524774,0.00017755287746632043,206,134,8,0,0,1,1,0.0,impersonator,1,2,1,2,2,7368111821,--,_rod.abel,RODRIGO ABEL,https://scontent-cdg2-1.cdninstagram.com/vp/ac0624dfe947cbd5d42640e5ce22ecd0/5D72F447/t51.2885-19/s320x320/53275063_570375126773274_8582969052694052864_n.jpg?_nc_ht=scontent-cdg2-1.cdninstagram.com,"GV 📚
@rogerfederer 🤤",False,[],2018-10-28 18:37:58,17992949992018975,BpfDe9uAGDP,rogerfederer,You are the king,1,1,[],[],[],2018-10-28 17:30:18,4060.0,4060.0
3350,3350,0.0,0.0,0.4109954639349511,0,3.908386888473069e-05,0.04168886521044219,0.000754599729231862,299,313,34,1,0,1,1,0.0,impersonator,1,2,1,2,2,7402996082,https://tellonym.me/nikostennis1107,_nikos.kats_,🎾Νίκος Κατσούλης🎾,https://scontent-cdg2-1.cdninstagram.com/vp/0027c627bbb9646361a15971682b84e9/5D580C0F/t51.2885-19/s320x320/52337805_338288360119849_7929662616681578496_n.jpg?_nc_ht=scontent-cdg2-1.cdninstagram.com,"Tennis is my life🔝💖
Greek Junior Tennis Player🎾🎾🔝
B.P.T.A❤🔝🎾
@rogerfederer Our Father
Athens,Greece🇬🇷",False,[],2018-10-28 22:42:00,17919080638241605,BpfDe9uAGDP,rogerfederer,Gongrats King ROGER❤️🔝😍💪🎾👌🔥,1,1,[],[],[],2018-10-28 17:30:18,18702.0,18702.0
3389,3389,0.0,0.0,0.317107466580271,0,3.2940250698836575e-05,0.058737346830047936,0.00013316465809974033,252,441,6,1,0,1,1,0.0,impersonator,1,2,1,2,2,7716226602,--,maria_christina_gk,maria-christina_gk🎾,https://scontent-cdg2-1.cdninstagram.com/vp/2eb11920b08b1a36f16fa8213b283ccc/5D748691/t51.2885-19/s320x320/52587355_440157243420384_1867876604105981952_n.jpg?_nc_ht=scontent-cdg2-1.cdninstagram.com,"Fight like there is no tomorrow💪  
#tennis❤️         
Μαρία Χριστίνα🏀⚽
#5° Γυμνάσιο Ιωαννίνων
#harrypotter 🖤
@rogerfederer🎾",True,[],2018-12-19 20:28:42,18011636344063947,BrlLQjNA8y9,rogerfederer,😂😂😂🤙🤙🤙,1,1,[],[],[],2018-12-19 19:36:28,3134.0,3134.0
3392,3392,0.0,0.0,0.4685191078810855,0,1.816942399658049e-05,0.02916888652104422,0.0005326586323989613,139,219,24,0,0,1,1,0.0,impersonator,1,2,1,2,2,7729862355,--,arya_tejale_07,🅰®ÿ@,https://scontent-cdg2-1.cdninstagram.com/vp/93d64bceaf0afd9118aa01eecb2d42d9/5D555AE7/t51.2885-19/s320x320/56539373_346090502688195_2957331054857289728_n.jpg?_nc_ht=scontent-cdg2-1.cdninstagram.com,"Pro Tennis player🇮🇳🎾
National level tennis player
Biggest fan of ROGER FEDERER 
Wish me on 6th October 🎂
Lover of panjabi songs",False,[],2018-10-29 01:06:11,17963963692149356,BpfDe9uAGDP,rogerfederer,CONGRATULATIONS ROGER FEDERER THE KING,1,1,[],[],[],2018-10-28 17:30:18,27353.0,27353.0
3405,3405,0.0,0.0,0.33517574332792605,0,2.483590330467837e-05,0.1125466169419286,6.658232904987016e-05,190,845,3,0,0,1,1,0.0,impersonator,1,2,1,2,2,7782060995,--,_janheidel_,jan heidel,https://scontent-cdg2-1.cdninstagram.com/vp/900fb1007e323ed4fd358e490c1c8f1b/5D7307FC/t51.2885-19/s320x320/44917779_656703784731391_4789040748680970240_n.jpg?_nc_ht=scontent-cdg2-1.cdninstagram.com,"🎾Tennis
📍Bln",False,[],2019-03-31 14:27:02,17874902722332255,BpfUQFoAueV,rogerfederer,@serve_caspar Nein war in der Schweiz,2,1,[],[],[],2018-10-28 19:56:49,6675530.5,13285813.0
3405,3405,0.0,0.0,0.33517574332792605,0,2.483590330467837e-05,0.1125466169419286,6.658232904987016e-05,190,845,3,0,0,1,1,0.0,impersonator,1,2,1,2,2,7782060995,--,_janheidel_,jan heidel,https://scontent-cdg2-1.cdninstagram.com/vp/900fb1007e323ed4fd358e490c1c8f1b/5D7307FC/t51.2885-19/s320x320/44917779_656703784731391_4789040748680970240_n.jpg?_nc_ht=scontent-cdg2-1.cdninstagram.com,"🎾Tennis
📍Bln",False,[],2018-10-29 14:04:17,17976268612120124,BpfUQFoAueV,rogerfederer,I see me @hansjunder,2,1,[],[],[],2018-10-28 19:56:49,6675530.5,65248.0
3407,3407,0.33517574332792605,0.0,0.0,0,3.3985972943244078e-06,0.02344166222695791,6.658232904987016e-05,26,176,3,0,0,1,1,0.0,impersonator,0,2,1,2,2,7796067374,--,bett_tennis,Zhang Songyu betty,https://scontent-cdg2-1.cdninstagram.com/vp/ccaa43241474f965245e3691d272c46b/5D6C2538/t51.2885-19/s320x320/37190240_2104850183112679_5692119238265798656_n.jpg?_nc_ht=scontent-cdg2-1.cdninstagram.com,,False,[],2018-12-28 00:12:47,17940559585238071,Br5c93bgKdq,rogerfederer,Best ambassador for WA 😃,3,1,[],[],[],2018-12-27 16:36:01,27780.0,27406.0
3407,3407,0.33517574332792605,0.0,0.0,0,3.3985972943244078e-06,0.02344166222695791,6.658232904987016e-05,26,176,3,0,0,1,1,0.0,impersonator,0,2,1,2,2,7796067374,--,bett_tennis,Zhang Songyu betty,https://scontent-cdg2-1.cdninstagram.com/vp/ccaa43241474f965245e3691d272c46b/5D6C2538/t51.2885-19/s320x320/37190240_2104850183112679_5692119238265798656_n.jpg?_nc_ht=scontent-cdg2-1.cdninstagram.com,,False,[],2018-10-29 02:26:35,17963916145146124,BpfUQFoAueV,rogerfederer,😭😭 so touched,3,1,[],[],[],2018-10-28 19:56:49,27780.0,23386.0
3407,3407,0.33517574332792605,0.0,0.0,0,3.3985972943244078e-06,0.02344166222695791,6.658232904987016e-05,26,176,3,0,0,1,1,0.0,impersonator,0,2,1,2,2,7796067374,--,bett_tennis,Zhang Songyu betty,https://scontent-cdg2-1.cdninstagram.com/vp/ccaa43241474f965245e3691d272c46b/5D6C2538/t51.2885-19/s320x320/37190240_2104850183112679_5692119238265798656_n.jpg?_nc_ht=scontent-cdg2-1.cdninstagram.com,,False,[],2018-10-29 02:32:46,17967319447137652,BpfDe9uAGDP,rogerfederer,"Amazing work, Roger!👊Can't be happier to see you win this title again in your hometown. I know how important it is for you.❤️",3,1,[],[],[],2018-10-28 17:30:18,27780.0,32548.0
3487,3487,0.0,0.0,0.3563004293331382,0,1.3332958616195752e-05,0.05101225359616409,0.00039949397429922095,102,383,18,1,0,1,1,0.0,impersonator,1,2,1,2,2,8233696445,--,not_ja8,,https://scontent-cdg2-1.cdninstagram.com/vp/3b44527cf20d7fad88cd9738fac3de28/5D3A73B3/t51.2885-19/s320x320/47344733_370359086859322_4797418348679790592_n.jpg?_nc_ht=scontent-cdg2-1.cdninstagram.com,#federer #rogerfederer #king,False,[],2018-11-15 13:22:44,17991492523072509,BqI1njOAMvO,rogerfederer,King,1,1,[],[],[],2018-11-13 22:57:15,138329.0,138329.0
3614,3614,0.0,0.0,0.3563004293331382,0,9.659859232714374e-05,0.057005860415556726,0.00019974698714961048,739,428,9,0,0,1,1,0.0,impersonator,1,2,1,2,2,8644611759,--,__shahrad_,__•ՇհՌվԴ•__,https://scontent-cdg2-1.cdninstagram.com/vp/c3e685744f7825015ede2410b4d08f60/5D52F11C/t51.2885-19/s320x320/57488188_2329756383976317_6161056837228560384_n.jpg?_nc_ht=scontent-cdg2-1.cdninstagram.com,"•tennis player 🎾
•tbz
•",False,[],2018-12-27 16:49:05,18016661182047832,Br5c93bgKdq,rogerfederer,❤️,5,1,[],[],[],2018-12-27 16:36:01,787.6,784.0
3614,3614,0.0,0.0,0.3563004293331382,0,9.659859232714374e-05,0.057005860415556726,0.00019974698714961048,739,428,9,0,0,1,1,0.0,impersonator,1,2,1,2,2,8644611759,--,__shahrad_,__•ՇհՌվԴ•__,https://scontent-cdg2-1.cdninstagram.com/vp/c3e685744f7825015ede2410b4d08f60/5D52F11C/t51.2885-19/s320x320/57488188_2329756383976317_6161056837228560384_n.jpg?_nc_ht=scontent-cdg2-1.cdninstagram.com,"•tennis player 🎾
•tbz
•",False,[],2018-12-27 16:49:07,17995836232127806,Br5c93bgKdq,rogerfederer,😍,5,1,[],[],[],2018-12-27 16:36:01,787.6,786.0
3614,3614,0.0,0.0,0.3563004293331382,0,9.659859232714374e-05,0.057005860415556726,0.00019974698714961048,739,428,9,0,0,1,1,0.0,impersonator,1,2,1,2,2,8644611759,--,__shahrad_,__•ՇհՌվԴ•__,https://scontent-cdg2-1.cdninstagram.com/vp/c3e685744f7825015ede2410b4d08f60/5D52F11C/t51.2885-19/s320x320/57488188_2329756383976317_6161056837228560384_n.jpg?_nc_ht=scontent-cdg2-1.cdninstagram.com,"•tennis player 🎾
•tbz
•",False,[],2018-12-27 16:49:08,17997496702127002,Br5c93bgKdq,rogerfederer,🔥,5,1,[],[],[],2018-12-27 16:36:01,787.6,787.0
3614,3614,0.0,0.0,0.3563004293331382,0,9.659859232714374e-05,0.057005860415556726,0.00019974698714961048,739,428,9,0,0,1,1,0.0,impersonator,1,2,1,2,2,8644611759,--,__shahrad_,__•ՇհՌվԴ•__,https://scontent-cdg2-1.cdninstagram.com/vp/c3e685744f7825015ede2410b4d08f60/5D52F11C/t51.2885-19/s320x320/57488188_2329756383976317_6161056837228560384_n.jpg?_nc_ht=scontent-cdg2-1.cdninstagram.com,"•tennis player 🎾
•tbz
•",False,[],2018-12-27 16:49:09,18000721408096879,Br5c93bgKdq,rogerfederer,🎾,5,1,[],[],[],2018-12-27 16:36:01,787.6,788.0
3614,3614,0.0,0.0,0.3563004293331382,0,9.659859232714374e-05,0.057005860415556726,0.00019974698714961048,739,428,9,0,0,1,1,0.0,impersonator,1,2,1,2,2,8644611759,--,__shahrad_,__•ՇհՌվԴ•__,https://scontent-cdg2-1.cdninstagram.com/vp/c3e685744f7825015ede2410b4d08f60/5D52F11C/t51.2885-19/s320x320/57488188_2329756383976317_6161056837228560384_n.jpg?_nc_ht=scontent-cdg2-1.cdninstagram.com,"•tennis player 🎾
•tbz
•",False,[],2018-12-27 16:49:14,17924535274249348,Br5c93bgKdq,rogerfederer,❤️,5,1,[],[],[],2018-12-27 16:36:01,787.6,793.0
3625,3625,0.0,0.0,0.317107466580271,0,2.1829451852006773e-05,0.05167820990942994,4.43882193665801e-05,167,388,2,0,0,1,1,0.0,impersonator,1,2,1,2,2,8675949189,--,yigitunal2008,Yiğit Ünal,https://scontent-cdg2-1.cdninstagram.com/vp/9d7342548787adbd4cdea24cabe7d31c/5D6B8B8F/t51.2885-19/s320x320/42400736_350765655674787_2279436914622726144_n.jpg?_nc_ht=scontent-cdg2-1.cdninstagram.com,"🎾tennis player                                                      
🎾I like tennis.          
🎾11 years old
🎾Türkiye 🇹🇷
My brother :@federeryagiz",False,[],2018-10-28 19:12:41,17992731544020707,BpfDe9uAGDP,rogerfederer,Champion rf❤️,1,1,[],[],[],2018-10-28 17:30:18,6143.0,6143.0
3674,3674,0.33517574332792605,0.0,0.1458365918972267,0,4.444319538731918e-06,0.004128929142248269,0.0011318995938477928,34,31,51,1,0,1,2,0.3333333333333333,impersonator,0,0,1,2,3,8921684640,--,ghn_tennis,Grant Hans,https://scontent-cdg2-1.cdninstagram.com/vp/412b934f800f9dd17930d4ce0c78a1bd/5D729E6D/t51.2885-19/s320x320/44482032_691370544590408_5197400011482071040_n.jpg?_nc_ht=scontent-cdg2-1.cdninstagram.com,Grant is a 5 year old little tennis player from Texas. He just ❤️’s playing tennis! We hope you'll have fun and enjoy watching Grant’s tennis progress,False,[],2018-11-20 20:53:26,18001804273031740,BpfUQFoAueV,rogerfederer,🍕,1,1,[],[],[],2018-10-28 19:56:49,1990597.0,1990597.0
3688,3688,0.33517574332792605,0.0,0.3563004293331382,0,1.0980083566278856e-05,0.011587639850825785,6.658232904987016e-05,84,87,3,1,0,1,2,0.3333333333333333,impersonator,0,0,1,2,3,9005540914,--,paroger13,Parv Patel,https://scontent-cdg2-1.cdninstagram.com/vp/3b89ec20e54b01452108789ac7f2769e/5D5A7194/t51.2885-19/s320x320/49858028_327976214483019_912168968255438848_n.jpg?_nc_ht=scontent-cdg2-1.cdninstagram.com,Tennis. Roger. 13 September,False,[],2018-11-14 14:51:38,17882006281284720,BqI1njOAMvO,rogerfederer,😍,1,1,[],[],[],2018-11-13 22:57:15,57263.0,57263.0
3725,3725,0.33517574332792605,0.0,0.1943143401685815,0,7.5814862719544495e-06,0.018114011720831116,0.00013316465809974033,58,136,6,1,0,1,2,0.3333333333333333,impersonator,0,0,1,2,3,9149466050,--,tennisyz,Doudou,https://scontent-cdg2-1.cdninstagram.com/vp/aaa0f9177482187a48ff2c7f1ef9d462/5D41566E/t51.2885-19/s320x320/54512351_442502119833124_7893947300735614976_n.jpg?_nc_ht=scontent-cdg2-1.cdninstagram.com,J aime le tennis,False,[],2018-12-17 11:14:55,17974200928172909,BqI1njOAMvO,rogerfederer,@ed1110_b1,2,1,[],[],[],2018-11-13 22:57:15,2895453.0,2895460.0
3725,3725,0.33517574332792605,0.0,0.1943143401685815,0,7.5814862719544495e-06,0.018114011720831116,0.00013316465809974033,58,136,6,1,0,1,2,0.3333333333333333,impersonator,0,0,1,2,3,9149466050,--,tennisyz,Doudou,https://scontent-cdg2-1.cdninstagram.com/vp/aaa0f9177482187a48ff2c7f1ef9d462/5D41566E/t51.2885-19/s320x320/54512351_442502119833124_7893947300735614976_n.jpg?_nc_ht=scontent-cdg2-1.cdninstagram.com,J aime le tennis,False,[],2018-12-17 11:14:41,17996537455100984,BqI1njOAMvO,rogerfederer,You are my idole tu es mon idole,2,1,[],[],[],2018-11-13 22:57:15,2895453.0,2895446.0
3745,3745,0.0,0.0,0.33517574332792605,0,7.189340430301633e-06,0.016116142781033564,4.43882193665801e-05,55,121,2,0,0,1,1,0.0,impersonator,1,2,1,2,2,9197167955,--,ma.rek747,marek,https://scontent-cdg2-1.cdninstagram.com/vp/0a722f75b0cf448249881e3813a32e31/5D7627C1/t51.2885-19/s320x320/56169863_629219727505291_1363314459036090368_n.jpg?_nc_ht=scontent-cdg2-1.cdninstagram.com,Tennis❤,False,[],2018-12-27 20:22:05,17988157966188395,Br5c93bgKdq,rogerfederer,Hey wo sin di schwyzr,1,1,[],[],[],2018-12-27 16:36:01,13564.0,13564.0
3803,3803,0.0,0.0,0.5023287782256719,0,1.4770826702256079e-05,0.013319126265316995,2.219410968329005e-05,113,100,1,1,0,1,1,0.0,impersonator,1,2,1,2,2,9394458110,--,katrinovvv,Katrin,https://scontent-cdg2-1.cdninstagram.com/vp/79a72752a5811be7265e5f3a5b712ef0/5D74F140/t51.2885-19/s320x320/56881496_382775325783377_9048047610656456704_n.jpg?_nc_ht=scontent-cdg2-1.cdninstagram.com,"Tennisplayer🎾
16yo
♊️",False,[],2018-12-27 16:42:03,17981098423164109,Br5c93bgKdq,rogerfederer,😍😍,1,1,[],[],[],2018-12-27 16:36:01,362.0,362.0
3824,3824,0.0,0.0,0.5023287782256719,0,1.3332958616195752e-05,0.028769312733084713,0.00026632931619948065,102,216,12,0,0,1,1,0.0,impersonator,1,2,1,2,2,9662193998,--,adam_svardfeldt,adam2008,https://scontent-cdg2-1.cdninstagram.com/vp/885f7249a3328868b1fcf0b62d167f21/5D3E3483/t51.2885-19/s320x320/56910308_276387573309560_8785325144059936768_n.jpg?_nc_ht=scontent-cdg2-1.cdninstagram.com,Tennisplayer from 🇸🇪,False,[],2018-12-27 19:34:21,17996316211125834,Br5c93bgKdq,rogerfederer,Oooo this looks sooo creepy,1,1,[],[],[],2018-12-27 16:36:01,10700.0,10700.0
